{
  "@context": "http://schema.org/",
  "@type": "Store",
  "name": [
    {
      "@language": "en",
      "@value": "Friseursalon Daniela Azzolini"
    },
    {
      "@language": "de",
      "@value": "Friseursalon Daniela Azzolini"
    }
  ],
  "geo": {
    "@type": "GeoCoordinates",
    "latitude": "47.3772733686216",
    "longitude": "11.8399786949158"
  },
  "address": {
    "@type": "PostalAddress",
    "name": "Münch Frisiersalon",
    "streetAddress": "Nr. 62",
    "addressCountry": "AT",
    "postalCode": "6262",
    "addressRegion": "Schlitters",
    "telephone": "(0043) 5288 72373"
  },
  "description": [
    {
      "@language": "de",
      "@value": "Hnr. 62, 6262 Schlitters\nTel.: +43 (5288) 72373\nDi-Fr 08:30-12:00, 14:00-18:00 Uhr, Sa 08:30.16:00 Uhr"
    },
    {
      "@language": "en",
      "@value": "Hnr. 62, 6262 Schlitters\nPhone: +43 (5288) 72373"
    }
  ],
  "image": [
    {
      "@type": "ImageObject",
      "url": "http://resc.deskline.net/images/ZIL/1/7554dd84-b403-41ab-a402-adde8813be71/99/image.jpg",
      "caption": [
        {
          "@language": "en",
          "@value": "Logo EFZ"
        },
        {
          "@language": "de",
          "@value": "Logo EFZ"
        }
      ]
    }
  ]
}