{
  "@context": "http://schema.org/",
  "@type": "SportsActivityLocation",
  "name": [
    {
      "@language": "en",
      "@value": "Sport Rainer"
    },
    {
      "@language": "de",
      "@value": "Sport Rainer"
    }
  ],
  "geo": {
    "@type": "GeoCoordinates",
    "latitude": "47.3273340241097",
    "longitude": "11.8644618988037"
  },
  "address": {
    "@type": "PostalAddress",
    "name": "Sport Rainer",
    "streetAddress": "Dorfstr. 17",
    "addressCountry": "AT",
    "postalCode": "6271",
    "addressRegion": "Uderns",
    "telephone": "(0043) 5288 62452",
    "faxNumber": "(0043) 5288 624524",
    "email": "info@sportrainer.com",
    "url": "http://www.sportrainer.com"
  },
  "description": [
    {
      "@language": "de",
      "@value": "Sportgeschäft mit Skiverleih und Skiservice"
    },
    {
      "@language": "de",
      "@value": "Winter:\nMo - Fr: 8:00 - 18:30\nSa: 8:00 - 18:00\nSonn- und Feiertage:\n8:00 - 12:00 und 15:00 - 18:00"
    },
    {
      "@language": "en",
      "@value": "Mon - Fri: 8:00 - 18:30\nSat: 8:00 - 18:00\nSundax + holiday:\n8:00 - 12:00 and 15:00 - 18:00"
    }
  ],
  "image": [
    {
      "@type": "ImageObject",
      "url": "http://resc.deskline.net/images/ZIL/1/b0bc44f3-b55a-46c0-9182-f6a292b369f5/99/image.jpg",
      "caption": [
        {
          "@language": "en",
          "@value": "Sport Rainer"
        },
        {
          "@language": "de",
          "@value": "Sport Rainer"
        }
      ]
    }
  ]
}