{
  "@context": "http://schema.org/",
  "@type": "Store",
  "name": [
    {
      "@language": "en",
      "@value": "Spar"
    },
    {
      "@language": "de",
      "@value": "Spar Supermarkt"
    }
  ],
  "geo": {
    "@type": "GeoCoordinates",
    "latitude": "47.342683199613653",
    "longitude": "11.850460767745972"
  },
  "address": {
    "@type": "PostalAddress",
    "name": "Supermarkt Spar",
    "streetAddress": "Lindenweg 29",
    "addressCountry": "AT",
    "postalCode": "6263",
    "addressRegion": "Fügen",
    "telephone": "(0043) 5288 62965",
    "url": "https://www.spar.at/content/website_spar_at/de_AT/index/standorte/62/fuegen_ii_2"
  },
  "description": [
    {
      "@language": "de",
      "@value": "Supermarkt gegenüber der Hauptschule Fügen"
    },
    {
      "@language": "de",
      "@value": "Mo bis Fr: 07:15 - 19:30\nSa: 07:15 - 18:00"
    },
    {
      "@language": "en",
      "@value": "Lindenweg 29, A-6263 Fügen\nPhone: +43 (5288) 62965\n"
    },
    {
      "@language": "en",
      "@value": "Mon till Fri: 07:15 - 19:30\nSat: 07:15 - 18:00"
    }
  ],
  "image": [
    {
      "@type": "ImageObject",
      "url": "http://resc.deskline.net/images/ZIL/1/db46bcc6-7cb6-4d1d-8b9e-417b948aacb8/99/image.jpg",
      "caption": [
        {
          "@language": "en",
          "@value": "Supermarkt Spar Fügen"
        },
        {
          "@language": "de",
          "@value": "Supermarkt Spar Fügen"
        }
      ]
    }
  ]
}