{
  "@context": "http://schema.org/",
  "@type": "SportsActivityLocation",
  "name": [
    {
      "@language": "en",
      "@value": "IN MOTION fitness \u0026 gesundheitsstudio"
    },
    {
      "@language": "de",
      "@value": "IN MOTION fitness \u0026 gesundheitsstudio"
    }
  ],
  "geo": {
    "@type": "GeoCoordinates",
    "latitude": "47.3401246055117",
    "longitude": "11.8502073711639"
  },
  "address": {
    "@type": "PostalAddress",
    "name": "IN MOTION fitness \u0026 gesundheitsstudio",
    "streetAddress": "Pankrazbergstr. 18",
    "addressCountry": "AT",
    "postalCode": "6263",
    "addressRegion": "Fügen",
    "telephone": "(0043) 5288 64661",
    "email": "info@inmotion-zillertal.at",
    "url": "http://www.inmotion-zillertal.at/"
  },
  "description": [
    {
      "@language": "de",
      "@value": "Fitnessstudio mit moderner Ausstattung, Trainingsraum"
    },
    {
      "@language": "de",
      "@value": "laut Anschlag"
    },
    {
      "@language": "en",
      "@value": "fitness gym"
    }
  ],
  "image": [
    {
      "@type": "ImageObject",
      "url": "http://resc.deskline.net/images/ZIL/1/995fd816-5d42-45d2-8d70-65d91ffea5e1/99/image.jpg",
      "caption": [
        {
          "@language": "en",
          "@value": "Fitnessstudio In Motion"
        },
        {
          "@language": "de",
          "@value": "Fitnessstudio In Motion"
        }
      ]
    }
  ],
  "url": [
    "http://"
  ]
}