{
  "@context": "http://schema.org",
  "@type": "EntertainmentBusiness",
  "name": [
    {
      "@language": "en",
      "@value": "Zillertaler Speckstube"
    },
    {
      "@language": "de",
      "@value": "Zillertaler Speckstube"
    }
  ],
  "geo": {
    "@type": "GeoCoordinates",
    "latitude": "47.3498981696513",
    "longitude": "11.8476980924606"
  },
  "address": {
    "@type": "PostalAddress",
    "name": "Zillertaler Speckstube",
    "streetAddress": "Rosenweg 38",
    "addressCountry": "AT",
    "postalCode": "6263",
    "addressRegion": "Fügen",
    "telephone": "(0043) 5288 62230",
    "faxNumber": "(0043) 5288 62230",
    "email": "info@zillertaler-speckstube.at",
    "url": "http://www.zillertaler-speckstube.at"
  },
  "description": [
    {
      "@language": "de",
      "@value": "Jeden Freitag von 15.00 - 18.00 Uhr kostenlose Besichtigung der Selcherei mit einer Gratiskostprobe des Orig. Zillertaler Bauernspecks, Gruppen ab 10 Personen jederzeit auf Anfrage\n\nÖffnungszeiten: Mo-Fr 08:00-12:00 Uhr und 15:00-18:00, Sa 08:00-12:00 Uhr\nRosenweg 23 ,  A-6263 Fügen\nTel.: +43 (5288) 62230\nwww.zillertaler-speckstube.at, info@zillertaler-speckstube.at"
    },
    {
      "@language": "en",
      "@value": "Every Friday there is a free view with a taste from the original Zillertaler farmhouse bacon from 03:00pm to 06:00pm. Groups are every day possible on request!\n\nBusiness hours: Mo-Fr 08:00 am-12:00 pm and 03:00 pm-06:00 pm, Sa 08:00 am -12:00 pm\nRosenweg 23 ,  A-6263 Fügen\nPhone: +43 (5288) 62230\nwww.zillertaler-speckstube.at, info@zillertaler-speckstube.at"
    }
  ],
  "image": [
    {
      "@type": "ImageObject",
      "url": "http://resc.deskline.net/images/ZIL/1/f0cf1d7e-3cc2-457c-bbfc-e751b85d0ac8/99/image.jpg",
      "caption": [
        {
          "@language": "en",
          "@value": "Logo Speckstube"
        },
        {
          "@language": "de",
          "@value": "Logo Speckstube"
        }
      ]
    }
  ]
}