{
  "@context": "http://schema.org",
  "@type": "Store",
  "name": [
    {
      "@language": "en",
      "@value": "Foto Express"
    },
    {
      "@language": "de",
      "@value": "Foto Express"
    }
  ],
  "geo": {
    "@type": "GeoCoordinates",
    "latitude": "47.2923308989979",
    "longitude": "11.8851149082184"
  },
  "address": {
    "@type": "PostalAddress",
    "name": "Foto Express",
    "streetAddress": "Golfweg 4",
    "addressCountry": "AT",
    "postalCode": "6275",
    "addressRegion": "Stumm",
    "telephone": "(0043) 05283 5299",
    "email": "admin@manfredhaun.com",
    "url": "http://www.manfredhaun.com"
  },
  "description": [
    {
      "@language": "de",
      "@value": "Golfweg 4\nTel. 05283 5299"
    },
    {
      "@language": "en",
      "@value": "Golfweg 4\nPhone: 05283 5299"
    }
  ],
  "image": [
    {
      "@type": "ImageObject",
      "url": "http://resc.deskline.net/images/ZIL/1/26d9e7b2-69ff-40ba-854a-3c291d1aa8ab/99/image.jpg",
      "caption": [
        {
          "@language": "en",
          "@value": "Logo Manfred Haun"
        },
        {
          "@language": "de",
          "@value": "Logo Manfred Haun"
        }
      ]
    }
  ]
}