{
  "@context": "http://schema.org",
  "@type": "Store",
  "name": [
    {
      "@language": "en",
      "@value": "Holzschnitzerei BURGSTALLER"
    },
    {
      "@language": "de",
      "@value": "Holzschnitzerei Burgstaller"
    }
  ],
  "geo": {
    "@type": "GeoCoordinates",
    "latitude": "47.2719315807421",
    "longitude": "11.9001889228821"
  },
  "address": {
    "@type": "PostalAddress",
    "name": "Holzschnitzerei Burgstaller",
    "streetAddress": "Gewerbestraße 3",
    "addressCountry": "AT",
    "postalCode": "6274",
    "addressRegion": "Aschau im Zillertal",
    "telephone": "(0043) 650 3307060"
  },
  "description": [
    {
      "@language": "de",
      "@value": "Holzschnitzereien und Mineralienschau\n\nim Gewerbepark, A-6274 Aschau im Zillertal\nTel.: +43 (5282) 47 99\n\n"
    },
    {
      "@language": "en",
      "@value": "im Gewerbepark, A-6274 Aschau im Zillertal\nPhone: +43 (5282) 47 99\n\n"
    }
  ],
  "image": [
    {
      "@type": "ImageObject",
      "url": "http://resc.deskline.net/images/ZIL/1/0bd139c0-9aec-4814-b1ff-84637bb71a3d/99/image.jpg",
      "caption": [
        {
          "@language": "en",
          "@value": "Logo EFZ"
        },
        {
          "@language": "de",
          "@value": "Logo EFZ"
        }
      ]
    }
  ]
}