{
  "@context": "http://schema.org",
  "@type": "Store",
  "name": [
    {
      "@language": "en",
      "@value": "Pfarramt"
    },
    {
      "@language": "de",
      "@value": "Pfarramt"
    }
  ],
  "geo": {
    "@type": "GeoCoordinates",
    "latitude": "47.349930880116027",
    "longitude": "11.873672604560852"
  },
  "address": {
    "@type": "PostalAddress",
    "name": "Pfarramt",
    "streetAddress": "Hnr. 24",
    "addressCountry": "AT",
    "postalCode": "6265",
    "addressRegion": "Hart im Zillertal",
    "telephone": "(0043) 5283 2225"
  },
  "image": [
    {
      "@type": "ImageObject",
      "url": "http://resc.deskline.net/images/ZIL/1/937aa8d1-c018-40de-95b7-16957f9c8024/99/image.jpg",
      "caption": [
        {
          "@language": "en",
          "@value": "Logo EFZ"
        },
        {
          "@language": "de",
          "@value": "Logo EFZ"
        }
      ]
    }
  ]
}