{
  "@context": "http://schema.org",
  "@type": "SportsActivityLocation",
  "name": [
    {
      "@language": "en",
      "@value": "Hotel Magdalena"
    },
    {
      "@language": "de",
      "@value": "Gartenhotel Magdalena"
    }
  ],
  "geo": {
    "@type": "GeoCoordinates",
    "latitude": "47.3026576582039",
    "longitude": "11.8649500608444"
  },
  "address": {
    "@type": "PostalAddress",
    "name": "Hotel Magdalena im Zillertal KG",
    "streetAddress": "Großriedstraße 23",
    "addressCountry": "AT",
    "postalCode": "6273",
    "addressRegion": "Ried im Zillertal",
    "telephone": "(0043) 5283 2243",
    "faxNumber": "(0043) 5283 2043",
    "email": "magdalena@magdalena.at",
    "url": "http://www.magdalena.at"
  },
  "description": [
    {
      "@language": "de",
      "@value": "E-Bike Verleih und Fahrrad-Verleih\n\nFinnischer Sauna, Biosauna, Infrarot Kabine, Blocksauna im Freien mit Abkühlung im Naturschnee Kristallbad, sowie Sole- und Dampfbad\nHallenbad und Freibad"
    },
    {
      "@language": "de",
      "@value": "auf Anfrage"
    },
    {
      "@language": "en",
      "@value": "E-Bike Rental and Bike Rental\n\nFinnish sauna, biosauna, log sauna with cooling in the natural-snow crystal pool\noutdoor and indoor swimming pool"
    },
    {
      "@language": "en",
      "@value": "on request"
    }
  ],
  "image": [
    {
      "@type": "ImageObject",
      "url": "http://resc.deskline.net/images/ZIL/1/b61a5f9a-585c-430d-8f44-14164176852b/99/image.jpg",
      "caption": [
        {
          "@language": "en",
          "@value": "Logo Hotel Magdalena"
        },
        {
          "@language": "de",
          "@value": "Logo Hotel Magdalena"
        }
      ]
    }
  ]
}