{
  "@context": "http://schema.org",
  "@type": "Store",
  "name": [
    {
      "@language": "en",
      "@value": "Spar Supermarkt"
    },
    {
      "@language": "de",
      "@value": "Spar Supermarkt"
    }
  ],
  "geo": {
    "@type": "GeoCoordinates",
    "latitude": "47.3184758618156",
    "longitude": "11.8649232387543"
  },
  "address": {
    "@type": "PostalAddress",
    "name": "Spar",
    "streetAddress": "Dorfstraße 81",
    "addressCountry": "AT",
    "postalCode": "6271",
    "addressRegion": "Uderns",
    "telephone": "(0043) 5288 66001",
    "url": "http://www.spar.at"
  },
  "description": [
    {
      "@language": "de",
      "@value": "Dorfstr. 81, 6271 Uderns, Tel. 05288/66001"
    },
    {
      "@language": "de",
      "@value": "MO-FR: 07:15 - 19:00\nSA: 07:15 - 17:00\n\t\nWeihnachten bis Ostern:\nSA: 07:15 - 18:00\nSO: 14:00 - 18:00"
    },
    {
      "@language": "en",
      "@value": "Dorfstr. 81, 6271 Uderns, Phone: 05288/66001"
    },
    {
      "@language": "en",
      "@value": "MON-FRI: 07:15 - 19:00\nSAT: 07:15 - 17:00\n \t\nChristmas till Easter:\nSAT: 07:15 - 18:00\nSUN: 14:00 - 18:00"
    }
  ],
  "image": [
    {
      "@type": "ImageObject",
      "url": "http://resc.deskline.net/images/ZIL/1/d56a1c12-7282-4446-b2b0-52b687e567ed/99/image.jpg",
      "caption": [
        {
          "@language": "en",
          "@value": "Spar Uderns"
        },
        {
          "@language": "de",
          "@value": "Spar Uderns"
        }
      ]
    }
  ]
}