{
  "@context": "http://schema.org",
  "@type": "Store",
  "name": [
    {
      "@language": "en",
      "@value": "Tabak, Zeitung \u0026 Co Angerer"
    },
    {
      "@language": "de",
      "@value": "Tabak, Zeitung \u0026 Co Angerer"
    }
  ],
  "geo": {
    "@type": "GeoCoordinates",
    "latitude": "47.2927380403134",
    "longitude": "11.8852288974838"
  },
  "address": {
    "@type": "PostalAddress",
    "name": "Tabak, Zeitung \u0026 Co Angerer",
    "streetAddress": "Dorfstr. 26",
    "addressCountry": "AT",
    "postalCode": "6275",
    "addressRegion": "Stumm",
    "telephone": "(0043) 5283 2268"
  },
  "description": [
    {
      "@language": "de",
      "@value": "Tabakwaren"
    }
  ],
  "image": [
    {
      "@type": "ImageObject",
      "url": "http://resc.deskline.net/images/ZIL/1/2fd0b557-5675-4b37-ac70-55c52ffb1615/99/image.png",
      "caption": [
        {
          "@language": "en",
          "@value": "angerer"
        },
        {
          "@language": "de",
          "@value": "angerer"
        }
      ]
    }
  ],
  "url": [
    "http://"
  ]
}