{
  "@context": "http://schema.org",
  "@type": "TouristAttraction",
  "name": [
    {
      "@language": "en",
      "@value": "Memorial at \"Krapferhäusl\""
    },
    {
      "@language": "de",
      "@value": "Denkmal beim \"Krapferhäusl\""
    }
  ],
  "geo": {
    "@type": "GeoCoordinates",
    "latitude": "47.244705686714",
    "longitude": "11.895135641098"
  },
  "address": {
    "@type": "PostalAddress",
    "name": "Erste Ferienregion im Zillertal - Büro Kaltenbach",
    "streetAddress": "Kaltenbacher Landstraße 34",
    "addressCountry": "AT",
    "postalCode": "6273",
    "addressRegion": "Kaltenbach",
    "telephone": "(0043) 5283 2218",
    "faxNumber": "(0043) 5283 2885",
    "email": "info@best-of-zillertal.at",
    "url": "http://www.best-of-zillertal.at"
  },
  "description": [
    {
      "@language": "de",
      "@value": "Denkmal zur Erinnerung an das Gefecht am Klausnereck während des Tiroler Freiheitskampfes 1809 und die dabei gefallenen Tiroler und Bauern.\n\nKrapfergasse 2, A-6274 Aschau im Zillertal\nTel.: +43 (5282) 22 68"
    },
    {
      "@language": "en",
      "@value": "Krapfergasse 2, A-6274 Aschau im Zillertal\nPhone: +43 (5282) 22 68"
    }
  ],
  "image": [
    {
      "@type": "ImageObject",
      "url": "http://resc.deskline.net/images/ZIL/1/c7b932f8-e454-4519-aec6-4469881d1aac/99/image.jpg",
      "caption": [
        {
          "@language": "en",
          "@value": "Logo EFZ"
        },
        {
          "@language": "de",
          "@value": "Logo EFZ"
        }
      ]
    }
  ]
}