{
  "@context": "http://schema.org",
  "@type": "FoodEstablishment",
  "name": [
    {
      "@language": "en",
      "@value": "Standl Pub"
    },
    {
      "@language": "de",
      "@value": "Standl Pub"
    }
  ],
  "geo": {
    "@type": "GeoCoordinates",
    "latitude": "47.3248978139239",
    "longitude": "11.864156126976"
  },
  "address": {
    "@type": "PostalAddress",
    "name": "Hotel Standlhof GmbH",
    "streetAddress": "Dorfstraße 48",
    "addressCountry": "AT",
    "postalCode": "6271",
    "addressRegion": "Uderns",
    "telephone": "(0043) 5288 62968",
    "faxNumber": "(0043) 5288 62968 6",
    "email": "hotel@standlhof.at",
    "url": "http://www.standlhof.at"
  },
  "description": [
    {
      "@language": "de",
      "@value": "Im Hotel Standlhof, Tel. 05288/62968\ntägl. von 14:00-01:00 Uhr, Dienstag Ruhetag"
    },
    {
      "@language": "en",
      "@value": "At Hotel Standlhof, Phone: 05288/62968\nopen from Wednesday until Monday, 02:00 p.m. until 01:00 a.m., Tuesday closed"
    }
  ],
  "image": [
    {
      "@type": "ImageObject",
      "url": "http://resc.deskline.net/images/ZIL/1/15667530-fa6e-4c84-aa5d-9decb0e34c84/99/image.jpg",
      "caption": [
        {
          "@language": "en",
          "@value": "Standlpub_innen"
        },
        {
          "@language": "de",
          "@value": "Standlpub_innen"
        }
      ]
    }
  ]
}