{
  "@context": "http://schema.org",
  "@type": "FoodEstablishment",
  "name": [
    {
      "@language": "en",
      "@value": "Woodpecker"
    },
    {
      "@language": "de",
      "@value": "Woodpecker (Table Dance)"
    }
  ],
  "geo": {
    "@type": "GeoCoordinates",
    "latitude": "47.2719662",
    "longitude": "11.9002466"
  },
  "address": {
    "@type": "PostalAddress",
    "name": "Woodpecker",
    "streetAddress": "Gewerbestraße 3",
    "addressCountry": "AT",
    "postalCode": "6274",
    "addressRegion": "Aschau im Zillertal",
    "telephone": "(0043)6642113658",
    "email": "woodpecker-aschau@aon.at"
  },
  "description": [
    {
      "@language": "de",
      "@value": "Andrä Seekircher, Tel.: 0664/2113658\nkleine Snacks"
    },
    {
      "@language": "en",
      "@value": "Andrä Seekircher, Phone: 0664/2113658,\nsnacks"
    }
  ],
  "image": [
    {
      "@type": "ImageObject",
      "url": "http://resc.deskline.net/images/ZIL/1/a6113e82-63f3-4b9d-8a2d-969346df76c8/99/image.jpg",
      "caption": [
        {
          "@language": "en",
          "@value": "Logo Woodpecker"
        },
        {
          "@language": "de",
          "@value": "Logo Woodpecker"
        }
      ]
    }
  ]
}