{
  "@context": "http://schema.org",
  "@type": "Store",
  "name": [
    {
      "@language": "en",
      "@value": "Raiffeisenbank"
    },
    {
      "@language": "de",
      "@value": "Raiffeisenbank Schlitters"
    }
  ],
  "geo": {
    "@type": "GeoCoordinates",
    "latitude": "47.3777020150543",
    "longitude": "11.8411481380463"
  },
  "address": {
    "@type": "PostalAddress",
    "name": "Raiffeisenbank Schlitters",
    "streetAddress": "Schlitters 52",
    "addressCountry": "AT",
    "postalCode": "6262",
    "addressRegion": "Schlitters",
    "telephone": "(0043) 5288 72424",
    "faxNumber": "(0043) 5288 72300",
    "email": "info@rbgt.raiffeisen.at "
  },
  "description": [
    {
      "@language": "de",
      "@value": "Hnr. 52, A-6262 Schlitters\nTel.: +43 (5288) 72424\nMo-Fr 08:00-12:00 und 14:00-17:00, Uhr Bankomat"
    },
    {
      "@language": "de",
      "@value": "Montag - Freitag           \t08:00 - 12:00 Uhr und 14:00 - 17:00 Uhr"
    },
    {
      "@language": "en",
      "@value": "Hnr. 52, A-6262 Schlitters\nPhone: +43 (5288) 72424"
    },
    {
      "@language": "en",
      "@value": "Monday till Friday\t08:00 - 12:00 and 14:00 - 17:00"
    }
  ],
  "image": [
    {
      "@type": "ImageObject",
      "url": "http://resc.deskline.net/images/ZIL/1/b4d70249-5555-4944-bcdd-8cc4aa89963c/99/image.jpg",
      "caption": [
        {
          "@language": "en",
          "@value": "Raiffeisenbank "
        },
        {
          "@language": "de",
          "@value": "Raiffeisenbank "
        }
      ]
    }
  ]
}