{
  "@context": "http://schema.org",
  "@type": "SportsActivityLocation",
  "name": [
    {
      "@language": "en",
      "@value": "Hotel Almhof"
    },
    {
      "@language": "de",
      "@value": "Hotel Almhof"
    }
  ],
  "geo": {
    "@type": "GeoCoordinates",
    "latitude": "47.27033365683",
    "longitude": "11.7764961719513"
  },
  "address": {
    "@type": "PostalAddress",
    "streetAddress": "Hochfügen 30",
    "addressCountry": "AT",
    "postalCode": "6264",
    "addressRegion": "Fügenberg",
    "telephone": "(0043) 5280 211",
    "faxNumber": "(0043) 5280 2218",
    "email": "almhof@hochfuegen.com",
    "url": "http://www.hotel-almhof.at"
  },
  "description": [
    {
      "@language": "de",
      "@value": "Rodelverleih in Hochfügen\n"
    },
    {
      "@language": "en",
      "@value": "sledge rental"
    }
  ],
  "image": [
    {
      "@type": "ImageObject",
      "url": "http://resc.deskline.net/images/ZIL/1/1058251f-f336-4dcc-8bd6-04f709a3c041/99/image.gif",
      "caption": [
        {
          "@language": "en",
          "@value": "Logo Hotel Almhof"
        },
        {
          "@language": "de",
          "@value": "Logo Hotel Almhof"
        }
      ]
    }
  ]
}