{
  "@context": "http://schema.org",
  "@type": "SportsActivityLocation",
  "name": [
    {
      "@language": "en",
      "@value": "Aktiv Studio \"Q10\""
    },
    {
      "@language": "de",
      "@value": "Aktiv Studio Q10"
    }
  ],
  "geo": {
    "@type": "GeoCoordinates",
    "latitude": "47.3473939416704",
    "longitude": "11.8531966209412"
  },
  "address": {
    "@type": "PostalAddress",
    "name": "Aktiv Studio Fitness Q10",
    "streetAddress": "Zillertalstraße 31",
    "addressCountry": "AT",
    "postalCode": "6263",
    "addressRegion": "Fügen",
    "telephone": "(0043) 5288 62128",
    "email": "info@q10-fit.at",
    "url": "http://www.q10-fit.at/"
  },
  "description": [
    {
      "@language": "de",
      "@value": "Mo, Mi, Fr 09:00-22:00, Di und DO 08:00-12:00, 16:30-22:00, Sa 16:00-20:00, So 09:00-12:00\nZillertalstraße 31\ndirekt an der Bundesstraße - neben L-Kauf Gebäude\nTel.: +43 (5288) 62128"
    },
    {
      "@language": "en",
      "@value": "Mo, Wed, Fr 09:00-22:00, Tue und Thu 08:00-12:00, 16:30-22:00, Sa 16:00-20:00, Su 09:00-12:00\nZillerstraße 31, directly at the main road - beside the L-Kauf building\nPhone: +43 (5288) 62128"
    }
  ],
  "image": [
    {
      "@type": "ImageObject",
      "url": "http://resc.deskline.net/images/ZIL/1/cd27acec-6b5d-475e-9878-47f92739f8e9/99/image.jpg",
      "caption": [
        {
          "@language": "en",
          "@value": "hanteln"
        },
        {
          "@language": "de",
          "@value": "hanteln"
        }
      ]
    }
  ]
}