{
  "@context": "http://schema.org",
  "@type": "TouristAttraction",
  "name": [
    {
      "@language": "en",
      "@value": "Church Hl. Martinus"
    },
    {
      "@language": "de",
      "@value": "Pfarrkirche Hl. Martinus"
    }
  ],
  "geo": {
    "@type": "GeoCoordinates",
    "latitude": "47.375591442602072",
    "longitude": "11.840370297431946"
  },
  "address": {
    "@type": "PostalAddress",
    "name": "Pfarramt Schlitters",
    "streetAddress": "Hnr. 108",
    "addressCountry": "AT",
    "postalCode": "6262",
    "addressRegion": "Schlitters",
    "telephone": "(0043) 5244 62105"
  },
  "image": [
    {
      "@type": "ImageObject",
      "url": "http://resc.deskline.net/images/ZIL/1/7e0d49f1-2ed7-443e-b5ca-17f6810cbb88/99/image.jpg",
      "caption": [
        {
          "@language": "en",
          "@value": "Logo EFZ"
        },
        {
          "@language": "de",
          "@value": "Logo EFZ"
        }
      ]
    }
  ]
}