{
  "@context": "http://schema.org",
  "@type": "HealthAndBeautyBusiness",
  "name": [
    {
      "@language": "en",
      "@value": "Hotel Standlhof"
    },
    {
      "@language": "de",
      "@value": "Hotel Standlhof"
    }
  ],
  "geo": {
    "@type": "GeoCoordinates",
    "latitude": "47.3250141727863",
    "longitude": "11.8641024827957"
  },
  "address": {
    "@type": "PostalAddress",
    "name": "Hotel Standlhof GmbH",
    "streetAddress": "Dorfstraße 48",
    "addressCountry": "AT",
    "postalCode": "6271",
    "addressRegion": "Uderns",
    "telephone": "(0043) 5288 62968",
    "faxNumber": "(0043) 5288 62968 6",
    "email": "hotel@standlhof.at",
    "url": "http://www.standlhof.at"
  },
  "description": [
    {
      "@language": "de",
      "@value": "Tel. 05288/62968"
    },
    {
      "@language": "en",
      "@value": "Tel. 05288/62968"
    }
  ],
  "image": [
    {
      "@type": "ImageObject",
      "url": "http://resc.deskline.net/images/ZIL/1/f38dbe93-8c8c-4708-8c4c-33b3ac6b3bf2/99/image.gif",
      "caption": [
        {
          "@language": "en",
          "@value": "Logo Hotel Standlhof"
        },
        {
          "@language": "de",
          "@value": "Logo Hotel Standlhof"
        }
      ]
    }
  ]
}