{
  "@context": "http://schema.org",
  "@type": "Store",
  "name": [
    {
      "@language": "en",
      "@value": "WLAN im Hotel-Garni Klocker"
    },
    {
      "@language": "de",
      "@value": "WLAN im Hotel-Garni Klocker"
    }
  ],
  "geo": {
    "@type": "GeoCoordinates",
    "latitude": "47.2901786525409",
    "longitude": "11.8742442423279"
  },
  "address": {
    "@type": "PostalAddress",
    "streetAddress": "Postfeldstraße 11",
    "addressCountry": "AT",
    "postalCode": "6272",
    "addressRegion": "Kaltenbach",
    "telephone": "(0043) 5283 2075",
    "faxNumber": "(0043) 5283 2075511 ",
    "email": "info@hotel-garni-klocker.at",
    "url": "http://www.hotel-garni-klocker.at"
  },
  "description": [
    {
      "@language": "de",
      "@value": "WLAN in Hotel"
    },
    {
      "@language": "de",
      "@value": "bei Hotelbetrieb"
    },
    {
      "@language": "en",
      "@value": "wifi in the hotel"
    }
  ],
  "image": [
    {
      "@type": "ImageObject",
      "url": "http://resc.deskline.net/images/ZIL/1/bd57b317-0c89-4563-a44a-1df38b7b073f/99/image.jpg",
      "caption": [
        {
          "@language": "en",
          "@value": "Wlan Klocker Kaltenbach"
        },
        {
          "@language": "de",
          "@value": "Wlan Klocker Kaltenbach"
        }
      ]
    }
  ],
  "url": [
    "http://www.hotel-garni-klocker.at"
  ]
}