{
  "@context": "http://schema.org",
  "@type": "CivicStructure",
  "name": [
    {
      "@language": "en",
      "@value": "Railwaystation"
    },
    {
      "@language": "de",
      "@value": "Bahnhof Zillertalbahn - Bedarfshaltestelle Kapfing"
    }
  ],
  "geo": {
    "@type": "GeoCoordinates",
    "latitude": "47.3336022036495",
    "longitude": "11.8618279695511"
  },
  "address": {
    "@type": "PostalAddress",
    "name": "Bahnhof Zillertalbahn",
    "streetAddress": "Gießenweg",
    "addressCountry": "AT",
    "postalCode": "6263",
    "addressRegion": "Fügen",
    "telephone": "(0043) 5244 60635",
    "email": "office@zillertalbahn.at",
    "url": "http://www.zillertalbahn.at"
  },
  "description": [
    {
      "@language": "de",
      "@value": "Bedarfshaltestelle - Zug hält nur auf Verlangen (Knopfdruck)"
    },
    {
      "@language": "de",
      "@value": "täglich - laut Fahrplan"
    },
    {
      "@language": "en",
      "@value": "Bedarfshaltestelle - Zug hält nur auf Verlangen (Knopfdruck)"
    },
    {
      "@language": "en",
      "@value": "daily - look at the timetable"
    }
  ],
  "image": [
    {
      "@type": "ImageObject",
      "url": "http://resc.deskline.net/images/ZIL/1/b13dd258-476d-4da5-a0a0-989e29189631/99/image.jpg",
      "caption": [
        {
          "@language": "en",
          "@value": "Logo ZVB"
        },
        {
          "@language": "de",
          "@value": "Logo ZVB"
        }
      ]
    }
  ],
  "url": [
    "http://www.zillertalbahn.at"
  ]
}