{
  "@context": "http://schema.org",
  "@type": "FoodEstablishment",
  "name": [
    {
      "@language": "en",
      "@value": "Hotel Erzherzog Johann"
    },
    {
      "@language": "de",
      "@value": "Hotel Erzherzog Johann"
    }
  ],
  "geo": {
    "@type": "GeoCoordinates",
    "latitude": "47.327054047459562",
    "longitude": "11.863759160041809"
  },
  "address": {
    "@type": "PostalAddress",
    "name": "Hotel Erzherzog Johann",
    "streetAddress": "Dorfstraße 32",
    "addressCountry": "AT",
    "postalCode": "6271",
    "addressRegion": "Uderns",
    "telephone": "(0043) 5288 62590",
    "faxNumber": "(0043) 5288 64140",
    "email": "hotel@erzherzog.at",
    "url": "http://www.erzherzog.at"
  },
  "description": [
    {
      "@language": "de",
      "@value": "Dorfstr. 32, 6271 Uderns, Tel. 05288/62590"
    },
    {
      "@language": "en",
      "@value": "Dorfstr. 32, 6271 Uderns, Phone: 05288/62590"
    }
  ],
  "image": [
    {
      "@type": "ImageObject",
      "url": "http://resc.deskline.net/images/ZIL/1/79778cc4-9315-40d5-9ac6-3f75edf99daf/99/image.gif",
      "caption": [
        {
          "@language": "en",
          "@value": "Logo Hotel Erzherzog"
        },
        {
          "@language": "de",
          "@value": "Logo Hotel Erzherzog"
        }
      ]
    }
  ]
}