{
  "@context": "http://schema.org",
  "@type": "Store",
  "name": [
    {
      "@language": "en",
      "@value": "Metzgerei Hell"
    },
    {
      "@language": "de",
      "@value": "Metzgerei Hell"
    }
  ],
  "geo": {
    "@type": "GeoCoordinates",
    "latitude": "47.328770244631883",
    "longitude": "11.863201260566711"
  },
  "address": {
    "@type": "PostalAddress",
    "name": "Metzgerwirt",
    "streetAddress": "Dorfstr. 6",
    "addressCountry": "AT",
    "postalCode": "6271",
    "addressRegion": "Uderns",
    "telephone": "(0043) 5288 62559",
    "faxNumber": "(0043) 5288 625594",
    "email": "info@dermetzgerwirt.at",
    "url": "http://www.dermetzgerwirt.at"
  },
  "description": [
    {
      "@language": "de",
      "@value": "Dorfstr. 6, 6271 Uderns, Tel. 05288/62559"
    },
    {
      "@language": "en",
      "@value": "Dorfstr. 6, 6271 Uderns, Tel. 05288/62559"
    }
  ],
  "image": [
    {
      "@type": "ImageObject",
      "url": "http://resc.deskline.net/images/ZIL/1/60426804-b680-4c13-8b02-e926d9c704f9/99/image.png",
      "caption": [
        {
          "@language": "en",
          "@value": "Logo Metzgerwirt"
        },
        {
          "@language": "de",
          "@value": "Logo Metzgerwirt"
        }
      ]
    }
  ]
}