{
  "@context": "http://schema.org",
  "@type": "FoodEstablishment",
  "name": [
    {
      "@language": "en",
      "@value": "Hotel Post"
    },
    {
      "@language": "de",
      "@value": "Hotel Post"
    }
  ],
  "geo": {
    "@type": "GeoCoordinates",
    "latitude": "47.3463868287582",
    "longitude": "11.8483897699753"
  },
  "address": {
    "@type": "PostalAddress",
    "name": "Aktiv- und Wellnesshotel Post",
    "streetAddress": "Dorfplatz 14",
    "addressCountry": "AT",
    "postalCode": "6263",
    "addressRegion": "Fügen",
    "telephone": "(0043) 5288 632 12",
    "faxNumber": "(0043) 5288 632 14 14",
    "email": "info@hotelpostfuegen.at",
    "url": "http://www.hotelpostfuegen.at"
  },
  "description": [
    {
      "@language": "de",
      "@value": "Urlaub im Zillertal ist etwas Besonderes und wir im Hotel Post machen ihn zu etwas Unvergesslichem! \nHier lädt schon die Natur dazu ein, Hektik und Sorgen abzuschütteln. Die Menschen, die Sie hier im Hotel Post verwöhnen, legen Ihnen ein gediegenes und freundliches Feriendomizil zu Füßen.\n"
    },
    {
      "@language": "en",
      "@value": "Make yourseves comfortable, take a deep breath and enjoy your holiday at the Zillertal, surrounded by mountains and fresh air"
    }
  ],
  "image": [
    {
      "@type": "ImageObject",
      "url": "http://resc.deskline.net/images/ZIL/1/8a9346ad-4e6e-49c5-85aa-9f1c83e26a6b/99/image.jpg",
      "caption": [
        {
          "@language": "en",
          "@value": "Hotel Post_Fügen_Außen"
        },
        {
          "@language": "de",
          "@value": "Hotel Post_Fügen_Außen"
        }
      ]
    },
    {
      "@type": "ImageObject",
      "url": "http://resc.deskline.net/images/ZIL/1/2d584c08-dd5f-4bc4-a963-90adf34e86df/99/image.jpg",
      "caption": [
        {
          "@language": "en",
          "@value": "Hotel Post_Fügen_Stube"
        },
        {
          "@language": "de",
          "@value": "Hotel Post_Fügen_Stube"
        }
      ]
    }
  ],
  "url": [
    "http://www.hotelpostfuegen.at"
  ]
}