{
  "@context": "http://schema.org",
  "@type": "HealthAndBeautyBusiness",
  "name": [
    {
      "@language": "en",
      "@value": "Dr. Anna Jäger"
    },
    {
      "@language": "de",
      "@value": "Dr. Anna Telsnig-Jäger - Zahnarzt"
    }
  ],
  "geo": {
    "@type": "GeoCoordinates",
    "latitude": "47.289185357115",
    "longitude": "11.8872499465942"
  },
  "address": {
    "@type": "PostalAddress",
    "streetAddress": "Ahrnbachstr. 1",
    "addressCountry": "AT",
    "postalCode": "6275",
    "addressRegion": "Stumm",
    "telephone": "(0043) 05283 28874",
    "faxNumber": "(0043) 05283 20069",
    "url": "http://www.anna-jaeger.at"
  },
  "description": [
    {
      "@language": "de",
      "@value": "Ahrnbachstr. 1\nTel. 05283 28874\nAlle Kassen und privat\n\nMo, Di, Do, Fr  08:00-12:00   \t\n\nMi 08:00-11:00 Uhr\n\nMo, Do 13:00-15:00 Uhr \n\t\n"
    },
    {
      "@language": "en",
      "@value": "Ahrnbachstr. 1\nPhone: 05283 28874\nall health insurance companies"
    }
  ],
  "image": [
    {
      "@type": "ImageObject",
      "url": "http://resc.deskline.net/images/ZIL/1/ca7157bb-f2bb-480e-bd9e-3679d15b0e5e/99/image.jpg",
      "caption": [
        {
          "@language": "en",
          "@value": "Dr. Jäger Zahnarzt Stumm"
        },
        {
          "@language": "de",
          "@value": "Dr. Jäger Zahnarzt Stumm"
        }
      ]
    }
  ]
}