{
  "@context": "http://schema.org",
  "@type": "HealthAndBeautyBusiness",
  "name": [
    {
      "@language": "en",
      "@value": "Hotel Almhof Lackner"
    },
    {
      "@language": "de",
      "@value": "Hotel Almhof Lackner"
    }
  ],
  "geo": {
    "@type": "GeoCoordinates",
    "latitude": "47.3029959677867",
    "longitude": "11.8659746646881"
  },
  "address": {
    "@type": "PostalAddress",
    "name": "Hotel Almhof Lackner GmbH",
    "streetAddress": "Großriedstraße 15",
    "addressCountry": "AT",
    "postalCode": "6273",
    "addressRegion": "Ried im Zillertal",
    "telephone": "(0043) 5283 2374",
    "faxNumber": "(0043) 5283 3293",
    "email": "info@almhof-lackner.at",
    "url": "http://www.almhof-lackner.at"
  },
  "description": [
    {
      "@language": "de",
      "@value": "lassen Sie Ihre Seele baumeln in unserem Wellnessbereich mit Finnischer Sauna, Dampfbad, Frischluftgrotte, wohltuender Infrarot-Kabine, Ruhebereich und unserem großen (5 x 12 m) Hallenbad."
    },
    {
      "@language": "de",
      "@value": "während der Hotel-Betriebszeiten, täglich auf vor Anmeldung"
    },
    {
      "@language": "en",
      "@value": "finnish sauna and solarium"
    }
  ],
  "image": [
    {
      "@type": "ImageObject",
      "url": "http://resc.deskline.net/images/ZIL/1/d8685e75-1230-4c5c-8255-8c86421b50a4/99/image.gif",
      "caption": [
        {
          "@language": "en",
          "@value": "Logo Hotel Almhof Lackner"
        },
        {
          "@language": "de",
          "@value": "Logo Hotel Almhof Lackner"
        }
      ]
    }
  ]
}