{
  "@context": "http://schema.org",
  "@type": "SportsActivityLocation",
  "name": [
    {
      "@language": "en",
      "@value": "Sauna- und Wellness-Oase Aufenfeld"
    },
    {
      "@language": "de",
      "@value": "Sauna- und Wellness-Oase Aufenfeld"
    }
  ],
  "geo": {
    "@type": "GeoCoordinates",
    "latitude": "47.2628092983798",
    "longitude": "11.9006288051605"
  },
  "address": {
    "@type": "PostalAddress",
    "name": "Camping Aufenfeld GmbH",
    "streetAddress": "Aufenfeldweg 10",
    "addressCountry": "AT",
    "postalCode": "6274",
    "addressRegion": "Aschau im Zillertal",
    "telephone": "(0043) 5282 2916",
    "faxNumber": "(0043) 5282 2916 11",
    "email": "info@camping-zillertal.at",
    "url": "http://www.camping-zillertal.at"
  },
  "description": [
    {
      "@language": "de",
      "@value": "500m² Saunalandschaft, Finnische Sauna, Bio Sauna, Dampfbäder, Solebad, Infrarotkabinen, Solarium und großzügige Ruheräume\nAttraktions-Becken mit Bodenstrudel, Wildwasserkanal und Gegenstrom-Anlage, Sportbecken mit 20 m Länge und 10 m Breite, Highlight: 60 m lange Wasser-Rutsche mit Zeitmessung!\nGroßzügiger Ruheraum im 1. Stock vom Hallenbad zum Relaxen mit Wasserbetten und Kuschelinseln, mit knisterndem Kaminfeuer, mit herrlicher Sonnenterrasse und traumhaften Blick auf die Zillertaler Alpen, Liegefläche im Innen und Außenbereich\n\n1 Stunde € 6,00 Erw., € 3,00 Kinder\n2 Stunden € 8,50 Erw., € 4,00 Kinder\n3 Stunden € 10,50 Erw., € 5,00 Kinder\n4 Stunden € 11,50 Erw., € 5,50 Kinder\n\n3 Stunden Fitness € 5,00\n\nAufenfeldweg 6, A-6274 Aschau im Zillertal\nTel.: +43 (5282) 2916\nFax.: +43 (5282) 2916 11\ninfo@camping-zillertal.at\nwww.camping-zillertal.at"
    },
    {
      "@language": "en",
      "@value": "Roofing from the existing outdoor pool (therefore arises a 2nd indoor pool with 20 m pool length, Large move–elements for opening to get into the outside, Lying plain in the inside and outside are 60 m long water slide with timing! Generous relaxing area in the 1st floor of the indoor pool   Admirable sun terrace with a great view of the Zillertal alps\n500m² sauna area\n\n1 h EUR 6,00 adults, € 3,00 childs\n2 h EUR 8,50 adults., € 4,00 childs\n3 h EUR 10,50 adults., € 5,00 childs\n4 h EUR 11,50 adults., € 5,50 childs\n\n3 hours Fitness € 5,00\n\nAufenfeldweg 6, A-6274 Aschau im Zillertal\nTel.: +43 (5282) 2916\nFax.: +43 (5282) 2916 11\ninfo@camping-zillertal.at\nwww.camping-zillertal.at"
    }
  ],
  "image": [
    {
      "@type": "ImageObject",
      "url": "http://resc.deskline.net/images/ZIL/1/69d72e87-8604-4e6e-9fc5-cd453e6023a4/99/image.jpg",
      "caption": [
        {
          "@language": "en",
          "@value": "Logo Aufenfeld"
        },
        {
          "@language": "de",
          "@value": "Logo Aufenfeld"
        }
      ]
    }
  ]
}