{
  "@context": "http://schema.org",
  "@type": "HealthAndBeautyBusiness",
  "name": [
    {
      "@language": "en",
      "@value": "Medizinische Fußpflege, Maniküre und Energetikerin"
    },
    {
      "@language": "de",
      "@value": "Medizinische Fußpflege, Maniküre und Energetikerin"
    }
  ],
  "geo": {
    "@type": "GeoCoordinates",
    "latitude": "47.348107",
    "longitude": "11.8711689"
  },
  "address": {
    "@type": "PostalAddress",
    "streetAddress": "Niederhart 150",
    "addressCountry": "AT",
    "postalCode": "6265",
    "addressRegion": "Hart im Zillertal",
    "email": "petra.widner@gmx.at"
  },
  "image": [
    {
      "@type": "ImageObject",
      "url": "http://resc.deskline.net/images/ZIL/1/42856e52-677e-4269-83a2-158f7554a42c/99/image.jpg",
      "caption": [
        {
          "@language": "en",
          "@value": "Logo EFZ"
        },
        {
          "@language": "de",
          "@value": "Logo EFZ"
        }
      ]
    }
  ],
  "url": [
    "http://"
  ]
}