{
  "@context": "http://schema.org",
  "@type": "Store",
  "name": [
    {
      "@language": "en",
      "@value": "\"zum Mug\""
    },
    {
      "@language": "de",
      "@value": "WLAN in der Pizzeria \"Zum Mug\""
    }
  ],
  "geo": {
    "@type": "GeoCoordinates",
    "latitude": "47.2785666347365",
    "longitude": "11.8942558765411"
  },
  "address": {
    "@type": "PostalAddress",
    "name": "Pizzeria \"zum Mug\"",
    "streetAddress": "Ahrnbachstr. 43",
    "addressCountry": "AT",
    "postalCode": "6275",
    "addressRegion": "Stumm",
    "telephone": "(0043) 5283 29004",
    "faxNumber": "(0043) 5283 290044",
    "email": "pension-schmiedhof@aon.at",
    "url": "http://www.pension-schmiedhof.at"
  },
  "description": [
    {
      "@language": "de",
      "@value": "Gratis WLAN in der Pizzeria \"Zum Mug\" "
    },
    {
      "@language": "de",
      "@value": "365 Tage im Jahr geöffnet"
    },
    {
      "@language": "en",
      "@value": "free wifi in the pizzeria \"Zum Mug\""
    },
    {
      "@language": "en",
      "@value": "365 day a year open"
    }
  ],
  "image": [
    {
      "@type": "ImageObject",
      "url": "http://resc.deskline.net/images/ZIL/1/94aca4f1-142b-4665-b27f-2f8b897626cf/99/image.jpg",
      "caption": [
        {
          "@language": "en",
          "@value": "Wifi Zillertal"
        },
        {
          "@language": "de",
          "@value": "Wifi Zillertal"
        }
      ]
    }
  ]
}