{
  "@context": "http://schema.org",
  "@type": "TouristAttraction",
  "name": [
    {
      "@language": "en",
      "@value": "Thurnbachkirche z. Hl. Leonhard"
    },
    {
      "@language": "de",
      "@value": "Thurnbachkirche z. Hl. Leonhard"
    }
  ],
  "geo": {
    "@type": "GeoCoordinates",
    "latitude": "47.26002789080529",
    "longitude": "11.900897026062012"
  },
  "address": {
    "@type": "PostalAddress",
    "name": "Pfarramt Aschau",
    "streetAddress": "Dorfstraße 40",
    "addressCountry": "AT",
    "postalCode": "6274",
    "addressRegion": "Aschau im Zillertal",
    "telephone": "(0043) 5282 3631"
  },
  "description": [
    {
      "@language": "de",
      "@value": "Die Thurnbachkirche wurde um 1495 erbaut und ist eine der seltenen rein gotischen Kirchen des Tales. Mehrere am Kirchenportal befestigten Hufeisen sind sichtbare Zeichen des Vertrauens und der Verehrung Gottes. 1990 wurde die ganze Kirche hydraulisch um 160 Zentimeter angehoben (2.300 Tonnen).\nAm 6. November findet imm ein \"Leonhardsritt\" statt.\n\nThurnbachweg 22, A-6274 Aschau im Zillertal\nTel.: + 43 (5282) 29 28"
    },
    {
      "@language": "en",
      "@value": "Thurnbachweg 22, A-6274 Aschau im Zillertal\nPhone: +43 (5282) 29 28"
    }
  ],
  "image": [
    {
      "@type": "ImageObject",
      "url": "http://resc.deskline.net/images/ZIL/1/8c9939ad-9d6b-4d66-98f2-2b591776883d/99/image.jpg",
      "caption": [
        {
          "@language": "en",
          "@value": "Logo EFZ"
        },
        {
          "@language": "de",
          "@value": "Logo EFZ"
        }
      ]
    }
  ]
}