{
  "@context": "http://schema.org",
  "@type": "FoodEstablishment",
  "name": [
    {
      "@language": "en",
      "@value": "Hotel Pension St. Georg"
    },
    {
      "@language": "de",
      "@value": "Hotel Pension St. Georg"
    }
  ],
  "geo": {
    "@type": "GeoCoordinates",
    "latitude": "47.265783495321955",
    "longitude": "11.896761059761047"
  },
  "address": {
    "@type": "PostalAddress",
    "name": "Hotel Pension St. Georg",
    "streetAddress": "Tränkgasse 2",
    "addressCountry": "AT",
    "postalCode": "6274",
    "addressRegion": "Aschau im Zillertal",
    "telephone": "(0043) 5282 2037",
    "faxNumber": "(0043) 5282 20377",
    "email": "info@hotel-st-georg.at",
    "url": "http://www.hotel-st-georg.at"
  },
  "description": [
    {
      "@language": "de",
      "@value": "im Sommer: jeden Freitag Grillabend ab 18.30 Uhr (bei jeder Witterung) mit Live-Musik\nMontag Ruhetag\nTränkgasse 2, A-6274 Aschau im Zillertal\nTel.: +43 (5282) 2037\ninfo@hotel-st-georg.at\nwww.hotel-st-georg.at"
    },
    {
      "@language": "en",
      "@value": "in summer: every friday barbecue evening from 18.30 h with live-music\nday off: monday\nTränkgasse 2, A-6274 Aschau im Zillertal\nPhone: +43 (5282) 2037\ninfo@hotel-st-georg.at\nwww.hotel-st-georg.at"
    }
  ],
  "image": [
    {
      "@type": "ImageObject",
      "url": "http://resc.deskline.net/images/ZIL/1/5f900763-9111-449b-b9a1-75c2f71f0e9c/99/image.gif",
      "caption": [
        {
          "@language": "en",
          "@value": "Logo Hotel St. Georg"
        },
        {
          "@language": "de",
          "@value": "Logo Hotel St. Georg"
        }
      ]
    }
  ]
}