{
  "@context": "http://schema.org",
  "@type": "Store",
  "name": [
    {
      "@language": "en",
      "@value": "Metzgerei Wegscheider"
    },
    {
      "@language": "de",
      "@value": "Metzgerei Wegscheider"
    }
  ],
  "geo": {
    "@type": "GeoCoordinates",
    "latitude": "47.282547995628576",
    "longitude": "11.87922477722168"
  },
  "address": {
    "@type": "PostalAddress",
    "name": "Metzgerei Wegscheider",
    "streetAddress": "Untere Embergstraße 22",
    "addressCountry": "AT",
    "postalCode": "6272",
    "addressRegion": "Kaltenbach",
    "telephone": "(0043) 5283 2256",
    "faxNumber": "(0043) 5283 3278",
    "email": "fleisch.wegscheider@aon.at"
  },
  "image": [
    {
      "@type": "ImageObject",
      "url": "http://resc.deskline.net/images/ZIL/1/08d8e325-ae4c-4195-82a5-11b7bcef65d1/99/image.jpg",
      "caption": [
        {
          "@language": "en",
          "@value": "Logo EFZ"
        },
        {
          "@language": "de",
          "@value": "Logo EFZ"
        }
      ]
    }
  ]
}