{
  "@context": "http://schema.org",
  "@type": "Store",
  "name": [
    {
      "@language": "en",
      "@value": "Gemeindeamt / Fundamt"
    },
    {
      "@language": "de",
      "@value": "Gemeindeamt / Fundamt"
    }
  ],
  "geo": {
    "@type": "GeoCoordinates",
    "latitude": "47.350139863162",
    "longitude": "11.8731334805489"
  },
  "address": {
    "@type": "PostalAddress",
    "name": "Gemeindeamt",
    "streetAddress": "Schmiedau 17",
    "addressCountry": "AT",
    "postalCode": " 6272",
    "addressRegion": "Kaltenbach",
    "telephone": "(0043) 5283 2210",
    "faxNumber": "(0043) 5283 22105",
    "email": "gemeinde@kaltenbach.tirol.gv.at",
    "url": "http://www.kaltenbach.at"
  },
  "description": [
    {
      "@language": "de",
      "@value": "Hart 34, Tel.: 05288/62331, Mo-Fr 08:00-12:00"
    },
    {
      "@language": "en",
      "@value": "Hart 34, Phone: 05288/62331"
    }
  ],
  "image": [
    {
      "@type": "ImageObject",
      "url": "http://resc.deskline.net/images/ZIL/1/bbd7e907-0ea4-410d-a8fc-96e07a193766/99/image.png",
      "caption": [
        {
          "@language": "en",
          "@value": "Erste Ferienregion im Zillertal"
        },
        {
          "@language": "de",
          "@value": "Erste Ferienregion im Zillertal"
        }
      ]
    }
  ]
}