{
  "@context": "http://schema.org",
  "@type": "SportsActivityLocation",
  "name": [
    {
      "@language": "en",
      "@value": "skirental Hochzillertal"
    },
    {
      "@language": "de",
      "@value": "Skiverleih Hochzillertal"
    }
  ],
  "geo": {
    "@type": "GeoCoordinates",
    "latitude": "47.2936802",
    "longitude": "11.8833317"
  },
  "address": {
    "@type": "PostalAddress",
    "streetAddress": "Dorfstraße 11",
    "addressCountry": "AT",
    "postalCode": "6275",
    "addressRegion": "Stumm",
    "telephone": "(0043) 664340955",
    "email": "info@skiverleih-hochzillertal.at",
    "url": "http://www.skiverleih-hochzillertal.at"
  },
  "image": [
    {
      "@type": "ImageObject",
      "url": "http://resc.deskline.net/images/ZIL/1/cb29e4f8-bd37-452e-bf86-d5ad4f1f7a91/99/image.jpg",
      "caption": [
        {
          "@language": "en",
          "@value": "Logo"
        },
        {
          "@language": "de",
          "@value": "Logo"
        }
      ]
    }
  ]
}