{
  "@context": "http://schema.org",
  "@type": "CivicStructure",
  "name": [
    {
      "@language": "en",
      "@value": "Autozentrum Knapp"
    },
    {
      "@language": "de",
      "@value": "Autowelt Unterberger Strass"
    }
  ],
  "geo": {
    "@type": "GeoCoordinates",
    "latitude": "47.3979134594265",
    "longitude": "11.8184781074524"
  },
  "address": {
    "@type": "PostalAddress",
    "name": "UNTERBERGER AUTOMOBILE GMBH \u0026 CO. KG",
    "streetAddress": "Bundesstraße 109",
    "addressCountry": "AT",
    "postalCode": "6261",
    "addressRegion": "Strass im Zillertal",
    "telephone": "(0043) 5244 61000",
    "faxNumber": "(0043) 5244 61000 560",
    "email": "info.strass@unterberger.cc",
    "url": "http://www.unterberger.cc/standorte/strass-im-zillertal"
  },
  "description": [
    {
      "@language": "de",
      "@value": "Autohaus mit Autowerkstatt \nMarken: Hyundai, Land Rover, Jaguar, Volvo, Mazda"
    },
    {
      "@language": "de",
      "@value": "Verkauf: \nMontag bis Donnerstag\t08:00 bis 18:00 Uhr\nFreitag\t08:00 bis 17:00 Uhr\nSamstag\t09:00 bis 12:00 Uhr"
    }
  ],
  "image": [
    {
      "@type": "ImageObject",
      "url": "http://resc.deskline.net/images/ZIL/1/c4c24ee8-cf74-476c-8267-6bba2ae6341d/99/image.jpg",
      "caption": [
        {
          "@language": "en",
          "@value": "Autowelt Unterberger Strass"
        },
        {
          "@language": "de",
          "@value": "Autowelt Unterberger Strass"
        }
      ]
    }
  ]
}