{
  "@context": "http://schema.org",
  "@type": "FoodEstablishment",
  "name": [
    {
      "@language": "en",
      "@value": "Jausenstation Maria Brettfall"
    },
    {
      "@language": "de",
      "@value": "Jausenstation Maria Brettfall"
    }
  ],
  "geo": {
    "@type": "GeoCoordinates",
    "latitude": "47.3933379620669",
    "longitude": "11.8174749612808"
  },
  "address": {
    "@type": "PostalAddress",
    "name": "Jausenstation Maria Brettfall",
    "streetAddress": "Hnr. 38",
    "addressCountry": "AT",
    "postalCode": "6261",
    "addressRegion": "Strass im Zillertal",
    "telephone": "(0043) 664 304 13 00",
    "email": "rotwild07@a1.net"
  },
  "description": [
    {
      "@language": "de",
      "@value": "682 m, Hnr. 38, Tel.: 0664/5102224 (Mayr Richard)\ndurchgehend geöffnet, Mittwoch RUHETAG!"
    },
    {
      "@language": "de",
      "@value": "Sommer und Winter:\ndurchgehend geöffnet ( Mittwoch RUHETAG!)"
    },
    {
      "@language": "en",
      "@value": "682 m, Hnr. 38, Phone: 0664/5102224 (Mayr Richard)\nWednesday closed"
    },
    {
      "@language": "en",
      "@value": "Summer and Winter:\ndaily open (Wednesday is closed)"
    }
  ],
  "image": [
    {
      "@type": "ImageObject",
      "url": "http://resc.deskline.net/images/ZIL/1/c7339689-d083-46db-90c6-25d14c458108/99/image.jpg",
      "caption": [
        {
          "@language": "en",
          "@value": "Logo EFZ"
        },
        {
          "@language": "de",
          "@value": "Logo EFZ"
        }
      ]
    }
  ]
}