{
  "@context": "http://schema.org",
  "@type": "FoodEstablishment",
  "name": [
    {
      "@language": "en",
      "@value": "Omega Cocktails and more"
    },
    {
      "@language": "de",
      "@value": "Bar Chabeso"
    }
  ],
  "geo": {
    "@type": "GeoCoordinates",
    "latitude": "47.3449889",
    "longitude": "11.8484242"
  },
  "address": {
    "@type": "PostalAddress",
    "name": "Bar Chabeso",
    "streetAddress": "Lindenweg 4",
    "addressCountry": "AT",
    "postalCode": "6263",
    "addressRegion": "Fügen",
    "email": "info@chabeso.bar ",
    "url": "http://www.chabeso.bar/"
  },
  "description": [
    {
      "@language": "de",
      "@value": "Lindenweg 4, 6263 Fügen, Tel. 0676/83445385\n\nIn der Chabeso Bar bist Du immer aktiv im Geschehen Fügens.\nErlebe die Gastlichkeit und genieße die Abwechslung an Events und Themen."
    },
    {
      "@language": "de",
      "@value": "DI - SA 17:00 - 02:00 Uhr"
    },
    {
      "@language": "en",
      "@value": "Lindenweg 4, A-6263 Fügen Phone: 0676/83445385\n"
    },
    {
      "@language": "en",
      "@value": "Tuesday until Saturday\n5.00 p.m. until 2.00 a.m."
    }
  ],
  "image": [
    {
      "@type": "ImageObject",
      "url": "http://resc.deskline.net/images/ZIL/1/7a79139b-84ee-483e-ad84-858ac25f36a8/99/image.jpg",
      "caption": [
        {
          "@language": "en",
          "@value": "Chabeso abends_Innen"
        },
        {
          "@language": "de",
          "@value": "Chabeso abends_Innen"
        }
      ]
    }
  ]
}