{
  "@context": "http://schema.org",
  "@type": "Store",
  "name": [
    {
      "@language": "en",
      "@value": "Bankomat"
    },
    {
      "@language": "de",
      "@value": "Bankomat"
    }
  ],
  "geo": {
    "@type": "GeoCoordinates",
    "latitude": "47.33874082286",
    "longitude": "11.8432076904297"
  },
  "address": {
    "@type": "PostalAddress",
    "name": "Bankomat",
    "streetAddress": "Hochfügenerstr. 77",
    "addressCountry": "AT",
    "postalCode": "6263",
    "addressRegion": "Fügen",
    "telephone": "(0043) 5288 62151",
    "email": "info@rvz.at",
    "url": "http://www.rvz.at"
  },
  "description": [
    {
      "@language": "de",
      "@value": "Bankomat der Raiffeisenbank zum Geld abheben"
    },
    {
      "@language": "de",
      "@value": "24 Stunden zugänglich"
    },
    {
      "@language": "en",
      "@value": "cash maschine at the valley station Spieljochbahn"
    },
    {
      "@language": "en",
      "@value": "24 hours availabel"
    }
  ],
  "image": [
    {
      "@type": "ImageObject",
      "url": "http://resc.deskline.net/images/ZIL/1/9b006c5b-a18a-40c4-ac38-98501d1e4db6/99/image.jpg",
      "caption": [
        {
          "@language": "en",
          "@value": "Bankomat"
        },
        {
          "@language": "de",
          "@value": "Bankomat"
        }
      ]
    }
  ],
  "url": [
    "http://"
  ]
}