{
  "@context": "http://schema.org",
  "@type": "FoodEstablishment",
  "name": [
    {
      "@language": "en",
      "@value": "Café Edelweiß"
    },
    {
      "@language": "de",
      "@value": "Konditorei-Café Edelweiß"
    }
  ],
  "geo": {
    "@type": "GeoCoordinates",
    "latitude": "47.3500253769002",
    "longitude": "11.8503910303116"
  },
  "address": {
    "@type": "PostalAddress",
    "name": "Konditorei Edelweiß",
    "streetAddress": "Hauptstraße 41",
    "addressCountry": "AT",
    "postalCode": "6263",
    "addressRegion": "Fügen",
    "telephone": "(0043) 5288 62244",
    "email": "info@edelweisshotel.at",
    "url": "http://www.edelweisshotel.at"
  },
  "description": [
    {
      "@language": "de",
      "@value": "Hauptstraße 41, Tel.: 05288/62244"
    },
    {
      "@language": "en",
      "@value": "Hauptstraße 41, Phone: 05288/62244"
    }
  ],
  "image": [
    {
      "@type": "ImageObject",
      "url": "http://resc.deskline.net/images/ZIL/1/9fd67289-3ce2-4c30-aa12-06c75f4285f9/99/image.png",
      "caption": [
        {
          "@language": "en",
          "@value": "Logo Hotel Edelweiß"
        },
        {
          "@language": "de",
          "@value": "Logo Hotel Edelweiß"
        }
      ]
    }
  ]
}