{
  "@context": "http://schema.org",
  "@type": "FoodEstablishment",
  "name": [
    {
      "@language": "en",
      "@value": "Herzal\u0027m - Hüttengaudi \u0026 Après Ski"
    },
    {
      "@language": "de",
      "@value": "Herzal\u0027m - Hüttengaudi \u0026 Après Ski"
    }
  ],
  "geo": {
    "@type": "GeoCoordinates",
    "latitude": "47.3384718125304",
    "longitude": "11.8425746891022"
  },
  "address": {
    "@type": "PostalAddress",
    "name": "Daum Gastronomie GmbH und Werner Kostenzer Hotelbetriebs GmbH",
    "streetAddress": "direkt neben der Spieljochbahn",
    "addressCountry": "AT",
    "postalCode": "6263",
    "addressRegion": "Fügen",
    "telephone": "(0043) 676 5555020",
    "url": "http://www.herzalm.at"
  },
  "description": [
    {
      "@language": "de",
      "@value": "Willkommen in der „Herzal Alm\" - direkt neben der Talstation Spieljoch in Fügen. \nGanz nach dem Motto echte Zillertaler Gastfreundlichkeit spüren und erleben. \nMit allen Nationalitäten, Schifreunden, Familien und Partypeople etc. authentischen Apres Ski feiern und betreiben. Mit wöchentlichen Events wie dem legendären Schihaserl Ball, dem zünftigen Zichnerkränzchen oder der allseits beliebten Schilehrer Party wollen wir den Fügener Aprés Ski zum Erlebnis machen. \nDie *Herzal Alm* - ein Konzept, wie geschaffen für die Winterurlauber und Liebhaber des urigen und gemütlichen Aprés Ski´s. \n"
    },
    {
      "@language": "de",
      "@value": "Ab Mitte Dezember bis April täglich von 14:00 bis 22:00 Uhr"
    },
    {
      "@language": "en",
      "@value": "Just a few meter above the Spieljochbahn Valley Station you can find the Herzal\u0027m - your party location in a typical Tyroelean style for a special ápres-ski experiance. \n"
    },
    {
      "@language": "en",
      "@value": "from December until April\ndaily from 2.00 p.m. until 10.00 p.m."
    }
  ],
  "image": [
    {
      "@type": "ImageObject",
      "url": "http://resc.deskline.net/images/ZIL/1/abb608fe-cd1a-438a-a33e-56f64bc44ec5/99/image.jpg",
      "caption": [
        {
          "@language": "en",
          "@value": "Logo Herzalm"
        },
        {
          "@language": "de",
          "@value": "Logo Herzalm"
        }
      ]
    }
  ]
}