{
  "@context": "http://schema.org",
  "@type": "Store",
  "name": [
    {
      "@language": "en",
      "@value": "Postamt"
    },
    {
      "@language": "de",
      "@value": "Postamt Fügen"
    }
  ],
  "geo": {
    "@type": "GeoCoordinates",
    "latitude": "47.342366954186758",
    "longitude": "11.850133538246155"
  },
  "address": {
    "@type": "PostalAddress",
    "name": "Postamt ",
    "streetAddress": "Franziskusweg 10",
    "addressCountry": "AT",
    "postalCode": "6263",
    "addressRegion": "Fügen",
    "url": "https://www.post.at"
  },
  "description": [
    {
      "@language": "de",
      "@value": "Telefonzellen\nFranziskusweg 10,  A-6263 Fügen\nTel.: +43 (5288) 62250\nMo-Fr 08:00-12:00 und 14:00-18:00"
    },
    {
      "@language": "de",
      "@value": "Mo - Fr 08:00-12:00 14:00-17:30"
    },
    {
      "@language": "en",
      "@value": "callboxes\nFranziskusweg 10, A-6263 Fügen\nPhone: +43 (5288) 62250\nMo-Fr 08:00-12:00 and 14:00-18:00"
    },
    {
      "@language": "en",
      "@value": "Mon - Fri 08:00-12:00 and 14:00-17:30"
    }
  ],
  "image": [
    {
      "@type": "ImageObject",
      "url": "http://resc.deskline.net/images/ZIL/1/82aee5e4-a5b1-4afd-906f-238846b02512/99/image.jpg",
      "caption": [
        {
          "@language": "en",
          "@value": "Logo Post"
        },
        {
          "@language": "de",
          "@value": "Logo Post"
        }
      ]
    }
  ]
}