{
  "@context": "http://schema.org",
  "@type": "FoodEstablishment",
  "name": [
    {
      "@language": "en",
      "@value": "Pizzeria Café Klocker"
    },
    {
      "@language": "de",
      "@value": "Pizzeria Café Klocker"
    }
  ],
  "geo": {
    "@type": "GeoCoordinates",
    "latitude": "47.287926360226116",
    "longitude": "11.874525547027588"
  },
  "address": {
    "@type": "PostalAddress",
    "name": "Pizzeria Café Klocker",
    "streetAddress": "Untere Embergstraße 1",
    "addressCountry": "AT",
    "postalCode": "6272",
    "addressRegion": "Kaltenbach",
    "telephone": "(0043) 5283 3094"
  },
  "description": [
    {
      "@language": "de",
      "@value": "in unmittelbarer Nähe zur Talstation der Bergbahnen Hochzillertal.\n"
    },
    {
      "@language": "en",
      "@value": "near to Hochzillertal"
    }
  ],
  "image": [
    {
      "@type": "ImageObject",
      "url": "http://resc.deskline.net/images/ZIL/1/1d40c5f1-c13b-47ef-866d-bee93b146973/99/image.jpg",
      "caption": [
        {
          "@language": "en",
          "@value": "Logo EFZ"
        },
        {
          "@language": "de",
          "@value": "Logo EFZ"
        }
      ]
    }
  ]
}