{
  "@context": "http://schema.org",
  "@type": "FoodEstablishment",
  "name": [
    {
      "@language": "en",
      "@value": "Cantine EMPL"
    },
    {
      "@language": "de",
      "@value": "Cantine EMPL"
    }
  ],
  "geo": {
    "@type": "GeoCoordinates",
    "latitude": "47.286449001963533",
    "longitude": "11.878902912139893"
  },
  "address": {
    "@type": "PostalAddress",
    "name": "Empl Cantine",
    "streetAddress": "Kaltenbacher Landstraße 42",
    "addressCountry": "AT",
    "postalCode": "6272",
    "addressRegion": "Kaltenbach",
    "telephone": "(0043) 5283 501 800",
    "faxNumber": "(0043) 5283 501 809",
    "email": "info@empl.at",
    "url": "http://www.empl.at"
  },
  "description": [
    {
      "@language": "de",
      "@value": "Täglich frische und gesunde Speisen\n150 Sitzplätze\nSeminarräume vorhanden"
    },
    {
      "@language": "de",
      "@value": "Montag - Freitag\n11:30 Uhr bis 13:30 Uhr"
    },
    {
      "@language": "en",
      "@value": "every day lunch"
    },
    {
      "@language": "en",
      "@value": "monday till friday 11.30 till 13.30"
    }
  ],
  "image": [
    {
      "@type": "ImageObject",
      "url": "http://resc.deskline.net/images/ZIL/1/8ddb26cb-b897-4e39-9f22-115824a96b47/99/image.jpg",
      "caption": [
        {
          "@language": "en",
          "@value": "Empl Cantine"
        },
        {
          "@language": "de",
          "@value": "Empl Cantine"
        }
      ]
    }
  ]
}