{
  "@context": "http://schema.org",
  "@type": "Store",
  "name": [
    {
      "@language": "en",
      "@value": "Mayer Moden"
    },
    {
      "@language": "de",
      "@value": "Mayer Moden"
    }
  ],
  "geo": {
    "@type": "GeoCoordinates",
    "latitude": "47.345445722785591",
    "longitude": "11.848062872886658"
  },
  "address": {
    "@type": "PostalAddress",
    "name": "Mayermode",
    "streetAddress": "Hochfügener Straße 7",
    "addressCountry": "AT",
    "postalCode": "6263",
    "addressRegion": "Fügen",
    "telephone": "(0043) 5288 62247",
    "faxNumber": "(0043) 5288 62183",
    "email": "mayer.mode@aon.at",
    "url": "http://www.mayermode.at"
  },
  "description": [
    {
      "@language": "de",
      "@value": "Hochfügenerstraße 7, A-6263 Fügen\nTel.: +43 (5288) 62247"
    },
    {
      "@language": "en",
      "@value": "Hochfügenerstr. 7, A-6263 Fügen\nPhone: +43 (5288) 62247"
    }
  ],
  "image": [
    {
      "@type": "ImageObject",
      "url": "http://resc.deskline.net/images/ZIL/1/986ce533-aecd-4fee-9db3-8003b08c2c90/99/image.jpg",
      "caption": [
        {
          "@language": "en",
          "@value": "Logo Mayermode"
        },
        {
          "@language": "de",
          "@value": "Logo Mayermode"
        }
      ]
    }
  ]
}