{
  "@context": "http://schema.org",
  "@type": "Store",
  "name": [
    {
      "@language": "en",
      "@value": "Shopping bei Magdalena"
    },
    {
      "@language": "de",
      "@value": "Shopping bei Magdalena"
    }
  ],
  "geo": {
    "@type": "GeoCoordinates",
    "latitude": "47.391339",
    "longitude": "11.8235669000001"
  },
  "address": {
    "@type": "PostalAddress",
    "name": "Shopping bei Magdalena",
    "streetAddress": "Astholz 79",
    "addressCountry": "AT",
    "postalCode": "6261",
    "addressRegion": "Strass im Zillertal",
    "telephone": "(0043) 6606856738",
    "email": "magdalena.eibl@telering.at"
  },
  "description": [
    {
      "@language": "de",
      "@value": "Shopping bei Magdalena ist ein Bekleidungsgeschäft etwas außerhalb des Ortskerns von Strass.\nDas Angebot ist breit gefächert und reicht von Oberbekleidung für Damen, Jacken und Mäntel über Schuhe bis hin zu Accessoires wie Taschen, Gürtel, Schlas, Mützen und Modeschmuck."
    },
    {
      "@language": "de",
      "@value": "Mo-Do 9:00-12:00 und 15:00-18:00 Uhr\nFr 9:00-12:00 und 13:00-18:00 Uhr\nSa 9:00-12:00 und 13:00-17:00 Uhr"
    },
    {
      "@language": "en",
      "@value": "Shopping at Magdalena is a small boutique in Strass im Zillertal.\nThey offer a wide range of women\u0027s clothing, shoes and accessoires."
    },
    {
      "@language": "en",
      "@value": "open Monday till Thursday 9:00 a.m. until 12:00 a.m. and 3:00 p.m. until 6:00 p.m.\nFriday 9:00 a.m. until 12:00 a.m. and 1:00 p.m. until 6:00 p.m.\nSaturday 9:00 a.m. until 12:00 a.m. and 1:00 p.m. until 5:00 p.m."
    }
  ],
  "image": [
    {
      "@type": "ImageObject",
      "url": "http://resc.deskline.net/images/ZIL/1/6e7fd749-b261-4c3c-a36c-da466114230c/99/image.jpg",
      "caption": [
        {
          "@language": "en",
          "@value": "Shopping bei Magdalena_Außenansicht"
        },
        {
          "@language": "de",
          "@value": "Shopping bei Magdalena_Außenansicht"
        }
      ]
    },
    {
      "@type": "ImageObject",
      "url": "http://resc.deskline.net/images/ZIL/1/634531c3-4560-4885-8ad4-2a41b26f58ee/99/image.jpg",
      "caption": [
        {
          "@language": "en",
          "@value": "Shopping bei Magdalena_Innenansicht01"
        },
        {
          "@language": "de",
          "@value": "Shopping bei Magdalena_Innenansicht01"
        }
      ]
    },
    {
      "@type": "ImageObject",
      "url": "http://resc.deskline.net/images/ZIL/1/a5062508-18a0-433d-87fe-711df04ad301/99/image.jpg",
      "caption": [
        {
          "@language": "en",
          "@value": "Shopping bei Magdalena Innenansicht02"
        },
        {
          "@language": "de",
          "@value": "Shopping bei Magdalena Innenansicht02"
        }
      ]
    },
    {
      "@type": "ImageObject",
      "url": "http://resc.deskline.net/images/ZIL/1/7fc589c5-11bf-45e3-91fe-c1d620e40713/99/image.jpg",
      "caption": [
        {
          "@language": "en",
          "@value": "Shopping bei Magdalena Innenansicht03"
        },
        {
          "@language": "de",
          "@value": "Shopping bei Magdalena Innenansicht03"
        }
      ]
    }
  ]
}