{
  "@context": "http://schema.org",
  "@type": "EntertainmentBusiness",
  "name": [
    {
      "@language": "en",
      "@value": "Stollenberghof"
    },
    {
      "@language": "de",
      "@value": "Stollenberghof"
    }
  ],
  "geo": {
    "@type": "GeoCoordinates",
    "latitude": "47.3480893",
    "longitude": "11.849479"
  },
  "address": {
    "@type": "PostalAddress",
    "name": "Stollenberghof",
    "streetAddress": "Hauptstraße 52",
    "addressCountry": "AT",
    "postalCode": "6263",
    "addressRegion": "Fügen",
    "telephone": "(0043) 5288 62443",
    "faxNumber": "(0043) 5288 63277"
  },
  "description": [
    {
      "@language": "de",
      "@value": "Galerie der Kulturinitiative Fügen (KIF), Exponate werden alle drei Monate erneuert, geöffnet Montag,Mittwoch und Freitag v. 15.00 - 18.00 Uhr\nTel.: +43 (5288) 62443 oder +43 (699) 140 32 032"
    },
    {
      "@language": "en",
      "@value": "exhibits get changed every 3 month\nPhone: +43 (5288) 62443 oder +43 (699) 140 32 032"
    }
  ],
  "image": [
    {
      "@type": "ImageObject",
      "url": "http://resc.deskline.net/images/ZIL/1/21426be0-9c43-4725-b4db-f578fe981cd3/99/image.jpg",
      "caption": [
        {
          "@language": "en",
          "@value": "Logo EFZ"
        },
        {
          "@language": "de",
          "@value": "Logo EFZ"
        }
      ]
    }
  ]
}