{
  "@context": "http://schema.org",
  "@type": "HealthAndBeautyBusiness",
  "name": [
    {
      "@language": "en",
      "@value": "Dr. Franz Josef Welsch - Praktischer Arzt"
    },
    {
      "@language": "de",
      "@value": "Dr. Franz Josef Welsch - Praktischer Arzt"
    }
  ],
  "geo": {
    "@type": "GeoCoordinates",
    "latitude": "47.3769867430595",
    "longitude": "11.8400795500763"
  },
  "address": {
    "@type": "PostalAddress",
    "streetAddress": "Hnr.: 52A",
    "addressCountry": "AT",
    "postalCode": "6262",
    "addressRegion": "Schlitters",
    "telephone": "(0043) 5288 72311",
    "faxNumber": "(0043) 5288 72311-44",
    "email": "ordination@dr-welsch.at",
    "url": "http://www.dr-welsch.at"
  },
  "description": [
    {
      "@language": "de",
      "@value": "Montag: 08:00 – 11:30 Uhr\nDienstag: 08:00 – 11:30 Uhr \u0026 17:00 – 19:00 Uhr\nMittwoch: 16:00 – 18:00 Uhr\nDonnerstag: 08:00 – 11:30 Uhr \u0026 16:00 – 18:00 Uhr\nFreitag: 08:00 – 11:30 Uhr"
    },
    {
      "@language": "en",
      "@value": "Monday: 08:00 - 11:30 a.m.\nTuesday: 08:00 - 11:30 a.m. \u0026 5:00 - 7:00 p.m.\nWednesday: 4:00 - 6:00 p.m.\nThursday: 08:00 - 11:30 a.m. \u0026 4:00 - 6:00 p.m. \nFriday: 08:00 - 11:30 a.m.\n"
    }
  ],
  "image": [
    {
      "@type": "ImageObject",
      "url": "http://resc.deskline.net/images/ZIL/1/2a49a015-2203-4321-9805-351f180b40e3/99/image.png",
      "caption": [
        {
          "@language": "en",
          "@value": "logo"
        },
        {
          "@language": "de",
          "@value": "logo"
        }
      ]
    }
  ],
  "url": [
    "http://www.dr-welsch.at"
  ]
}