{
  "@context": "http://schema.org",
  "@type": "FoodEstablishment",
  "name": [
    {
      "@language": "en",
      "@value": "Westernsaloon White Horse"
    },
    {
      "@language": "de",
      "@value": "Westernsaloon White Horse"
    }
  ],
  "geo": {
    "@type": "GeoCoordinates",
    "latitude": "47.2678911787621",
    "longitude": "11.9013261795044"
  },
  "address": {
    "@type": "PostalAddress",
    "name": "Western Saloon White Horse",
    "streetAddress": "Aufenfeldweg 14",
    "addressCountry": "AT",
    "postalCode": "6274",
    "addressRegion": "Aschau im Zillertal",
    "telephone": "(0043) 5282 20186",
    "email": "info@westernsteakhouse.at",
    "url": "http://www.westernsteakhouse.at"
  },
  "description": [
    {
      "@language": "de",
      "@value": "beim Camping Aufenfeld, Aufenfeldweg 6, A-6274 Aschau im Zillertal\nTel.: 0043 (5282) 29 16\n\nSteaks, Ripperl, etc."
    },
    {
      "@language": "en",
      "@value": "at Camping Aufenfeld, Aufenfeldweg 6, A-6274 Aschau im Zillertal\nPhone: 0043 (5282) 29 16"
    }
  ],
  "image": [
    {
      "@type": "ImageObject",
      "url": "http://resc.deskline.net/images/ZIL/1/f44d1c8d-7f27-4b27-a5af-0775a19ad362/99/image.gif",
      "caption": [
        {
          "@language": "en",
          "@value": "Western Steakhouse"
        },
        {
          "@language": "de",
          "@value": "Western Steakhouse"
        }
      ]
    }
  ]
}