{
  "@context": "http://schema.org",
  "@type": "FoodEstablishment",
  "name": [
    {
      "@language": "en",
      "@value": "Zum grian Bam"
    },
    {
      "@language": "de",
      "@value": "Gasthaus zum grian Bam"
    }
  ],
  "geo": {
    "@type": "GeoCoordinates",
    "latitude": "47.302719499902231",
    "longitude": "11.872959136962891"
  },
  "address": {
    "@type": "PostalAddress",
    "name": "Gasthaus zum grian Bam",
    "streetAddress": "Landstraße 7",
    "addressCountry": "AT",
    "postalCode": "6273",
    "addressRegion": "Ried im Zillertal",
    "telephone": "(0043) 5283 2397"
  },
  "description": [
    {
      "@language": "de",
      "@value": "italienische und gutbürgerliche Küche\nTel. 05283 2397"
    },
    {
      "@language": "en",
      "@value": "Tel. 05283 2397"
    }
  ],
  "image": [
    {
      "@type": "ImageObject",
      "url": "http://resc.deskline.net/images/ZIL/1/35258b6f-a072-4aba-845d-56938e85c3f7/99/image.jpg",
      "caption": [
        {
          "@language": "en",
          "@value": "Gasthaus zum Grian Bam"
        },
        {
          "@language": "de",
          "@value": "Gasthaus zum Grian Bam"
        }
      ]
    }
  ]
}