{
  "@context": "http://schema.org",
  "@type": "SportsActivityLocation",
  "name": [
    {
      "@language": "en",
      "@value": "Sport Stock"
    },
    {
      "@language": "de",
      "@value": "Sport Stock"
    }
  ],
  "geo": {
    "@type": "GeoCoordinates",
    "latitude": "47.2919506786008",
    "longitude": "11.8824112415314"
  },
  "address": {
    "@type": "PostalAddress",
    "name": "Sport Stock",
    "streetAddress": "Koflerweg 28",
    "addressCountry": "AT",
    "postalCode": "6275",
    "addressRegion": "Stumm",
    "telephone": "(0043) 5283 2567",
    "email": "info@sportstock.at",
    "url": "http://www.sportstock.at"
  },
  "description": [
    {
      "@language": "de",
      "@value": "Koflerweg 28\nTel. 05283 2567"
    },
    {
      "@language": "en",
      "@value": "Koflerweg 28\nTel. 05283 2567"
    }
  ],
  "image": [
    {
      "@type": "ImageObject",
      "url": "http://resc.deskline.net/images/ZIL/1/21d28196-d0a3-49cf-aea0-514a75aeae90/99/image.jpg",
      "caption": [
        {
          "@language": "en",
          "@value": "Logo"
        },
        {
          "@language": "de",
          "@value": "Logo"
        }
      ]
    }
  ]
}