{
  "@context": "http://schema.org",
  "@type": "HealthAndBeautyBusiness",
  "name": [
    {
      "@language": "en",
      "@value": "Nageldesign Maniküre Heike Mikopoulos"
    },
    {
      "@language": "de",
      "@value": "Nageldesign Maniküre Heike Mikopoulos"
    }
  ],
  "geo": {
    "@type": "GeoCoordinates",
    "latitude": "47.3277313",
    "longitude": "11.8537609"
  },
  "address": {
    "@type": "PostalAddress",
    "name": "Nageldesign Maniküre",
    "streetAddress": "Tuscherlgasse 1",
    "addressCountry": "AT",
    "postalCode": "6263",
    "addressRegion": "Fügen"
  },
  "image": [
    {
      "@type": "ImageObject",
      "url": "http://resc.deskline.net/images/ZIL/1/7a8a5e1b-a101-4ca9-b13a-f2a2f58f126c/99/image.jpg",
      "caption": [
        {
          "@language": "en",
          "@value": "Logo"
        },
        {
          "@language": "de",
          "@value": "Logo"
        }
      ]
    }
  ],
  "url": [
    "http://"
  ]
}