{
  "@context": "http://schema.org",
  "@type": "HealthAndBeautyBusiness",
  "name": [
    {
      "@language": "en",
      "@value": "Hotel Alpina"
    },
    {
      "@language": "de",
      "@value": "Hotel Alpina"
    }
  ],
  "geo": {
    "@type": "GeoCoordinates",
    "latitude": "47.3010892",
    "longitude": "11.87342"
  },
  "address": {
    "@type": "PostalAddress",
    "name": "Hotel Alpina GmbH",
    "streetAddress": "Landstraße 19",
    "addressCountry": "AT",
    "postalCode": "6273",
    "addressRegion": "Ried im Zillertal",
    "telephone": "(0043) 5283 2841",
    "faxNumber": "(0043) 5283 2298 7",
    "email": "info@alpina-ried.at",
    "url": "http://www.alpina-ried.at"
  },
  "description": [
    {
      "@language": "de",
      "@value": "Dampfbad, Infrarotkabine, finnische Sauna, Erlebnisduschen, Solarium,\nMassagen, Magenetfeldtherapie, Compexbehandlungen etc.;"
    },
    {
      "@language": "en",
      "@value": "steam bath, infrared cabin, finnish sauna, fun showers, solarium,\nmassagen, magnetotherapy etc.;"
    }
  ],
  "image": [
    {
      "@type": "ImageObject",
      "url": "http://resc.deskline.net/images/ZIL/1/f4caa271-ce82-489f-8a4a-6d770855d990/99/image.jpg",
      "caption": [
        {
          "@language": "en",
          "@value": "Logo Hotel Alpina"
        },
        {
          "@language": "de",
          "@value": "Logo Hotel Alpina"
        }
      ]
    }
  ]
}