{
  "@context": "http://schema.org",
  "@type": "Store",
  "name": [
    {
      "@language": "en",
      "@value": "Sparkasse"
    },
    {
      "@language": "de",
      "@value": "Sparkasse Kaltenbach"
    }
  ],
  "geo": {
    "@type": "GeoCoordinates",
    "latitude": "47.293329646732786",
    "longitude": "11.87496542930603"
  },
  "address": {
    "@type": "PostalAddress",
    "name": "Sparkasse Schwaz AG",
    "streetAddress": "Schmiedau 1",
    "addressCountry": "AT",
    "postalCode": "6272",
    "addressRegion": "Kaltenbach",
    "telephone": "(0043) 5 010077500",
    "faxNumber": "(0043) 5 010097500",
    "email": "kaltenbach@sparkasse-schwaz.at",
    "url": "http://www.sparkasse.at"
  },
  "description": [
    {
      "@language": "de",
      "@value": "Bankfiliale der Sparkasse in Kaltenbach"
    },
    {
      "@language": "de",
      "@value": "Mo - Fr: \t08:00 - 12:30 + 14:30 - 17:00 \n"
    },
    {
      "@language": "en",
      "@value": "bank in Kaltenbach"
    },
    {
      "@language": "en",
      "@value": "Monday - Friday:\t08:00 - 12:30 + 14:30 - 17:00 \n"
    }
  ],
  "image": [
    {
      "@type": "ImageObject",
      "url": "http://resc.deskline.net/images/ZIL/1/54246576-b99a-487e-b4bf-1c7a6a74aa27/99/image.jpg",
      "caption": [
        {
          "@language": "en",
          "@value": "Sparkasse Kaltenbach"
        },
        {
          "@language": "de",
          "@value": "Sparkasse Kaltenbach"
        }
      ]
    }
  ]
}