{
  "@context": "http://schema.org",
  "@type": "FoodEstablishment",
  "name": [
    {
      "@language": "en",
      "@value": "Gogola - Après Ski Alm"
    },
    {
      "@language": "de",
      "@value": "Gogola - Après Ski Alm"
    }
  ],
  "geo": {
    "@type": "GeoCoordinates",
    "latitude": "47.2690544380454",
    "longitude": "11.7759529838531"
  },
  "address": {
    "@type": "PostalAddress",
    "name": "Gogola Après Ski Alm",
    "streetAddress": "Hochfügen 27",
    "addressCountry": "AT",
    "postalCode": "6264",
    "addressRegion": "Hochfügen",
    "telephone": "(0043) 5280 5312",
    "email": "info@berghotel-hochfuegen.at",
    "url": "http://www.gogola.at/"
  },
  "description": [
    {
      "@language": "de",
      "@value": "Après-Ski Lokal direkt in Hochfügen beim Berghotel Hochfügen"
    },
    {
      "@language": "de",
      "@value": "im Winter täglich von 11:00 bis 19:00 Uhr\nSonderöffnungszeiten und Abend-Veranstaltungen laut Homepage"
    },
    {
      "@language": "en",
      "@value": "Après-Ski Bar in Hochfügen"
    },
    {
      "@language": "en",
      "@value": "11.00 am till 7.00 pm"
    }
  ],
  "image": [
    {
      "@type": "ImageObject",
      "url": "http://resc.deskline.net/images/ZIL/1/01193d4b-6159-42d5-8bf3-d6ded4e587f9/99/image.jpg",
      "caption": [
        {
          "@language": "en",
          "@value": "Gogola Apres Ski in Hochfügen"
        },
        {
          "@language": "de",
          "@value": "Gogola Apres Ski in Hochfügen"
        }
      ]
    }
  ],
  "url": [
    "www.berghotel-hochfuegen.at"
  ]
}