{
  "@context": "http://schema.org",
  "@type": "Store",
  "name": [
    {
      "@language": "en",
      "@value": "Pfarramt"
    },
    {
      "@language": "de",
      "@value": "Pfarramt"
    }
  ],
  "geo": {
    "@type": "GeoCoordinates",
    "latitude": "47.345801932356288",
    "longitude": "11.848829984664917"
  },
  "address": {
    "@type": "PostalAddress",
    "name": "Pfarramt Fügen",
    "streetAddress": "Lindenweg 1",
    "addressCountry": "AT",
    "postalCode": "6263",
    "addressRegion": "Fügen",
    "telephone": "(0043) 5288 62240"
  },
  "description": [
    {
      "@language": "de",
      "@value": "neben Büchern, Zeitschriften und CD-Roms auch Spieleverleih\nTel.: +43 (5288) 62240"
    },
    {
      "@language": "en",
      "@value": "books, magazines, cd-roms, games to rent\nphone: +43 (5288) 62240"
    }
  ],
  "image": [
    {
      "@type": "ImageObject",
      "url": "http://resc.deskline.net/images/ZIL/1/efc2a316-e4ff-4f92-b8af-3360f3a266a1/99/image.jpg",
      "caption": [
        {
          "@language": "en",
          "@value": "Logo EFZ"
        },
        {
          "@language": "de",
          "@value": "Logo EFZ"
        }
      ]
    }
  ]
}