{
  "@context": "http://schema.org",
  "@type": "TouristAttraction",
  "name": [
    {
      "@language": "en",
      "@value": "Church Hl. Bartholomäus"
    },
    {
      "@language": "de",
      "@value": "Pfarrkirche Hl. Bartholomäus"
    }
  ],
  "geo": {
    "@type": "GeoCoordinates",
    "latitude": "47.3502289078606",
    "longitude": "11.873613595962524"
  },
  "address": {
    "@type": "PostalAddress",
    "name": "Pfarramt",
    "streetAddress": "Hnr. 24",
    "addressCountry": "AT",
    "postalCode": "6265",
    "addressRegion": "Hart im Zillertal",
    "telephone": "(0043) 5283 2225"
  },
  "description": [
    {
      "@language": "de",
      "@value": "Gottesdienste: Sonntag 08.30 Uhr und 19.30 Uhr"
    },
    {
      "@language": "en",
      "@value": "Church services (r.c.), Sunday  08.30 Uhr und 19.30 Uhr"
    }
  ],
  "image": [
    {
      "@type": "ImageObject",
      "url": "http://resc.deskline.net/images/ZIL/1/50686cc1-df29-48fc-8087-2552e0dbf6d9/99/image.jpg",
      "caption": [
        {
          "@language": "en",
          "@value": "Logo EFZ"
        },
        {
          "@language": "de",
          "@value": "Logo EFZ"
        }
      ]
    }
  ]
}