{
  "@context": "http://schema.org",
  "@type": "HealthAndBeautyBusiness",
  "name": [
    {
      "@language": "en",
      "@value": "med. Fußpflege, Maniküre - Irene Thönig"
    },
    {
      "@language": "de",
      "@value": "med. Fußpflege, Maniküre - Irene Thönig"
    }
  ],
  "geo": {
    "@type": "GeoCoordinates",
    "latitude": "47.3484044",
    "longitude": "11.8500381"
  },
  "address": {
    "@type": "PostalAddress",
    "streetAddress": "Hauptstraße 53",
    "addressCountry": "AT",
    "postalCode": "6263",
    "addressRegion": "Fügen"
  },
  "image": [
    {
      "@type": "ImageObject",
      "url": "http://resc.deskline.net/images/ZIL/1/7fc4b635-ed9c-43f1-89f0-efd7d3202288/99/image.jpg",
      "caption": [
        {
          "@language": "en",
          "@value": "Logo"
        },
        {
          "@language": "de",
          "@value": "Logo"
        }
      ]
    }
  ],
  "url": [
    "http://"
  ]
}