{
  "@context": "http://schema.org",
  "@type": "SportsActivityLocation",
  "name": [
    {
      "@language": "en",
      "@value": "Kinderspielplatz Uderns beim Waldfestplatz"
    },
    {
      "@language": "de",
      "@value": "Kinderspielplatz Uderns beim Waldfestplatz"
    }
  ],
  "geo": {
    "@type": "GeoCoordinates",
    "latitude": "47.3251566423886",
    "longitude": "11.8538203958008"
  },
  "address": {
    "@type": "PostalAddress",
    "name": "Erste Ferienregion im Zillertal",
    "addressCountry": "AT",
    "postalCode": "6271",
    "addressRegion": "Uderns",
    "telephone": "(0043) 5288 62262",
    "email": "info@best-of-zillertal.at",
    "url": "http://www.best-of-zillertal.at"
  },
  "description": [
    {
      "@language": "de",
      "@value": "     "
    },
    {
      "@language": "en",
      "@value": "   "
    }
  ],
  "url": [
    "http://www.best-of-zillertal.at"
  ]
}