{
  "@context": "http://schema.org",
  "@type": "HealthAndBeautyBusiness",
  "name": [
    {
      "@language": "en",
      "@value": "Nageldesign Angelika Driessen"
    },
    {
      "@language": "de",
      "@value": "Nageldesign Angelika Driessen"
    }
  ],
  "geo": {
    "@type": "GeoCoordinates",
    "latitude": "47.3444926",
    "longitude": "11.8526339"
  },
  "address": {
    "@type": "PostalAddress",
    "streetAddress": "Bahnhofstraße 16",
    "addressCountry": "AT",
    "postalCode": "6273",
    "addressRegion": "Ried im Zillertal",
    "telephone": "(0043) 699 19962408"
  },
  "image": [
    {
      "@type": "ImageObject",
      "url": "http://resc.deskline.net/images/ZIL/1/8d6174cc-8127-4acc-8aa4-f997c66cd7b0/99/image.jpg",
      "caption": [
        {
          "@language": "en",
          "@value": "Logo"
        },
        {
          "@language": "de",
          "@value": "Logo"
        }
      ]
    }
  ],
  "url": [
    "http://"
  ]
}