{
  "@context": "http://schema.org",
  "@type": "Store",
  "name": [
    {
      "@language": "en",
      "@value": "schnaps from the producer"
    },
    {
      "@language": "de",
      "@value": "Ferienhotel Platzlhof"
    }
  ],
  "geo": {
    "@type": "GeoCoordinates",
    "latitude": "47.2992417014547",
    "longitude": "11.8625575304031"
  },
  "address": {
    "@type": "PostalAddress",
    "name": "A. und K. Wimpissinger GmbH",
    "streetAddress": "Taxachgraflweg 2",
    "addressCountry": "AT",
    "postalCode": "6273",
    "addressRegion": "Ried im Zillertal",
    "telephone": "(0043) 5283 2338",
    "faxNumber": "(0043) 5283 2338 4",
    "email": "info@platzlhof.at",
    "url": "http://www.platzlhof.at"
  },
  "description": [
    {
      "@language": "de",
      "@value": "Schnaps vom Bauern"
    },
    {
      "@language": "de",
      "@value": "Bauernobstler"
    },
    {
      "@language": "en",
      "@value": "farmers schnaps"
    }
  ],
  "image": [
    {
      "@type": "ImageObject",
      "url": "http://resc.deskline.net/images/ZIL/1/1cd45d55-9aaf-492c-a574-87c70ec4ad99/99/image.jpg",
      "caption": [
        {
          "@language": "en",
          "@value": "Logo Platzlhof"
        },
        {
          "@language": "de",
          "@value": "Logo Platzlhof"
        }
      ]
    }
  ]
}