{
  "@context": "http://schema.org",
  "@type": "Store",
  "name": [
    {
      "@language": "en",
      "@value": "Festivity hall"
    },
    {
      "@language": "de",
      "@value": "Festhalle"
    }
  ],
  "geo": {
    "@type": "GeoCoordinates",
    "latitude": "47.372961282283093",
    "longitude": "11.839839220046997"
  },
  "address": {
    "@type": "PostalAddress",
    "name": "Erste Ferienregion im Zillertal",
    "streetAddress": "Hauptstrasse 54",
    "addressCountry": "AT",
    "postalCode": "6263",
    "addressRegion": "Fügen",
    "telephone": "(0043) 5288 62262",
    "faxNumber": "(0043) 5288 63070",
    "email": "info@best-of-zillertal.at",
    "url": "http://www.best-of-zillertal.at"
  },
  "image": [
    {
      "@type": "ImageObject",
      "url": "http://resc.deskline.net/images/ZIL/1/35f6e365-7654-458b-958c-80773d2f6383/99/image.jpg",
      "caption": [
        {
          "@language": "en",
          "@value": "Logo EFZ"
        },
        {
          "@language": "de",
          "@value": "Logo EFZ"
        }
      ]
    }
  ]
}