{
  "@context": "http://schema.org",
  "@type": "Store",
  "name": [
    {
      "@language": "en",
      "@value": "Raiffeisenbank"
    },
    {
      "@language": "de",
      "@value": "Raiffeisenbank Aschau"
    }
  ],
  "geo": {
    "@type": "GeoCoordinates",
    "latitude": "47.262201333025686",
    "longitude": "11.89595103263855"
  },
  "address": {
    "@type": "PostalAddress",
    "name": "Raiffeisenbank ",
    "streetAddress": "Dorfplatz 4",
    "addressCountry": "AT",
    "postalCode": "6274",
    "addressRegion": "Aschau im Zillertal",
    "telephone": "(0043) 5282 2253",
    "email": "rbz.aschau@rbz.at",
    "url": "http://www.rbz.at/"
  },
  "description": [
    {
      "@language": "de",
      "@value": "Bankstelle im Zentrum von Aschau im Zillertal\n"
    },
    {
      "@language": "de",
      "@value": "Montag – Freitag 08.00 – 12.00 Uhr\nund 14.00 – 17.00 Uhr"
    },
    {
      "@language": "en",
      "@value": "bank in the center of Aschau"
    },
    {
      "@language": "en",
      "@value": "Monday – Friday 08.00 – 12.00\nand 14.00 – 17.00"
    }
  ],
  "image": [
    {
      "@type": "ImageObject",
      "url": "http://resc.deskline.net/images/ZIL/1/be1b981e-45a2-4342-92e5-e6ffd5e2fa4d/99/image.jpg",
      "caption": [
        {
          "@language": "en",
          "@value": "Raiffeisenbank Zillertal"
        },
        {
          "@language": "de",
          "@value": "Raiffeisenbank Zillertal"
        }
      ]
    }
  ]
}