{
  "@context": "http://schema.org",
  "@type": "SportsActivityLocation",
  "name": [
    {
      "@language": "en",
      "@value": "Privat Ski-school Sebastian Keiler"
    },
    {
      "@language": "de",
      "@value": "Privat-Skischule Sebastian Keiler"
    }
  ],
  "geo": {
    "@type": "GeoCoordinates",
    "latitude": "47.2622408",
    "longitude": "11.8934218"
  },
  "address": {
    "@type": "PostalAddress",
    "name": "Privat-Skischule Sebastian Keiler",
    "streetAddress": "Mühlfeldweg 10",
    "addressCountry": "AT",
    "postalCode": "6274",
    "addressRegion": "Aschau im Zillertal",
    "telephone": "(0043) 650 5100449",
    "email": "info@sebastian.or.at",
    "url": "http://www.sebastian.or.at"
  },
  "description": [
    {
      "@language": "de",
      "@value": "Privat Skischule, Freeriding, Skitouren, Skiguiding"
    }
  ],
  "image": [
    {
      "@type": "ImageObject",
      "url": "http://resc.deskline.net/images/ZIL/1/3db0fb89-0adf-4030-ada4-f6d5eb229431/99/image.png",
      "caption": [
        {
          "@language": "en",
          "@value": "Logo Sebastian Keiler"
        },
        {
          "@language": "de",
          "@value": "Logo Sebastian Keiler"
        }
      ]
    }
  ]
}