{
  "@context": "http://schema.org",
  "@type": "FoodEstablishment",
  "name": [
    {
      "@language": "en",
      "@value": "Kellerjochhütte"
    },
    {
      "@language": "de",
      "@value": "Kellerjochhütte"
    }
  ],
  "geo": {
    "@type": "GeoCoordinates",
    "latitude": "47.3165483966006",
    "longitude": "11.7647266387939"
  },
  "address": {
    "@type": "PostalAddress",
    "name": "Kellerjochhütte",
    "streetAddress": "Zintberg 67",
    "addressCountry": "AT",
    "postalCode": "6130",
    "addressRegion": "Schwaz",
    "telephone": "(0043) 664 508 04 18",
    "email": "info@kellerjoch.at",
    "url": "http://www.kellerjoch.at"
  },
  "description": [
    {
      "@language": "de",
      "@value": "2.237 m\nTel.: +43 (5242) 72433, 0664/5080418"
    },
    {
      "@language": "de",
      "@value": "Sommer:\nvon Juni bis Oktober geöffnet\n\nWinter:\nnicht geöffnet"
    },
    {
      "@language": "en",
      "@value": "2.237 m\nPhone: +43 (5242) 72433, 0664/5080418"
    },
    {
      "@language": "en",
      "@value": "Summer:\nopen from June to October\n\nWinter:\nis closed"
    }
  ],
  "image": [
    {
      "@type": "ImageObject",
      "url": "http://resc.deskline.net/images/ZIL/1/0c46be97-1722-4406-a6f2-5376d344e856/99/image.gif",
      "caption": [
        {
          "@language": "en",
          "@value": "Logo Kellerjochhütte"
        },
        {
          "@language": "de",
          "@value": "Logo Kellerjochhütte"
        }
      ]
    }
  ]
}