{
  "@context": "http://schema.org",
  "@type": "TouristAttraction",
  "name": [
    {
      "@language": "en",
      "@value": "Nepomukkapelle"
    },
    {
      "@language": "de",
      "@value": "Nepomukkapelle"
    }
  ],
  "geo": {
    "@type": "GeoCoordinates",
    "latitude": "47.377458631490384",
    "longitude": "11.839978694915771"
  },
  "address": {
    "@type": "PostalAddress",
    "name": "Pfarramt Schlitters",
    "streetAddress": "Hnr. 108",
    "addressCountry": "AT",
    "postalCode": "6262",
    "addressRegion": "Schlitters",
    "telephone": "(0043) 5244 62105"
  },
  "image": [
    {
      "@type": "ImageObject",
      "url": "http://resc.deskline.net/images/ZIL/1/fdc0eb8a-a553-4c6f-9996-ae406c6ee203/99/image.jpg",
      "caption": [
        {
          "@language": "en",
          "@value": "Logo EFZ"
        },
        {
          "@language": "de",
          "@value": "Logo EFZ"
        }
      ]
    }
  ]
}