{
  "@context": "http://schema.org",
  "@type": "CivicStructure",
  "name": [
    {
      "@language": "en",
      "@value": "Boschdienst Falch"
    },
    {
      "@language": "de",
      "@value": "Boschdienst Falch"
    }
  ],
  "geo": {
    "@type": "GeoCoordinates",
    "latitude": "47.3968168287995",
    "longitude": "11.8181186914444"
  },
  "address": {
    "@type": "PostalAddress",
    "name": "Gebr. Falch GmbH \u0026 Co KG",
    "streetAddress": "Siedlung 77",
    "addressCountry": "AT",
    "postalCode": "6261",
    "addressRegion": "Strass im Zillertal",
    "telephone": "(0043) 5244 69000",
    "faxNumber": "(0043) 5244 690043",
    "email": "info.strass@falch.co.at",
    "url": "http://www.falch.co.at/"
  },
  "description": [
    {
      "@language": "de",
      "@value": "Hnr. 77, Tel.: 05244/6900-0"
    },
    {
      "@language": "en",
      "@value": "Hnr. 77, phone: 05244/6900-0"
    }
  ],
  "image": [
    {
      "@type": "ImageObject",
      "url": "http://resc.deskline.net/images/ZIL/1/62edd458-6152-4c6a-aa52-94f6499a8804/99/image.jpg",
      "caption": [
        {
          "@language": "en",
          "@value": "Logo Falch"
        },
        {
          "@language": "de",
          "@value": "Logo Falch"
        }
      ]
    }
  ]
}