{
  "@context": "http://schema.org",
  "@type": "Store",
  "name": [
    {
      "@language": "en",
      "@value": "M-Preis"
    },
    {
      "@language": "de",
      "@value": "M-Preis Supermarkt"
    }
  ],
  "geo": {
    "@type": "GeoCoordinates",
    "latitude": "47.340109561117764",
    "longitude": "11.850283741950989"
  },
  "address": {
    "@type": "PostalAddress",
    "name": "M-Preis",
    "streetAddress": "Bahnhofstraße 4",
    "addressCountry": "AT",
    "postalCode": "6263",
    "addressRegion": "Fügen",
    "telephone": "(0043) 5288 66010",
    "email": "info@mpreis.at",
    "url": "http://www.mpreis.at/"
  },
  "description": [
    {
      "@language": "de",
      "@value": "Bahnhofstraße 4,  A-6263 Fügen\nTel.: +43 (5288) 66010\nund\nPankrazbergstraße 18,  A-6263 Fügen\nTel.: +43 (5288) 64699"
    },
    {
      "@language": "de",
      "@value": "Montag - Donnerstag 07:30 - 19:00\nFreitag 07:30 - 19:30\nSamstag 07:30 - 18:00"
    },
    {
      "@language": "en",
      "@value": "Bahnhofstr. 4, A-6263 Fügen\nPhone: +43 (5288) 66010\nand\nPankrazbergstr. 18, A-6263 Fügen\nPhone: +43 (5288) 64699"
    },
    {
      "@language": "en",
      "@value": "Monday till Thursday 07:30 - 19:00\nFriday 07:30 - 19:30\nSaturday 07:30 - 18:00"
    }
  ],
  "image": [
    {
      "@type": "ImageObject",
      "url": "http://resc.deskline.net/images/ZIL/1/cab23fa9-2bb6-4092-9124-f0bd381cc63c/99/image.jpg",
      "caption": [
        {
          "@language": "en",
          "@value": "M-Preis Fügen"
        },
        {
          "@language": "de",
          "@value": "M-Preis Fügen"
        }
      ]
    }
  ],
  "url": [
    "http://www.mpreis.at/"
  ]
}