{
  "@context": "http://schema.org",
  "@type": "Store",
  "name": [
    {
      "@language": "en",
      "@value": "Alex Travel"
    },
    {
      "@language": "de",
      "@value": "Alex Travel"
    }
  ],
  "geo": {
    "@type": "GeoCoordinates",
    "latitude": "47.396021575757082",
    "longitude": "11.820972561836243"
  },
  "address": {
    "@type": "PostalAddress",
    "name": "Alex Travel",
    "streetAddress": "Hnr. 68",
    "addressCountry": "AT",
    "postalCode": "6261",
    "addressRegion": "Strass im Zillertal",
    "telephone": "(0043) 5244  62804",
    "faxNumber": "(0043) 5244 62804 15",
    "email": "office@alextravel.at",
    "url": "http://www.alextravel.at"
  },
  "description": [
    {
      "@language": "de",
      "@value": "Hnr. 68\n6261 Strass \nTelefonnummer: 0043/5244/62804\nFaxnummer: 0043/5244/62804-15\ne-mail: office@alextravel.at"
    },
    {
      "@language": "en",
      "@value": "Hnr. 68\n6261 Strass \nTelefonnummer: 0043/5244/62804\nFaxnummer: 0043/5244/62804-15\ne-mail: office@alextravel.at"
    }
  ],
  "image": [
    {
      "@type": "ImageObject",
      "url": "http://resc.deskline.net/images/ZIL/1/1110c245-5156-4668-aa32-1e90da8df563/99/image.jpg",
      "caption": [
        {
          "@language": "en",
          "@value": "alex travel"
        },
        {
          "@language": "de",
          "@value": "alex travel"
        }
      ]
    }
  ]
}