{
  "@context": "http://schema.org",
  "@type": "HealthAndBeautyBusiness",
  "name": [
    {
      "@language": "en",
      "@value": "nature Feelings, Gabi Schiestl"
    },
    {
      "@language": "de",
      "@value": "nature Feelings, Gabi Schiestl"
    }
  ],
  "geo": {
    "@type": "GeoCoordinates",
    "latitude": "47.3411948",
    "longitude": "11.8466513"
  },
  "address": {
    "@type": "PostalAddress",
    "name": "nature Feelings",
    "streetAddress": "Wiesengasse 14",
    "addressCountry": "AT",
    "postalCode": "6263",
    "addressRegion": "Fügen"
  },
  "image": [
    {
      "@type": "ImageObject",
      "url": "http://resc.deskline.net/images/ZIL/1/70d2eb61-daae-49b8-b927-abc9408e40c6/99/image.jpg",
      "caption": [
        {
          "@language": "en",
          "@value": "Logo"
        },
        {
          "@language": "de",
          "@value": "Logo"
        }
      ]
    }
  ],
  "url": [
    "http://"
  ]
}