{
  "@context": "http://schema.org",
  "@type": "Store",
  "name": [
    {
      "@language": "en",
      "@value": "Raiffeisenlagerhaus"
    },
    {
      "@language": "de",
      "@value": "Raiffeisen Lagerhaus"
    }
  ],
  "geo": {
    "@type": "GeoCoordinates",
    "latitude": "47.346005479603178",
    "longitude": "11.864279508590698"
  },
  "address": {
    "@type": "PostalAddress",
    "name": "Raiffeisenlagerhaus",
    "streetAddress": "Harterstraße 2",
    "addressCountry": "AT",
    "postalCode": "6265",
    "addressRegion": "Hart im Zillertal",
    "telephone": "(0043) 5288 64000",
    "faxNumber": "(0043) 5288 64000 17",
    "email": "mail@hart.lgh.at",
    "url": "http://www.raiffeisen.at/eBusiness/01_template1/1028401070229-NA-134579589989023"
  },
  "description": [
    {
      "@language": "de",
      "@value": "Geschäft für Baumaterial, Gartenbedarf und Heimwerker"
    },
    {
      "@language": "de",
      "@value": " Montag - Freitag:\t 07.30 - 12.00 Uhr und 13.00 - 17.30 Uhr\n Samstag:\t 07.30 - 12.00 Uhr"
    },
    {
      "@language": "en",
      "@value": "shop for gardeners and workman"
    }
  ],
  "image": [
    {
      "@type": "ImageObject",
      "url": "http://resc.deskline.net/images/ZIL/1/a9f16c78-e976-425a-8e42-147f561d1f3b/99/image.jpg",
      "caption": [
        {
          "@language": "en",
          "@value": "Lagerhaus Hart"
        },
        {
          "@language": "de",
          "@value": "Lagerhaus Hart"
        }
      ]
    }
  ]
}