{
  "@context": "http://schema.org",
  "@type": "FoodEstablishment",
  "name": [
    {
      "@language": "en",
      "@value": "W\u0026R Catering"
    },
    {
      "@language": "de",
      "@value": "W\u0026R Catering"
    }
  ],
  "geo": {
    "@type": "GeoCoordinates",
    "latitude": "47.3305473",
    "longitude": "11.8642955"
  },
  "address": {
    "@type": "PostalAddress",
    "name": "W\u0026R Catering",
    "streetAddress": "Schöffstallstr. 1",
    "addressCountry": "AT",
    "postalCode": "6263",
    "addressRegion": "Fügen",
    "telephone": "(0043) 6763948707",
    "email": "info@catering-zillertal.at"
  },
  "description": [
    {
      "@language": "de",
      "@value": "Manfred Wildauer und Stefan Reisigl und Team haben nur ein Ziel: die persönliche Betreuung ihrer Kunden! Sie sind ein Cateringservice aus der Zillertaler Top-Gastronomie mit eigenem Restaurant. \nDazu gehören ausgezeichnete Küche, bestes service sowie erlesene Weine.\nMittagstische für Kindergärten und Schulen werden ebenso angeboten!"
    }
  ],
  "image": [
    {
      "@type": "ImageObject",
      "url": "http://resc.deskline.net/images/ZIL/1/5df30f10-9ccf-4f68-be70-7d0b44f742c5/99/image.jpg",
      "caption": [
        {
          "@language": "en",
          "@value": "W\u0026R Catering"
        },
        {
          "@language": "de",
          "@value": "W\u0026R Catering"
        }
      ]
    }
  ],
  "url": [
    "http://"
  ]
}