{
  "@context": "http://schema.org",
  "@type": "Store",
  "name": [
    {
      "@language": "en",
      "@value": "Zillertal Tourismus GmbH"
    },
    {
      "@language": "de",
      "@value": "Zillertal Tourismus GmbH"
    }
  ],
  "geo": {
    "@type": "GeoCoordinates",
    "latitude": "47.3809385463859",
    "longitude": "11.8348556756973"
  },
  "address": {
    "@type": "PostalAddress",
    "name": "Zillertal Tourismus GmbH",
    "streetAddress": "Nr. 27d",
    "addressCountry": "AT",
    "postalCode": "6262",
    "addressRegion": "Schlitters",
    "telephone": "(0043) 5288 87187",
    "faxNumber": "(0043) 55288 871871",
    "email": "info@zillertal.at",
    "url": "http://www.zillertal.at"
  },
  "description": [
    {
      "@language": "de",
      "@value": "Bundesstr. 27d, A-6262 Schlitters\nTel.: +43 (5288) 87187"
    },
    {
      "@language": "en",
      "@value": "Bundesstr. 27d, A-6262 Schlitters\nPhone: +43 (5288) 87187"
    }
  ],
  "image": [
    {
      "@type": "ImageObject",
      "url": "http://resc.deskline.net/images/ZIL/1/9e236de6-0f4a-489a-9fd9-3561068d2e27/99/image.png",
      "caption": [
        {
          "@language": "en",
          "@value": "Logo"
        },
        {
          "@language": "de",
          "@value": "Logo"
        }
      ]
    }
  ]
}