{
  "@context": "http://schema.org",
  "@type": "FoodEstablishment",
  "name": [
    {
      "@language": "en",
      "@value": "Postalm"
    },
    {
      "@language": "de",
      "@value": "Postalm"
    }
  ],
  "geo": {
    "@type": "GeoCoordinates",
    "latitude": "47.288170156761",
    "longitude": "11.8734285235405"
  },
  "address": {
    "@type": "PostalAddress",
    "name": "Postalm",
    "streetAddress": "Untere Embergstraße 2",
    "addressCountry": "AT",
    "postalCode": "6272",
    "addressRegion": "Kaltenbach",
    "telephone": "(0043) 5283 28909",
    "email": "post@diepostalm.info",
    "url": "http://www.postalm.info"
  },
  "description": [
    {
      "@language": "de",
      "@value": "JEDEN MONTAG, DONNERSTAG UND FREITAG ab 21:00 Uhr LIVE MUSIK!\nDAILY APRES SKI MEGAPARTY von 15:00 - 19:00 Uhr!\nRESTAURANT von 11:30 - 22:00 Uhr! \nAbendrestaurant ab 19:15 Uhr !"
    },
    {
      "@language": "en",
      "@value": "Monday, Thursday and Friday LIVE-music!\ndaily Apres-Ski-Party\nrestaurant open daily 11:30 a.m. until 10:00 p.m."
    }
  ],
  "image": [
    {
      "@type": "ImageObject",
      "url": "http://resc.deskline.net/images/ZIL/1/b34fbc4b-c2d9-4cd5-9ef0-aac28b2d9fd5/99/image.jpg",
      "caption": [
        {
          "@language": "en",
          "@value": "Postalm_außen"
        },
        {
          "@language": "de",
          "@value": "Postalm_außen"
        }
      ]
    },
    {
      "@type": "ImageObject",
      "url": "http://resc.deskline.net/images/ZIL/1/52f2b87f-1b19-4b8d-a4c6-2ce63df3e34b/99/image.jpg",
      "caption": [
        {
          "@language": "en",
          "@value": "Postalm_innen"
        },
        {
          "@language": "de",
          "@value": "Postalm_innen"
        }
      ]
    }
  ]
}