{
  "@context": "http://schema.org",
  "@type": "HealthAndBeautyBusiness",
  "name": [
    {
      "@language": "en",
      "@value": "Gasthof Hochzillertal"
    },
    {
      "@language": "de",
      "@value": "Hotel Hochzillertal"
    }
  ],
  "geo": {
    "@type": "GeoCoordinates",
    "latitude": "47.2913919",
    "longitude": "11.8709107"
  },
  "address": {
    "@type": "PostalAddress",
    "name": "Hotel Hochzillertal - Annemarie Platzer KG",
    "streetAddress": "Dorfstraße 16",
    "addressCountry": "AT",
    "postalCode": "6272",
    "addressRegion": "Kaltenbach",
    "telephone": "(0043) 5283 2420",
    "faxNumber": "(0043) 5283 24204",
    "email": "info@hotel-hochzillertal.at",
    "url": "http://www.hotel-hochzillertal.at"
  },
  "image": [
    {
      "@type": "ImageObject",
      "url": "http://resc.deskline.net/images/ZIL/1/1c94ba13-1336-4ccc-b618-71600b8e4ba7/99/image.jpg",
      "caption": [
        {
          "@language": "en",
          "@value": "Logo Hotel Hochzillertal"
        },
        {
          "@language": "de",
          "@value": "Logo Hotel Hochzillertal"
        }
      ]
    }
  ]
}