{
  "@context": "http://schema.org",
  "@type": "FoodEstablishment",
  "name": [
    {
      "@language": "en",
      "@value": "Pizzeria La Strada - Harterhof"
    },
    {
      "@language": "de",
      "@value": "Pizzeria La Strada - Harterhof"
    }
  ],
  "geo": {
    "@type": "GeoCoordinates",
    "latitude": "47.3457510454219",
    "longitude": "11.8659907579422"
  },
  "address": {
    "@type": "PostalAddress",
    "name": "Pizzeria La Strada - Harterhof",
    "streetAddress": "Harter Straße 30",
    "addressCountry": "AT",
    "postalCode": "6265",
    "addressRegion": "Hart im Zillertal",
    "telephone": "(0043) 5288 62300",
    "email": "info@pizzerialastrada.at",
    "url": "http://www.pizzerialastrada.at/"
  },
  "description": [
    {
      "@language": "de",
      "@value": "05288/62300"
    },
    {
      "@language": "en",
      "@value": "05288/62300"
    }
  ],
  "image": [
    {
      "@type": "ImageObject",
      "url": "http://resc.deskline.net/images/ZIL/1/0ed4abb9-6eef-4391-9855-b4f59e78d611/99/image.jpg",
      "caption": [
        {
          "@language": "en",
          "@value": "Logo La Strada"
        },
        {
          "@language": "de",
          "@value": "Logo La Strada"
        }
      ]
    }
  ]
}