{
  "@context": "http://schema.org",
  "@type": "CivicStructure",
  "name": [
    {
      "@language": "en",
      "@value": "AVANTI fuel station"
    },
    {
      "@language": "de",
      "@value": "AVANTI Tankstelle"
    }
  ],
  "geo": {
    "@type": "GeoCoordinates",
    "latitude": "47.3514355395773",
    "longitude": "11.8514639139175"
  },
  "address": {
    "@type": "PostalAddress",
    "name": "AVANTI Tankstelle",
    "streetAddress": "Zillertalstraße 14",
    "addressCountry": "AT",
    "postalCode": "6263",
    "addressRegion": "Fügen",
    "url": "http://www.avanti.at"
  },
  "description": [
    {
      "@language": "de",
      "@value": "Zillertalstraße 14,  A-6263 Fügen\n24h tanken an den Automaten - Tankstellen!"
    },
    {
      "@language": "en",
      "@value": "Zillerstraße 14, A-6263 Fügen\nfuel 24 h a day!"
    }
  ],
  "image": [
    {
      "@type": "ImageObject",
      "url": "http://resc.deskline.net/images/ZIL/1/d4cae28e-74e4-4fd7-9116-c52971c5aeb5/99/image.jpg",
      "caption": [
        {
          "@language": "en",
          "@value": "Logo Avanti"
        },
        {
          "@language": "de",
          "@value": "Logo Avanti"
        }
      ]
    }
  ]
}