{
  "@context": "http://schema.org",
  "@type": "FoodEstablishment",
  "name": [
    {
      "@language": "en",
      "@value": "Holzalm"
    },
    {
      "@language": "de",
      "@value": "Holzalm"
    }
  ],
  "geo": {
    "@type": "GeoCoordinates",
    "latitude": "47.2687466049193",
    "longitude": "11.7936944961548"
  },
  "address": {
    "@type": "PostalAddress",
    "name": "Dworschak-Holzalm KG",
    "streetAddress": "Holzalm 10",
    "addressCountry": "AT",
    "postalCode": "6264",
    "addressRegion": "Fügenberg",
    "telephone": "(0043) 664 887 86731",
    "email": "rita@holzalm.com",
    "url": "http://www.holzalm.com"
  },
  "description": [
    {
      "@language": "de",
      "@value": "Die neue urige Hütten\nIn der Wintersaison 13/14 eröffnete in 2.000 Metern Höhe in der Ersten Ferienregion des Zillertales eine neue bewirtschaftete Almhütte. Die \"Holzalm\" liegt auf der Sonnenseite des Skigebietes Hochfügen am Treffpunkt der Pisten 1, 2 und 3. Die großzügige Sonnenterrasse mit traumhaftem Ausblick und eigener Außenbar bietet Platz für 250 Gäste. Aber auch der Innenraum im typisch rustikalen tirolerischen Stil und das knisternde Kaminfeuer laden mit 130 Sitzplätzen zu einem urigen Erlebnis ein. Ein kompetentes Team kümmert sich um Ihr leibliches Wohl und bietet Ihnen Zillertaler Spezialitäten von frischen Produkten aus der Region. Was braucht man mehr für einen gelungenen Skitag!\nWinter: Anfang Dezember bis April \nSommer: Mitte Juni bis Mitte September immer am Wochenende\n\nWeitere Informationen telefonisch unter +43 664 887 86729\n\nwww.holzalm.com\n"
    },
    {
      "@language": "de",
      "@value": "Sommer: \nvon Mitte Juni bis Mitte September (Freitag bis Sonntag)\n\nWinter: \nvon Dezember bis April (täglich geöffnet)"
    },
    {
      "@language": "en",
      "@value": "Summer:\nFrom the middle of June to the middle of September (Friday to Sunnday)\n\nWinter:\nFrom December to April (daily open)"
    }
  ],
  "image": [
    {
      "@type": "ImageObject",
      "url": "http://resc.deskline.net/images/ZIL/1/fffde65c-609e-444f-b193-e73e7a68439b/99/image.jpg",
      "caption": [
        {
          "@language": "en",
          "@value": "Holzalm"
        },
        {
          "@language": "de",
          "@value": "Holzalm"
        }
      ]
    }
  ]
}