{
  "@context": "http://schema.org/",
  "@type": "Event",
  "name": [
    {
      "@language": "de",
      "@value": "Full Moon Skiing - Vollmond Geflüster"
    },
    {
      "@language": "en",
      "@value": "Full Moon Skiing"
    }
  ],
  "startDate": [
    "2017-01-13",
    "2017-02-11",
    "2017-03-11"
  ],
  "endDate": [
    "2017-01-13",
    "2017-02-11",
    "2017-03-11"
  ],
  "organizer": {
    "@type": "Organization",
    "name": "Bergbahnen Hochzillertal GmbH\u0026CoKG",
    "address": {
      "@type": "PostalAddress",
      "name": "Bergbahnen Hochzillertal GmbH\u0026CoKG",
      "streetAddress": "Postfeldstraße 7",
      "addressCountry": "AT",
      "postalCode": "6272",
      "addressRegion": "Kaltenbach",
      "telephone": "(0043) 5283 2800",
      "faxNumber": "(0043) 5283 2800 19",
      "email": "info@hochzillertal.com",
      "url": "http://www.hochzillertal.com"
    }
  },
  "location": {
    "@type": "PostalAddress",
    "name": "Bergbahnen Hochzillertal GmbH\u0026CoKG",
    "streetAddress": "Postfeldstraße 7",
    "addressCountry": "AT",
    "postalCode": "6272",
    "addressRegion": "Kaltenbach",
    "telephone": "(0043) 5283 2800",
    "faxNumber": "(0043) 5283 2800 19",
    "email": "info@hochzillertal.com",
    "url": "http://www.hochzillertal.com"
  },
  "description": [
    {
      "@language": "de",
      "@value": "Erlebe das Glitzern des Vollmonds auf 2.150 m Seehöhe. Ein eindrucksvolles Vollmond-Erlebnis am Kamin mit „Zillertaler Geschichten“, gelesen von Martina Keiler. Musikalisch umrahmt wird der Abend von Michaela, Christiane und Paul. Los geht’s ab ca. 17.00 Uhr auf der Kristallhütte mit einem gemütlichen Umtrunk. Nach einem Kristallinen Menü mit Weinbegleitung fahren wir mit den Skiguides ins Tal. Achtung! Limitierte Plätze. Teilnahme nur mit Vorreservierung möglich. Treffpunkt um 16.00 Uhr, Kristallhütte. Ca. 22.30 Uhr Abfahrt mit Stirnlampen und Skiguides. Preis/Person: EUR 125,- (inkl. Umtrunk, 5 Gang Menü inkl. Weinbegleitung, Kaffee und Wasser sowie Skiguides und Stirnlampen – limitierte Teilnehmeranzahl, nur geübte Skifahrer!)"
    },
    {
      "@language": "en",
      "@value": "Enjoy the glitter of full-moon on 2.150 m sea-level. Special event with stories from the Zillertal by Martina Keiler incl. live music. Start: 5.00 pm at the Kristallhütte. After dinner and wine descent with ski-guides. Attention: limited number of participants. Participation only after incription. Meetin point 4.00 pm at the Kristallhütte. Price per person: EUR 125,- incl. drink, 5-course-dinner incl. wine, coffee and water as well as ski-guides and headlight; only for skilled skiers!"
    }
  ]
}