{
  "@context": "http://schema.org/",
  "@type": "Event",
  "name": [
    {
      "@language": "de",
      "@value": "Tag der offenen Tür"
    },
    {
      "@language": "en",
      "@value": "Day of the open door"
    }
  ],
  "startDate": [
    "2017-08-06"
  ],
  "endDate": [
    "2017-08-06"
  ],
  "organizer": {
    "@type": "Organization",
    "name": "Gemeindeamt",
    "employee": {
      "@type": "Person",
      "givenName": "Gemeinde",
      "familyName": "Hart im Zillertal"
    },
    "address": {
      "@type": "PostalAddress",
      "name": "Gemeindeamt",
      "streetAddress": "Kirchplatz 1",
      "addressCountry": "AT",
      "postalCode": "6265",
      "addressRegion": "Hart",
      "telephone": "(0043) 5288 62331 0",
      "email": "office@gemeinde-hart.com",
      "url": "http://www.gemeinde-hart.com/"
    }
  },
  "location": {
    "@type": "PostalAddress",
    "name": "Gemeindeamt",
    "streetAddress": "Kirchplatz 1",
    "addressCountry": "AT",
    "postalCode": "6265",
    "addressRegion": "Hart",
    "telephone": "(0043) 5288 62331 0",
    "email": "office@gemeinde-hart.com",
    "url": "http://www.gemeinde-hart.com/"
  },
  "description": [
    {
      "@language": "de",
      "@value": "."
    },
    {
      "@language": "en",
      "@value": "."
    }
  ]
}