{
  "@context": "http://schema.org/",
  "@type": "Event",
  "name": [
    {
      "@language": "de",
      "@value": "Season End Party"
    },
    {
      "@language": "en",
      "@value": "Season End Party"
    }
  ],
  "startDate": [
    "2017-04-16"
  ],
  "endDate": [
    "2017-04-16"
  ],
  "organizer": {
    "@type": "Organization",
    "name": "Platzlalm Wimpissinger GmbH",
    "address": {
      "@type": "PostalAddress",
      "name": "Platzlalm Wimpissinger GmbH",
      "streetAddress": "Ried 33",
      "addressCountry": "AT",
      "postalCode": "6272",
      "addressRegion": "Ried",
      "telephone": "(0043) 5283 20577",
      "faxNumber": "(0043) 5283 20577400",
      "email": "info@platzlalm.at",
      "url": "http://www.platzlalm.at"
    }
  },
  "location": {
    "@type": "PostalAddress",
    "name": "Platzlalm Wimpissinger GmbH",
    "streetAddress": "Ried 33",
    "addressCountry": "AT",
    "postalCode": "6272",
    "addressRegion": "Ried",
    "telephone": "(0043) 5283 20577",
    "faxNumber": "(0043) 5283 20577400",
    "email": "info@platzlalm.at",
    "url": "http://www.platzlalm.at"
  },
  "description": [
    {
      "@language": "de",
      "@value": "Live mit den Cash Money Brothers"
    },
    {
      "@language": "en",
      "@value": "Live with the Cash Money Brothers\n"
    }
  ],
  "image": [
    {
      "@type": "ImageObject",
      "url": "http://resc.deskline.net/images/ZIL/1/03e309f8-5e11-453c-880c-a151f089f611/99/image.jpg",
      "caption": [
        {
          "@language": "de",
          "@value": "Season End"
        },
        {
          "@language": "en",
          "@value": "Season End"
        }
      ]
    }
  ]
}