{
  "@context": "http://schema.org",
  "@type": "Event",
  "name": [
    {
      "@language": "de",
      "@value": "STARMIX"
    },
    {
      "@language": "en",
      "@value": "STARMIX"
    }
  ],
  "startDate": [
    "2016-12-30",
    "2017-03-24"
  ],
  "endDate": [
    "2016-12-30",
    "2017-03-24"
  ],
  "organizer": {
    "@type": "Organization",
    "name": "Postalm",
    "employee": {
      "@type": "Person",
      "givenName": "Thomas",
      "familyName": "Holzer"
    },
    "address": {
      "@type": "PostalAddress",
      "name": "Postalm",
      "streetAddress": "Untere Embergstraße 2",
      "addressCountry": "AT",
      "postalCode": "6272",
      "addressRegion": "Kaltenbach",
      "telephone": "(0043) 5283 28909",
      "email": "post@diepostalm.info",
      "url": "http://www.postalm.info"
    }
  },
  "location": {
    "@type": "PostalAddress",
    "name": "Postalm",
    "streetAddress": "Untere Embergstraße 2",
    "addressCountry": "AT",
    "postalCode": "6272",
    "addressRegion": "Kaltenbach",
    "telephone": "(0043) 5283 28909",
    "email": "post@diepostalm.info",
    "url": "http://www.postalm.info"
  },
  "description": [
    {
      "@language": "de",
      "@value": "."
    },
    {
      "@language": "en",
      "@value": "."
    }
  ]
}