{
  "@context": "http://schema.org",
  "@type": "Event",
  "name": [
    {
      "@language": "de",
      "@value": "Beachmountain the Spring Party"
    },
    {
      "@language": "en",
      "@value": "Beachmountain the Spring Party"
    }
  ],
  "startDate": [
    "2017-03-25"
  ],
  "endDate": [
    "2017-03-25"
  ],
  "organizer": {
    "@type": "Organization",
    "name": "Wedelhütte",
    "employee": {
      "@type": "Person",
      "givenName": "Manfred",
      "familyName": "Kleiner"
    },
    "address": {
      "@type": "PostalAddress",
      "name": "Wedelhütte",
      "streetAddress": "Skigebiet Hochzillertal",
      "addressCountry": "AT",
      "postalCode": "6272",
      "addressRegion": "Kaltenbach",
      "telephone": "(0043) 676 88632570",
      "email": "info@wedelhuette.at",
      "url": "http://www.wedelhuette.at"
    }
  },
  "location": {
    "@type": "PostalAddress",
    "name": "Wedelhütte",
    "streetAddress": "Skigebiet Hochzillertal",
    "addressCountry": "AT",
    "postalCode": "6272",
    "addressRegion": "Kaltenbach",
    "telephone": "(0043) 676 88632570",
    "email": "info@wedelhuette.at",
    "url": "http://www.wedelhuette.at"
  },
  "description": [
    {
      "@language": "de",
      "@value": "Mit DJ \"the WAZ Experienze, Tom Daubek und Saxmax"
    },
    {
      "@language": "en",
      "@value": "With  DJ \"the WAZ Experienze, Tom Daubek und Saxmax\n"
    }
  ]
}