{
  "@context": "http://schema.org",
  "@type": "Event",
  "name": [
    {
      "@language": "de",
      "@value": "Uderner Tanzlmusig mit Chef Andreas"
    },
    {
      "@language": "en",
      "@value": "Uderner Tanzlmusig mit Chef Andreas"
    }
  ],
  "startDate": [
    "2017-01-05",
    "2017-01-26"
  ],
  "endDate": [
    "2017-01-12",
    "2017-03-31"
  ],
  "organizer": {
    "@type": "Organization",
    "name": "Hotel Wöscherhof",
    "employee": {
      "@type": "Person",
      "givenName": "Andreas",
      "familyName": "Daigl"
    },
    "address": {
      "@type": "PostalAddress",
      "name": "Hotel Wöscherhof",
      "streetAddress": "Kirchweg 26",
      "addressCountry": "AT",
      "postalCode": "6271",
      "addressRegion": "Uderns",
      "telephone": "(0043) 5288 63054",
      "faxNumber": "(0043) 5288 63097",
      "email": "office@woescherhof.com",
      "url": "http://www.woescherhof.com"
    }
  },
  "location": {
    "@type": "PostalAddress",
    "name": "Hotel Wöscherhof",
    "streetAddress": "Kirchweg 26",
    "addressCountry": "AT",
    "postalCode": "6271",
    "addressRegion": "Uderns",
    "telephone": "(0043) 5288 63054",
    "faxNumber": "(0043) 5288 63097",
    "email": "office@woescherhof.com",
    "url": "http://www.woescherhof.com"
  },
  "description": [
    {
      "@language": "de",
      "@value": "Live. ZiM-lich guad. Tel. +43 5288 63054"
    },
    {
      "@language": "en",
      "@value": "Live. ZiM-lich guad. Tel. +43 5288 63054\n"
    }
  ]
}