{
  "@context": "http://schema.org",
  "@type": "Event",
  "name": [
    {
      "@language": "de",
      "@value": "Z3-Ball"
    },
    {
      "@language": "en",
      "@value": "Z3-Ball"
    }
  ],
  "startDate": [
    "2017-03-11"
  ],
  "endDate": [
    "2017-03-11"
  ],
  "organizer": {
    "@type": "Organization",
    "name": "Gasthof Goglhof-Fewo",
    "employee": {
      "@type": "Person",
      "givenName": "Konrad",
      "familyName": "Baumann"
    },
    "address": {
      "@type": "PostalAddress",
      "name": "Gasthof Goglhof-Fewo",
      "streetAddress": "Panoramastraße 50",
      "addressCountry": "AT",
      "postalCode": "6264",
      "addressRegion": "Fügenberg",
      "telephone": "(0043) 5288 62725",
      "faxNumber": "(0043) 5288 62725 66",
      "email": "goglhof@tirol.com",
      "url": "http://www.goglhof.at"
    }
  },
  "location": {
    "@type": "PostalAddress",
    "name": "Gasthof Goglhof-Fewo",
    "streetAddress": "Panoramastraße 50",
    "addressCountry": "AT",
    "postalCode": "6264",
    "addressRegion": "Fügenberg",
    "telephone": "(0043) 5288 62725",
    "faxNumber": "(0043) 5288 62725 66",
    "email": "goglhof@tirol.com",
    "url": "http://www.goglhof.at"
  },
  "description": [
    {
      "@language": "de",
      "@value": "Mit dabei das Kreuzjoch Duo"
    },
    {
      "@language": "en",
      "@value": "Also on stage \"Kreuzjoch Duo\"\n"
    }
  ],
  "image": [
    {
      "@type": "ImageObject",
      "url": "http://resc.deskline.net/images/ZIL/1/62bcacb8-01bd-42be-bf9b-cb7f83c80ac4/99/image.jpg",
      "caption": [
        {
          "@language": "de",
          "@value": "z3- Die 3 Zillertaler"
        },
        {
          "@language": "en",
          "@value": "z3- Die 3 Zillertaler"
        }
      ]
    }
  ]
}