{
  "@context": "http://schema.org",
  "@type": "Event",
  "name": [
    {
      "@language": "de",
      "@value": "After Work Bacardi Party"
    },
    {
      "@language": "en",
      "@value": "After Work Bacardi Party"
    }
  ],
  "startDate": [
    "2017-02-16",
    "2017-03-16"
  ],
  "endDate": [
    "2017-02-16",
    "2017-03-16"
  ],
  "organizer": {
    "@type": "Organization",
    "name": "KOSIS fun-food-bar",
    "address": {
      "@type": "PostalAddress",
      "name": "KOSIS fun-food-bar",
      "streetAddress": "Dorfplatz 2",
      "addressCountry": "AT",
      "postalCode": "6263",
      "addressRegion": "Fügen",
      "telephone": "(0043) 5288 62266",
      "faxNumber": "(0043) 5288 62172",
      "email": "info@kosis.at",
      "url": "http://www.kosis.at"
    }
  },
  "location": {
    "@type": "PostalAddress",
    "name": "KOSIS fun-food-bar",
    "streetAddress": "Dorfplatz 2",
    "addressCountry": "AT",
    "postalCode": "6263",
    "addressRegion": "Fügen",
    "telephone": "(0043) 5288 62266",
    "faxNumber": "(0043) 5288 62172",
    "email": "info@kosis.at",
    "url": "http://www.kosis.at"
  },
  "description": [
    {
      "@language": "de",
      "@value": "Mit DJ pfeFFa"
    },
    {
      "@language": "en",
      "@value": "With DJ pfeFFa\n\n\n"
    }
  ]
}