{
  "@context": "http://schema.org",
  "@type": "Event",
  "name": [
    {
      "@language": "de",
      "@value": "Landjugendfest"
    },
    {
      "@language": "en",
      "@value": "Landjugendfest"
    }
  ],
  "startDate": [
    "2017-08-19"
  ],
  "endDate": [
    "2017-08-19"
  ],
  "organizer": {
    "@type": "Organization",
    "name": "Gemeindeamt",
    "address": {
      "@type": "PostalAddress",
      "name": "Gemeindeamt",
      "streetAddress": "Schmiedau 17",
      "addressCountry": "AT",
      "postalCode": "6272",
      "addressRegion": "Kaltenbach",
      "telephone": "(0043) 5283 2210",
      "faxNumber": "(0043) 5283 22105",
      "email": "gemeinde@kaltenbach.tirol.gv.at",
      "url": "http://www.kaltenbach.at"
    }
  },
  "location": {
    "@type": "PostalAddress",
    "name": "Gemeindeamt",
    "streetAddress": "Schmiedau 17",
    "addressCountry": "AT",
    "postalCode": "6272",
    "addressRegion": "Kaltenbach",
    "telephone": "(0043) 5283 2210",
    "faxNumber": "(0043) 5283 22105",
    "email": "gemeinde@kaltenbach.tirol.gv.at",
    "url": "http://www.kaltenbach.at"
  },
  "description": [
    {
      "@language": "de",
      "@value": "Mit den Zillertaler Mander"
    },
    {
      "@language": "en",
      "@value": "Live with Zillertaler Mander\n"
    }
  ]
}