{
  "@context": "http://schema.org",
  "@type": "Event",
  "name": [
    {
      "@language": "de",
      "@value": "Tanzabend mit \"Mario K.\" live"
    },
    {
      "@language": "en",
      "@value": "Dance evening"
    }
  ],
  "startDate": [
    "2016-12-26",
    "2016-12-31",
    "2017-01-12",
    "2017-01-20",
    "2017-01-27",
    "2017-02-03",
    "2017-02-09",
    "2017-02-17",
    "2017-02-23",
    "2017-03-02",
    "2017-03-10",
    "2017-03-17",
    "2017-03-24",
    "2017-03-30",
    "2017-04-06",
    "2017-04-13",
    "2017-04-20"
  ],
  "endDate": [
    "2016-12-26",
    "2016-12-31",
    "2017-01-12",
    "2017-01-20",
    "2017-01-27",
    "2017-02-03",
    "2017-02-09",
    "2017-02-17",
    "2017-02-23",
    "2017-03-02",
    "2017-03-10",
    "2017-03-17",
    "2017-03-24",
    "2017-03-30",
    "2017-04-06",
    "2017-04-13",
    "2017-04-20"
  ],
  "organizer": {
    "@type": "Organization",
    "name": "Hotel Zillertaler Grillhof",
    "address": {
      "@type": "PostalAddress",
      "name": "Hotel Zillertaler Grillhof",
      "streetAddress": "Großriedstraße 16",
      "addressCountry": "AT",
      "postalCode": "6273",
      "addressRegion": "Ried im Zillertal",
      "telephone": "(0043) 5283 22500",
      "faxNumber": "(0043) 5283 3153",
      "email": "zillertaler.grillhof@tirol.com",
      "url": "http://www.zillertaler-grillhof.at"
    }
  },
  "location": {
    "@type": "PostalAddress",
    "name": "Hotel Zillertaler Grillhof",
    "streetAddress": "Großriedstraße 16",
    "addressCountry": "AT",
    "postalCode": "6273",
    "addressRegion": "Ried im Zillertal",
    "telephone": "(0043) 5283 22500",
    "faxNumber": "(0043) 5283 3153",
    "email": "zillertaler.grillhof@tirol.com",
    "url": "http://www.zillertaler-grillhof.at"
  },
  "description": [
    {
      "@language": "de",
      "@value": "Tel. +43 5283 2250"
    },
    {
      "@language": "en",
      "@value": "phone: +43 5283 2250"
    }
  ]
}