{
  "@context": "http://schema.org",
  "@type": "Event",
  "name": [
    {
      "@language": "de",
      "@value": "Ramba Zamba"
    },
    {
      "@language": "en",
      "@value": "Ramba Zamba"
    }
  ],
  "startDate": [
    "2016-12-27",
    "2017-02-27"
  ],
  "endDate": [
    "2017-02-17",
    "2017-03-15"
  ],
  "organizer": {
    "@type": "Organization",
    "name": "Berghotel Hochfügen",
    "employee": {
      "@type": "Person",
      "familyName": "Ernst Erlebach GmbH \u0026 CoKG"
    },
    "address": {
      "@type": "PostalAddress",
      "name": "Berghotel Hochfügen",
      "streetAddress": "Hochfügen 27",
      "addressCountry": "AT",
      "postalCode": "6264",
      "addressRegion": "Fügenberg",
      "telephone": "(0043) 5280 5312",
      "faxNumber": "(0043) 5280 531250",
      "email": "info@berghotel-hochfuegen.at",
      "url": "http://www.berghotel-hochfuegen.at"
    }
  },
  "location": {
    "@type": "PostalAddress",
    "name": "Berghotel Hochfügen",
    "streetAddress": "Hochfügen 27",
    "addressCountry": "AT",
    "postalCode": "6264",
    "addressRegion": "Fügenberg",
    "telephone": "(0043) 5280 5312",
    "faxNumber": "(0043) 5280 531250",
    "email": "info@berghotel-hochfuegen.at",
    "url": "http://www.berghotel-hochfuegen.at"
  },
  "description": [
    {
      "@language": "de",
      "@value": "Live"
    },
    {
      "@language": "en",
      "@value": "Live\n"
    }
  ]
}