{
  "@context": "http://schema.org",
  "@type": "Event",
  "name": [
    {
      "@language": "de",
      "@value": "Wochenende des offenen Tales"
    },
    {
      "@language": "en",
      "@value": "Weekend of the valley"
    }
  ],
  "startDate": [
    "2017-06-10"
  ],
  "endDate": [
    "2017-06-11"
  ],
  "organizer": {
    "@type": "Organization",
    "name": "Erste Ferienregion im Zillertal",
    "address": {
      "@type": "PostalAddress",
      "name": "Erste Ferienregion im Zillertal",
      "streetAddress": "Hauptstrasse 54",
      "addressCountry": "AT",
      "postalCode": "6263",
      "addressRegion": "Fügen",
      "telephone": "(0043) 5288 62262",
      "faxNumber": "(0043) 5288 63070",
      "email": "info@best-of-zillertal.at",
      "url": "http://www.best-of-zillertal.at"
    }
  },
  "location": {
    "@type": "PostalAddress",
    "name": "Erste Ferienregion im Zillertal",
    "streetAddress": "Hauptstrasse 54",
    "addressCountry": "AT",
    "postalCode": "6263",
    "addressRegion": "Fügen",
    "telephone": "(0043) 5288 62262",
    "faxNumber": "(0043) 5288 63070",
    "email": "info@best-of-zillertal.at",
    "url": "http://www.best-of-zillertal.at"
  },
  "description": [
    {
      "@language": "de",
      "@value": "Am 10. + 11. Juni 2017 startet das Zillertal mit einem erlebnisreichen, talweiten Event in den Bergsommer und bietet ein Wochenende der Vielfalt und Abwechslung.\nZahlreiche Betriebe im ganzen Tal laden zu einem kostenlosen Besuch ein."
    },
    {
      "@language": "en",
      "@value": "The whole valley"
    }
  ],
  "image": [
    {
      "@type": "ImageObject",
      "url": "http://resc.deskline.net/images/ZIL/1/cd4b09a1-493b-4817-9994-c57e4b6e67c3/99/image.jpg",
      "caption": [
        {
          "@language": "de",
          "@value": "Wochenende des offenen Tales"
        },
        {
          "@language": "en",
          "@value": "Wochenende des offenen Tales"
        }
      ]
    }
  ]
}