{
  "@context": "http://schema.org/",
  "@type": "LodgingBusiness",
  "url": [
    "http://www.apart-kleinundfein.at"
  ],
  "address": {
    "@type": "PostalAddress",
    "streetAddress": "Hnr. 145",
    "addressCountry": "AT",
    "postalCode": "6262",
    "addressRegion": "Schlitters",
    "telephone": "(0043) 0664 41 40 390",
    "email": "info@apart-kleinundfein.at",
    "url": "http://www.apart-kleinundfein.at"
  },
  "name": "Apartment Klein \u0026 Fein",
  "description": [
    {
      "@language": "de",
      "@value": "Unser modernes Apartment „Klein \u0026 Fein“  befindet sich im Zentrum der Gemeinde Schlitters im wunderschönen Zillertal. \n\nWir befinden uns direkt im Zentrum von Schlitters, wo Sie auch Geschäfte und Gasthäuser in unmittelbarer Nähe auffinden. \n\nDas geschmackvolle und hochwertig eingerichtete Apartment für die ganze Familie (bis zu 4 Personen) ist ca. 43m² groß und verfügt über kostenloses W-Lan, ein Doppelzimmer mit einer (Liege-) Couch sowie ein schönes Bad mit Dusche und WC. Die neue Wohnküche mit Essbereich ist sehr gut ausgestattet und beinhaltet u.a. eine Filterkaffeemaschine, einen Wasserkocher, einen Geschirrspüler, einen TV mit Radio, u.v.m.. Weiters befindet sich in der Wohnküche eine gemütliche Couch, die auch als Schlafsofa für max. 2 Personen genutzt werden kann. Natürlich haben wir auch einen Parkplatz für Sie.\n\nIm Sommer bietet die Gemeinde Schlitters Erholung und Sport: Der Naturbadesee, Abenteuerspielplatz, Wander- und Radwege liegen quasi vor der Haustür! Sommerfeste, Konzerte sowie Events am Badesee sorgen für Unterhaltung und Abwechslung. \n\nIm Winter dreht sich alles um den Spaß im Schnee! Das Skigebiet Spieljoch in Fügen befindet sich nur 5 km und das Skigebiet Hochfügen - Hochzillertal nur 10 km von unserem Apartment entfernt. Zum Entspannen nach einem aktiven Skierlebnis können Sie die Therme Fügen mit Wellness Bereich, Sauna und Erlebnisbad besuchen. \n\nOb Sommer oder Winter, bei uns sind Sie stets Herzlich Willkommen!\nChristoph \u0026 Bettina\n"
    },
    {
      "@language": "de",
      "@value": "Schlafzimmer - Bettwäsche, Doppelbett \nKüche - TV, Mikrowelle, Backofen, Kühlschrank, Geschirrspüler, Gefrierfach, Wasserkocher, Kaffeemaschine, 4-Plattenherd, Geschirrhandtücher, Schlafsofa, Geschirr\nBadezimmer - WC, Dusche, Waschbecken \nFlur - Gard"
    },
    {
      "@language": "de",
      "@value": "Mit dem Auto:\nVon München/Salzburg/Wien auf der A1, A8 und A93 bis Kiefersfelden. Weiter auf der A12 bis zur Ausfahrt Zillertal oder mautfrei über den Achenpass auf der B181 Achenseestraße bis nach Wiesing. Dann ins Zillertal bis Schlitters HNR 145."
    },
    {
      "@language": "en",
      "@value": "Our modern apartment \" Small is beautiful \" is located in the center of the municipality of Schlitters in the beautiful Ziller Valley .\n\nWe are located right in the center of Schlitters , where you find shops and taverns nearby.\n\nThe tasteful and well-appointed apartment for the whole family ( up to 5 people ) features free Wi-Fi , a double room with a couch and a nice bathroom with shower and toilet . The new kitchen with dining area is very well equipped and includes , inter alia, a coffee maker, kettle , dishwasher, TV , u.v.m .. Furthermore is located in the living room a comfortable couch that as a sofa bed for max . 2 people can be used ."
    },
    {
      "@language": "en",
      "@value": "Bedroom - linen, double bed\nKitchen - TV , microwave, oven , refrigerator, dishwasher , freezer, kettle , coffee maker, 4 ring stove , dish towels , sofa bed , dishes\nBathroom - toilet , shower, washbasin\nCorridor - Gard"
    },
    {
      "@language": "en",
      "@value": "By car:\nFrom Munich / Salzburg / Vienna on the A1 , A8 and A93 to Kiefersfelden . Continue on the A12 until the exit Zillertal or toll-free via the Achenpass on the B181 Achensee road to Wiesing . Then the Zillertal to Schlitters HNR 145."
    }
  ],
  "image": [
    {
      "@type": "ImageObject",
      "url": "http://resc.deskline.net/images/ZIL/1/851a2693-c2eb-4f94-8a2d-e92078433879/99/image.jpg",
      "caption": [
        {
          "@language": "de",
          "@value": "Logo"
        },
        {
          "@language": "en",
          "@value": "Logo"
        }
      ]
    },
    {
      "@type": "ImageObject",
      "url": "http://resc.deskline.net/images/ZIL/1/38963a9e-5bda-43bd-a2ab-e60b11298e67/99/image.jpg",
      "caption": [
        {
          "@language": "de",
          "@value": "Logo"
        },
        {
          "@language": "en",
          "@value": "Logo"
        }
      ]
    },
    {
      "@type": "ImageObject",
      "url": "http://resc.deskline.net/images/ZIL/1/9b9ccef4-9fdc-4e18-a401-fb4c3a478eb9/99/image.jpg",
      "caption": [
        {
          "@language": "de",
          "@value": "Apart Klein\u0026Fein"
        },
        {
          "@language": "en",
          "@value": "Apart Klein\u0026Fein"
        }
      ]
    },
    {
      "@type": "ImageObject",
      "url": "http://resc.deskline.net/images/ZIL/1/5d439075-da37-43a9-b0b4-48ce1cb5d257/99/image.jpg",
      "caption": [
        {
          "@language": "de",
          "@value": "Haus von Aussen"
        },
        {
          "@language": "en",
          "@value": "Haus von Aussen"
        }
      ]
    },
    {
      "@type": "ImageObject",
      "url": "http://resc.deskline.net/images/ZIL/1/d3fb6a99-1692-4bac-b6b9-6ac2a83121d1/99/image.jpg",
      "caption": [
        {
          "@language": "de",
          "@value": "Apart-KleinFein_06"
        },
        {
          "@language": "en",
          "@value": "Apart-KleinFein_06"
        }
      ]
    },
    {
      "@type": "ImageObject",
      "url": "http://resc.deskline.net/images/ZIL/1/d1399657-ffbf-4b7f-a549-1166c9845fa2/99/image.jpg",
      "caption": [
        {
          "@language": "de",
          "@value": "Apart-KleinFein_10"
        },
        {
          "@language": "en",
          "@value": "Apart-KleinFein_10"
        }
      ]
    },
    {
      "@type": "ImageObject",
      "url": "http://resc.deskline.net/images/ZIL/1/226081c7-cbf7-411d-be5a-39ef6d9fa093/99/image.jpg",
      "caption": [
        {
          "@language": "de",
          "@value": "Apart-KleinFein_09"
        },
        {
          "@language": "en",
          "@value": "Apart-KleinFein_09"
        }
      ]
    },
    {
      "@type": "ImageObject",
      "url": "http://resc.deskline.net/images/ZIL/1/355a118f-0768-4d75-bc3c-7b587b97aeeb/99/image.jpg",
      "caption": [
        {
          "@language": "de",
          "@value": "Apart-KleinFein_12"
        },
        {
          "@language": "en",
          "@value": "Apart-KleinFein_12"
        }
      ]
    },
    {
      "@type": "ImageObject",
      "url": "http://resc.deskline.net/images/ZIL/1/8591a375-d6f3-44cd-84c7-903473be238e/99/image.jpg",
      "caption": [
        {
          "@language": "de",
          "@value": "Apart-KleinFein_13"
        },
        {
          "@language": "en",
          "@value": "Apart-KleinFein_13"
        }
      ]
    },
    {
      "@type": "ImageObject",
      "url": "http://resc.deskline.net/images/ZIL/1/81008819-4e46-4965-9001-f6c9576bfa10/99/image.jpg",
      "caption": [
        {
          "@language": "de",
          "@value": "Apart-KleinFein_15"
        },
        {
          "@language": "en",
          "@value": "Apart-KleinFein_15"
        }
      ]
    },
    {
      "@type": "ImageObject",
      "url": "http://resc.deskline.net/images/ZIL/1/9d4a9b00-f2d8-4234-9e2d-5d66f4a006ef/99/image.jpg",
      "caption": [
        {
          "@language": "de",
          "@value": "Apart-KleinFein_11"
        },
        {
          "@language": "en",
          "@value": "Apart-KleinFein_11"
        }
      ]
    },
    {
      "@type": "ImageObject",
      "url": "http://resc.deskline.net/images/ZIL/1/6884e211-5e9d-4d7a-aac9-3c5847ec2a4f/99/image.jpg",
      "caption": [
        {
          "@language": "de",
          "@value": "Apart-KleinFein_17"
        },
        {
          "@language": "en",
          "@value": "Apart-KleinFein_17"
        }
      ]
    },
    {
      "@type": "ImageObject",
      "url": "http://resc.deskline.net/images/ZIL/1/6162c266-5b82-42c3-b2a6-58dcc1aff92c/99/image.jpg",
      "caption": [
        {
          "@language": "de",
          "@value": "Apart-KleinFein_18"
        },
        {
          "@language": "en",
          "@value": "Apart-KleinFein_18"
        }
      ]
    },
    {
      "@type": "ImageObject",
      "url": "http://resc.deskline.net/images/ZIL/1/d338b47e-dd48-40c9-8539-e2827d43170a/99/image.jpg",
      "caption": [
        {
          "@language": "de",
          "@value": "Kapelle"
        },
        {
          "@language": "en",
          "@value": "Kapelle"
        }
      ]
    },
    {
      "@type": "ImageObject",
      "url": "http://resc.deskline.net/images/ZIL/1/f6a06272-2662-41d8-b743-9e508f140efa/99/image.jpg",
      "caption": [
        {
          "@language": "de",
          "@value": "Wasserfall"
        },
        {
          "@language": "en",
          "@value": "Wasserfall"
        }
      ]
    },
    {
      "@type": "ImageObject",
      "url": "http://resc.deskline.net/images/ZIL/1/7edc88af-a0c8-49da-b92e-d2654811999d/99/image.jpg",
      "caption": [
        {
          "@language": "de",
          "@value": "Schlitters Spielplatz"
        },
        {
          "@language": "en",
          "@value": "Schlitters Spielplatz"
        }
      ]
    },
    {
      "@type": "ImageObject",
      "url": "http://resc.deskline.net/images/ZIL/1/5173d03f-f7d2-4e58-8c52-4095f58942f7/99/image.jpg",
      "caption": [
        {
          "@language": "de",
          "@value": "Schlitterer See"
        },
        {
          "@language": "en",
          "@value": "Schlitterer See"
        }
      ]
    },
    {
      "@type": "ImageObject",
      "url": "http://resc.deskline.net/images/ZIL/1/0d4a5ae5-db62-45a6-8b27-964c6da012a7/99/image.jpg",
      "caption": [
        {
          "@language": "de",
          "@value": "Schlitters"
        },
        {
          "@language": "en",
          "@value": "Schlitters"
        }
      ]
    },
    {
      "@type": "ImageObject",
      "url": "http://resc.deskline.net/images/ZIL/1/b11e1c55-4507-4b2e-a988-7042838da3d8/99/image.jpg",
      "caption": [
        {
          "@language": "de",
          "@value": "Schlitterer See"
        },
        {
          "@language": "en",
          "@value": "Schlitterer See"
        }
      ]
    },
    {
      "@type": "ImageObject",
      "url": "http://resc.deskline.net/images/ZIL/1/c9f12398-6df3-4f36-90ac-dab33b4d9d06/99/image.jpg",
      "caption": [
        {
          "@language": "de",
          "@value": "Mountianbiken"
        },
        {
          "@language": "en",
          "@value": "Mountianbiken"
        }
      ]
    },
    {
      "@type": "ImageObject",
      "url": "http://resc.deskline.net/images/ZIL/1/2c67231a-ca8b-4ba3-8852-893d72bea680/99/image.jpg",
      "caption": [
        {
          "@language": "de",
          "@value": "Sonnenaufgang"
        },
        {
          "@language": "en",
          "@value": "Sonnenaufgang"
        }
      ]
    }
  ],
  "geo": {
    "@type": "GeoCoordinates",
    "latitude": "47.3767106623504",
    "longitude": "11.8379445117005"
  },
  "currenciesAccepted": "EUR",
  "makesOffer": [
    {
      "@type": "Offer",
      "name": [
        {
          "@language": "de",
          "@value": "Appartement/Fewo, Dusche und Bad, WC, 1 Schlafraum"
        },
        {
          "@language": "en",
          "@value": "Apartment, shower and bath, toilet, 1 bed room"
        }
      ],
      "description": [
        {
          "@language": "de",
          "@value": "Apartment für die ganze Familie (bis zu 4 Personen), 43m² groß, kostenloses W-Lan, ein Doppelzimmer mit einer Couch, ein schönes Bad mit Dusche und WC, neue Wohnküche mit Essbereich - gut ausgestattet (beinhaltet u.a. eine Filterkaffeemaschine, einen Wasserkocher, einen Geschirrspüler, einen TV mit Radio, u.v.m.), in der Wohnküche befindet sich eine gemütliche Couch, die auch als Schlafsofa für max.2 Personen genutzt werden kann, Parkplätze vorhanden;"
        },
        {
          "@language": "en",
          "@value": "Apartment for the whole family ( up to 4 people ) , 43m² in size , Free Wi - Fi , a double room with one bed, a nice bathroom with a shower and a toilet, new kitchen with dining area - well equipped ( includes an a filter coffee machine , a kettle , a dishwasher , a TV with radio , etc. ) , in the kitchen there is a comfortable couch , which can use also as a sofa bed for max. 2 people, parking available ;"
        }
      ],
      "availability": "http://schema.org/InStock",
      "itemOffered": [
        {
          "@type": [
            "Apartment",
            "Product"
          ],
          "name": [
            {
              "@language": "de",
              "@value": "Appartement/Fewo, Dusche und Bad, WC, 1 Schlafraum"
            },
            {
              "@language": "en",
              "@value": "Apartment, shower and bath, toilet, 1 bed room"
            }
          ],
          "numberOfRooms": "2.0",
          "occupancy": {
            "@type": "QuantitativeValue",
            "maxValue": "4",
            "minValue": "2"
          }
        }
      ],
      "priceSpecification": [
        {
          "@type": "PriceSpecification",
          "description": "Pax 2",
          "minPrice": "42.00",
          "maxPrice": "65.00",
          "priceCurrency": "EUR"
        },
        {
          "@type": "PriceSpecification",
          "description": "Pax 3",
          "minPrice": "52.00",
          "maxPrice": "90.00",
          "priceCurrency": "EUR"
        },
        {
          "@type": "PriceSpecification",
          "description": "Pax 4",
          "minPrice": "62.00",
          "maxPrice": "115.00",
          "priceCurrency": "EUR"
        }
      ]
    }
  ]
}