{
  "@context": "http://schema.org",
  "@type": "LodgingBusiness",
  "url": [
    "http://"
  ],
  "address": {
    "@type": "PostalAddress",
    "streetAddress": "Riedbergstraße 30",
    "addressCountry": "AT",
    "postalCode": "6273",
    "addressRegion": "Ried im Zillertal",
    "telephone": "(0043) 664 6563685"
  },
  "name": "Gruber Andrea",
  "geo": {
    "@type": "GeoCoordinates",
    "latitude": "47.2978350637594",
    "longitude": "11.8601634876068"
  },
  "currenciesAccepted": "EUR"
}