{
  "@context": "http://schema.org",
  "@type": "LodgingBusiness",
  "url": [
    "www.haussinger.at",
    "http://maps.best-of-zillertal.at/proxy/frontend/page/fuegen/de?foreignResource\u003d060FA7F4-8BE2-421C-893F-A6BAD607B331"
  ],
  "address": {
    "@type": "PostalAddress",
    "streetAddress": "Dorfstraße 38",
    "addressCountry": "AT",
    "postalCode": "6274",
    "addressRegion": "Aschau",
    "telephone": "(0043) 5282 2914",
    "email": "info@haussinger.at",
    "url": "http://www.haussinger.at"
  },
  "name": "Haus Singer",
  "description": [
    {
      "@language": "de",
      "@value": "Haus im Tiroler Baustil, zentrale Lage gleich gegenüber der Skibushaltestelle, Schikeller m. Schischuhtrockner"
    },
    {
      "@language": "de",
      "@value": "Endreinigung - EUR 11,- pro Person im Winter / EUR 10,00 pro Person im Sommer\nBettwäsche, Hand- und Badetücher inkl.\nW-Lan auf Wunsch: EUR 20,00/Woche"
    },
    {
      "@language": "en",
      "@value": "House in tyrolean style, central location, nearby a skibusstop, room for skies and ski-shoe-drier"
    },
    {
      "@language": "en",
      "@value": "Final cleaning - EUR 10,00 per person in summer / EUR 11,00 per person in winter\nbed linen, towels are included.\nW-Lan on request: EUR 10,00/week"
    }
  ],
  "image": [
    {
      "@type": "ImageObject",
      "url": "http://resc.deskline.net/images/ZIL/1/0f867a99-5e30-452c-b81f-872d50f97913/99/image.jpg",
      "caption": [
        {
          "@language": "de",
          "@value": "Singer INNEN"
        },
        {
          "@language": "en",
          "@value": "Singer INNEN"
        }
      ]
    }
  ],
  "geo": {
    "@type": "GeoCoordinates",
    "latitude": "47.265129",
    "longitude": "11.896109"
  },
  "currenciesAccepted": "EUR",
  "makesOffer": [
    {
      "@type": "Offer",
      "name": [
        {
          "@language": "de",
          "@value": "Appartement/Fewo, Dusche, WC, 4 oder mehr Schlafräume"
        },
        {
          "@language": "en",
          "@value": "Apartment, shower, toilet, 4 or more bed rooms"
        }
      ],
      "description": [
        {
          "@language": "de",
          "@value": "Ferienwohnung für 2-8 Personen, komplett ausgestattete große Küche (Kühlschrank, Geschirrspüler, Herd mit 4 Kochplatten und Backrohr, Kaffeemaschine, TV) mit 2 Esstischen, 2 Schlafzimmer mit Doppelbett, Dusche und Waschbecken, 2 Schlafzimmer mit Bad, Dusche und WC, Balkon an der Ost- und Südseite. Jedes Zimmer mit TV."
        },
        {
          "@language": "en",
          "@value": "Apartment for 2-8 persons, completly equipped big kitchen (refrigerator, dishwasher, stove with 4 plates and oven, coffee machine, seating corner, tv) with 2 dining tabels, 2 bedrooms with double bed, shower and washbasin, 2 bedroom with bath; shower and toilet, balcony at the east and south side. Every room with tv.\n\n"
        }
      ],
      "availability": "http://schema.org/InStock",
      "itemOffered": [
        {
          "@type": [
            "Apartment",
            "Product"
          ],
          "name": [
            {
              "@language": "de",
              "@value": "Apartment/4 Schlafräume/Dusche, WC"
            },
            {
              "@language": "en",
              "@value": "Apartment, shower, toilet, 4 or more bed rooms"
            }
          ],
          "numberOfRooms": "7.0",
          "occupancy": {
            "@type": "QuantitativeValue",
            "maxValue": "9",
            "minValue": "2"
          }
        }
      ]
    },
    {
      "@type": "Offer",
      "name": [
        {
          "@language": "de",
          "@value": "Appartement/Fewo, Dusche, WC, 2 Schlafräume"
        },
        {
          "@language": "en",
          "@value": "Apartment, shower, toilet, 2 bed rooms"
        }
      ],
      "description": [
        {
          "@language": "de",
          "@value": "Ferienwohnung für 2-4 Personen im Dachgeschoss, 1 Schlafzimmer (Doppelbett) mit Dusche, WC und Waschbecken, 1 WC separat, TV, Küche mit Essecke (2 Kochplatten, Kaffeemaschine, Waschbecken), Schlafzimmer mit Schlafcouch und TV, Balkon an der Ost- und Südseite."
        },
        {
          "@language": "en",
          "@value": "Apartment for 2-4 persons in the top floor, 1 bedroom (doublebed) with shower, toilet and washbasin, 1 toilet separate, TV, kitchen with seating corner (2 hot plates, coffee machine, washbasin), bed room with sofa bed, balcony at the east and south side. \n\n"
        }
      ],
      "availability": "http://schema.org/InStock",
      "itemOffered": [
        {
          "@type": [
            "Apartment",
            "Product"
          ],
          "name": [
            {
              "@language": "de",
              "@value": "Apartment/2 Schlafräume/Dusche, WC"
            },
            {
              "@language": "en",
              "@value": "apartment/2 bedrooms/shower, WC"
            }
          ],
          "numberOfRooms": "4.0",
          "occupancy": {
            "@type": "QuantitativeValue",
            "maxValue": "4",
            "minValue": "2"
          }
        }
      ]
    }
  ]
}