{
  "@context": "http://schema.org",
  "@type": "LodgingBusiness",
  "address": {
    "@type": "PostalAddress",
    "streetAddress": "Tiefenbachweg 32",
    "addressCountry": "AT",
    "postalCode": "6274",
    "addressRegion": "Aschau im Zillertal",
    "faxNumber": "(0043) 05283 2428"
  },
  "name": "Luxner, Maria",
  "geo": {
    "@type": "GeoCoordinates",
    "latitude": "47.2636074322869",
    "longitude": "11.8773241377899"
  },
  "currenciesAccepted": "EUR"
}