{
  "@context": "http://schema.org",
  "@type": "LodgingBusiness",
  "url": [
    "http://"
  ],
  "address": {
    "@type": "PostalAddress",
    "name": "Alpen-Chalet-Pankraz",
    "streetAddress": "Asterweg 7",
    "addressCountry": "AT",
    "postalCode": "6264",
    "addressRegion": "Fügenberg",
    "telephone": "(0043) 676 3719525",
    "email": "monika.steinberger@gmx.at"
  },
  "name": "Alpen-Chalet-Pankraz",
  "description": [
    {
      "@language": "de",
      "@value": "Unser 250-Jahre altes Holzhaus mit gediegenem Flair ist ganzjährig per Auto zu erreichen.\nEs verfügt über 2 nette, holzgetäfelte Doppelzimmer, angrenzend ein Kleiderraum. Zum Wohlfühlen lädt die gediegene Zirbenstube mit weissem Kachelofen, Couch, Sitzecke und Sat-TV ein.\nAuch eine vollausgestattete Küche mit Ceranfeld, Backrohr, Dampfgarer, Kühlschrank, Spüle, Geschirrspüler, Kaffemaschine, Wasserkocher,\nToaster ist vorhanden.\nDas freundliche Wohlfühlbad mit grosser Badewanne, Dusche, Doppelwaschbecken, Handtuchwärmer sowie 2 Fenstern\nlässt jeden gut in den Morgen starten... Natürlich befindet sich in jeder Etage ein WC.\nAuf der überdachten Holzterrasse mit Blick auf die umliegenden Wiesen können Sie mit Morgensonne das Frühstück geniessen. Und ab und zu ist sogar ein Reh am nahegelegenen Waldrand zu beobachten...\nWeiters verfügt unser Chalet über eine grosse, innenliegende Garage für 1-2 Autos, Räder und Ski\u0027s.\n\nDie zentrale Lage zu 2 grossen Skigebieten \u0027Spieljoch\u0027 und \u0027Hochfügen-Hochzillertal\u0027 macht unser Haus für Sportler besonders interessant. Bei ausreichender Schneelage können Sie sogar direkt vorm Haus per Ski starten und zur Spieljochbahn abfahren. Aber auch die gute Skibusverbindung (Haltestelle 150m entfernt) bietet in beide Skigebiete eine gute Anbindung.\nKinder und Junggebliebene finden im anliegenden Kinderspielplatz mit Trampolin, Klettermöglichkeiten, Rutsche, Schaukeln sowie Wasserrinnen\nund einem grossen Kneipp-Becken die nötige Bewegung.\n\nIm ApartHotel Asterhof gibt\u0027s auf Bestellung auch Frühstück, Brötchenservice, eine Sauna/Dampfbad sowie E-Bikes und Mountainbikes (gegen Gebühr)."
    },
    {
      "@language": "de",
      "@value": "Bei Buchung 50% Anzahlung - der Restbetrag per Überweisung 3 Wochen vor Anreise oder in BAR bei Anreise. \nZuzüglich der einmaligen Endreinigung von € 140,00 und der Kurtaxe von € 0,75/Nacht (Sommer) und € 1,00/Nacht (Winter) pro Person ab dem 14. Lj."
    },
    {
      "@language": "de",
      "@value": "Intalautobahn A12 über Kufstein bis Ausfahrt Wiesing/Zillertal. Danach Zillertalbundesstraße B169 bis Ausfahrt Fügen Süd. Weiter Hochfügenerstraße\u0027 bis Spieljochbahn - bis Hotel Hubertus. Unterhalb Hotel Hubertus rechts - 150m dieser Straße folgen."
    }
  ],
  "image": [
    {
      "@type": "ImageObject",
      "url": "http://resc.deskline.net/images/ZIL/1/4fe51aac-2a1f-4dfb-af8f-dd3fe0d8dc9a/99/image.jpg",
      "caption": [
        {
          "@language": "de",
          "@value": "Unser Alpen-Chalet-Pankraz..."
        },
        {
          "@language": "en",
          "@value": "Unser Alpen-Chalet-Pankraz..."
        }
      ]
    },
    {
      "@type": "ImageObject",
      "url": "http://resc.deskline.net/images/ZIL/1/ec094723-2431-44f4-86fc-7ed2c18bf084/99/image.jpg",
      "caption": [
        {
          "@language": "de",
          "@value": ".... im Winter"
        },
        {
          "@language": "en",
          "@value": ".... im Winter"
        }
      ]
    },
    {
      "@type": "ImageObject",
      "url": "http://resc.deskline.net/images/ZIL/1/cc84c558-2289-4eed-a550-85c1b48f4d17/99/image.jpg",
      "caption": [
        {
          "@language": "de",
          "@value": "... und im Sommer"
        },
        {
          "@language": "en",
          "@value": "... und im Sommer"
        }
      ]
    },
    {
      "@type": "ImageObject",
      "url": "http://resc.deskline.net/images/ZIL/1/4d3ab1dd-2265-4e5d-8150-4f32cacaa139/99/image.jpg",
      "caption": [
        {
          "@language": "de",
          "@value": "... im Frühjahr"
        },
        {
          "@language": "en",
          "@value": "... im Frühjahr"
        }
      ]
    },
    {
      "@type": "ImageObject",
      "url": "http://resc.deskline.net/images/ZIL/1/429b9316-4bd4-41a6-9d2c-fd2bd5c160cc/99/image.jpg",
      "caption": [
        {
          "@language": "de",
          "@value": "... und mit schönem Blumenschmuck"
        },
        {
          "@language": "en",
          "@value": "... und mit schönem Blumenschmuck"
        }
      ]
    },
    {
      "@type": "ImageObject",
      "url": "http://resc.deskline.net/images/ZIL/1/c5ca5832-e206-43e8-9e7a-1b035bb96345/99/image.jpg",
      "caption": [
        {
          "@language": "de",
          "@value": "Herzlich Willkommen!"
        },
        {
          "@language": "en",
          "@value": "Herzlich Willkommen!"
        }
      ]
    },
    {
      "@type": "ImageObject",
      "url": "http://resc.deskline.net/images/ZIL/1/91f197ff-55d0-4b34-80eb-8de8e5b9abcb/99/image.jpg",
      "caption": [
        {
          "@language": "de",
          "@value": "Kneipp-Becken mit Wasserrinnen"
        },
        {
          "@language": "en",
          "@value": "Kneipp-Becken mit Wasserrinnen"
        }
      ]
    },
    {
      "@type": "ImageObject",
      "url": "http://resc.deskline.net/images/ZIL/1/8512c699-b490-4548-830d-66a3b7835e8a/99/image.jpg",
      "caption": [
        {
          "@language": "de",
          "@value": "Spielplatz"
        },
        {
          "@language": "en",
          "@value": "Spielplatz"
        }
      ]
    },
    {
      "@type": "ImageObject",
      "url": "http://resc.deskline.net/images/ZIL/1/39a35820-3c9a-4f83-b76e-7a8dcbb6dce3/99/image.jpg",
      "caption": [
        {
          "@language": "de",
          "@value": "Die gemütliche Zirbenstube"
        },
        {
          "@language": "en",
          "@value": "Die gemütliche Zirbenstube"
        }
      ]
    },
    {
      "@type": "ImageObject",
      "url": "http://resc.deskline.net/images/ZIL/1/48633acc-fdfd-4398-a1b2-d309cf42dc3c/99/image.jpg",
      "caption": [
        {
          "@language": "de",
          "@value": "Stube mit Couch und weißem Kachelofen"
        },
        {
          "@language": "en",
          "@value": "Stube mit Couch und weißem Kachelofen"
        }
      ]
    },
    {
      "@type": "ImageObject",
      "url": "http://resc.deskline.net/images/ZIL/1/64771d9b-f337-4942-b546-01f7edc842a7/99/image.jpg",
      "caption": [
        {
          "@language": "de",
          "@value": "Küche mit freundlicher Eßecke"
        },
        {
          "@language": "en",
          "@value": "Küche mit freundlicher Eßecke"
        }
      ]
    },
    {
      "@type": "ImageObject",
      "url": "http://resc.deskline.net/images/ZIL/1/7d379145-6930-4061-8a54-a5b7e9c50d66/99/image.jpg",
      "caption": [
        {
          "@language": "de",
          "@value": "_MG_1489"
        },
        {
          "@language": "en",
          "@value": "_MG_1489"
        }
      ]
    },
    {
      "@type": "ImageObject",
      "url": "http://resc.deskline.net/images/ZIL/1/0647fcdb-85f3-439c-abd9-de04135aea91/99/image.jpg",
      "caption": [
        {
          "@language": "de",
          "@value": "Komfortabel ausgestattet mit Holzherd"
        },
        {
          "@language": "en",
          "@value": "Komfortabel ausgestattet mit Holzherd"
        }
      ]
    },
    {
      "@type": "ImageObject",
      "url": "http://resc.deskline.net/images/ZIL/1/3d61b941-62d3-49ee-9b0a-aad9a418cdf5/99/image.jpg",
      "caption": [
        {
          "@language": "de",
          "@value": "Einfach zum wohlfühlen..."
        },
        {
          "@language": "en",
          "@value": "Einfach zum wohlfühlen..."
        }
      ]
    },
    {
      "@type": "ImageObject",
      "url": "http://resc.deskline.net/images/ZIL/1/865a5c77-0ce3-4afc-9ae2-cf04c13e5f2d/99/image.jpg",
      "caption": [
        {
          "@language": "de",
          "@value": "... mit viel Liebe zum Detail..."
        },
        {
          "@language": "en",
          "@value": "... mit viel Liebe zum Detail..."
        }
      ]
    },
    {
      "@type": "ImageObject",
      "url": "http://resc.deskline.net/images/ZIL/1/144a42d2-4403-44e7-a9c6-c76e7f743a46/99/image.jpg",
      "caption": [
        {
          "@language": "de",
          "@value": "Luxuriöses Bad"
        },
        {
          "@language": "en",
          "@value": "Luxuriöses Bad"
        }
      ]
    },
    {
      "@type": "ImageObject",
      "url": "http://resc.deskline.net/images/ZIL/1/9beb9aa9-4fed-4dcf-9787-9d40a6079dfa/99/image.jpg",
      "caption": [
        {
          "@language": "de",
          "@value": "große Vollglasdusche u. Doppelwaschbecken"
        },
        {
          "@language": "en",
          "@value": "große Vollglasdusche u. Doppelwaschbecken"
        }
      ]
    },
    {
      "@type": "ImageObject",
      "url": "http://resc.deskline.net/images/ZIL/1/f1740078-90ce-4f4b-9bf1-4e8e72aeb6ca/99/image.jpg",
      "caption": [
        {
          "@language": "de",
          "@value": "2 freundliche WC\u0027s"
        },
        {
          "@language": "en",
          "@value": "2 freundliche WC\u0027s"
        }
      ]
    },
    {
      "@type": "ImageObject",
      "url": "http://resc.deskline.net/images/ZIL/1/111d01d3-9ff6-4f19-b759-e1e497f0328c/99/image.jpg",
      "caption": [
        {
          "@language": "de",
          "@value": "Der Eingangsbereich mit antiken Garderobenschrank"
        },
        {
          "@language": "en",
          "@value": "Der Eingangsbereich mit antiken Garderobenschrank"
        }
      ]
    },
    {
      "@type": "ImageObject",
      "url": "http://resc.deskline.net/images/ZIL/1/27523b3e-2b3a-411a-ab7f-a039e0e11dcf/99/image.jpg",
      "caption": [
        {
          "@language": "de",
          "@value": "Der Stiegenaufgang - komplett aus Holz"
        },
        {
          "@language": "en",
          "@value": "Der Stiegenaufgang - komplett aus Holz"
        }
      ]
    },
    {
      "@type": "ImageObject",
      "url": "http://resc.deskline.net/images/ZIL/1/a014fddd-5ef7-4351-9e30-984c1652841b/99/image.jpg",
      "caption": [
        {
          "@language": "de",
          "@value": "Antike, schöne Möbel..."
        },
        {
          "@language": "en",
          "@value": "Antike, schöne Möbel..."
        }
      ]
    },
    {
      "@type": "ImageObject",
      "url": "http://resc.deskline.net/images/ZIL/1/33a75d89-2973-4c8b-8515-cc6f242d8509/99/image.jpg",
      "caption": [
        {
          "@language": "de",
          "@value": "Auf die Ski - uns los geht\u0027s - juchuiiii..."
        },
        {
          "@language": "en",
          "@value": "Auf die Ski - uns los geht\u0027s - juchuiiii..."
        }
      ]
    },
    {
      "@type": "ImageObject",
      "url": "http://resc.deskline.net/images/ZIL/1/ff37b18b-6334-44b1-9e50-2dec6abcfa2a/99/image.jpg",
      "caption": [
        {
          "@language": "de",
          "@value": "Der Ausblick von unserer Terrasse"
        },
        {
          "@language": "en",
          "@value": "Der Ausblick von unserer Terrasse"
        }
      ]
    },
    {
      "@type": "ImageObject",
      "url": "http://resc.deskline.net/images/ZIL/1/98553eab-6948-4c27-b115-9347cea45066/99/image.jpg",
      "caption": [
        {
          "@language": "de",
          "@value": "Frisches hofeigenes Quellwasser für den Brunnen"
        },
        {
          "@language": "en",
          "@value": "Frisches hofeigenes Quellwasser für den Brunnen"
        }
      ]
    },
    {
      "@type": "ImageObject",
      "url": "http://resc.deskline.net/images/ZIL/1/8eead1ae-887c-4a65-a92d-1cbe3486f915/99/image.jpg",
      "caption": [
        {
          "@language": "de",
          "@value": "Ein Blick hinauf zum Eingang und Brunnen"
        },
        {
          "@language": "en",
          "@value": "Ein Blick hinauf zum Eingang und Brunnen"
        }
      ]
    },
    {
      "@type": "ImageObject",
      "url": "http://resc.deskline.net/images/ZIL/1/6e3cdb58-e537-4235-a5a5-95433ddda1bf/99/image.jpg",
      "caption": [
        {
          "@language": "de",
          "@value": "Auf der Hausbank den Ausblick genießen..."
        },
        {
          "@language": "en",
          "@value": "Auf der Hausbank den Ausblick genießen..."
        }
      ]
    },
    {
      "@type": "ImageObject",
      "url": "http://resc.deskline.net/images/ZIL/1/e8550229-b04c-4947-afc2-8551979f9d38/99/image.jpg",
      "caption": [
        {
          "@language": "de",
          "@value": ".... mhhhh...."
        },
        {
          "@language": "en",
          "@value": ".... mhhhh...."
        }
      ]
    },
    {
      "@type": "ImageObject",
      "url": "http://resc.deskline.net/images/ZIL/1/f2b41aac-4c4f-4593-aaf1-5a5b3a0a088e/99/image.jpg",
      "caption": [
        {
          "@language": "de",
          "@value": "Quellwasser im gesamten Haus..."
        },
        {
          "@language": "en",
          "@value": "Quellwasser im gesamten Haus..."
        }
      ]
    },
    {
      "@type": "ImageObject",
      "url": "http://resc.deskline.net/images/ZIL/1/8394457f-bc97-4d56-8212-46bf52f218a3/99/image.jpg",
      "caption": [
        {
          "@language": "de",
          "@value": "Mit viel Liebe und Herzblut renoviert..."
        },
        {
          "@language": "en",
          "@value": "Mit viel Liebe und Herzblut renoviert..."
        }
      ]
    },
    {
      "@type": "ImageObject",
      "url": "http://resc.deskline.net/images/ZIL/1/96c33e35-a0ff-414f-bb77-85b6220cf946/99/image.jpg",
      "caption": [
        {
          "@language": "de",
          "@value": "Der 1. Sonnenstrahl an einem Wintermorgen"
        },
        {
          "@language": "en",
          "@value": "Der 1. Sonnenstrahl an einem Wintermorgen"
        }
      ]
    }
  ],
  "geo": {
    "@type": "GeoCoordinates",
    "latitude": "47.352097",
    "longitude": "11.8417274999999"
  },
  "currenciesAccepted": "EUR",
  "makesOffer": [
    {
      "@type": "Offer",
      "name": [
        {
          "@language": "de",
          "@value": "Ferienhaus, Toilette und Bad/Dusche getrennt, 2 Schlafräume"
        },
        {
          "@language": "en",
          "@value": "Holiday home, separate toilet and shower/bathtub, 2 bed rooms"
        }
      ],
      "availability": "http://schema.org/InStock",
      "itemOffered": [
        {
          "@type": [
            "Apartment",
            "Product"
          ],
          "name": [
            {
              "@language": "de",
              "@value": "Ferienhaus, Toilette und Bad/Dusche getrennt, 2 Sc"
            },
            {
              "@language": "en",
              "@value": "Holiday home, separate toilet and shower/bathtub, 2 bed rooms"
            }
          ],
          "numberOfRooms": "4.0",
          "occupancy": {
            "@type": "QuantitativeValue",
            "maxValue": "6",
            "minValue": "2"
          }
        }
      ],
      "priceSpecification": [
        {
          "@type": "PriceSpecification",
          "description": "Pax 2",
          "minPrice": "50.00",
          "maxPrice": "110.00",
          "priceCurrency": "EUR"
        },
        {
          "@type": "PriceSpecification",
          "description": "Pax 3",
          "minPrice": "50.00",
          "maxPrice": "110.00",
          "priceCurrency": "EUR"
        },
        {
          "@type": "PriceSpecification",
          "description": "Pax 4",
          "minPrice": "50.00",
          "maxPrice": "110.00",
          "priceCurrency": "EUR"
        },
        {
          "@type": "PriceSpecification",
          "description": "Pax 5",
          "minPrice": "45.00",
          "maxPrice": "61.00",
          "priceCurrency": "EUR"
        },
        {
          "@type": "PriceSpecification",
          "description": "Pax 6",
          "minPrice": "45.00",
          "maxPrice": "61.00",
          "priceCurrency": "EUR"
        }
      ]
    }
  ]
}