{
  "@context": "http://schema.org",
  "@type": "LodgingBusiness",
  "url": [
    "http://members.aon.at/schorpenhof",
    "http://maps.best-of-zillertal.at/proxy/frontend/page/fuegen/de?foreignResource\u003d0A7BACD5-1C1E-45C7-BFBF-678CB080C7B3"
  ],
  "address": {
    "@type": "PostalAddress",
    "streetAddress": "Riedern 1",
    "addressCountry": "AT",
    "postalCode": "6264",
    "addressRegion": "Fügenberg",
    "telephone": "(0043) 650 65 20 730",
    "email": "schorpenhof@aon.at",
    "url": "http://www.schorpenhof.at"
  },
  "name": "Schorpenhof",
  "description": [
    {
      "@language": "de",
      "@value": "Unser familienfreundlicher Bauernhof liegt in schöner, ruhiger Lage ca. 10 Gehminuten vom Zentrum Fügen entfernt. Unser Haus bietet Ihnen einen großen Aufenthaltsraum mit komplett eingerichteter Küche, Sat. und TV, sowie eine schöne Sonnenterasse, Liegewiese und einen Kinderspielplatz mit Blick in die herrliche Zillertaler Bergwelt.Die Schlafzimmer befinden sich im ersten Stock Im Sommer ist unser Haus der ideale Ausgangspunkt, um das \"Akitvste Tal der Welt\" zu erkunden. In unserer Nähe befindet sich das Erlebnisschwimmbad Fügen, Tennisplätze, Reitmöglichkeiten, Sommerrodelbahn mit Buggies, herrliche Wanderwege und anspruchsvolle Bergtouren, sowie viele Ausflugsmöglichkeiten. Im Winter liegt unser Haus in unmittelbarer Nähe der Top-Skizentren Spieljoch und Hochfügen/Hochzillertal. Auch viele Freizeitmöglichkeiten wie z.B. Rodelbahnen, Eislaufplatz, Langlaufloipe, Winterwanderwege, sowie die neue Freizeittherme Zillertal befinden sich in unserer Nähe."
    },
    {
      "@language": "de",
      "@value": "Endreinigung: € 8,-- pro Person"
    },
    {
      "@language": "en",
      "@value": "Our familiy-run farm is situated in beautiful, quiet position, 10 minutes far from the centre of Fügen. Our house offer you a big common-room with completely equiped kitch, satellite-TV as well as a beautiful sun terrace, sunbathing lawn and a children\u0027s playground. You have a beautiful view over the Zillertaler alps. In summer our farm is the ideal starting point, for finding out the \"most active village in the world\". Swimming pool, tennis court, horse riding possibilities, summer-tobbogan-run with buggies, beautiful hiking tours and trip possibilities are quite near. In winter our farm is situated next to the ski regions Spieljoch and Hochfügen/Hochzillertal. \n"
    },
    {
      "@language": "en",
      "@value": "Final cleaning: € 8,-- per person"
    }
  ],
  "aggregateRating": {
    "@type": "AggregateRating",
    "ratingValue": "4.6",
    "reviewCount": "23"
  },
  "image": [
    {
      "@type": "ImageObject",
      "url": "http://resc.deskline.net/images/ZIL/1/fe888f76-c6c4-4fde-9479-2b0408b5ef71/99/image.jpg",
      "caption": [
        {
          "@language": "de",
          "@value": "Do bin i Dahoam"
        },
        {
          "@language": "en",
          "@value": "Do bin i Dahoam"
        }
      ]
    },
    {
      "@type": "ImageObject",
      "url": "http://resc.deskline.net/images/ZIL/1/daca41e9-6267-4557-9ec9-be7162c57d02/99/image.jpg",
      "caption": [
        {
          "@language": "de",
          "@value": "Super Schnee"
        },
        {
          "@language": "en",
          "@value": "Super Schnee"
        }
      ]
    },
    {
      "@type": "ImageObject",
      "url": "http://resc.deskline.net/images/ZIL/1/925e4f6a-953f-486b-bffc-38076d468cec/99/image.jpg",
      "caption": [
        {
          "@language": "de",
          "@value": "Schorpenhof Sommer"
        },
        {
          "@language": "en",
          "@value": "Schorpenhof Sommer"
        }
      ]
    },
    {
      "@type": "ImageObject",
      "url": "http://resc.deskline.net/images/ZIL/1/7a2a41b1-42f2-4043-875f-a592a70bbcf9/99/image.jpg",
      "caption": [
        {
          "@language": "de",
          "@value": "Liebe zum Tier"
        },
        {
          "@language": "en",
          "@value": "Liebe zum Tier"
        }
      ]
    },
    {
      "@type": "ImageObject",
      "url": "http://resc.deskline.net/images/ZIL/1/fdf94a44-4e90-4892-ab90-da4ccb86cc80/99/image.jpg",
      "caption": [
        {
          "@language": "de",
          "@value": "Wasser Sonne und vieles Mehr"
        },
        {
          "@language": "en",
          "@value": "Wasser Sonne und vieles Mehr"
        }
      ]
    },
    {
      "@type": "ImageObject",
      "url": "http://resc.deskline.net/images/ZIL/1/a6ce31fd-e8ec-47f6-b492-9c46e3d53053/99/image.jpeg",
      "caption": [
        {
          "@language": "de",
          "@value": "Schneezauber"
        },
        {
          "@language": "en",
          "@value": "Schneezauber"
        }
      ]
    },
    {
      "@type": "ImageObject",
      "url": "http://resc.deskline.net/images/ZIL/1/a2fa734a-8b0d-42b4-8210-ee6d38d748ce/99/image.jpg",
      "caption": [
        {
          "@language": "de",
          "@value": "Fun"
        },
        {
          "@language": "en",
          "@value": "Fun"
        }
      ]
    },
    {
      "@type": "ImageObject",
      "url": "http://resc.deskline.net/images/ZIL/1/dac779dd-0c7e-4daa-9318-24c44a74ef95/99/image.jpg",
      "caption": [
        {
          "@language": "de",
          "@value": "Geburt"
        },
        {
          "@language": "en",
          "@value": "Geburt"
        }
      ]
    },
    {
      "@type": "ImageObject",
      "url": "http://resc.deskline.net/images/ZIL/1/b7fbcccd-f5d4-4a41-8d42-38f552a9490a/99/image.jpg",
      "caption": [
        {
          "@language": "de",
          "@value": "Sonnenaufgang Kellerjoch"
        },
        {
          "@language": "en",
          "@value": "Sonnenaufgang Kellerjoch"
        }
      ]
    },
    {
      "@type": "ImageObject",
      "url": "http://resc.deskline.net/images/ZIL/1/6a9335b2-c644-46fe-a6e2-5f4977ce62b4/99/image.jpg",
      "caption": [
        {
          "@language": "de",
          "@value": "Lass die Seele baumeln"
        },
        {
          "@language": "en",
          "@value": "Lass die Seele baumeln"
        }
      ]
    }
  ],
  "geo": {
    "@type": "GeoCoordinates",
    "latitude": "47.33505",
    "longitude": "11.845395"
  },
  "currenciesAccepted": "EUR",
  "makesOffer": [
    {
      "@type": "Offer",
      "name": [
        {
          "@language": "de",
          "@value": "Appartement/Fewo, Dusche, WC, 3 Schlafräume"
        },
        {
          "@language": "en",
          "@value": "Apartment, shower, toilet, 3 bed rooms"
        }
      ],
      "description": [
        {
          "@language": "de",
          "@value": "Unsere 3 neu errichteten Zimmer, haben wir für Sie liebevoll eingerichtet, um Ihnen eine gemütliche Atmosphäre zu verschaffen.\nDie Zimmer sind wie folgt eingeteilt:\nZimmer \"Spieljoch\" Vierbettzimmer\nZimmer \"Hochfügen\" Vierbettzimmer\nZimmer \"Hamberg\" Doppelzimmer\nGesamt: 10 Betten\nDie Zimmer, sowie 3 Bäder mit Dusche/WC befinden sich alle in einer Etage. (Gesamt ca. 80 m²)\nUnser Aufenthaltsraum mit neu eingebautem Kuchenblock (komplett ausgestattet) befindet sich in der untersten Etage (Backofen, Kaffeemaschine, Geschirrspüler, Wasserkocher, 4 Kochplatten, Kühlschrank mit Gefrierfach, Radio, Holzofen, Kabel TV)"
        },
        {
          "@language": "en",
          "@value": "Our 3 new furnished rooms are equipd very comfortable:\nThe rooms are arranged as follows:\nRoom \"Spieljoch\" four-bed room\nRoom \"Hochfügen\" four-bed room\nRoom \"Hambert\" double bed room\nComplete: 10 beds\nBed rooms and 3 bath rooms are all at the same floor (about 80 m²).\nLounge with small kitchen (completely equiped) at the ground floor (oven, coffee maker, dish washer, electric kettle, fridge and freezer, radio, cable tv)."
        }
      ],
      "availability": "http://schema.org/InStock",
      "itemOffered": [
        {
          "@type": [
            "Apartment",
            "Product"
          ],
          "name": [
            {
              "@language": "de",
              "@value": "Ap./3 Schlafräume/Dusche, WC"
            },
            {
              "@language": "en",
              "@value": "Apartment, shower, toilet, 3 bed rooms"
            }
          ],
          "numberOfRooms": "4.0",
          "occupancy": {
            "@type": "QuantitativeValue",
            "maxValue": "10",
            "minValue": "6"
          }
        }
      ],
      "priceSpecification": [
        {
          "@type": "PriceSpecification",
          "description": "Pax 6",
          "minPrice": "110.00",
          "maxPrice": "110.00",
          "priceCurrency": "EUR"
        },
        {
          "@type": "PriceSpecification",
          "description": "Pax 7",
          "minPrice": "130.00",
          "maxPrice": "130.00",
          "priceCurrency": "EUR"
        },
        {
          "@type": "PriceSpecification",
          "description": "Pax 8",
          "minPrice": "145.00",
          "maxPrice": "145.00",
          "priceCurrency": "EUR"
        },
        {
          "@type": "PriceSpecification",
          "description": "Pax 9",
          "minPrice": "160.00",
          "maxPrice": "160.00",
          "priceCurrency": "EUR"
        },
        {
          "@type": "PriceSpecification",
          "description": "Pax 10",
          "minPrice": "175.00",
          "maxPrice": "175.00",
          "priceCurrency": "EUR"
        }
      ]
    },
    {
      "@type": "Offer",
      "name": [
        {
          "@language": "de",
          "@value": "Vierbettzimmer, Dusche, WC"
        },
        {
          "@language": "en",
          "@value": "4-bed room, shower, toilet"
        }
      ],
      "description": [
        {
          "@language": "de",
          "@value": "Vierbettzimmer mit Dusche und WC, Etagenbett"
        },
        {
          "@language": "en",
          "@value": "fourbed room with shower and toilet, bunk bed"
        }
      ],
      "availability": "http://schema.org/InStock",
      "itemOffered": [
        {
          "@type": [
            "HotelRoom",
            "Product"
          ],
          "name": [
            {
              "@language": "de",
              "@value": "Vierbettzimmer mit Dusche, WC"
            },
            {
              "@language": "en",
              "@value": "room with 4 beds with shower, WC"
            }
          ],
          "bed": {
            "@type": "BedDetails",
            "numberOfBeds": "1"
          },
          "occupancy": {
            "@type": "QuantitativeValue",
            "maxValue": "4",
            "minValue": "2"
          }
        }
      ]
    },
    {
      "@type": "Offer",
      "name": [
        {
          "@language": "de",
          "@value": "Doppelzimmer, Dusche oder Bad, WC"
        },
        {
          "@language": "en",
          "@value": "Double room, shower or bath, toilet"
        }
      ],
      "description": [
        {
          "@language": "de",
          "@value": "gemütlich eingerichtete Doppelzimmer mit Dusche oder Bad und WC, Couch"
        },
        {
          "@language": "en",
          "@value": "cosy room with bath or  shower and toilet, sofa"
        }
      ],
      "availability": "http://schema.org/InStock",
      "itemOffered": [
        {
          "@type": [
            "HotelRoom",
            "Product"
          ],
          "name": [
            {
              "@language": "de",
              "@value": "Doppelzimmer mit Dusche od. Bad, WC"
            },
            {
              "@language": "en",
              "@value": "double room with shower or bath tube, WC"
            }
          ],
          "bed": {
            "@type": "BedDetails",
            "numberOfBeds": "1"
          },
          "occupancy": {
            "@type": "QuantitativeValue",
            "maxValue": "3",
            "minValue": "2"
          }
        }
      ]
    }
  ]
}