{
  "@context": "http://schema.org",
  "@type": "LodgingBusiness",
  "url": [
    "http://"
  ],
  "address": {
    "@type": "PostalAddress",
    "streetAddress": "Aschau 12, Höhenstraße",
    "addressCountry": "AT",
    "postalCode": "6274",
    "addressRegion": "Aschau im Zillertal",
    "telephone": "(0049) 170 770 70 22",
    "email": "booking@chalet-antonia.com",
    "url": "http://www.facebook.com/ChaletAntonia"
  },
  "name": "Chalet Antonia",
  "description": [
    {
      "@language": "de",
      "@value": "leider keine Beschreibung vorhanden!"
    }
  ],
  "image": [
    {
      "@type": "ImageObject",
      "url": "http://resc.deskline.net/images/ZIL/1/89993314-2cba-4750-ad9f-a575d2d14d2e/99/image.jpg",
      "caption": [
        {
          "@language": "de",
          "@value": "chalet antonia aschau01"
        },
        {
          "@language": "en",
          "@value": "chalet antonia aschau01"
        }
      ]
    }
  ],
  "geo": {
    "@type": "GeoCoordinates",
    "latitude": "47.2715892237421",
    "longitude": "11.8697246016693"
  },
  "currenciesAccepted": "EUR",
  "makesOffer": [
    {
      "@type": "Offer",
      "name": [
        {
          "@language": "de",
          "@value": "Ferienhaus, Dusche und Bad, WC, 3 Schlafräume"
        },
        {
          "@language": "en",
          "@value": "Holiday home, shower and bath, toilet, 3 bed rooms"
        }
      ],
      "availability": "http://schema.org/InStock",
      "itemOffered": [
        {
          "@type": [
            "Apartment",
            "Product"
          ],
          "name": [
            {
              "@language": "de",
              "@value": "Ferienhaus, Dusche und Bad, WC, 3 Schlafräume"
            },
            {
              "@language": "en",
              "@value": "Holiday home, shower and bath, toilet, 3 bed rooms"
            }
          ],
          "numberOfRooms": "5.0",
          "occupancy": {
            "@type": "QuantitativeValue",
            "maxValue": "8",
            "minValue": "4"
          }
        }
      ]
    }
  ]
}