{
  "@context": "http://schema.org",
  "@type": "LodgingBusiness",
  "url": [
    "www.gasthof-hamberg.at",
    "http://maps.best-of-zillertal.at/proxy/frontend/page/fuegen/de?foreignResource\u003d0CF594E7-F48E-4975-92AB-CA5C69C88D61"
  ],
  "address": {
    "@type": "PostalAddress",
    "streetAddress": "Harterstraße 64",
    "addressCountry": "AT",
    "postalCode": "6265",
    "addressRegion": "Hart",
    "telephone": "(0043) 5288 62301",
    "faxNumber": "(0043) 5288 63392",
    "email": "info@gasthof-hamberg.at",
    "url": "http://www.gasthof-hamberg.at"
  },
  "name": "Gasthof Hamberg",
  "description": [
    {
      "@language": "de",
      "@value": "Familiär geführtes Hotel in ruhiger, sonniger Lage, gemütlich - rustikaler Speisesaal im original Tiroler Stil, Gastgarten, Lift, Benützung von Sauna und Hot- Whirl- Pool gratis, große Sonnen- Terrasse, Fernsehraum mit Sat-TV. Frühstücksbuffett, Halbpension"
    },
    {
      "@language": "en",
      "@value": "Family-run business in quiet and sunny position, rustic dining room in tyrolean style, guest garden, lift, use of sauna and whirlpool included, large sunterrace, TV room, breakfast buffet, half-board."
    }
  ],
  "aggregateRating": {
    "@type": "AggregateRating",
    "ratingValue": "4.5",
    "reviewCount": "18"
  },
  "image": [
    {
      "@type": "ImageObject",
      "url": "http://resc.deskline.net/images/ZIL/1/3576c77f-ba1f-44ac-bbda-27fb799a0fc2/99/image.jpg",
      "caption": [
        {
          "@language": "de",
          "@value": "Gasthof Hamberg"
        },
        {
          "@language": "en",
          "@value": "Gasthof Hamberg"
        }
      ]
    },
    {
      "@type": "ImageObject",
      "url": "http://resc.deskline.net/images/ZIL/1/f133e88f-25f0-4af1-a660-b36f77038b65/99/image.jpg",
      "caption": [
        {
          "@language": "de",
          "@value": "Hausbar"
        },
        {
          "@language": "en",
          "@value": "Hausbar"
        }
      ]
    },
    {
      "@type": "ImageObject",
      "url": "http://resc.deskline.net/images/ZIL/1/612ccf06-628c-41b3-8708-648d9b078a7d/99/image.jpg",
      "caption": [
        {
          "@language": "de",
          "@value": "Aufenthaltsraum"
        },
        {
          "@language": "en",
          "@value": "Aufenthaltsraum"
        }
      ]
    },
    {
      "@type": "ImageObject",
      "url": "http://resc.deskline.net/images/ZIL/1/d848be9b-adc1-4b2d-b993-9c1c0315d1ac/99/image.jpg",
      "caption": [
        {
          "@language": "de",
          "@value": "Zimmer"
        },
        {
          "@language": "en",
          "@value": "Zimmer"
        }
      ]
    }
  ],
  "geo": {
    "@type": "GeoCoordinates",
    "latitude": "47.34556756242",
    "longitude": "11.869730691766"
  },
  "currenciesAccepted": "EUR",
  "makesOffer": [
    {
      "@type": "Offer",
      "name": [
        {
          "@language": "de",
          "@value": "Doppelzimmer, Dusche oder Bad, WC"
        },
        {
          "@language": "en",
          "@value": "Double room, shower or bath, toilet"
        }
      ],
      "description": [
        {
          "@language": "de",
          "@value": "Zimmer mit Dusche oder Bad, WC und Sat-TV, Balkon."
        },
        {
          "@language": "en",
          "@value": "rooms with shower and toilet, Sat-TV, balcony."
        }
      ],
      "availability": "http://schema.org/InStock",
      "itemOffered": [
        {
          "@type": [
            "HotelRoom",
            "Product"
          ],
          "name": [
            {
              "@language": "de",
              "@value": "Doppelzimmer mit Dusche od. Bad, WC"
            },
            {
              "@language": "en",
              "@value": "double room with shower or bath tube, WC"
            }
          ],
          "bed": {
            "@type": "BedDetails",
            "numberOfBeds": "1"
          },
          "occupancy": {
            "@type": "QuantitativeValue",
            "maxValue": "2",
            "minValue": "1"
          }
        }
      ]
    },
    {
      "@type": "Offer",
      "name": [
        {
          "@language": "de",
          "@value": "Einzelzimmer, Dusche oder Bad, WC"
        },
        {
          "@language": "en",
          "@value": "Single room, shower or bath, toilet"
        }
      ],
      "description": [
        {
          "@language": "de",
          "@value": "Zimmer mit Dusche oder Bad, WC und Sat-TV."
        },
        {
          "@language": "en",
          "@value": "rooms with shower and toilet, Sat-TV"
        }
      ],
      "availability": "http://schema.org/InStock",
      "itemOffered": [
        {
          "@type": [
            "HotelRoom",
            "Product"
          ],
          "name": [
            {
              "@language": "de",
              "@value": "Einzelzimmer mit Dusche od. Bad, WC"
            },
            {
              "@language": "en",
              "@value": "single room with shower or bath tube, WC"
            }
          ],
          "bed": {
            "@type": "BedDetails",
            "numberOfBeds": "1"
          },
          "occupancy": {
            "@type": "QuantitativeValue",
            "maxValue": "1",
            "minValue": "1"
          }
        }
      ]
    },
    {
      "@type": "Offer",
      "name": [
        {
          "@language": "de",
          "@value": "Dreibettzimmer, Dusche oder Bad, WC"
        },
        {
          "@language": "en",
          "@value": "Triple room, shower or bath, toilet"
        }
      ],
      "description": [
        {
          "@language": "de",
          "@value": "Zimmer mit Dusche oder Bad, WC und Sat-TV."
        },
        {
          "@language": "en",
          "@value": "rooms with shower and toilet, Sat-TV"
        }
      ],
      "availability": "http://schema.org/InStock",
      "itemOffered": [
        {
          "@type": [
            "HotelRoom",
            "Product"
          ],
          "name": [
            {
              "@language": "de",
              "@value": "Dreibettzimmer mit Dusche od. Bad, WC"
            },
            {
              "@language": "en",
              "@value": "triple room with shower or bath tube, WC"
            }
          ],
          "bed": {
            "@type": "BedDetails",
            "numberOfBeds": "1"
          },
          "occupancy": {
            "@type": "QuantitativeValue",
            "maxValue": "3",
            "minValue": "2"
          }
        }
      ]
    },
    {
      "@type": "Offer",
      "name": [
        {
          "@language": "de",
          "@value": "Vierbettzimmer, Dusche oder Bad, WC"
        },
        {
          "@language": "en",
          "@value": "4-bed room, shower or bath, toilet"
        }
      ],
      "description": [
        {
          "@language": "de",
          "@value": "Zimmer mit einem Doppelbett und einem Stockbett, Dusche oder Bad, WC und Sat-TV."
        },
        {
          "@language": "en",
          "@value": "rooms double bed and bunk bed, shower or bath and toilet, Sat-TV"
        }
      ],
      "availability": "http://schema.org/InStock",
      "itemOffered": [
        {
          "@type": [
            "HotelRoom",
            "Product"
          ],
          "name": [
            {
              "@language": "de",
              "@value": "Vierbettzimmer mit Dusche od. Bad, WC"
            },
            {
              "@language": "en",
              "@value": "room with 4 beds-shower or bath tube, WC"
            }
          ],
          "bed": {
            "@type": "BedDetails",
            "numberOfBeds": "1"
          },
          "occupancy": {
            "@type": "QuantitativeValue",
            "maxValue": "4",
            "minValue": "2"
          }
        }
      ]
    }
  ]
}