{
  "@context": "http://schema.org",
  "@type": "LodgingBusiness",
  "url": [
    "http://"
  ],
  "address": {
    "@type": "PostalAddress",
    "streetAddress": "Taxachgasse 29",
    "addressCountry": "AT",
    "postalCode": "6275",
    "addressRegion": "Stumm",
    "telephone": "(0043) 0676 881001004",
    "email": "ferienhaus-pircher@aon.at"
  },
  "name": "Ferienhaus Pircher",
  "description": [
    {
      "@language": "de",
      "@value": "Am Rand des gemütlichen Dorfes Stumm, an einem ruhigen und sonnigen Ort, befindet sich das freistehende Haus Pircher zur Alleinbewohnung.\nDas Haus ist großzügig ausgestattet und verfügt über Wohnküche, Wohnzimmer, 4 geräumige Schlafzimmer, zwei Badezimmer mit Wanne/Dusche und Duschkabine, im 1.Stock gibt es ein kleines Kinderschlafzimmer mit Kinderbett, Hochstuhl und Kinderwagen, schöner Garten mit 2 Terrassen und Kinderschaukel.\nDas Freischwimmbad Stumm ist nur 2 km, die Erlebnistherme (Hallenbad) 4,2 km entfernt.\nZu den Schiliften beim Schigebiet Hochzillertal sind es ebenfalls nur 2 km, dieses Ferienhaus ist alles in allem eine ideale Adresse für einen gelungenen Urlaub im Sommer und Winter!\n"
    }
  ],
  "image": [
    {
      "@type": "ImageObject",
      "url": "http://resc.deskline.net/images/ZIL/1/b0af57d4-0ed6-4aa6-960d-f7443fced795/99/image.jpg",
      "caption": [
        {
          "@language": "de",
          "@value": "Winter"
        },
        {
          "@language": "en",
          "@value": "Winter"
        }
      ]
    },
    {
      "@type": "ImageObject",
      "url": "http://resc.deskline.net/images/ZIL/1/d4797f8a-6a70-4693-a7c1-a572b4044539/99/image.jpg",
      "caption": [
        {
          "@language": "de",
          "@value": "Sommer"
        },
        {
          "@language": "en",
          "@value": "Sommer"
        }
      ]
    }
  ],
  "geo": {
    "@type": "GeoCoordinates",
    "latitude": "47.2996688",
    "longitude": "11.8771351"
  },
  "currenciesAccepted": "EUR",
  "makesOffer": [
    {
      "@type": "Offer",
      "name": [
        {
          "@language": "de",
          "@value": "Ferienhaus, Dusche und Bad, WC, 4 oder mehr Schlafräume"
        },
        {
          "@language": "en",
          "@value": "Holiday home, shower and bath, toilet, 4 or more bed rooms"
        }
      ],
      "availability": "http://schema.org/InStock",
      "itemOffered": [
        {
          "@type": [
            "Apartment",
            "Product"
          ],
          "name": [
            {
              "@language": "de",
              "@value": "Ferienhaus, Dusche und Bad, WC, 4 oder mehr Schlaf"
            },
            {
              "@language": "en",
              "@value": "Holiday home, shower and bath, toilet, 4 or more bed rooms"
            }
          ],
          "numberOfRooms": "7.0",
          "occupancy": {
            "@type": "QuantitativeValue",
            "maxValue": "10",
            "minValue": "6"
          }
        }
      ]
    }
  ]
}