{
  "@context": "http://schema.org",
  "@type": "LodgingBusiness",
  "url": [
    "http://www.appartement-andreas.webnode.at"
  ],
  "address": {
    "@type": "PostalAddress",
    "name": "Appartement Andreas",
    "streetAddress": "Gusterweg 6",
    "addressCountry": "AT",
    "postalCode": "6263",
    "addressRegion": "Fügen",
    "telephone": "(0043) 650 411 27 88",
    "email": "andreas.rumpf@rvz.at",
    "url": "http://appartement-andreas.webnode.at/"
  },
  "name": "Appartement Andreas",
  "description": [
    {
      "@language": "de",
      "@value": "Herzlich Willkommen im Appartement Andreas in Fügen im wunderschönen Zillertal. Die Ferienwohnung im familienfreundlichen Appartement Andreas liegt ruhig und sonnig und bietet mit 103 m² Wohnfläche genügend Raum für bis zu 6 Personen. Sie wohnen auf einer Etage im Obergeschoss des Familienhauses mit wunderschöner Sicht auf die imposante Bergwelt im Zillertal und die herrliche Umgebung. \n\nDas Appartement Andreas liegt in Fügen direkt an der Abfahrt der Spieljochbahn. Direkt von der Ferienwohnung gelangen Sie mit Skiern an die Talstation Spieljochbahn und können das Auto einfach mal stehen lassen. \n\nDie umliegenden Restaurants, in denen Sie mit Tiroler Köstlichkeiten verwöhnt werden, erreichen Sie in 5 min zu Fuß, Geschäfte sowie ein Supermarkt im Ortskern in nur 5 Autominuten. Ein Höhepunkt für die ganze Familie ist die Erlebnis-Therme Fügen mit großzügigen Familien- und Kinderbereichen wie auch einem entspannenden Sauna- und Wellnessbereich. Wandern, Spaziergehen oder eine Tour mit dem Mountainbike: Starten Sie Ihren Urlaubstag direkt von Ihrer Ferienwohnung im Appartement Andreas! \n\nDie lichtdurchflutete Ferienwohnung ist modern und mit rustikalen Elementen eingerichtet und verfügt über 2 Doppelzimmer, ein Einzelzimmer, eine komplett ausgestattete Küche und ein gemütliches Wohnzimmer mit Eckbank, Sat-TV und Kachelofen und gratis WLAN. Das neue Badezimmer mit Dusche und das WC sind separat. \n\nGerne können Sie im ca 100 m² großen Garten mit toller Wiese für die Kinder, Liegestühlen und Grillplatz zum Relaxen oder für ein leckeres Barbecue nutzen und einen aktiven Tag zusammen mit der Familie ausklingen lassen. Auf dem großzügigen Balkon genießen Sie die Ruhe in der Ferienwohnung und einen wundervollen Blick auf die Berglandschaft im Zillertal. \n\nTäglich frische Brötchen erhalten Sie auf Wunsch gerne im Kohlerhof bzw. beim örtlichen Bäcker. Für Ihr Auto steht Ihnen eine Doppelgarage mit ausreichend Platz für Ihre Sportausrüstung kostenlos zur Verfügung. \n\nIm Winter bieten sowohl die Spieljochbahn in Fügen als auch die Skilifte in Hochfügen Skispaß und alles, was das Skifahrer-Herz höher schlagen lässt. Die urigen Hütten und Almen laden zu einem Einkehrschwung mit der ganzen Familie ein. \n\nIm Sommer bietet die Spieljochbahn vom Streichelzoo bis zum Klettergarten tolle Erlebnisse für Ihre Kinder. Zahlreiche Wege zum Wandern zeigen die Vielfalt der Natur im Zillertal, in der Sie die wunderschöne Umgebung genießen und die örtliche Flora und Fauna kennen lernen. \n\nWir wünschen Ihnen einen erholsamen Aufenthalt in unserer Ferienwohnung im Appartement Andreas und freuen uns auf Ihren Besuch in Fügen im Zillertal! \n"
    },
    {
      "@language": "de",
      "@value": "Nicht im Gesamtpreis inkludiert ist die Endreinigung in Höhe von € 120,00. Weiters fallen noch € 150,00 Kaution an, die bei Ankunft zu bezahlen sind. Includiert ist die Kurtaxe!"
    },
    {
      "@language": "de",
      "@value": "Bitte informieren sie uns vor Anreise per SMS oder Whats APP wann sie ungefähr eintreffen. Am Tag der Anreise melden sie sich einfach bei uns wenn sie am Appartement sind, am besten per Telefon, SMS oder Whats APP! Wir kommen dann sofort zur Übergabe"
    },
    {
      "@language": "de",
      "@value": "Fügen, Spieljochbahn, Ferienwohnung, Appartement, Hochfügen, ruhig gelegen, Garten, Golf, 6 Personen"
    },
    {
      "@language": "en",
      "@value": "Welcome to the Andreas Apartment in Fügen, in the beautiful Zillertal. The apartment at the family-friendly Andreas guesthouse is quietly situated in a sunny location and offers enough room for up to 6 people across 100 m². It is located on the first floor of a family guesthouse with wonderful views of the Zillertal’s impressive mountain scenery and the beautiful surroundings. \n\nThe Andreas apartment is located in Fügen, directly at the descent of the Spieljochbahn. You can ski down to the Spieljochbahn Valley Station directly from the apartment and leave your car parked here. \n\nThe centre of Fügen with its numerous restaurants where you can enjoy Tyrolean delicacies is only a 5-minute walk away, shops and a supermarket can be reached after 5 minutes by car. A highlight for the whole family is the Experience Therme Fügen with generous family and children\u0027s areas as well as with a relaxing sauna and spa. Hiking, walking or a mountain bike tour: Start your day right from your apartment at the Andreas guesthouse! \n\nThe light-flooded apartment is modern and equipped with traditional furniture. It has 2 double bedrooms, one single bedroom, a fully equipped kitchen and a cosy living room with sitting corner, satellite-TV and a tiled stove. The new bathroom with shower and the toilet are separate. \n\nFeel free to use our 100 m² garden with a great lawn for children, sun loungers and BBQ area to relax and unwind after a busy day together with the family or for delicious barbecues. On the spacious balcony you can enjoy the peace and quiet from the apartment and a wonderful view of the mountain scenery of the Zillertal. \n\nOn request fresh rolls are available at the Kohlerhof. You can park your car free of charge in a double garage with ample space for your sports equipment. \n\nIn winter, both the Spieljochbahn in Fügen as well as the ski lifts in Hochfügen guarantee skiing pleasures and will let skiers’ hearts beat faster. The quaint mountain huts invite you to a take a break together with the whole family. \n\nIn summer, the Spieljochbahn offers a petting zoo and a climbing area ensuring great experiences for your children. Many hiking trails allow you to discover the diversity of Zillertal’s nature while you enjoy the beautiful scenery and learn about the local flora and fauna. \n\nWe wish you a relaxing holiday in our apartment at the Andreas guesthouse and look forward to soon welcoming you in the Zillertal! \n"
    },
    {
      "@language": "en",
      "@value": "Not included is the price for the final cleaning fee of € 120,00. Further still fall € 150,00 the deposit to . This is payable on arrival . Included is the tourist tax"
    },
    {
      "@language": "en",
      "@value": "Please inform us prior to arrival via SMS or Whats APP when they arrive about . On the day of arrival , they simply contact us if they are at the apartment , preferably by telephone, SMS or Whats APP ! "
    }
  ],
  "aggregateRating": {
    "@type": "AggregateRating",
    "ratingValue": "4.7",
    "reviewCount": "16"
  },
  "image": [
    {
      "@type": "ImageObject",
      "url": "http://resc.deskline.net/images/ZIL/1/32761890-3226-4cf1-b1b4-5da62f91d9af/99/image.jpg",
      "caption": [
        {
          "@language": "de",
          "@value": "Haus Ansicht v Süden"
        },
        {
          "@language": "en",
          "@value": "Haus Ansicht v Süden"
        }
      ]
    },
    {
      "@type": "ImageObject",
      "url": "http://resc.deskline.net/images/ZIL/1/90e8cbea-1459-433e-bef5-11845b20d124/99/image.jpg",
      "caption": [
        {
          "@language": "de",
          "@value": "Appartement Andreas in Fügen ("
        },
        {
          "@language": "en",
          "@value": "Appartement Andreas in Fügen ("
        }
      ]
    },
    {
      "@type": "ImageObject",
      "url": "http://resc.deskline.net/images/ZIL/1/da0b1055-ec59-4f0f-a99d-4b70db166acd/99/image.jpg",
      "caption": [
        {
          "@language": "de",
          "@value": "Haus Sommer"
        },
        {
          "@language": "en",
          "@value": "Haus Sommer"
        }
      ]
    },
    {
      "@type": "ImageObject",
      "url": "http://resc.deskline.net/images/ZIL/1/d9217733-3e03-4009-b966-e688a98bd3c9/99/image.jpg",
      "caption": [
        {
          "@language": "de",
          "@value": "Küche neu"
        },
        {
          "@language": "en",
          "@value": "Küche neu"
        }
      ]
    },
    {
      "@type": "ImageObject",
      "url": "http://resc.deskline.net/images/ZIL/1/b3da097a-0fba-4809-868f-0dd7453be9a7/99/image.jpg",
      "caption": [
        {
          "@language": "de",
          "@value": "Wohnküche"
        },
        {
          "@language": "en",
          "@value": "Wohnküche"
        }
      ]
    },
    {
      "@type": "ImageObject",
      "url": "http://resc.deskline.net/images/ZIL/1/cc876b67-11c0-4dc9-abc3-ac81a2acfa99/99/image.jpg",
      "caption": [
        {
          "@language": "de",
          "@value": "Wohnzimmer"
        },
        {
          "@language": "en",
          "@value": "Wohnzimmer"
        }
      ]
    },
    {
      "@type": "ImageObject",
      "url": "http://resc.deskline.net/images/ZIL/1/fde61a33-ee69-4879-94c7-3f968b5f5914/99/image.jpg",
      "caption": [
        {
          "@language": "de",
          "@value": "Wohnzimmer1"
        },
        {
          "@language": "en",
          "@value": "Wohnzimmer1"
        }
      ]
    },
    {
      "@type": "ImageObject",
      "url": "http://resc.deskline.net/images/ZIL/1/fa28dd49-3c20-4df0-a061-f2b6ccf95e20/99/image.jpg",
      "caption": [
        {
          "@language": "de",
          "@value": "Wohnraum mit Essecke und Zusatzbett"
        },
        {
          "@language": "en",
          "@value": "Wohnraum mit Essecke und Zusatzbett"
        }
      ]
    },
    {
      "@type": "ImageObject",
      "url": "http://resc.deskline.net/images/ZIL/1/e157f18e-ccc0-4e1e-9d8b-e76947b15fdf/99/image.jpg",
      "caption": [
        {
          "@language": "de",
          "@value": "Esstisch"
        },
        {
          "@language": "en",
          "@value": "Esstisch"
        }
      ]
    },
    {
      "@type": "ImageObject",
      "url": "http://resc.deskline.net/images/ZIL/1/f49c4f3f-1316-4362-9b37-d5b1bb6834a4/99/image.jpg",
      "caption": [
        {
          "@language": "de",
          "@value": "Schlafzimmer"
        },
        {
          "@language": "en",
          "@value": "Schlafzimmer"
        }
      ]
    },
    {
      "@type": "ImageObject",
      "url": "http://resc.deskline.net/images/ZIL/1/7b64af16-fffa-4a6d-b149-5b0513924394/99/image.jpg",
      "caption": [
        {
          "@language": "de",
          "@value": "Schlafzimmer1"
        },
        {
          "@language": "en",
          "@value": "Schlafzimmer1"
        }
      ]
    },
    {
      "@type": "ImageObject",
      "url": "http://resc.deskline.net/images/ZIL/1/faf55a38-325c-41f8-ae04-dd211487125b/99/image.jpg",
      "caption": [
        {
          "@language": "de",
          "@value": "Einbettzimmer"
        },
        {
          "@language": "en",
          "@value": "Einbettzimmer"
        }
      ]
    },
    {
      "@type": "ImageObject",
      "url": "http://resc.deskline.net/images/ZIL/1/5e3752a0-42b6-4a1e-87e7-46418f62d143/99/image.jpg",
      "caption": [
        {
          "@language": "de",
          "@value": "Badezimmer"
        },
        {
          "@language": "en",
          "@value": "Badezimmer"
        }
      ]
    },
    {
      "@type": "ImageObject",
      "url": "http://resc.deskline.net/images/ZIL/1/aebbf741-e19b-4a98-bcd0-501bfb417f5e/99/image.jpg",
      "caption": [
        {
          "@language": "de",
          "@value": "überdachte Terasse"
        },
        {
          "@language": "en",
          "@value": "überdachte Terasse"
        }
      ]
    },
    {
      "@type": "ImageObject",
      "url": "http://resc.deskline.net/images/ZIL/1/1a76d9a3-f20e-4e08-9f99-a2e5abecab98/99/image.jpg",
      "caption": [
        {
          "@language": "de",
          "@value": "Terrasse mit Grillmöglichkeit"
        },
        {
          "@language": "en",
          "@value": "Terrasse mit Grillmöglichkeit"
        }
      ]
    },
    {
      "@type": "ImageObject",
      "url": "http://resc.deskline.net/images/ZIL/1/aeb7916b-6792-49d5-8a0b-13f7d45f150c/99/image.jpg",
      "caption": [
        {
          "@language": "de",
          "@value": "Appartement Andreas in Fügen (1)"
        },
        {
          "@language": "en",
          "@value": "Appartement Andreas in Fügen (1)"
        }
      ]
    },
    {
      "@type": "ImageObject",
      "url": "http://resc.deskline.net/images/ZIL/1/ec763a81-80f9-436d-8d5f-af481b7a2ed5/99/image.jpg",
      "caption": [
        {
          "@language": "de",
          "@value": "Appartement Andreas in Fügen (3)"
        },
        {
          "@language": "en",
          "@value": "Appartement Andreas in Fügen (3)"
        }
      ]
    },
    {
      "@type": "ImageObject",
      "url": "http://resc.deskline.net/images/ZIL/1/b3eeda58-88db-4cdf-81c8-964fb40b36d6/99/image.jpg",
      "caption": [
        {
          "@language": "de",
          "@value": "Appartement Andreas in Fügen (2)"
        },
        {
          "@language": "en",
          "@value": "Appartement Andreas in Fügen (2)"
        }
      ]
    },
    {
      "@type": "ImageObject",
      "url": "http://resc.deskline.net/images/ZIL/1/6caae440-7a80-4d80-812e-a46113a534ed/99/image.jpg",
      "caption": [
        {
          "@language": "de",
          "@value": "Appartement Andreas in Fügen (4)"
        },
        {
          "@language": "en",
          "@value": "Appartement Andreas in Fügen (4)"
        }
      ]
    },
    {
      "@type": "ImageObject",
      "url": "http://resc.deskline.net/images/ZIL/1/5431b0c0-21e0-4f93-b189-fe018f5a2210/99/image.jpg",
      "caption": [
        {
          "@language": "de",
          "@value": "Appartement Andreas in Fügen (5)"
        },
        {
          "@language": "en",
          "@value": "Appartement Andreas in Fügen (5)"
        }
      ]
    },
    {
      "@type": "ImageObject",
      "url": "http://resc.deskline.net/images/ZIL/1/adf4982b-e372-41a4-9200-7078a1ca09a4/99/image.jpg",
      "caption": [
        {
          "@language": "de",
          "@value": "Appartement Andreas in Fügen (7)"
        },
        {
          "@language": "en",
          "@value": "Appartement Andreas in Fügen (7)"
        }
      ]
    },
    {
      "@type": "ImageObject",
      "url": "http://resc.deskline.net/images/ZIL/1/086b69c8-838e-4347-866e-d536df777cfb/99/image.jpg",
      "caption": [
        {
          "@language": "de",
          "@value": "Appartement Andreas in Fügen Winter"
        },
        {
          "@language": "en",
          "@value": "Appartement Andreas in Fügen Winter"
        }
      ]
    },
    {
      "@type": "ImageObject",
      "url": "http://resc.deskline.net/images/ZIL/1/0906699c-db70-4996-9f80-f59616b329e8/99/image.jpg",
      "caption": [
        {
          "@language": "de",
          "@value": "Appartement Andreas in Fügen Winter (2)"
        },
        {
          "@language": "en",
          "@value": "Appartement Andreas in Fügen Winter (2)"
        }
      ]
    },
    {
      "@type": "ImageObject",
      "url": "http://resc.deskline.net/images/ZIL/1/e911e259-d38e-4db9-a84e-34fb1359f60b/99/image.jpg",
      "caption": [
        {
          "@language": "de",
          "@value": "Appartement Andreas in Fügen Winter (3)"
        },
        {
          "@language": "en",
          "@value": "Appartement Andreas in Fügen Winter (3)"
        }
      ]
    }
  ],
  "geo": {
    "@type": "GeoCoordinates",
    "latitude": "47.3399391296346",
    "longitude": "11.8403025423279"
  },
  "currenciesAccepted": "EUR",
  "makesOffer": [
    {
      "@type": "Offer",
      "name": [
        {
          "@language": "de",
          "@value": "Appartement/Fewo, Dusche, WC, 3 Schlafräume"
        },
        {
          "@language": "en",
          "@value": "Apartment, shower, toilet, 3 bed rooms"
        }
      ],
      "description": [
        {
          "@language": "de",
          "@value": "Diese Ferienwohnung liegt im Ortsteil Haidach und in unmittelbarer Nähe der Spieljochbahn bzw. der Bushaltestelle nach Hochfügen. Die Ortsmitte bzw. Einkaufsmöglichkeiten, Therme und Bahnhof sind ca. 1,5 km entfernt. Das Haus liegt am Waldrand und bietet die nötige Ruhe. Die Wohnung hat ca. 100 m², 2 Doppelschalfzimmer, 1 Einbettzimmer, Küche, sehr geräumiges Wohnzimmer mit zusätzlicher Schlafmöglichkeit, Bad und sep. WC und ist feriengerecht eingerichtet. 2 Garagenparkplätze vorhanden;"
        },
        {
          "@language": "en",
          "@value": "This apartment is located in the district of Haidach and near to the Spieljochbahn or the bus stop to Hochfügen. The town center or shopping, thermal baths and train station are about 1.5 km away. The house is situated on the edge of the forest and offers the necessary peace and quiet. The apartment has about 100 m², 2 double bedrooms, 1 single bedroom, kitchen, very spacious living room with additional sleeping possibility, bathroom and separate WC and is furnished for holiday an free parking!"
        }
      ],
      "availability": "http://schema.org/InStock",
      "itemOffered": [
        {
          "@type": [
            "Apartment",
            "Product"
          ],
          "name": [
            {
              "@language": "de",
              "@value": "Appartement/Fewo, Dusche, WC, 3 Schlafräume"
            },
            {
              "@language": "en",
              "@value": "Apartment, shower, toilet, 3 bed rooms"
            }
          ],
          "numberOfRooms": "5.0",
          "occupancy": {
            "@type": "QuantitativeValue",
            "maxValue": "6",
            "minValue": "4"
          }
        }
      ],
      "priceSpecification": [
        {
          "@type": "PriceSpecification",
          "description": "Pax 4",
          "minPrice": "85.00",
          "maxPrice": "200.00",
          "priceCurrency": "EUR"
        },
        {
          "@type": "PriceSpecification",
          "description": "Pax 5",
          "minPrice": "85.00",
          "maxPrice": "200.00",
          "priceCurrency": "EUR"
        },
        {
          "@type": "PriceSpecification",
          "description": "Pax 6",
          "minPrice": "105.00",
          "maxPrice": "200.00",
          "priceCurrency": "EUR"
        }
      ]
    }
  ]
}