{
  "@context": "http://schema.org",
  "@type": "LodgingBusiness",
  "url": [
    "http://www.best-of-zillertal.at/winter",
    "http://maps.best-of-zillertal.at/proxy/frontend/page/fuegen/de?foreignResource\u003d14d8c45a-86dd-48ae-b7ce-41b0b1dc7d06"
  ],
  "address": {
    "@type": "PostalAddress",
    "streetAddress": "Brunnerweg 6",
    "addressCountry": "AT",
    "postalCode": "6263",
    "addressRegion": "Fügen",
    "telephone": "(0043) 664 402 13 51",
    "email": "steinberger.lisi@gmail.com"
  },
  "name": "Appartement Elisabeth",
  "description": [
    {
      "@language": "de",
      "@value": "Waldnähe, Abstellplatz für PKW, Skiabstellraum, Nichtraucherhaus"
    },
    {
      "@language": "de",
      "@value": "Endreinigung: € 10,00 pro Person"
    },
    {
      "@language": "en",
      "@value": "final cleaning: EUR 10,00 per person"
    }
  ],
  "image": [
    {
      "@type": "ImageObject",
      "url": "http://resc.deskline.net/images/ZIL/1/b0562a69-a6c6-4240-bcaf-6ae061cba1b3/99/image.jpg",
      "caption": [
        {
          "@language": "de",
          "@value": "Küche"
        },
        {
          "@language": "en",
          "@value": "Küche"
        }
      ]
    },
    {
      "@type": "ImageObject",
      "url": "http://resc.deskline.net/images/ZIL/1/ba0d1596-b5cb-4aae-b40b-db26af765fc3/99/image.jpg",
      "caption": [
        {
          "@language": "de",
          "@value": "Wohnzimmer"
        },
        {
          "@language": "en",
          "@value": "Wohnzimmer"
        }
      ]
    },
    {
      "@type": "ImageObject",
      "url": "http://resc.deskline.net/images/ZIL/1/9ca23aa7-e341-4dda-95bd-be708ef3cfec/99/image.jpg",
      "caption": [
        {
          "@language": "de",
          "@value": "Bad"
        },
        {
          "@language": "en",
          "@value": "Bad"
        }
      ]
    }
  ],
  "geo": {
    "@type": "GeoCoordinates",
    "latitude": "47.326563175724836",
    "longitude": "11.848883628845215"
  },
  "currenciesAccepted": "EUR",
  "makesOffer": [
    {
      "@type": "Offer",
      "name": [
        {
          "@language": "de",
          "@value": "Appartement/Fewo, Dusche und Bad, WC, 3 Schlafräume"
        },
        {
          "@language": "en",
          "@value": "Apartment, shower and bath, toilet, 3 bed rooms"
        }
      ],
      "description": [
        {
          "@language": "de",
          "@value": "Ferienwohnung für max. 6 Pers. (ca. 140 m²), 3 Schlafzimmer, Küche, Dusche und Badewanne, seperates WC, Wohnzimmer, komplett ausgestattete Küche"
        }
      ],
      "availability": "http://schema.org/InStock",
      "itemOffered": [
        {
          "@type": [
            "Apartment",
            "Product"
          ],
          "name": [
            {
              "@language": "de",
              "@value": "Apartment/3 Schlafräume/Dusche, Bad, WC"
            },
            {
              "@language": "en",
              "@value": "apartment/3 bedrooms/shower,bath tube,WC"
            }
          ],
          "numberOfRooms": "5.0",
          "occupancy": {
            "@type": "QuantitativeValue",
            "maxValue": "6",
            "minValue": "4"
          }
        }
      ]
    }
  ]
}