{
  "@context": "http://schema.org",
  "@type": "Hotel",
  "url": [
    "http://www.dassonnleiten.at",
    "http://maps.best-of-zillertal.at/proxy/frontend/page/fuegen/de?foreignResource\u003d183DECAD-2A7B-4D8B-87CB-A84BF1B17845"
  ],
  "address": {
    "@type": "PostalAddress",
    "name": "Hotel Sonnleiten",
    "streetAddress": "Dorf 23b",
    "addressCountry": "AT",
    "postalCode": "6260",
    "addressRegion": "Bruck am Ziller",
    "telephone": "(0043) 5288 72378",
    "faxNumber": "(0043) 5288 72378",
    "email": "info@dassonnleiten.at",
    "url": "http://www.dassonnleiten.at"
  },
  "name": "Hotel Sonnleiten",
  "description": [
    {
      "@language": "de",
      "@value": "Direkt auf der Sonnenseite in Bruck am Ziller und am Eingang zum Zillertal gelegen, erwartet Sie unser familiengeführtes Hotel***Sonnleiten. Ein besonderes Highlight ist  unsere Sonnenterrasse, auf der Sie in unseren Strandkörben die umliegende Zillertaler Bergwelt genießen können. \n\nUnser Hotel Sonnleiten bietet unseren Gästen gemütlich eingerichtete Komfortzimmer. Ein Computer mit Internetzugang sowie WLan steht unseren Gästen kostenlos zur Verfügung. Unsere Halbpension umfasst Frühstück und ein 3-Gang-Abenmenü. Ein besonderes Highlight ist unsere neue Panoramasauna mit Ruhebereich. \nIm Sommer organisieren wir auch gerne Grillabende.\n\nDas Hotel Sonnleiten befindet sich direkt im Zentrum von Bruck im Zillertal. In unmittelbarer Nähe finden Sie ein Lebensmittelgeschäft und die Bushaltestelle, von der aus Sie bequem in die Skigebiete gelangen können. Die Skigebiete Spieljoch und Reitherkogel liegen in der unmittelbaren Umgebung und die Skigebiete Hochzillertal und Hochfügen erreichen Sie in ca. 15min mit dem Auto oder unserem kostenlosen Shuttleservice. \n\nBruck im Zillertal ist ein familienfreundliches Urlaubsdorf in der Ersten Ferienregion Zillertal und ein idealer Ausgangspunkt in die beliebtesten Ausflugsziele Tirols wie etwa Innsbruck, Achensee, Kristallwelten Wattens, u.v.m. Für Sportbegeisterte bieten sich die Radwege Zillertal und Inntal bestens an und für Erfrischung sorgt der Schlitterer See mit Abenteuerspielplatz, welcher sich nur 2km von unserem Hotel Sonnleiten entfernt befindet. An kühlen Tagen entspannen Sie sich im Wellness Bereich der Therme Fügen die Sie bequem in nur 10 Fahrminuten erreichen. Die großzügige Wellness Oase bietet Bio Sauna, Zirben Sauna, Dampfbad u.v.m. \n\nEinen besonderen Service bieten wir für Motorradfahrer: Als begeisterte Motorradfahrer helfen wir Ihnen gerne bei der Tourenplanung. Auf Wunsch führen wir auch gerne begleitete Touren mit Chef Walter und Melanie durch und ums Zillertal. Neben einer Garage für Motorräder bieten wir extra überdachte Stellplätze, eine Schrauberecke, einen Waschplatz und Schuhtrockner.\n\nSind Sie begeisterte Jäger? Unser Chef Walter führt Sie durch die Reviere im schönen Alpbachtal oder im Zillertal. Lassen Sie sich dieses Erlebnis in der Natur des Zillertals nicht entgehen und freuen Sie sich auf ein gemeinsames Ausklingen eines erfolgreichen Jagdtages in unserer Jagdhütte.\n\nWir freuen uns auf Sie!\nIhre Familie Koidl\n"
    },
    {
      "@language": "de",
      "@value": "Kurzauftenhaltszuschlag:\nEUR 5,00 bei 1 Nacht\nEUR 3,00 bei 2-3 Nächten"
    },
    {
      "@language": "de",
      "@value": "Der Weg führt von der Autobahnausfahrt \"Wiesing\" über die B171 Richtung Wörgl. Dann über den Fluss \"Ziller\", rechts abbiegen - 1,4km Richtung Bruck am Ziller. Hier finden sie auf der linken Seite unser \"Hotel Sonnleiten\"."
    },
    {
      "@language": "de",
      "@value": "Schifahren, Hotel im Zillertal, Motorradhotel, Unterkunft, glutenfrei Essen, Zimmer, Winterurlaub, "
    },
    {
      "@language": "en",
      "@value": "Our family-run Hotel Sonnleiten awaits you directly on the sunny side of Bruck am Ziller and at the entrance to the Zillertal. A special highlight is our sun terrace where you can enjoy the view of the surrounding Zillertaler Mountains from our beach chairs. \n\nOur Hotel Sonnleiten offers comfortably furnished comfort rooms. A computer with internet access as well as Wifi is available to our guests free of charge. Our half-board covers breakfast and a 3-course dinner menu. During summer months we are happy to organise barbeque evenings for you.\n\nThe Hotel Sonnleiten is located directly in the centre of Bruck in the Zillertal. In direct proximity you find a grocer\u0027s shop and the stop of the bus that comfortably takes you to the nearby skiing areas. The Spieljoch and Reitherkogel resorts are right around the corner and the skiing areas Hochzillertal and Hochfügen can be reached in approx. 15min by car or with our free shuttle service. \n\nBruck in the Zillertal is a family-friendly village in Erste Ferienregion Zillertal and an ideal starting point for Tyrol’s most popular day-trip destinations such as Innsbruck, Achensee, Kristallwelten Wattens, etc. Sports enthusiasts will appreciate the Zillertal and Inntal cycle tracks and the Schlitterer Lake with adventure playground, which is only 2km away from our hotel ensures refreshment. On colder days you can unwind at Therme that offers a generous spa area with bio sauna, pine wood sauna, steam bath, etc. and can be comfortably reached by car within 10 minutes only. \n\nFor motor bikers we offer a special service here: As enthusiastic bikers we are happy to be of assistance when planning your route. On request your hosts Walter and Melanie even accompany you on your tour in and beyond the Zillertal. In addition to a motorcycle garage we offer covered parking bays, a small workshop, a washing area and a boot dryer.\n\nYou are an enthusiastic hunter? Your host Walter takes you to the hunting grounds of the beautiful Alpbachtal or the Zillertal. Do not miss out on this unique nature experience and end a successful hunting day in our hunting cabin on a sociable note.\n\nWe look forward to welcoming you!\nYour hosts, the Koidl family\n"
    },
    {
      "@language": "en",
      "@value": "additon for shortstay:\nEUR 5,00 for 1 night\nEUR 3,00 for 2-3 nights"
    },
    {
      "@language": "en",
      "@value": "By \"Wiesing\" you have to drive from the highway. Now take the direction to Wörgl on the mainroad B171. Drive over the river \"Ziller\" and turn right here - 1,4km to Bruck am Ziller. You will find our \"Cafe Sonnleit\u0027n\" on the left side."
    }
  ],
  "aggregateRating": {
    "@type": "AggregateRating",
    "ratingValue": "4.7",
    "reviewCount": "106"
  },
  "image": [
    {
      "@type": "ImageObject",
      "url": "http://resc.deskline.net/images/ZIL/1/7003ea7b-f66d-45ee-9bdb-5c8bfa9dfd81/99/image.jpg",
      "caption": [
        {
          "@language": "de",
          "@value": "Haus Sommer"
        },
        {
          "@language": "en",
          "@value": "Haus Sommer"
        }
      ]
    },
    {
      "@type": "ImageObject",
      "url": "http://resc.deskline.net/images/ZIL/1/c677faac-e5a2-454a-b88f-7fa136938818/99/image.jpg",
      "caption": [
        {
          "@language": "de",
          "@value": "Hotel Sonnleiten Logo"
        },
        {
          "@language": "en",
          "@value": "Hotel Sonnleiten Logo"
        }
      ]
    },
    {
      "@type": "ImageObject",
      "url": "http://resc.deskline.net/images/ZIL/1/997e62c8-1b60-4f0b-bbf4-c2d41d4fa78d/99/image.jpg",
      "caption": [
        {
          "@language": "de",
          "@value": "Haus Winter"
        },
        {
          "@language": "en",
          "@value": "Haus Winter"
        }
      ]
    },
    {
      "@type": "ImageObject",
      "url": "http://resc.deskline.net/images/ZIL/1/6c507f3b-5fba-4068-9a7c-44bdaafe001e/99/image.jpg",
      "caption": [
        {
          "@language": "de",
          "@value": "Aussicht Winter"
        },
        {
          "@language": "en",
          "@value": "Aussicht Winter"
        }
      ]
    },
    {
      "@type": "ImageObject",
      "url": "http://resc.deskline.net/images/ZIL/1/bee90679-a408-4158-ba75-998f62cf20c2/99/image.jpg",
      "caption": [
        {
          "@language": "de",
          "@value": "Cafe4"
        },
        {
          "@language": "en",
          "@value": "Cafe4"
        }
      ]
    },
    {
      "@type": "ImageObject",
      "url": "http://resc.deskline.net/images/ZIL/1/66a3d95c-8784-4678-92aa-6343a635e4cd/99/image.jpg",
      "caption": [
        {
          "@language": "de",
          "@value": "Cafe1"
        },
        {
          "@language": "en",
          "@value": "Cafe1"
        }
      ]
    },
    {
      "@type": "ImageObject",
      "url": "http://resc.deskline.net/images/ZIL/1/98ff93ca-0e42-4669-a096-1dd38847feff/99/image.jpg",
      "caption": [
        {
          "@language": "de",
          "@value": "Cafe5"
        },
        {
          "@language": "en",
          "@value": "Cafe5"
        }
      ]
    },
    {
      "@type": "ImageObject",
      "url": "http://resc.deskline.net/images/ZIL/1/b00ecd82-7558-40b7-bd54-a6c9c65808f7/99/image.jpg",
      "caption": [
        {
          "@language": "de",
          "@value": "Cafe3"
        },
        {
          "@language": "en",
          "@value": "Cafe3"
        }
      ]
    },
    {
      "@type": "ImageObject",
      "url": "http://resc.deskline.net/images/ZIL/1/a282531f-a040-464d-8a35-c4f23fda28fa/99/image.jpg",
      "caption": [
        {
          "@language": "de",
          "@value": "Cafe2"
        },
        {
          "@language": "en",
          "@value": "Cafe2"
        }
      ]
    },
    {
      "@type": "ImageObject",
      "url": "http://resc.deskline.net/images/ZIL/1/b3be91e8-8673-455e-9f6e-60b24997d19a/99/image.jpg",
      "caption": [
        {
          "@language": "de",
          "@value": "Cafe Terrasse"
        },
        {
          "@language": "en",
          "@value": "Cafe Terrasse"
        }
      ]
    },
    {
      "@type": "ImageObject",
      "url": "http://resc.deskline.net/images/ZIL/1/2a734236-7525-4f86-954a-225291a78931/99/image.jpg",
      "caption": [
        {
          "@language": "de",
          "@value": "Cafe Terrasse Detail"
        },
        {
          "@language": "en",
          "@value": "Cafe Terrasse Detail"
        }
      ]
    },
    {
      "@type": "ImageObject",
      "url": "http://resc.deskline.net/images/ZIL/1/15eacad0-7255-456d-b266-f9baf3a6937c/99/image.jpg",
      "caption": [
        {
          "@language": "de",
          "@value": "Haus Sommer1"
        },
        {
          "@language": "en",
          "@value": "Haus Sommer1"
        }
      ]
    },
    {
      "@type": "ImageObject",
      "url": "http://resc.deskline.net/images/ZIL/1/475a70d0-72ee-4819-a7b6-266f9e8b02b6/99/image.jpg",
      "caption": [
        {
          "@language": "de",
          "@value": "Carport Waschplatz"
        },
        {
          "@language": "en",
          "@value": "Carport Waschplatz"
        }
      ]
    },
    {
      "@type": "ImageObject",
      "url": "http://resc.deskline.net/images/ZIL/1/b2f9c6b7-bd83-4b7c-8486-4ca797ce3088/99/image.jpg",
      "caption": [
        {
          "@language": "de",
          "@value": "Sauna"
        },
        {
          "@language": "en",
          "@value": "Sauna"
        }
      ]
    },
    {
      "@type": "ImageObject",
      "url": "http://resc.deskline.net/images/ZIL/1/8fb7c68d-858c-46b4-85d0-922665654a8b/99/image.jpg",
      "caption": [
        {
          "@language": "de",
          "@value": "Sauna1"
        },
        {
          "@language": "en",
          "@value": "Sauna1"
        }
      ]
    },
    {
      "@type": "ImageObject",
      "url": "http://resc.deskline.net/images/ZIL/1/d78bce14-5ae0-402f-b71c-c245bd16ec97/99/image.jpg",
      "caption": [
        {
          "@language": "de",
          "@value": "Sauna Wellness"
        },
        {
          "@language": "en",
          "@value": "Sauna Wellness"
        }
      ]
    },
    {
      "@type": "ImageObject",
      "url": "http://resc.deskline.net/images/ZIL/1/08d1dc7f-1085-4483-b552-9244ab601de8/99/image.jpg",
      "caption": [
        {
          "@language": "de",
          "@value": "Sauna Wellness1"
        },
        {
          "@language": "en",
          "@value": "Sauna Wellness1"
        }
      ]
    },
    {
      "@type": "ImageObject",
      "url": "http://resc.deskline.net/images/ZIL/1/3f931d70-295c-43b5-a937-d064a89a347a/99/image.jpg",
      "caption": [
        {
          "@language": "de",
          "@value": "Zimmer 10"
        },
        {
          "@language": "en",
          "@value": "Zimmer 10"
        }
      ]
    },
    {
      "@type": "ImageObject",
      "url": "http://resc.deskline.net/images/ZIL/1/0f90c2ea-5b8d-4043-bc2b-141d325a804d/99/image.jpg",
      "caption": [
        {
          "@language": "de",
          "@value": "Zimmer 11 Badezimmer"
        },
        {
          "@language": "en",
          "@value": "Zimmer 11 Badezimmer"
        }
      ]
    },
    {
      "@type": "ImageObject",
      "url": "http://resc.deskline.net/images/ZIL/1/d3bf44f4-28cd-4129-82f2-f982defee6fb/99/image.jpg",
      "caption": [
        {
          "@language": "de",
          "@value": "Zimmer 14"
        },
        {
          "@language": "en",
          "@value": "Zimmer 14"
        }
      ]
    },
    {
      "@type": "ImageObject",
      "url": "http://resc.deskline.net/images/ZIL/1/033a1905-1dc8-450d-af5b-01066603df3c/99/image.jpg",
      "caption": [
        {
          "@language": "de",
          "@value": "Zimmer 14 Couch"
        },
        {
          "@language": "en",
          "@value": "Zimmer 14 Couch"
        }
      ]
    },
    {
      "@type": "ImageObject",
      "url": "http://resc.deskline.net/images/ZIL/1/b6b42e7f-840b-4a96-bed2-d408c6dc5319/99/image.jpg",
      "caption": [
        {
          "@language": "de",
          "@value": "Zimmer 14 Stockbett"
        },
        {
          "@language": "en",
          "@value": "Zimmer 14 Stockbett"
        }
      ]
    },
    {
      "@type": "ImageObject",
      "url": "http://resc.deskline.net/images/ZIL/1/489c37ce-4366-40b2-8b1a-ebd34d1aff9d/99/image.jpg",
      "caption": [
        {
          "@language": "de",
          "@value": "Zimmer 21"
        },
        {
          "@language": "en",
          "@value": "Zimmer 21"
        }
      ]
    },
    {
      "@type": "ImageObject",
      "url": "http://resc.deskline.net/images/ZIL/1/7f91309c-b138-4a57-ae83-c42a407fa317/99/image.jpg",
      "caption": [
        {
          "@language": "de",
          "@value": "Zimmer 21 Zusatzzimmer"
        },
        {
          "@language": "en",
          "@value": "Zimmer 21 Zusatzzimmer"
        }
      ]
    },
    {
      "@type": "ImageObject",
      "url": "http://resc.deskline.net/images/ZIL/1/93e3f38f-2248-467c-a7be-203d30d0ab3c/99/image.jpg",
      "caption": [
        {
          "@language": "de",
          "@value": "Zimmer 22"
        },
        {
          "@language": "en",
          "@value": "Zimmer 22"
        }
      ]
    },
    {
      "@type": "ImageObject",
      "url": "http://resc.deskline.net/images/ZIL/1/ee8fb687-aecd-46f2-9b89-268d0895b87b/99/image.jpg",
      "caption": [
        {
          "@language": "de",
          "@value": "Zimmer 24"
        },
        {
          "@language": "en",
          "@value": "Zimmer 24"
        }
      ]
    },
    {
      "@type": "ImageObject",
      "url": "http://resc.deskline.net/images/ZIL/1/b3e90b99-8fc3-473a-8319-91b52b069abf/99/image.jpg",
      "caption": [
        {
          "@language": "de",
          "@value": "Zimmer 24 Badezimmer"
        },
        {
          "@language": "en",
          "@value": "Zimmer 24 Badezimmer"
        }
      ]
    },
    {
      "@type": "ImageObject",
      "url": "http://resc.deskline.net/images/ZIL/1/a6d4a6f6-da6d-4431-88ef-24ad869b51d9/99/image.jpg",
      "caption": [
        {
          "@language": "de",
          "@value": "Zimmer 101"
        },
        {
          "@language": "en",
          "@value": "Zimmer 101"
        }
      ]
    },
    {
      "@type": "ImageObject",
      "url": "http://resc.deskline.net/images/ZIL/1/5057f411-8380-42d3-82cc-b6e183577298/99/image.jpg",
      "caption": [
        {
          "@language": "de",
          "@value": "Zimmer 101 Badezimmer"
        },
        {
          "@language": "en",
          "@value": "Zimmer 101 Badezimmer"
        }
      ]
    },
    {
      "@type": "ImageObject",
      "url": "http://resc.deskline.net/images/ZIL/1/109ea450-f53b-49f3-87b9-60cb075ce8c5/99/image.jpg",
      "caption": [
        {
          "@language": "de",
          "@value": "Zimmer 103"
        },
        {
          "@language": "en",
          "@value": "Zimmer 103"
        }
      ]
    },
    {
      "@type": "ImageObject",
      "url": "http://resc.deskline.net/images/ZIL/1/a8772df0-bedc-463f-a3c5-067e925807c1/99/image.jpg",
      "caption": [
        {
          "@language": "de",
          "@value": "Zimmer 104"
        },
        {
          "@language": "en",
          "@value": "Zimmer 104"
        }
      ]
    },
    {
      "@type": "ImageObject",
      "url": "http://resc.deskline.net/images/ZIL/1/3647cb9e-86cf-4637-8928-a6370e383487/99/image.jpg",
      "caption": [
        {
          "@language": "de",
          "@value": "Zimmer 104 Badezimmer Berrierefrei"
        },
        {
          "@language": "en",
          "@value": "Zimmer 104 Badezimmer Berrierefrei"
        }
      ]
    },
    {
      "@type": "ImageObject",
      "url": "http://resc.deskline.net/images/ZIL/1/471c25c3-b8f0-4206-83ac-fa0810ebc1fc/99/image.jpg",
      "caption": [
        {
          "@language": "de",
          "@value": "Badezimmer"
        },
        {
          "@language": "en",
          "@value": "Badezimmer"
        }
      ]
    },
    {
      "@type": "ImageObject",
      "url": "http://resc.deskline.net/images/ZIL/1/49d1d133-6c35-490d-8dcc-064befb46d3b/99/image.jpg",
      "caption": [
        {
          "@language": "de",
          "@value": "Haus aussen neu"
        },
        {
          "@language": "en",
          "@value": "Haus aussen neu"
        }
      ]
    },
    {
      "@type": "ImageObject",
      "url": "http://resc.deskline.net/images/ZIL/1/e7273ac2-763b-4da8-9398-bfcfb16fb288/99/image.jpg",
      "caption": [
        {
          "@language": "de",
          "@value": "Haus aussen neu1"
        },
        {
          "@language": "en",
          "@value": "Haus aussen neu1"
        }
      ]
    },
    {
      "@type": "ImageObject",
      "url": "http://resc.deskline.net/images/ZIL/1/e1b74a98-f741-4a64-b73e-bfb4a97d96ee/99/image.jpg",
      "caption": [
        {
          "@language": "de",
          "@value": "Haus aussen neu2"
        },
        {
          "@language": "en",
          "@value": "Haus aussen neu2"
        }
      ]
    }
  ],
  "geo": {
    "@type": "GeoCoordinates",
    "latitude": "47.391642022051734",
    "longitude": "11.849436163902283"
  },
  "currenciesAccepted": "EUR",
  "makesOffer": [
    {
      "@type": "Offer",
      "name": [
        {
          "@language": "de",
          "@value": "Doppelzimmer, Dusche, WC"
        },
        {
          "@language": "en",
          "@value": "Double room, shower, toilet"
        }
      ],
      "description": [
        {
          "@language": "de",
          "@value": "Liebevoll eingerichtete Zimmer, die wohltuende Behaglichkeit vermitteln.\nGemütliches im Tiroler Stil eingerichtetes Doppelzimmer. \n·        Dusche und WC \n·        Doppelbett\n·        Haarfön\n·        TV\n·        Safe\n·        gratis Wireless-LAN-Zugang\n·        Allergiker-Bettwäsche auf Wunsch \n·        ca. 17qm\n"
        },
        {
          "@language": "en",
          "@value": "Lovely rooms with comfortable atmosphere.\nShower, toilet, hairdryer, sat-tv, safe; "
        }
      ],
      "availability": "http://schema.org/InStock",
      "itemOffered": [
        {
          "@type": [
            "HotelRoom",
            "Product"
          ],
          "name": [
            {
              "@language": "de",
              "@value": "Doppelzimmer Tirol"
            },
            {
              "@language": "en",
              "@value": "double room with shower, WC"
            }
          ],
          "bed": {
            "@type": "BedDetails",
            "numberOfBeds": "1"
          },
          "occupancy": {
            "@type": "QuantitativeValue",
            "maxValue": "2",
            "minValue": "1"
          }
        }
      ],
      "priceSpecification": [
        {
          "@type": "PriceSpecification",
          "description": "Pax 1",
          "minPrice": "65.00",
          "maxPrice": "81.00",
          "priceCurrency": "EUR"
        },
        {
          "@type": "PriceSpecification",
          "description": "Pax 2",
          "minPrice": "41.20",
          "maxPrice": "63.00",
          "priceCurrency": "EUR"
        }
      ]
    },
    {
      "@type": "Offer",
      "name": [
        {
          "@language": "de",
          "@value": "Einzelzimmer, Dusche, WC"
        },
        {
          "@language": "en",
          "@value": "Single room, shower, toilet"
        }
      ],
      "description": [
        {
          "@language": "de",
          "@value": "Liebevoll eingerichtetes kleines Zimmer, das wohltuende Behaglichkeit vermittelt.\n\nGemütliches, kleines Einzelzimmer. \n·        Dusche und WC \n·        Einzelbett\n·        Haarfön\n·        TV\n·        Safe\n·        gratis Wireless-LAN-Zugang\n·        ca. 10,5 qm\n"
        },
        {
          "@language": "en",
          "@value": "Lovely rooms with comfortable atmosphere.\nShower, toilett, hairdryer, sat-tv, safe;"
        }
      ],
      "availability": "http://schema.org/InStock",
      "itemOffered": [
        {
          "@type": [
            "HotelRoom",
            "Product"
          ],
          "name": [
            {
              "@language": "de",
              "@value": "Einzelzimmer Tirol"
            },
            {
              "@language": "en",
              "@value": "single room with shower, WC"
            }
          ],
          "image": [
            {
              "@type": "ImageObject",
              "url": "http://resc.deskline.net/images/ZIL/1/b814a4c6-dbcf-4994-b09e-e4a6d4c5bb8a/99/image.jpg",
              "caption": [
                {
                  "@language": "de",
                  "@value": "Einzelzimmer Tirol, Hotel Sonnleiten, Bruck am Zil"
                },
                {
                  "@language": "en",
                  "@value": "Einzelzimmer Tirol, Hotel Sonnleiten, Bruck am Zil"
                }
              ]
            },
            {
              "@type": "ImageObject",
              "url": "http://resc.deskline.net/images/ZIL/1/5ac05cc1-d8a0-4f11-8e56-95135de4e38e/99/image.jpg",
              "caption": [
                {
                  "@language": "de",
                  "@value": "25bad"
                },
                {
                  "@language": "en",
                  "@value": "25bad"
                }
              ]
            }
          ],
          "bed": {
            "@type": "BedDetails",
            "numberOfBeds": "1"
          },
          "occupancy": {
            "@type": "QuantitativeValue",
            "maxValue": "1",
            "minValue": "1"
          }
        }
      ],
      "priceSpecification": [
        {
          "@type": "PriceSpecification",
          "description": "Pax 1",
          "minPrice": "42.00",
          "maxPrice": "63.00",
          "priceCurrency": "EUR"
        }
      ]
    },
    {
      "@type": "Offer",
      "name": [
        {
          "@language": "de",
          "@value": "Familienzimmer, Dusche, WC"
        },
        {
          "@language": "en",
          "@value": "Family room, shower, toilet"
        }
      ],
      "description": [
        {
          "@language": "de",
          "@value": "Gemütliches im Tiroler Stil eingerichtetes Familienzimmer zur Waldseite gerichtet.\nWohnbereich abtrennbar durch eine Schiebetür.\nDas Sofa im Wohnbereich kann zum Stockbett umfunktioniert werden.\nGeeignet für 2-4 Personen\n·        Dusche und WC \n·        Doppelbett\n·        Stockbett\n·        Haarfön\n·        TV\n·        Safe\n·        gratis Wireless-LAN-Zugang\n·        Sitzgelegenheit\n·        Allergiker-Bettwäsche auf Wunsch \n·        ca. 23qm\n\n"
        },
        {
          "@language": "en",
          "@value": "Lovely rooms with comfortable atmosphere.\nShower, toilet, hairdryer, sat-tv, safe; partial balkony;"
        }
      ],
      "availability": "http://schema.org/InStock",
      "itemOffered": [
        {
          "@type": [
            "HotelRoom",
            "Product"
          ],
          "name": [
            {
              "@language": "de",
              "@value": "Familienzimmer Tirol"
            },
            {
              "@language": "en",
              "@value": "family room with shower, WC"
            }
          ],
          "image": [
            {
              "@type": "ImageObject",
              "url": "http://resc.deskline.net/images/ZIL/1/6ccabd86-049d-4b6c-af8f-c471d303b7ca/99/image.jpg",
              "caption": [
                {
                  "@language": "de",
                  "@value": "Familienzimmer1, Hotel Sonnleiten, Bruck am Ziller"
                },
                {
                  "@language": "en",
                  "@value": "Familienzimmer1, Hotel Sonnleiten, Bruck am Ziller"
                }
              ]
            },
            {
              "@type": "ImageObject",
              "url": "http://resc.deskline.net/images/ZIL/1/6e4f3fc4-60b0-498f-b655-9001242fe860/99/image.jpg",
              "caption": [
                {
                  "@language": "de",
                  "@value": "Familienzimmer, Hotel Sonnleiten, Bruck am Ziller"
                },
                {
                  "@language": "en",
                  "@value": "Familienzimmer, Hotel Sonnleiten, Bruck am Ziller"
                }
              ]
            },
            {
              "@type": "ImageObject",
              "url": "http://resc.deskline.net/images/ZIL/1/7af25b84-cdf4-4b3a-a49f-7384f53c2029/99/image.jpg",
              "caption": [
                {
                  "@language": "de",
                  "@value": "Hotel Sonnleiten, Familienzimmer, Bruck am Ziller"
                },
                {
                  "@language": "en",
                  "@value": "Hotel Sonnleiten, Familienzimmer, Bruck am Ziller"
                }
              ]
            },
            {
              "@type": "ImageObject",
              "url": "http://resc.deskline.net/images/ZIL/1/e5fdae0a-3300-4a9b-ac78-a64e8e8da5bc/99/image.jpg",
              "caption": [
                {
                  "@language": "de",
                  "@value": "Familienzimmer, Hotel Sonnleiten, Wohnbereich"
                },
                {
                  "@language": "en",
                  "@value": "Familienzimmer, Hotel Sonnleiten, Wohnbereich"
                }
              ]
            }
          ],
          "bed": {
            "@type": "BedDetails",
            "numberOfBeds": "1"
          },
          "occupancy": {
            "@type": "QuantitativeValue",
            "maxValue": "4",
            "minValue": "2"
          }
        }
      ],
      "priceSpecification": [
        {
          "@type": "PriceSpecification",
          "description": "Pax 2",
          "minPrice": "46.50",
          "maxPrice": "70.00",
          "priceCurrency": "EUR"
        },
        {
          "@type": "PriceSpecification",
          "description": "Pax 3",
          "minPrice": "45.00",
          "maxPrice": "65.00",
          "priceCurrency": "EUR"
        },
        {
          "@type": "PriceSpecification",
          "description": "Pax 4",
          "minPrice": "44.00",
          "maxPrice": "63.00",
          "priceCurrency": "EUR"
        }
      ]
    },
    {
      "@type": "Offer",
      "name": [
        {
          "@language": "de",
          "@value": "Doppelzimmer, Dusche, WC"
        },
        {
          "@language": "en",
          "@value": "Double room, shower, toilet"
        }
      ],
      "description": [
        {
          "@language": "de",
          "@value": "Liebevoll eingerichtete Zimmer, die wohltuende Behaglichkeit vermitteln.\nGemütliches Doppelzimmer mit Balkon und Panoramablick ins Zillertal.\nGeeignet für 2 Personen\n·        Dusche und WC\n·        Doppelbett \n·        Balkon\n·        Haarfön\n·        TV\n·        Safe\n·        gratis Wireless-LAN-Zugang\n·        Sitzgelegenheit\n·        Allergiker-Bettwäsche auf Wunsch \n·        ca. 20qm\n\n"
        },
        {
          "@language": "en",
          "@value": "Lovely rooms with comfortable atmosphere.\nShower, toilet, hairdryer, sat-tv, safe; partial balkony"
        }
      ],
      "availability": "http://schema.org/InStock",
      "itemOffered": [
        {
          "@type": [
            "HotelRoom",
            "Product"
          ],
          "name": [
            {
              "@language": "de",
              "@value": "Panoramazimmer Zillertal"
            },
            {
              "@language": "en",
              "@value": "Double room, shower, toilet"
            }
          ],
          "description": [
            {
              "@language": "de",
              "@value": "Liebevoll eingerichtete Doppelzimmer mit Balkon. Aussicht ins Zillertal."
            }
          ],
          "bed": {
            "@type": "BedDetails",
            "numberOfBeds": "1"
          },
          "occupancy": {
            "@type": "QuantitativeValue",
            "maxValue": "2",
            "minValue": "2"
          }
        }
      ],
      "priceSpecification": [
        {
          "@type": "PriceSpecification",
          "description": "Pax 2",
          "minPrice": "60.00",
          "maxPrice": "65.00",
          "priceCurrency": "EUR"
        }
      ]
    },
    {
      "@type": "Offer",
      "name": [
        {
          "@language": "de",
          "@value": "Mehrbettzimmer, Dusche, WC"
        },
        {
          "@language": "en",
          "@value": "Shared room, shower, toilet"
        }
      ],
      "description": [
        {
          "@language": "de",
          "@value": "Gemütliches Doppelzimmer mit Balkon und herrlichem Panoramablick ins Zillertal und Inntal.\nDas Sofa im Wohnbereich kann zum Stockbett umfunktioniert werden.\nGeeignet für 2-4 Personen\n·        Dusche und WC \n·        Doppelbett\n·        Stockbett\n·        Balkon\n·        Haarfön\n·        TV\n·        Safe\n·        gratis Wireless-LAN-Zugang\n·        Sitzgelegenheit\n·        Allergiker-Bettwäsche auf Wunsch \n·        ca. 25-31qm\n"
        },
        {
          "@language": "en",
          "@value": "Cosy room with balcony and panoramic views of the Zillertal and the Inn Valley.\nThe sofa in the living area can be converted into a bunk bed.\n(2-4 people)\n- Shower and toilet\n- double bed\n- bunk bed\n- Balcony\n- hairdryer\n - TV\n- Safe\n- free wireless LAN access\n- seating area\n- special bed linen for allergy sufferers on request\n25-31sqm"
        }
      ],
      "availability": "http://schema.org/InStock",
      "itemOffered": [
        {
          "@type": [
            "HotelRoom",
            "Product"
          ],
          "name": [
            {
              "@language": "de",
              "@value": "Panoramazimmer \"Spieljoch\""
            },
            {
              "@language": "en",
              "@value": "Shared room, shower, toilet"
            }
          ],
          "bed": {
            "@type": "BedDetails",
            "numberOfBeds": "1"
          },
          "occupancy": {
            "@type": "QuantitativeValue",
            "maxValue": "4",
            "minValue": "2"
          }
        }
      ],
      "priceSpecification": [
        {
          "@type": "PriceSpecification",
          "description": "Pax 2",
          "minPrice": "50.50",
          "maxPrice": "75.00",
          "priceCurrency": "EUR"
        },
        {
          "@type": "PriceSpecification",
          "description": "Pax 3",
          "minPrice": "49.00",
          "maxPrice": "69.00",
          "priceCurrency": "EUR"
        },
        {
          "@type": "PriceSpecification",
          "description": "Pax 4",
          "minPrice": "48.00",
          "maxPrice": "67.00",
          "priceCurrency": "EUR"
        }
      ]
    },
    {
      "@type": "Offer",
      "name": [
        {
          "@language": "de",
          "@value": "Mehrbettzimmer, Dusche, WC"
        },
        {
          "@language": "en",
          "@value": "Shared room, shower, toilet"
        }
      ],
      "description": [
        {
          "@language": "de",
          "@value": "Gemütliches Familienzimmer mit Balkon und herrlichem Panoramablick ins Zillertal und Inntal.\nDer Fußboden in Vinyl-Holz-Optik sorgen dafür, dass nicht nur Allergiker sich wohlfühlen,\nGeeignet für 2-4 Personen\n·        Dusche und WC\n·        Doppelbett\n·        Sofa, das zum Stockbett werden kann\n·        Balkon\n·        Haarfön\n·        TV\n·        Safe\n·        gratis Wireless-LAN-Zugang\n·        Sitzgelegenheit\n·        Allergiker-Bettwäsche auf Wunsch \n·        ca. 30qm\n"
        },
        {
          "@language": "en",
          "@value": "Cosy double room with balcony and panoramic views of the Zillertal and the Inn Valley.\nThe sofa in the living area can be converted into a bunk bed.\n(2-4 people)\n- Shower and toilet\n- double bed\n- bunk bed\n- Balcony\n- hairdryer\n - TV\n- Safe\n- free wireless LAN access\n- seating area\n- special bed linen for allergy sufferers on request\n25-31sqm"
        }
      ],
      "availability": "http://schema.org/InStock",
      "itemOffered": [
        {
          "@type": [
            "HotelRoom",
            "Product"
          ],
          "name": [
            {
              "@language": "de",
              "@value": "Panoramazimmer \"Achensee\""
            },
            {
              "@language": "en",
              "@value": "Shared room, shower, toilet"
            }
          ],
          "bed": {
            "@type": "BedDetails",
            "numberOfBeds": "1"
          },
          "occupancy": {
            "@type": "QuantitativeValue",
            "maxValue": "4",
            "minValue": "2"
          }
        }
      ],
      "priceSpecification": [
        {
          "@type": "PriceSpecification",
          "description": "Pax 2",
          "minPrice": "50.50",
          "maxPrice": "75.00",
          "priceCurrency": "EUR"
        },
        {
          "@type": "PriceSpecification",
          "description": "Pax 3",
          "minPrice": "49.00",
          "maxPrice": "69.00",
          "priceCurrency": "EUR"
        },
        {
          "@type": "PriceSpecification",
          "description": "Pax 4",
          "minPrice": "48.00",
          "maxPrice": "67.00",
          "priceCurrency": "EUR"
        }
      ]
    }
  ]
}