{
  "@context": "http://schema.org",
  "@type": "LodgingBusiness",
  "url": [
    "http://www.zillertalnet.at/kainer",
    "http://maps.best-of-zillertal.at/proxy/frontend/page/fuegen/de?foreignResource\u003d184D2AB1-F50F-4B1E-85CF-9AF78F2716EE"
  ],
  "address": {
    "@type": "PostalAddress",
    "streetAddress": "Riedbergstraße 8",
    "addressCountry": "AT",
    "postalCode": "6273",
    "addressRegion": "Ried im Zillertal",
    "telephone": "(0043) 5283 2068",
    "faxNumber": "(0043) 5283 2068",
    "email": "kainer.t@tirol.com",
    "url": "http://www.zillertalnet.at/kainer"
  },
  "name": "Ferienwohnung Kainer",
  "description": [
    {
      "@language": "de",
      "@value": "Herzlich willkommen in der Ferienwohnung Kainer in Ried im Zillertal! Durch unsere ideale Lage am Südhang von Riedberg können Sie hier Ihren Urlaub mit einem einzigartigen Ausblick auf das gesamte Zillertal genießen.\n\nUnsere Ferienwohnung liegt in der Ersten Ferienregion Zillertal auf dem sonnigen Südhang am Riedberg auf 700m Meereshöhe. Im Winter sind für die Anfahrt zu unserem Haus Schneeketten notwendig. Das Ortszentrum von Ried liegt nur 2.5km von den Ferienwohnungen entfernt. Dort finden Sie neben Einkaufsmöglichkeiten auch Tennisplätze und einen Minigolf Platz.\n\nUnsere heimelige Ferienwohnung ist für bis zu 10 Personen geeignet und bietet Platz für die ganze Familie in Ihrem Urlaub mit Kindern. Die Ferienwohnung mit einer Größe von ca. 110 m² beinhaltet vier Schlafzimmer, davon zwei Dreibettzimmer und zwei Doppelbettzimmer. Rustikal und großzügig eingerichtet verfügt die Ferienwohnung Kainer über eine komplett ausgestattete Wohnküche mit Kaffeemaschine, Herd mit Backrohr, Mikrowelle, Geschirrspüler und einem Sat-TV. Außerdem finden Sie in der Wohnung ein großes Badezimmer mit Dusche, sowie zwei separate WC. Bettwäsche und Handtücher sind selbstverständlich vorhanden. Auf Wunsch haben wir einen Brötchenservice.\nFreuen Sie sich auf gemütliche Stunden im Kreise der Familie in unserem Garten mit Gartenhäuschen mit Gasgrill. Und sollte das Wetter einmal nicht zum Spielen und Toben im Garten einladen, können Sie mit Ihren Kindern in unserem Spielzimmer schöne Stunden verbringen.   \n\nIm Sommer finden Mountainbiker in nächster Nähe viele gekennzeichnete Bikerstrecken. Eine Route zum Biken sowie wunderschöne Wanderwege führen direkt an unserer Ferienwohnung vorbei. Sonnenanbeter und Baderatten kommen in der Therme Fügen mit Erlebnisbad, im Freibad in Stumm oder im Schlitterer Badesee voll auf ihre Kosten.\n\nFür den Wintersportler und den Urlaub mit Kindern sind die Skigebiete Spieljoch oder Skigebiet Hochzillertal mit dem Gästekindergarten Zwegerl Club und der Kinderskischule nur ungefähr 10 Autominuten von unserer Ferienwohnung Kainer entfernt. Auch die Skigebiete Zillertal Arena oder Zillertal 3000 in Mayrhofen sind bequem mit dem Auto zu erreichen.\n\nWir freuen uns Sie schon bald in der Ferienwohnung Kainer am Riedberg begrüßen zu dürfen!\nIhre Gastgeber Familie Kainer\n"
    },
    {
      "@language": "de",
      "@value": "Endreinigung von Euro 40,-- bis Euro 50,-- je nach Personenzahl!\nIm Sommer Kinderermäßigung im Zimmer der Eltern:\n0-5 Jahre 100 %, 6-16 Jahre 50 %;\nkeine Haustiere erwünscht;"
    },
    {
      "@language": "de",
      "@value": "Check in: ab 15.00 Uhr\nCheck out: bis 8.30 Uhr"
    },
    {
      "@language": "en",
      "@value": "Welcome to Ried in the Zillertal at the Kainer Appartement! Due to our ideal situation at the southern side of the Riedberg you can enjoy a magnificent view of the entire Zillertal.\n\nOur holiday apartment is located in Erste Ferienregion Zillertal on the sunny south side of the Riedberg, 700m above sea-level. Snow chains are necessary when accessing our house in winter. The centre of Ried is only 2.5km away from the house. There you find mini golf, tennis courts and shopping facilities. \n\nOur cosy holiday apartment is suited for up to 10 people and offers space for the whole family in your vacation with children. The apartment, which measures approx. 90m², includes 2 three-bed- and 2 double-bed-rooms. Generously furnished in rustic style, the appartement has a large, fully equipped kitchen-cum-living-room with dishwasher, a cooker with oven, microwave and Sat-TV. Of course, bed linen and towels are available. On request we even offer a fresh roll service.\nLook forward to cosy hours together with your family in our garden with terrace and garden house including a gas-powered barbeque. Should the weather not permit garden activities we offer a toy room for your children.\n\nIn summer many marked routes for mountain bikers are in direct proximity. Biking trails as well as many beautiful hiking paths directly pass our holiday apartments. Sun-lovers and water-enthusiasts will enjoy Therme Fügen with its leisure pools, the outdoor swimming in Stumm or at the Schlitterer See bathing lake.\n\nIdeal for winter sports fans and your vacation with children: The skiing areas of Spieljoch or Hochzillertal with day-care and ski schools are only 10 minutes away from our Kainer guesthouse. The Zillertal Arena or the Zillertal 3000 skiing area in Mayrhofen can be comfortably reached by car as well.\n\nWe look forward to welcoming you and your children here with us at the Kainer guesthouse!\nYour hosts, the Kainer family\n\n"
    },
    {
      "@language": "en",
      "@value": "Final cleaning Euro 40,-- - Euro 50,--;\nChild reduction in the room of the perents:\n0-5 years 100 %, 6-16 years 50 %;\nno pets;"
    },
    {
      "@language": "en",
      "@value": "Check in: from 3.00 pm\nCheck out: until 8.30 am"
    }
  ],
  "image": [
    {
      "@type": "ImageObject",
      "url": "http://resc.deskline.net/images/ZIL/1/f7819e8b-3255-4b4f-af06-bd7cc20fea9d/99/image.jpg",
      "caption": [
        {
          "@language": "de",
          "@value": "Haus_Sommer"
        },
        {
          "@language": "en",
          "@value": "Haus_Sommer"
        }
      ]
    },
    {
      "@type": "ImageObject",
      "url": "http://resc.deskline.net/images/ZIL/1/11609c06-f276-4771-ba3f-3ad523ca5bcb/99/image.jpg",
      "caption": [
        {
          "@language": "de",
          "@value": " Haus mit Garten"
        },
        {
          "@language": "en",
          "@value": " Haus mit Garten"
        }
      ]
    },
    {
      "@type": "ImageObject",
      "url": "http://resc.deskline.net/images/ZIL/1/9ac61404-618f-44e8-b5cb-8b4afb721d8d/99/image.jpg",
      "caption": [
        {
          "@language": "de",
          "@value": "Garten"
        },
        {
          "@language": "en",
          "@value": "Garten"
        }
      ]
    },
    {
      "@type": "ImageObject",
      "url": "http://resc.deskline.net/images/ZIL/1/a241047e-7d36-4574-8830-e828931303fb/99/image.jpg",
      "caption": [
        {
          "@language": "de",
          "@value": "Garage"
        },
        {
          "@language": "en",
          "@value": "Garage"
        }
      ]
    },
    {
      "@type": "ImageObject",
      "url": "http://resc.deskline.net/images/ZIL/1/5ef3affd-8a88-4c39-82d7-9ac93e3d0c8f/99/image.jpg",
      "caption": [
        {
          "@language": "de",
          "@value": "Panorama 1"
        },
        {
          "@language": "en",
          "@value": "Panorama 1"
        }
      ]
    },
    {
      "@type": "ImageObject",
      "url": "http://resc.deskline.net/images/ZIL/1/ea847af1-6fed-4b45-a3dc-54c0f66e1c0f/99/image.jpg",
      "caption": [
        {
          "@language": "de",
          "@value": "Panorama_2"
        },
        {
          "@language": "en",
          "@value": "Panorama_2"
        }
      ]
    },
    {
      "@type": "ImageObject",
      "url": "http://resc.deskline.net/images/ZIL/1/92b8e289-dbf9-4b19-b0be-0de21d0cd5e1/99/image.jpg",
      "caption": [
        {
          "@language": "de",
          "@value": "Blick_ins_Tal"
        },
        {
          "@language": "en",
          "@value": "Blick_ins_Tal"
        }
      ]
    },
    {
      "@type": "ImageObject",
      "url": "http://resc.deskline.net/images/ZIL/1/e8298cbc-ce9a-4415-95a9-a86100691c20/99/image.jpg",
      "caption": [
        {
          "@language": "de",
          "@value": "Schlafzimmer 5"
        },
        {
          "@language": "en",
          "@value": "Schlafzimmer 5"
        }
      ]
    },
    {
      "@type": "ImageObject",
      "url": "http://resc.deskline.net/images/ZIL/1/ddb3e35b-88f3-46f7-b597-988a874c6b88/99/image.jpg",
      "caption": [
        {
          "@language": "de",
          "@value": "Esstisch"
        },
        {
          "@language": "en",
          "@value": "Esstisch"
        }
      ]
    },
    {
      "@type": "ImageObject",
      "url": "http://resc.deskline.net/images/ZIL/1/a6524a16-8ac7-4c6b-bb7c-96305c5e7d21/99/image.jpg",
      "caption": [
        {
          "@language": "de",
          "@value": "Balkon"
        },
        {
          "@language": "en",
          "@value": "Balkon"
        }
      ]
    },
    {
      "@type": "ImageObject",
      "url": "http://resc.deskline.net/images/ZIL/1/5b13a2c1-212f-4a3e-95ca-4048c08a2d0f/99/image.jpg",
      "caption": [
        {
          "@language": "de",
          "@value": "Badezimmer"
        },
        {
          "@language": "en",
          "@value": "Badezimmer"
        }
      ]
    },
    {
      "@type": "ImageObject",
      "url": "http://resc.deskline.net/images/ZIL/1/3ae0831a-8061-44fb-b5fb-344441b78f3c/99/image.jpg",
      "caption": [
        {
          "@language": "de",
          "@value": "Frühstücksraum"
        },
        {
          "@language": "en",
          "@value": "Frühstücksraum"
        }
      ]
    },
    {
      "@type": "ImageObject",
      "url": "http://resc.deskline.net/images/ZIL/1/307594d0-a537-418c-a7a2-b85d04874f31/99/image.jpg",
      "caption": [
        {
          "@language": "de",
          "@value": "Gang"
        },
        {
          "@language": "en",
          "@value": "Gang"
        }
      ]
    },
    {
      "@type": "ImageObject",
      "url": "http://resc.deskline.net/images/ZIL/1/1576c60d-81b2-409a-a877-969febed88f2/99/image.jpg",
      "caption": [
        {
          "@language": "de",
          "@value": "Küche"
        },
        {
          "@language": "en",
          "@value": "Küche"
        }
      ]
    },
    {
      "@type": "ImageObject",
      "url": "http://resc.deskline.net/images/ZIL/1/def47ceb-3109-4338-bd10-2955453b061f/99/image.jpg",
      "caption": [
        {
          "@language": "de",
          "@value": "Schlafzimmer"
        },
        {
          "@language": "en",
          "@value": "Schlafzimmer"
        }
      ]
    },
    {
      "@type": "ImageObject",
      "url": "http://resc.deskline.net/images/ZIL/1/39b9fed6-3d55-4c20-b94a-f6f3ddde3e40/99/image.jpg",
      "caption": [
        {
          "@language": "de",
          "@value": "Schlafzimmer 1"
        },
        {
          "@language": "en",
          "@value": "Schlafzimmer 1"
        }
      ]
    },
    {
      "@type": "ImageObject",
      "url": "http://resc.deskline.net/images/ZIL/1/6fa3267f-6c5a-4060-a962-247af30b3298/99/image.jpg",
      "caption": [
        {
          "@language": "de",
          "@value": "Schlafzimmer 2"
        },
        {
          "@language": "en",
          "@value": "Schlafzimmer 2"
        }
      ]
    },
    {
      "@type": "ImageObject",
      "url": "http://resc.deskline.net/images/ZIL/1/aabae57f-99b6-4963-bc18-2c292fd4202c/99/image.jpg",
      "caption": [
        {
          "@language": "de",
          "@value": "Schlafzimmer 3"
        },
        {
          "@language": "en",
          "@value": "Schlafzimmer 3"
        }
      ]
    },
    {
      "@type": "ImageObject",
      "url": "http://resc.deskline.net/images/ZIL/1/ac8c3b9c-8554-495f-8eb0-9b9033c55316/99/image.jpg",
      "caption": [
        {
          "@language": "de",
          "@value": "Eingang"
        },
        {
          "@language": "en",
          "@value": "Eingang"
        }
      ]
    },
    {
      "@type": "ImageObject",
      "url": "http://resc.deskline.net/images/ZIL/1/c022b137-c060-47ad-a714-ab2aed997f43/99/image.jpg",
      "caption": [
        {
          "@language": "de",
          "@value": "Haus aussen"
        },
        {
          "@language": "en",
          "@value": "Haus aussen"
        }
      ]
    },
    {
      "@type": "ImageObject",
      "url": "http://resc.deskline.net/images/ZIL/1/43e44465-8526-47f7-8ad1-ce4b48e2dd14/99/image.jpg",
      "caption": [
        {
          "@language": "de",
          "@value": "Terrasse"
        },
        {
          "@language": "en",
          "@value": "Terrasse"
        }
      ]
    }
  ],
  "geo": {
    "@type": "GeoCoordinates",
    "latitude": "47.298003534067",
    "longitude": "11.856234296349"
  },
  "currenciesAccepted": "EUR",
  "makesOffer": [
    {
      "@type": "Offer",
      "name": [
        {
          "@language": "de",
          "@value": "Appartement/Fewo, Dusche und Bad, WC, 4 oder mehr Schlafräume"
        },
        {
          "@language": "en",
          "@value": "Apartment, shower and bath, toilet, 4 or more bed rooms"
        }
      ],
      "description": [
        {
          "@language": "de",
          "@value": "Neu eingerichtete, komfortable Ferienwohnung für 4-10 Personen, kmplt. eingerichtete Wohnküche (Kaffemaschine, Herd mit Backrohr, Kühlschrank mit Gefrierteil, Mikrowelle, Wasserkocher, Geschirrspüler, Safe, SAT-TV, Radio mit CD-Player), 4 Schlafzimmer (2x3, 2x2 - davon 1x getrennte Betten), BAD/DU mit Föhn, 2 WC extra, Balkon, Handtücher und Bettwäsche vorhanden, Brötchenservice, Frühstück auf Anfrage möglich, Größe ca. 110 m2"
        },
        {
          "@language": "en",
          "@value": "Newly furnished, comfortable holiday apartment for 4-10 persons, fully equipped, combined kitchen and living room (coffee maker, cooker with oven, fridge with freezer compartment, microwave, kettle, dish washer, safe,\nsatellite TV, radio with CD player), 4 bedrooms (2x3, 2x2 – one with separate beds), bath/shower\nwith hairdryer, 2 separate WC, balcony, hand towels and bed linen provided, fresh bakery service,\nbreakfast possible by arrangement, size approx. 110 m2\n"
        }
      ],
      "availability": "http://schema.org/InStock",
      "itemOffered": [
        {
          "@type": [
            "Apartment",
            "Product"
          ],
          "name": [
            {
              "@language": "de",
              "@value": "Ap./4 od. mehr Schlafräume/Dusche,Bad,WC"
            },
            {
              "@language": "en",
              "@value": "ap./4 + more bedrooms/shower, bath, WC"
            }
          ],
          "numberOfRooms": "5.0",
          "occupancy": {
            "@type": "QuantitativeValue",
            "maxValue": "10",
            "minValue": "6"
          }
        }
      ],
      "priceSpecification": [
        {
          "@type": "PriceSpecification",
          "description": "Pax 6",
          "minPrice": "85.00",
          "maxPrice": "120.00",
          "priceCurrency": "EUR"
        },
        {
          "@type": "PriceSpecification",
          "description": "Pax 7",
          "minPrice": "98.00",
          "maxPrice": "135.00",
          "priceCurrency": "EUR"
        },
        {
          "@type": "PriceSpecification",
          "description": "Pax 8",
          "minPrice": "110.00",
          "maxPrice": "150.00",
          "priceCurrency": "EUR"
        }
      ]
    }
  ]
}