{
  "@context": "http://schema.org",
  "@type": "LodgingBusiness",
  "url": [
    "http://",
    "http://maps.best-of-zillertal.at/proxy/frontend/page/fuegen/de?foreignResource\u003d1a019a21-3254-44ee-8105-994913c72268"
  ],
  "address": {
    "@type": "PostalAddress",
    "streetAddress": "Innere Embergstraße 39",
    "addressCountry": "AT",
    "postalCode": "6272",
    "addressRegion": "Kaltenbach",
    "telephone": "(0043) 664 1128624 ",
    "email": "p.unterkreuter@gmx.at"
  },
  "name": "Unterkreuter, Hans-Peter",
  "description": [
    {
      "@language": "de",
      "@value": "Unser Haus liegt auf 800 m Seehöhe und ist von Kaltenbach aus in ca. 2 km über eine gut ausgebaute Straße erreichbar. Der Linienbus REGIOTAX hält direkt beim Haus und fährt in den Ort bzw. auch zur Talstation des Skizentrums Hochzillertal."
    },
    {
      "@language": "de",
      "@value": "Check-In ab 15.00 Uhr / Check-Out bis 09.00 Uhr "
    },
    {
      "@language": "en",
      "@value": "Our house is situated on 800 m sea-level and it is reachable from Kaltenbach in appr. 2 km by a well-built road. The line-bus REGIOTAX stops directly at our house and brings you to the village of Kaltenbach as well as to the lift station of the ski-centre Hochzillertal."
    },
    {
      "@language": "en",
      "@value": "Check-In from 3.00 p.m.Uhr / Check-Out up to 09.00 a.m. "
    }
  ],
  "image": [
    {
      "@type": "ImageObject",
      "url": "http://resc.deskline.net/images/ZIL/1/52490ba7-6a6c-4c50-a3e3-6d603eeacee4/99/image.jpg",
      "caption": [
        {
          "@language": "de",
          "@value": "Unerkreuter Außenansicht"
        },
        {
          "@language": "en",
          "@value": "Unerkreuter Außenansicht"
        }
      ]
    }
  ],
  "geo": {
    "@type": "GeoCoordinates",
    "latitude": "47.278825031966",
    "longitude": "11.8727552890778"
  },
  "currenciesAccepted": "EUR",
  "makesOffer": [
    {
      "@type": "Offer",
      "name": [
        {
          "@language": "de",
          "@value": "Appartement/Fewo, Toilette und Bad/Dusche getrennt, 3 Schlafräume"
        },
        {
          "@language": "en",
          "@value": "Apartment, separate toilet and shower/bathtub, 3 bed rooms"
        }
      ],
      "description": [
        {
          "@language": "de",
          "@value": "Ausstattung: 3 Doppelzimmer (Zusatzbett möglich), Badezimmer mit Dusche, Fön, WC getrennt, komplett eingerichtete Wohnküche mit Essecke, TV, Balkon, Preis inkl. Strom, Heizung, Handtücher, Bettwäsche, Geschirrtücher. "
        },
        {
          "@language": "en",
          "@value": "3 double-rooms (additional bed possible), bath-room with shower, hair-dryer, toilet seperated, completely equipped living-kitchen with eating corner, tv, balcony, prices includes electricity, heating, towels, bed-linen, dish-towels."
        }
      ],
      "availability": "http://schema.org/InStock",
      "itemOffered": [
        {
          "@type": [
            "Apartment",
            "Product"
          ],
          "name": [
            {
              "@language": "de",
              "@value": "Appartement"
            },
            {
              "@language": "en",
              "@value": "Apartment, separate toilet and shower/bathtub, 3 bed rooms"
            }
          ],
          "numberOfRooms": "4.0",
          "occupancy": {
            "@type": "QuantitativeValue",
            "maxValue": "6",
            "minValue": "2"
          }
        }
      ]
    }
  ]
}