{
  "@context": "http://schema.org",
  "@type": "LodgingBusiness",
  "url": [
    "http://maps.best-of-zillertal.at/proxy/frontend/page/fuegen/de?foreignResource\u003d1D9885DD-46AF-4A49-8827-2ACAFAB76D6A"
  ],
  "address": {
    "@type": "PostalAddress",
    "streetAddress": "Dorfstraße 18",
    "addressCountry": "AT",
    "postalCode": "6274",
    "addressRegion": "Aschau im Zillertal",
    "telephone": "(0043) 5282 2714"
  },
  "name": "Haus Margarethe",
  "description": [
    {
      "@language": "de",
      "@value": "Landhaus Margarethe am Ortseingang von Aschau, gemütliches Landhaus im Tiroler Stil eingerichtet. Liegewiese und Parkplatz vorhanden."
    },
    {
      "@language": "de",
      "@value": "Endreinigung auf Anfrage!"
    },
    {
      "@language": "en",
      "@value": "House Margarethe is situated at the biginning of the village Aschau, it\u0027s a cosy countryhouse in tyrolean style; there is also a lawn for sunbathing and a car park."
    },
    {
      "@language": "en",
      "@value": "Charges for final cleaning only on request!"
    }
  ],
  "image": [
    {
      "@type": "ImageObject",
      "url": "http://resc.deskline.net/images/ZIL/1/d85a75ee-adb9-47e5-b045-0704ece5fe26/99/image.jpg",
      "caption": [
        {
          "@language": "de",
          "@value": "Haus Winter"
        },
        {
          "@language": "en",
          "@value": "Haus Winter"
        }
      ]
    },
    {
      "@type": "ImageObject",
      "url": "http://resc.deskline.net/images/ZIL/1/d513f670-21b2-4e22-98f4-7bd545f09c17/99/image.jpg",
      "caption": [
        {
          "@language": "de",
          "@value": "Haus Sommer"
        },
        {
          "@language": "en",
          "@value": "Haus Sommer"
        }
      ]
    }
  ],
  "geo": {
    "@type": "GeoCoordinates",
    "latitude": "47.267953061118234",
    "longitude": "11.89594566822052"
  },
  "currenciesAccepted": "EUR",
  "makesOffer": [
    {
      "@type": "Offer",
      "name": [
        {
          "@language": "de",
          "@value": "Appartement/Fewo, Bad, WC, 2 Schlafräume"
        },
        {
          "@language": "en",
          "@value": "Apartment, bath, toilet, 2 bed rooms"
        }
      ],
      "description": [
        {
          "@language": "de",
          "@value": "Ferienwohnung für 4 Personen auf der 2 Etage ca. 60m2 groß, Wohnküche mit Eßecke, Küche komplett ausgestattet mit Elektroherd mit 2 Kochplatten, Mikrowelle und Kaffemaschine; 1 Doppelzimmer mit Waschbecken, 1 Dreibettzimmer mit Waschbecken, 1 x Dusche und WC, 1 x Bad mit Badewanne und WC; alle Zimmer mit Balkon; Kellerstube mit offenem Kamin, Liegewiese und Parkplatz."
        },
        {
          "@language": "en",
          "@value": "Apartment for 4 persons on the 2nd floor, kitchen with dining table, kitchen fully equipped with stove with 2 plates, microwave and a coffeemaker; 1 doubleroom with washbasin, 1 tribleroom with washbasin, 1 shower with WC, 1 bath with WC; all rooms with balcony; lounge with an open chimney, sunbathing lawn and a car park."
        }
      ],
      "availability": "http://schema.org/InStock",
      "itemOffered": [
        {
          "@type": [
            "Apartment",
            "Product"
          ],
          "name": [
            {
              "@language": "de",
              "@value": "Apartment/2 Schlafräume/Bad, WC"
            },
            {
              "@language": "en",
              "@value": "apartment/2 bedrooms/bath tube, WC"
            }
          ],
          "numberOfRooms": "6.0",
          "occupancy": {
            "@type": "QuantitativeValue",
            "maxValue": "5",
            "minValue": "2"
          }
        }
      ]
    },
    {
      "@type": "Offer",
      "name": [
        {
          "@language": "de",
          "@value": "Appartement/Fewo, Bad, WC, 3 Schlafräume"
        },
        {
          "@language": "en",
          "@value": "Apartment, bath, toilet, 3 bed rooms"
        }
      ],
      "description": [
        {
          "@language": "de",
          "@value": "Ferienwohnung für 6 Personen auf der 1. Etage, ca. 100m2; Wohnküche mit Eßecke, E-Herd mit 4 Kochplatten, Backofen und Kaffeemaschine; Sitzcouch und Sat-TV; 1 Doppelzimmer mit Waschbecken, 2 Dreibettzimmer mit Waschbecken, 2 x Dusche und WC mit Waschbecken, großer Flur."
        },
        {
          "@language": "en",
          "@value": "Apartement for 6 persons on the first floor, about 100m2; kitchen with dining table, stove with 4 hotplates, oven and coffeemaker; couch and sattellite TV; 1 doubleroom with washbasin, 2 triblerooms with washbasin, 2 showers and WC with washbasin, great hall."
        }
      ],
      "availability": "http://schema.org/InStock",
      "itemOffered": [
        {
          "@type": [
            "Apartment",
            "Product"
          ],
          "name": [
            {
              "@language": "de",
              "@value": "Apartment/3 Schlafräume/Bad, WC"
            },
            {
              "@language": "en",
              "@value": "apartment/3 bedrooms/bath tube, WC"
            }
          ],
          "numberOfRooms": "6.0",
          "occupancy": {
            "@type": "QuantitativeValue",
            "maxValue": "8",
            "minValue": "4"
          }
        }
      ]
    }
  ]
}