{
  "@context": "http://schema.org",
  "@type": "LodgingBusiness",
  "url": [
    "http://maps.best-of-zillertal.at/proxy/frontend/page/fuegen/de?foreignResource\u003d1DD9B59F-E99C-4D62-801B-1502DCF11D56"
  ],
  "address": {
    "@type": "PostalAddress",
    "name": "Haus Bergheim",
    "streetAddress": "Konrad-Egger-Weg 11",
    "addressCountry": "AT",
    "postalCode": "6264",
    "addressRegion": "Fügenberg",
    "telephone": "(0043) 5288 63749",
    "email": "bergheim33@yahoo.de"
  },
  "name": "Haus Bergheim",
  "description": [
    {
      "@language": "de",
      "@value": "Unser Haus liegt außerhalb des Ortszentrums in einer herllichen ruhigen Lage mit Blick auf das Zillertal. Ganz in der Nähe befindet sich eine Rodelbahn (Sommer \u0026 Winter), Wanderwege und Mountainbikerouten. Das Dorf, sowie die Schigebiete Spieljoch, Hochfügen/Hochzillertal und die Erlebnistherme Zillertal sind in wenigen Fahrminuten zu erreichen."
    },
    {
      "@language": "en",
      "@value": "Our house is situated out of the center with a beautiful view into the mountain of the Zillertal. Nearby we have a tobbogan run (winter \u0026 summer), walking and hiking paths as well as mountain bike routes. The village, the ski areas Spieljoch, Hochfügen/Hochzillertal and the adventure pool you can reach in few minutes by car."
    }
  ],
  "image": [
    {
      "@type": "ImageObject",
      "url": "http://resc.deskline.net/images/ZIL/1/03338788-1444-46db-b9ac-b880fb80c9ca/99/image.jpg",
      "caption": [
        {
          "@language": "de",
          "@value": "Haus Bergheim"
        },
        {
          "@language": "en",
          "@value": "Haus Bergheim"
        }
      ]
    },
    {
      "@type": "ImageObject",
      "url": "http://resc.deskline.net/images/ZIL/1/9e79042b-e12c-421b-8f2e-5b2ede6d357d/99/image.jpg",
      "caption": [
        {
          "@language": "de",
          "@value": "FamEgger"
        },
        {
          "@language": "en",
          "@value": "FamEgger"
        }
      ]
    },
    {
      "@type": "ImageObject",
      "url": "http://resc.deskline.net/images/ZIL/1/06e43a44-172c-4a1d-9270-b9baa1dbb183/99/image.jpg",
      "caption": [
        {
          "@language": "de",
          "@value": "Haus Beregheim"
        },
        {
          "@language": "en",
          "@value": "Haus Beregheim"
        }
      ]
    },
    {
      "@type": "ImageObject",
      "url": "http://resc.deskline.net/images/ZIL/1/718d4276-15ed-42b4-a6ec-cd64e94fccd6/99/image.jpg",
      "caption": [
        {
          "@language": "de",
          "@value": "Haus Bergheim Winter"
        },
        {
          "@language": "en",
          "@value": "Haus Bergheim Winter"
        }
      ]
    },
    {
      "@type": "ImageObject",
      "url": "http://resc.deskline.net/images/ZIL/1/25133391-defd-43aa-86fb-ace9b5656577/99/image.jpg",
      "caption": [
        {
          "@language": "de",
          "@value": "Küche Wohnung 2"
        },
        {
          "@language": "en",
          "@value": "Küche Wohnung 2"
        }
      ]
    },
    {
      "@type": "ImageObject",
      "url": "http://resc.deskline.net/images/ZIL/1/1e788871-3f0c-455b-809b-cd9de65e2910/99/image.jpg",
      "caption": [
        {
          "@language": "de",
          "@value": "Zimmer Wohnung 2 DU-WC TV und Balkon"
        },
        {
          "@language": "en",
          "@value": "Zimmer Wohnung 2 DU-WC TV und Balkon"
        }
      ]
    },
    {
      "@type": "ImageObject",
      "url": "http://resc.deskline.net/images/ZIL/1/69f6da71-f2f1-4e8c-882e-2af264277d15/99/image.jpg",
      "caption": [
        {
          "@language": "de",
          "@value": "Zimmer Wohnung 1 DU-WC TV und Balkon"
        },
        {
          "@language": "en",
          "@value": "Zimmer Wohnung 1 DU-WC TV und Balkon"
        }
      ]
    },
    {
      "@type": "ImageObject",
      "url": "http://resc.deskline.net/images/ZIL/1/ec3ad264-a108-4994-9f21-dcf55481142a/99/image.jpg",
      "caption": [
        {
          "@language": "de",
          "@value": "Küche Wohnung 1"
        },
        {
          "@language": "en",
          "@value": "Küche Wohnung 1"
        }
      ]
    },
    {
      "@type": "ImageObject",
      "url": "http://resc.deskline.net/images/ZIL/1/aee7cf72-f475-4782-b67a-0b270b16b865/99/image.jpg",
      "caption": [
        {
          "@language": "de",
          "@value": "Zimmer DU-WC TV und Balkon"
        },
        {
          "@language": "en",
          "@value": "Zimmer DU-WC TV und Balkon"
        }
      ]
    },
    {
      "@type": "ImageObject",
      "url": "http://resc.deskline.net/images/ZIL/1/6b124e91-d256-495c-8542-3f452d0f432e/99/image.jpg",
      "caption": [
        {
          "@language": "de",
          "@value": "Zimmer DU-WC TV und Balko"
        },
        {
          "@language": "en",
          "@value": "Zimmer DU-WC TV und Balko"
        }
      ]
    },
    {
      "@type": "ImageObject",
      "url": "http://resc.deskline.net/images/ZIL/1/fe6fd68e-afdb-4a0d-9933-d75d7ccf4ea8/99/image.jpg",
      "caption": [
        {
          "@language": "de",
          "@value": "Zimmer DU-WC TV und Balkon"
        },
        {
          "@language": "en",
          "@value": "Zimmer DU-WC TV und Balkon"
        }
      ]
    },
    {
      "@type": "ImageObject",
      "url": "http://resc.deskline.net/images/ZIL/1/bd71a4c7-e18d-4286-b9f5-44be2f643d40/99/image.jpg",
      "caption": [
        {
          "@language": "de",
          "@value": "Blick ins Zillertal"
        },
        {
          "@language": "en",
          "@value": "Blick ins Zillertal"
        }
      ]
    },
    {
      "@type": "ImageObject",
      "url": "http://resc.deskline.net/images/ZIL/1/33c1f3a5-65da-4f63-91dc-d90be9af2606/99/image.jpg",
      "caption": [
        {
          "@language": "de",
          "@value": "Blick ins Zillertal"
        },
        {
          "@language": "en",
          "@value": "Blick ins Zillertal"
        }
      ]
    }
  ],
  "geo": {
    "@type": "GeoCoordinates",
    "latitude": "47.354081",
    "longitude": "11.836276"
  },
  "currenciesAccepted": "EUR",
  "makesOffer": [
    {
      "@type": "Offer",
      "name": [
        {
          "@language": "de",
          "@value": "Appartement/Fewo, Dusche, WC, 4 oder mehr Schlafräume"
        },
        {
          "@language": "en",
          "@value": "Apartment, shower, toilet, 4 or more bed rooms"
        }
      ],
      "description": [
        {
          "@language": "de",
          "@value": "Unser gemütliches Haus befindet sich in sonniger Lage mit einem herrlichem Panoramablick in das ganze Zillertal.\n\nFerienwohnung 1: für 4-8 Personen\nDie Wohnung ist ca. 80 m2 groß,\n3 DZ-Zimmer jeweils mit DU/WC, 1 Kinderzimmer mit Ausziebett (ohne DU/WC).\nKomplett neue Wohnküche mit Geschirrspüler, Kühlschrank, Kaffeemaschine, Wasserkocher, Eierkocher sowie einen 4-Platten E-Herd (Ceranfeld) mit Backrohr; Jedes Zimmer mit Balkon\n4xTV-Sat.\n"
        },
        {
          "@language": "en",
          "@value": "The appartement (75 m²) is for 4-6 persons. 3 dopple rooms each with shower/WC, 1 child room (without shower/WC).\nNew kitschen with dishwasher, fridge, coffee machine, kettle, electric cooker and TV"
        }
      ],
      "availability": "http://schema.org/InStock",
      "itemOffered": [
        {
          "@type": [
            "Apartment",
            "Product"
          ],
          "name": [
            {
              "@language": "de",
              "@value": "Wohnung 1"
            },
            {
              "@language": "en",
              "@value": "apartment/4 + more bedrooms/shower, WC"
            }
          ],
          "numberOfRooms": "5.0",
          "occupancy": {
            "@type": "QuantitativeValue",
            "maxValue": "8",
            "minValue": "4"
          }
        }
      ],
      "priceSpecification": [
        {
          "@type": "PriceSpecification",
          "description": "Pax 4",
          "minPrice": "15.00",
          "maxPrice": "18.00",
          "priceCurrency": "EUR"
        },
        {
          "@type": "PriceSpecification",
          "description": "Pax 5",
          "minPrice": "15.00",
          "maxPrice": "18.00",
          "priceCurrency": "EUR"
        },
        {
          "@type": "PriceSpecification",
          "description": "Pax 6",
          "minPrice": "15.00",
          "maxPrice": "18.00",
          "priceCurrency": "EUR"
        },
        {
          "@type": "PriceSpecification",
          "description": "Pax 7",
          "minPrice": "12.00",
          "maxPrice": "17.00",
          "priceCurrency": "EUR"
        },
        {
          "@type": "PriceSpecification",
          "description": "Pax 8",
          "minPrice": "12.00",
          "maxPrice": "17.00",
          "priceCurrency": "EUR"
        }
      ]
    },
    {
      "@type": "Offer",
      "name": [
        {
          "@language": "de",
          "@value": "Appartement/Fewo, Dusche, WC, 1 Schlafraum"
        },
        {
          "@language": "en",
          "@value": "Apartment, shower, toilet, 1 bed room"
        }
      ],
      "description": [
        {
          "@language": "de",
          "@value": "Die Wohnung ist ca. 40 m² groß, 1 Dreibettzimmer mit DU/WC und Sat-TV. 1 Wohnküche mit Kühlschrank, Kaffeemaschine, Wasserkocher, E-Herd. In der Wohnküche besteht auch eine Schlafmöglichkeit für 1 Person."
        },
        {
          "@language": "en",
          "@value": "The appartement (approx. 40 m²) is for 2-4 persons. 1 three-bed-room with shower/WC and tv. 1 living-kitchen with fridge, coffee machine, water boiler, electric cooker. There is also a possibilty to sleep for 1 person."
        }
      ],
      "availability": "http://schema.org/InStock",
      "itemOffered": [
        {
          "@type": [
            "Apartment",
            "Product"
          ],
          "name": [
            {
              "@language": "de",
              "@value": "Wohnung 2"
            },
            {
              "@language": "en",
              "@value": "apartment/1 bedroom/shower, WC"
            }
          ],
          "numberOfRooms": "2.0",
          "occupancy": {
            "@type": "QuantitativeValue",
            "maxValue": "5",
            "minValue": "2"
          }
        }
      ],
      "priceSpecification": [
        {
          "@type": "PriceSpecification",
          "description": "Pax 2",
          "minPrice": "19.00",
          "maxPrice": "20.00",
          "priceCurrency": "EUR"
        },
        {
          "@type": "PriceSpecification",
          "description": "Pax 3",
          "minPrice": "14.00",
          "maxPrice": "16.00",
          "priceCurrency": "EUR"
        },
        {
          "@type": "PriceSpecification",
          "description": "Pax 4",
          "minPrice": "14.00",
          "maxPrice": "16.00",
          "priceCurrency": "EUR"
        },
        {
          "@type": "PriceSpecification",
          "description": "Pax 5",
          "minPrice": "14.00",
          "maxPrice": "16.00",
          "priceCurrency": "EUR"
        }
      ]
    }
  ]
}