{
  "@context": "http://schema.org",
  "@type": "LodgingBusiness",
  "url": [
    "http://maps.best-of-zillertal.at/proxy/frontend/page/fuegen/de?foreignResource\u003d1E4F9F07-D4F0-48C6-8740-1F4DB92BA55C"
  ],
  "address": {
    "@type": "PostalAddress",
    "streetAddress": "Kaltenbacher Landstraße 26 / Top2",
    "addressCountry": "AT",
    "postalCode": "6272",
    "addressRegion": "Kaltenbach",
    "telephone": "(0043) 676 881001009",
    "email": "nadine8778@hotmail.com"
  },
  "name": "Sponring Nadine",
  "description": [
    {
      "@language": "de",
      "@value": "Unsere geschmackvoll eingerichtete Ferienwohnung liegt ca. 400m von der Talstation der Bergbahn Hochzillertal (bequem zu Fuß erreichbar, nahe zur Bushaltestelle) und ca. 50m vom Ortszentrum entfernt. Lebensmittelgeschäfte, Restaurants, Pizzeria und Banken in unmittelbarer Nähe! Die Wohnung befindet sich im 1. Stock - Lift im Haus!\n\nSommer: Der Radweg führt am Haus vorbei, guter Ausgangspunkt für Wanderungen!"
    },
    {
      "@language": "de",
      "@value": "Endreinigung EUR 50,-- \nÜbliche Ortstaxe EUR 1,-- pro Person und Tag!\n\nExtra: ein kleines Willkommensgeschenk sowie die Kaffeepads für die Espressomaschine inklusive!\n\n"
    },
    {
      "@language": "de",
      "@value": ""
    },
    {
      "@language": "en",
      "@value": "Our Appartement is about 450 m from the cablecar station and about 150 m from the centre. Shops are nearby! The appartement is at the 1st floor - lift in the house!"
    },
    {
      "@language": "en",
      "@value": "Final cleaning EUR 50,--\nUsual tax is EUR 1,-- per person each day!\n\nFurthermore we\u0027ll welcome you with a small welcome gift as well with coffee pads for the espresso machine!"
    }
  ],
  "image": [
    {
      "@type": "ImageObject",
      "url": "http://resc.deskline.net/images/ZIL/1/53300a88-bc88-4e12-9877-7424eb1e40b1/99/image.jpg",
      "caption": [
        {
          "@language": "de",
          "@value": "Küche 1"
        },
        {
          "@language": "en",
          "@value": "Küche 1"
        }
      ]
    },
    {
      "@type": "ImageObject",
      "url": "http://resc.deskline.net/images/ZIL/1/3e3fe81c-824a-42d8-ab35-01adff406db3/99/image.jpg",
      "caption": [
        {
          "@language": "de",
          "@value": "image4"
        },
        {
          "@language": "en",
          "@value": "image4"
        }
      ]
    },
    {
      "@type": "ImageObject",
      "url": "http://resc.deskline.net/images/ZIL/1/65492093-7f33-4613-a4d7-fd758692c927/99/image.jpg",
      "caption": [
        {
          "@language": "de",
          "@value": "image1"
        },
        {
          "@language": "en",
          "@value": "image1"
        }
      ]
    },
    {
      "@type": "ImageObject",
      "url": "http://resc.deskline.net/images/ZIL/1/4ae989bd-1e40-4577-ae85-b1177e76c88d/99/image.jpg",
      "caption": [
        {
          "@language": "de",
          "@value": "Schlafzimmer 2"
        },
        {
          "@language": "en",
          "@value": "Schlafzimmer 2"
        }
      ]
    },
    {
      "@type": "ImageObject",
      "url": "http://resc.deskline.net/images/ZIL/1/e741ff1b-6c07-40ff-8d30-184436f2199c/99/image.jpg",
      "caption": [
        {
          "@language": "de",
          "@value": "TV"
        },
        {
          "@language": "en",
          "@value": "TV"
        }
      ]
    },
    {
      "@type": "ImageObject",
      "url": "http://resc.deskline.net/images/ZIL/1/99446bf7-b42c-47c1-b1a7-25d655ac1b48/99/image.jpg",
      "caption": [
        {
          "@language": "de",
          "@value": "Schlafzimmer 3"
        },
        {
          "@language": "en",
          "@value": "Schlafzimmer 3"
        }
      ]
    },
    {
      "@type": "ImageObject",
      "url": "http://resc.deskline.net/images/ZIL/1/6eeddf54-94d8-402f-a949-93bbbf850935/99/image.jpg",
      "caption": [
        {
          "@language": "de",
          "@value": "Schlafzimmer 1"
        },
        {
          "@language": "en",
          "@value": "Schlafzimmer 1"
        }
      ]
    },
    {
      "@type": "ImageObject",
      "url": "http://resc.deskline.net/images/ZIL/1/4484b93b-149f-4f52-8641-19cdb4ad171c/99/image.jpg",
      "caption": [
        {
          "@language": "de",
          "@value": "Sofa"
        },
        {
          "@language": "en",
          "@value": "Sofa"
        }
      ]
    },
    {
      "@type": "ImageObject",
      "url": "http://resc.deskline.net/images/ZIL/1/71b549f3-0808-4b32-bf62-937f91c24db5/99/image.jpg",
      "caption": [
        {
          "@language": "de",
          "@value": "Badezimmer"
        },
        {
          "@language": "en",
          "@value": "Badezimmer"
        }
      ]
    },
    {
      "@type": "ImageObject",
      "url": "http://resc.deskline.net/images/ZIL/1/aa774eba-b053-47ba-9be1-c6f538bfd46e/99/image.jpg",
      "caption": [
        {
          "@language": "de",
          "@value": "Flur"
        },
        {
          "@language": "en",
          "@value": "Flur"
        }
      ]
    },
    {
      "@type": "ImageObject",
      "url": "http://resc.deskline.net/images/ZIL/1/58f7d70d-f9a9-407b-8044-2b47473da391/99/image.jpg",
      "caption": [
        {
          "@language": "de",
          "@value": "image5"
        },
        {
          "@language": "en",
          "@value": "image5"
        }
      ]
    },
    {
      "@type": "ImageObject",
      "url": "http://resc.deskline.net/images/ZIL/1/b15898a2-1e09-438d-ba04-58c5da897e7b/99/image.jpg",
      "caption": [
        {
          "@language": "de",
          "@value": "WC"
        },
        {
          "@language": "en",
          "@value": "WC"
        }
      ]
    },
    {
      "@type": "ImageObject",
      "url": "http://resc.deskline.net/images/ZIL/1/a1a0ba41-e93b-4b93-8989-56eefc1af654/99/image.jpg",
      "caption": [
        {
          "@language": "de",
          "@value": "Schrank"
        },
        {
          "@language": "en",
          "@value": "Schrank"
        }
      ]
    }
  ],
  "geo": {
    "@type": "GeoCoordinates",
    "latitude": "47.295181555277608",
    "longitude": "11.874525547027588"
  },
  "currenciesAccepted": "EUR",
  "makesOffer": [
    {
      "@type": "Offer",
      "name": [
        {
          "@language": "de",
          "@value": "Appartement/Fewo, Bad, WC, 2 Schlafräume"
        },
        {
          "@language": "en",
          "@value": "Apartment, bath, toilet, 2 bed rooms"
        }
      ],
      "description": [
        {
          "@language": "de",
          "@value": "Fewo mit ca. 70 m2 Wohnfläche, 2 Schlafzimmer, Wohnküche mit Sitzecke (Mikrowelle, Backofen, Ceranfeld, Geschirrspülmaschine, Espressomaschine, Kühlschrank, kl. Gefrierschrank), SAT-TV, Bad mit Badewanne und Dusche, WC extra, Balkon! Bettwäsche, Geschirr und Handtücher sind vorhanden und werden auf Wunsch gerne gewechselt!"
        },
        {
          "@language": "en",
          "@value": "Apartment with about 70 m2, 2 bed-rooms, breakfast kitchen (sat-tv, micro, dishwasher, espresso-machine, frigerator usw.), bath with shower and bath-tube, WC extra, balcony! Towels and bed-linen are included!"
        }
      ],
      "availability": "http://schema.org/InStock",
      "itemOffered": [
        {
          "@type": [
            "Apartment",
            "Product"
          ],
          "name": [
            {
              "@language": "de",
              "@value": "Apartment/2 Schlafräume/Bad, WC"
            },
            {
              "@language": "en",
              "@value": "Apartment, bath, toilet, 2 bed rooms"
            }
          ],
          "numberOfRooms": "3.0",
          "occupancy": {
            "@type": "QuantitativeValue",
            "maxValue": "4",
            "minValue": "2"
          }
        }
      ],
      "priceSpecification": [
        {
          "@type": "PriceSpecification",
          "description": "Pax 2",
          "minPrice": "40.00",
          "maxPrice": "90.00",
          "priceCurrency": "EUR"
        },
        {
          "@type": "PriceSpecification",
          "description": "Pax 3",
          "minPrice": "50.00",
          "maxPrice": "110.00",
          "priceCurrency": "EUR"
        },
        {
          "@type": "PriceSpecification",
          "description": "Pax 4",
          "minPrice": "65.00",
          "maxPrice": "125.00",
          "priceCurrency": "EUR"
        }
      ]
    }
  ]
}