{
  "@context": "http://schema.org",
  "@type": "LodgingBusiness",
  "url": [
    "http://www.huette-zillertal.at",
    "http://maps.best-of-zillertal.at/proxy/frontend/page/fuegen/de?foreignResource\u003d20600DDE-584E-4553-8BCF-ACFD1DF837E9"
  ],
  "address": {
    "@type": "PostalAddress",
    "name": "Thaler Hütte",
    "streetAddress": "Hochfügen 52",
    "addressCountry": "AT",
    "postalCode": "6264",
    "addressRegion": "Fügenberg",
    "telephone": "(0043) 664 4910568",
    "email": "info@huette-zillertal.at",
    "url": "http://www.huette-zillertal.at"
  },
  "name": "Thaler Hütte",
  "description": [
    {
      "@language": "de",
      "@value": "Herzlich Willkommen bei uns auf der Thaler Hütte in Hochfügen in absoluter Traumlage mitten im Ski und Wandergebiet von Hochfügen - Hochzillertal. \n\nHarmonisch eingebettet mitten in der herrlichen Bergwelt der Zillertaler Alpen liegt die Thaler Hütte auf ca. 1550m Seehöhe. Im Sommer ist die Hütte mit dem PKW erreichbar und im Winter ist eine Zufahrt bis auf ca. 70m möglich.\n\nIn unseren zwei Hütten befinden sich 3 großzügige Ferienwohnungen, welche alle im typischen Tiroler Stil mit Vollholzmöbeln eingerichtet sind. Sie verfügen über 2-4 Doppelzimmer, Bad mit DU/WC, Wohnküche, TV und Balkon oder Terrasse. \nDer hauseigene Garten mit Grillmöglichkeit lädt zum Entspannen und geselligen Beisammensein ein. Ihr habt die Wahl und könnt gerne unsere Hütte Almzauber mit eigener Holzfass Sauna für bis zu 6 Personen buchen.\n\nIm Sommer ist unser Ferienhaus ein idealer Ausgangspunkt für zahlreiche Wanderungen oder Mountainbike-Routen in den Zillertaler Alpen. Eure Wanderung beginnt direkt vor der Haustüre. \nIm Winter führt direkt an der Thaler Hütte die Skipiste eines der besten Skigebiete der Welt Hochfügen - Hochzillertal vorbei. Vom Skikurs und Skiverleih über Gästekindergarten bis hin zum Apres Ski wird Euch im Almdorf Hochfügen alles geboten. Die beleuchtete Rodelbahn und die Höhenlanglaufloipe sind besonders beliebt.\n\nWir freuen uns darauf, Euch bei uns in der Thaler Hütte begrüßen zu können und Euren Urlaub zu einem unvergesslichen Erlebnis zu machen!\n\nHerzlichst, \nGabi, Dietmar, Sabine und Johannes\n"
    },
    {
      "@language": "de",
      "@value": "Bettwäsche ist im Preis inkludiert.\nExtra verrechnet wird die Energie nach Verbrauch und pro Person ( über 15 Jahren) und Tag € 1,-- für die Orts-Taxe. \nEndreinigung einmalig € 60,-- bis € 120,--"
    },
    {
      "@language": "de",
      "@value": "Wir bitten um Bekanntgabe der ungefähren Anreisezeit ca. 1 Woche vor Urlaubsantritt unter 0043-664-4910568"
    },
    {
      "@language": "de",
      "@value": "Hütte Chalet Hochfügen Schigebiet Wandergebiet Zillertal Allergie frei Höhenlage Zillertaler Alpen  "
    },
    {
      "@language": "en",
      "@value": "Welcome to the Thaler Hütte in Hochfügen, located in an absolute dream situation at the heart of the skiing and hiking area Hochfügen - Hochzillertal. \n\nThe Thaler Hütte is harmoniously nestled in the wonderful mountains of the Zillertaler Alps at an altitude of about 1600m above sea level. In summer, the hut is accessible by car and in winter a road leads as close as 70m to it.\n\nOur two huts host 3 generous holiday apartments, all designed with solid wood furniture in typical Tyrolean style. They have 2-4 double rooms, bath with shower WC, apartment kitchen, TV and balcony or terrace. \nOur own garden with barbeque area invites to relax and spend enjoyable times together. The choice is up to you: The Almzauber Hütte offers its own wooden barrel sauna for up to 6 people.\n\nIn summer, our holiday house is an ideal starting point for numerous hiking or mountain bike toures in the Zillertaler alps. Your tour commences right at the doorstep. \nIn winter, the skiing slopes of the Hochfügen - Hochzillertal resort, of one of the world’s best skiing are right next to the Thaler Hütte. Skiing courses and ski rentals, a  kindergarten and many après-ski options complete the offer in the alpine village of Hochfügen. The illuminated sled run and the high-altitude cross-country tracks are particularly popular among guests.\n\nWe look forward to welcoming you here with us at the Thaler Hütte and to turning your vacation into an unforgettable experience!\n\nYours\nGabi, Dietmar, Sabine and Johannes\n"
    },
    {
      "@language": "en",
      "@value": "The price includes the bed linen.\nThe final cleaning is from € 60, - to 120, - and gas according to consumption"
    },
    {
      "@language": "en",
      "@value": "We kindly ask you to inform us about the approximate arrival time approx 1 week before your arrival at 0043-664-4910568"
    }
  ],
  "image": [
    {
      "@type": "ImageObject",
      "url": "http://resc.deskline.net/images/ZIL/1/cb2a3610-e5d7-46d7-a41a-4e29254195b2/99/image.jpg",
      "caption": [
        {
          "@language": "de",
          "@value": "Hütte Thaler in Hochfügen im Zillertal"
        },
        {
          "@language": "en",
          "@value": "Hütte Thaler in Hochfügen im Zillertal"
        }
      ]
    },
    {
      "@type": "ImageObject",
      "url": "http://resc.deskline.net/images/ZIL/1/ea1fbe85-1472-40dc-ae94-3923e349ffe2/99/image.jpg",
      "caption": [
        {
          "@language": "de",
          "@value": "Hütte Thaler und Hütte Almzauber in Hochfügen "
        },
        {
          "@language": "en",
          "@value": "Hütte Thaler und Hütte Almzauber in Hochfügen "
        }
      ]
    },
    {
      "@type": "ImageObject",
      "url": "http://resc.deskline.net/images/ZIL/1/f979652e-e996-490e-81de-ab57a695383f/99/image.jpg",
      "caption": [
        {
          "@language": "de",
          "@value": "Hütte Almzauber Eingang mit Holzfass-Sauna"
        },
        {
          "@language": "en",
          "@value": "Hütte Almzauber Eingang mit Holzfass-Sauna"
        }
      ]
    },
    {
      "@type": "ImageObject",
      "url": "http://resc.deskline.net/images/ZIL/1/7596f541-3c3f-4d12-b285-0619de62ed79/99/image.jpg",
      "caption": [
        {
          "@language": "de",
          "@value": "Wohnzimmer \"Platzhirsch\""
        },
        {
          "@language": "en",
          "@value": "Wohnzimmer \"Platzhirsch\""
        }
      ]
    },
    {
      "@type": "ImageObject",
      "url": "http://resc.deskline.net/images/ZIL/1/7180ebaa-e0bd-4a5a-8668-4ddd5c4a079b/99/image.jpg",
      "caption": [
        {
          "@language": "de",
          "@value": "Wohnzimmer \"Gipfelstürmer\""
        },
        {
          "@language": "en",
          "@value": "Wohnzimmer \"Gipfelstürmer\""
        }
      ]
    },
    {
      "@type": "ImageObject",
      "url": "http://resc.deskline.net/images/ZIL/1/f5bfde28-d97f-483d-86bd-efc6031c02cf/99/image.jpg",
      "caption": [
        {
          "@language": "de",
          "@value": "Wohnzimmer \"Gipfelstürmer\""
        },
        {
          "@language": "en",
          "@value": "Wohnzimmer \"Gipfelstürmer\""
        }
      ]
    },
    {
      "@type": "ImageObject",
      "url": "http://resc.deskline.net/images/ZIL/1/ce70ba04-3705-46b3-80bd-74c369dc4470/99/image.jpg",
      "caption": [
        {
          "@language": "de",
          "@value": "Küche Wohnung \"Sabine\""
        },
        {
          "@language": "en",
          "@value": "Küche Wohnung \"Sabine\""
        }
      ]
    },
    {
      "@type": "ImageObject",
      "url": "http://resc.deskline.net/images/ZIL/1/96636fdf-6ddb-43a3-a62b-38853bfd0a29/99/image.jpg",
      "caption": [
        {
          "@language": "de",
          "@value": "Schlafzimmer Gipfelstürmer"
        },
        {
          "@language": "en",
          "@value": "Schlafzimmer Gipfelstürmer"
        }
      ]
    },
    {
      "@type": "ImageObject",
      "url": "http://resc.deskline.net/images/ZIL/1/fb16fc41-87e3-409b-99fc-839c87954d70/99/image.jpg",
      "caption": [
        {
          "@language": "de",
          "@value": "Wohnküche \"Almzauber\""
        },
        {
          "@language": "en",
          "@value": "Wohnküche \"Almzauber\""
        }
      ]
    },
    {
      "@type": "ImageObject",
      "url": "http://resc.deskline.net/images/ZIL/1/d8df85f9-d343-4adb-9efb-3170d75198ea/99/image.jpg",
      "caption": [
        {
          "@language": "de",
          "@value": "4-Bettzimmer \"Almzauber\""
        },
        {
          "@language": "en",
          "@value": "4-Bettzimmer \"Almzauber\""
        }
      ]
    },
    {
      "@type": "ImageObject",
      "url": "http://resc.deskline.net/images/ZIL/1/3b279583-e4cf-444e-bc4a-724981d29ddc/99/image.jpg",
      "caption": [
        {
          "@language": "de",
          "@value": "Dusche-WC \"Almzauber\""
        },
        {
          "@language": "en",
          "@value": "Dusche-WC \"Almzauber\""
        }
      ]
    },
    {
      "@type": "ImageObject",
      "url": "http://resc.deskline.net/images/ZIL/1/ab262def-1f37-41af-bdb6-b8a5993f9eaa/99/image.jpg",
      "caption": [
        {
          "@language": "de",
          "@value": "Garten"
        },
        {
          "@language": "en",
          "@value": "Garten"
        }
      ]
    },
    {
      "@type": "ImageObject",
      "url": "http://resc.deskline.net/images/ZIL/1/58319323-65f3-4041-bbb8-d42a77f361ec/99/image.jpg",
      "caption": [
        {
          "@language": "de",
          "@value": "Sauna für Gipfelstürmer und Platzhirsch"
        },
        {
          "@language": "en",
          "@value": "Sauna für Gipfelstürmer und Platzhirsch"
        }
      ]
    },
    {
      "@type": "ImageObject",
      "url": "http://resc.deskline.net/images/ZIL/1/e74604fc-117e-4235-b576-4d301a400bd8/99/image.jpg",
      "caption": [
        {
          "@language": "de",
          "@value": "Holzfass-Sauna"
        },
        {
          "@language": "en",
          "@value": "Holzfass-Sauna"
        }
      ]
    },
    {
      "@type": "ImageObject",
      "url": "http://resc.deskline.net/images/ZIL/1/a8e2685d-7cc3-4a00-9986-b04309594177/99/image.jpg",
      "caption": [
        {
          "@language": "de",
          "@value": "Schigebiet Hochfügen"
        },
        {
          "@language": "en",
          "@value": "Schigebiet Hochfügen"
        }
      ]
    },
    {
      "@type": "ImageObject",
      "url": "http://resc.deskline.net/images/ZIL/1/5ae5d123-9369-4d04-9488-a7010a59ee89/99/image.jpg",
      "caption": [
        {
          "@language": "de",
          "@value": "Schigebiet"
        },
        {
          "@language": "en",
          "@value": "Schigebiet"
        }
      ]
    },
    {
      "@type": "ImageObject",
      "url": "http://resc.deskline.net/images/ZIL/1/8bf43068-3c10-43f7-9ed9-f51346c18abd/99/image.jpg",
      "caption": [
        {
          "@language": "de",
          "@value": "Blick von der Hütte auf die Piste"
        },
        {
          "@language": "en",
          "@value": "Blick von der Hütte auf die Piste"
        }
      ]
    },
    {
      "@type": "ImageObject",
      "url": "http://resc.deskline.net/images/ZIL/1/269e1c67-4186-40c1-8e16-19b964b88b5d/99/image.jpg",
      "caption": [
        {
          "@language": "de",
          "@value": "Schigebiet Hochfügen"
        },
        {
          "@language": "en",
          "@value": "Schigebiet Hochfügen"
        }
      ]
    },
    {
      "@type": "ImageObject",
      "url": "http://resc.deskline.net/images/ZIL/1/8659cd42-cbff-4c27-860e-2e3c0eb8f78f/99/image.jpg",
      "caption": [
        {
          "@language": "de",
          "@value": "Dachzimmer \"Gipfelstürmer\""
        },
        {
          "@language": "en",
          "@value": "Dachzimmer \"Gipfelstürmer\""
        }
      ]
    },
    {
      "@type": "ImageObject",
      "url": "http://resc.deskline.net/images/ZIL/1/fb3a6ed3-2623-452a-8cfc-f633d62e9b3d/99/image.jpg",
      "caption": [
        {
          "@language": "de",
          "@value": "Jucheezimmer Gipfelstürmer"
        },
        {
          "@language": "en",
          "@value": "Jucheezimmer Gipfelstürmer"
        }
      ]
    },
    {
      "@type": "ImageObject",
      "url": "http://resc.deskline.net/images/ZIL/1/92990343-3e2f-49e5-ada2-c93f0d89b747/99/image.jpg",
      "caption": [
        {
          "@language": "de",
          "@value": "Blick vom Balkon ins Schigebiet"
        },
        {
          "@language": "en",
          "@value": "Blick vom Balkon ins Schigebiet"
        }
      ]
    }
  ],
  "geo": {
    "@type": "GeoCoordinates",
    "latitude": "47.271687709369509",
    "longitude": "11.779854297637939"
  },
  "currenciesAccepted": "EUR",
  "makesOffer": [
    {
      "@type": "Offer",
      "name": [
        {
          "@language": "de",
          "@value": "Appartement/Fewo, Dusche, WC"
        },
        {
          "@language": "en",
          "@value": "Apartment, shower, toilet"
        }
      ],
      "description": [
        {
          "@language": "de",
          "@value": "(für  bis 4 Personen) verfügt über eine gut ausgestattete Arbeitsküche, einem Wohn-Esszimmer mit SAT/TV .\nDes weiteren gibt es eine Dusche mit WC, ein Doppelbett- (180x200) und ein Stockbettzimmer (90x190).\nDie Gesamtgröße der Wohnung beträgt ca. 65 m² und hat direkten Zugang in den großen Garten.\n\nIn der Wohnung finden Sie 4 Platten E-Herd mit Backofen, Geschirrspüler, Kaffeemaschine, Toaster, Wasserkocher, Fonduegeschirr und ausreichend Geschirr."
        }
      ],
      "availability": "http://schema.org/InStock",
      "itemOffered": [
        {
          "@type": [
            "Apartment",
            "Product"
          ],
          "name": [
            {
              "@language": "de",
              "@value": "EG Wohnung \"Platzhirsch\""
            },
            {
              "@language": "en",
              "@value": "appartement \"Sabine\""
            }
          ],
          "numberOfRooms": "2.0",
          "occupancy": {
            "@type": "QuantitativeValue",
            "maxValue": "4",
            "minValue": "2"
          }
        }
      ],
      "priceSpecification": [
        {
          "@type": "PriceSpecification",
          "description": "Pax 4",
          "minPrice": "80.00",
          "maxPrice": "260.00",
          "priceCurrency": "EUR"
        }
      ]
    },
    {
      "@type": "Offer",
      "name": [
        {
          "@language": "de",
          "@value": "Appartement/Fewo, Dusche, WC"
        },
        {
          "@language": "en",
          "@value": "Apartment, shower, toilet"
        }
      ],
      "description": [
        {
          "@language": "de",
          "@value": "(für 8 Personen) verfügt über eine gut ausgestattete Arbeitsküche, einem Wohn-Eßbereich mit Sat/TV, einem Doppelbettzimmer (180x200)  und einem 2. Doppelbettzimmer (160x190) sowie zweimal Dusche mit WC und Föhn.\nIm ausgebauten Dachgeschoß, Raumhöhe von 70 bis 175 cm, befinden sich nochmals zwei Zimmer mit je einem Doppelbett (160x200). Die Gesamtgröße der Wohnung beträgt ca. 90m2 und verfügt zusätzlich auf zwei Seiten über einen Balkon mit Terrasse. \nIm Garten befindet sich eine Holzfasssauna!\n\n"
        }
      ],
      "availability": "http://schema.org/InStock",
      "itemOffered": [
        {
          "@type": [
            "Apartment",
            "Product"
          ],
          "name": [
            {
              "@language": "de",
              "@value": "OG Wohnung \"Gipfelstürmer\""
            },
            {
              "@language": "en",
              "@value": "appartement \"Johannes\""
            }
          ],
          "numberOfRooms": "4.0",
          "occupancy": {
            "@type": "QuantitativeValue",
            "maxValue": "8",
            "minValue": "4"
          }
        }
      ],
      "priceSpecification": [
        {
          "@type": "PriceSpecification",
          "description": "Pax 8",
          "minPrice": "160.00",
          "maxPrice": "520.00",
          "priceCurrency": "EUR"
        }
      ]
    },
    {
      "@type": "Offer",
      "name": [
        {
          "@language": "de",
          "@value": "Ferienhaus, Dusche, WC, 3 Schlafräume"
        },
        {
          "@language": "en",
          "@value": "Holiday home, shower, toilet, 3 bed rooms"
        }
      ],
      "description": [
        {
          "@language": "de",
          "@value": "Unsere Hütte „Almzauber“ (für 8 Personen) wurde über den Sommer 2010 neu errichtet - die gesamte Hütte ist mit Vollholzmöbeln eingerichtet, und verfügt über folgende Ausstattung:\nEs gibt 3 Schlafzimmer, 1 Zimmer mit einem Doppelbett (180x200),\n1 Zimmer mit einem Doppelbett (160x200) und 1 Zimmer mit einem Doppel- (180x200) und einem Stockbett (90x200). Alle Schlafzimmer sind mit SAT-TV ausgestattet. Eine große, voll ausgestatteten Wohnküche - auch mit SAT-TV lädt zum gemütlichen beisammen sein"
        }
      ],
      "availability": "http://schema.org/InStock",
      "itemOffered": [
        {
          "@type": [
            "Apartment",
            "Product"
          ],
          "name": [
            {
              "@language": "de",
              "@value": "Hütte Almzauber"
            },
            {
              "@language": "en",
              "@value": "Hütte Almzauber"
            }
          ],
          "numberOfRooms": "3.0",
          "occupancy": {
            "@type": "QuantitativeValue",
            "maxValue": "8",
            "minValue": "6"
          }
        }
      ],
      "priceSpecification": [
        {
          "@type": "PriceSpecification",
          "description": "Pax 6",
          "minPrice": "200.00",
          "maxPrice": "600.00",
          "priceCurrency": "EUR"
        },
        {
          "@type": "PriceSpecification",
          "description": "Pax 7",
          "minPrice": "200.00",
          "maxPrice": "600.00",
          "priceCurrency": "EUR"
        },
        {
          "@type": "PriceSpecification",
          "description": "Pax 8",
          "minPrice": "200.00",
          "maxPrice": "600.00",
          "priceCurrency": "EUR"
        }
      ]
    }
  ]
}