{
  "@context": "http://schema.org",
  "@type": "LodgingBusiness",
  "url": [
    "http://www.hausebster.com",
    "http://maps.best-of-zillertal.at/proxy/frontend/page/fuegen/de?foreignResource\u003d207EB8DB-3522-43B8-9741-79BFD1A1CDEE"
  ],
  "address": {
    "@type": "PostalAddress",
    "name": "Appartement Ebster",
    "streetAddress": "Schreiberweg 18",
    "addressCountry": "AT",
    "postalCode": "6263",
    "addressRegion": "Fügen",
    "telephone": "(0043) 5288 62764",
    "faxNumber": "(0043) 5288 62764",
    "email": "burgi.ebster@aon.at",
    "url": "http://www.hausebster.com"
  },
  "name": "Haus Ebster",
  "description": [
    {
      "@language": "de",
      "@value": "Genießen Sie unsere gemütliche Pension in einer sonnigen, ruhigen Lage. Das familiär geführte Appartementhaus Ebster Burgi liegt in der Zillertaler Bergwelt, am Ortsrand von Fügen in der Ersten Ferienregion im Zillertal, und bietet sowohl Zimmer als auch Ferienwohnungen.\n\nStarten sie von unserer Pension in Fügen aus und erkunden sie die Familienskigebiete im ganzen Zillertal. Unser Appartementhaus liegt ca. 200m von einer Skibushaltestelle entfernt. Der Bahnhof liegt in einem ausgezeichneten Radius von ca. 500m und das Ortzentrum von Fügen erreichen Sie mit dem Auto in weniger als 5 Minuten. Die Nähe zur Erlebnistherme in Fügen (500m) lädt zum Saunabesuch ein und lässt das Wellness Herz mit Zirben Sauna, Kräuter Sauna, Dampfbad und vielem mehr höher schlagen. \n\nIn unserem Garten können Sie auf der großen Liegewiese mit Schaukel und Sandkasten Ihren Urlaub mit der ganzen Familie  genießen. Auch Sportgeräte aller Art finden in unserer Fahrradgarage oder dem beheizten Skikeller ausreichend Platz. In der gesamten Unterkunft können Sie unseren WLAN Zugang kostenlos nutzen.   \n\nUnsere 2 renovierten und freundlichen Wohnungen bieten Platz für bis zu 8 Personen und sind ausgestattet mit 2-3 getrennten Schlafzimmern, Wohnzimmern, jeweils 2 TV-Geräten, voll ausgestatteten Küchen inkl. Geschirrspüler, Elektroherd mit Backrohr und Essecken, teilweise mehrere Duschen /WCs, und jeweils einem großen südseitigen Balkon. Bettwäsche und Handtücher werden zur Verfügung gestellt und Brötchenservice kann auf Wunsch organisiert werden. \n\nDie Zimmer sind alle mit Dusche und WC, südseitigem Balkon mit Liegestühlen, TV-Geräten und Parkettboden ausgestattet. Im Aufenthaltsraum wird Ihnen ein reichhaltiges Frühstück geboten. Sie haben auch die Möglichkeit unsere Gästeküche mit Kühlschrank und Kaffeemaschine zu benutzen.\n\nFügen im Zillertal ist ein idealer Ausgangspunkt für Wanderungen und Mountainbiketouren. Egal ob Sonnenaufgangswanderungen oder einfach nur zum Relaxen auf der Sonnenterrasse, die Kristallhütte oder die Wedelhütte sind, neben den unzähligen Wandermöglichkeiten, immer einen Besuch wert, um unbeschwerte und erholsame Urlaubstage zu verbringen. Aktive Sommersportler können die vielseitigen Angebote des Genussaktiv Programms nutzen. \n\nDer Winter lässt sich in unmittelbarer Nähe erleben. Traumhafte Pisten in den Skigebieten Spieljoch, Hochzillertal und Hochfügen, Rodelbahnen, Eislaufplätze, romantische Kutschenfahrten, Apres Ski und die Wellness-Oase der Therme Fügen bieten alle Möglichkeiten für einen perfekten Ski- und Winterurlaub.\n\nNEU ab Frühjahr 2014: Unser Haus ist Mitglied beim Aktivzentrum in Aschau im Zillertal.\n\nWir freuen uns, Sie bei uns begrüßen zu dürfen!\nIhre Ebster Burgi\n"
    },
    {
      "@language": "de",
      "@value": "Unsere Preise sind inklusive Bettwäsche, Hand- und Badetücher und kostenlosem Parkplatz und exkluisve einer einmaligen Endreinigung von € 80,00 für die Ferienwohnung.\n"
    },
    {
      "@language": "en",
      "@value": "Enjoy our cosy guesthouse in a sunny and quiet situation. The family-managed Ebster Burgi apartment house is located in the Zillertaler Mountains on the outskirts of Fügen in Erste Ferienregion im Zillertal, and offers both rooms and holiday apartments.\n\nStart your day from our guesthouse in Fügen and explore the family skiing areas in the Zillertal. Our apartment house is approx. 200m away from the ski bus stop. The station is only 500m away and the centre of Fügen can be reached in less than 5 minutes by car. The proximity to Therme Fügen (500m) invites to enjoy spa treatments and the pine wood sauna, herb sauna, steam bath and other attractions let the hearts of wellness fans beat faster. In our garden you can enjoy your vacation with the whole family on the large sunbathing lawn with swing and sand box. Sports equipment can be stored in our bicycle garage or the heated ski cellar. In all the facilities you can use our Wifi network free of charge.   \n\nOur 2 renovated and friendly apartments offer room for up to 8 persons and are equipped with 2-3 separated bedrooms, living rooms, 2 TVs, fully equipped kitchens including dishwasher, electric stove with oven and dining corner, several showers/WCs, and a large balcony with south exposure respectively. Bed linen and towels will be provided and a fresh roll service can be organised on request. \n\nThe rooms all come with shower and WC, south-balcony with beach chairs, TVs and parquet floor. A rich breakfast awaits you in the lounge every morning. You can also use our guests’ kitchen with refrigerator and coffee machine.\n\nFügen in the Zillertal is an ideal starting point for hikes and mountain bike tours and there are innumerable hiking possibilities. Whether you prefer sunrise hikes or simply want to relax on the sun terrace, the Kristallhütte or the Wedelhütte are always worth a visit if you intend to spend trouble-free and relaxing holidays. Active summer sports fans can use the versatile offers of the Genussaktiv programme. \n\nThe winter season can also be experienced in direct proximity. Fantastic pistes in the skiing areas of Spieljoch, Hochzillertal and Hochfügen, sled runs, ice rinks, romantic sleigh rides, après-ski and the wellness oasis Therme Fügen have all the possibilities for a perfect ski and winter vacation.\n\nNEW from spring 2014: Our house is member of the Aktivzentrum Aschau im Zillertal.\n\nWe look forward to welcoming you here with us!\nYours, Ebster Burgi\n"
    },
    {
      "@language": "en",
      "@value": "Prices include bedlinen, towels and carpark\nexclusive: final cleaning € 80,- for the appartment"
    }
  ],
  "image": [
    {
      "@type": "ImageObject",
      "url": "http://resc.deskline.net/images/ZIL/1/84c1c03a-8a87-445c-91c9-05a3b354b32d/99/image.jpg",
      "caption": [
        {
          "@language": "de",
          "@value": "Haus-Ebster-Burgi-Fügen-Zillertal-Haus-Sommer"
        },
        {
          "@language": "en",
          "@value": "Haus-Ebster-Burgi-Fügen-Zillertal-Haus-Sommer"
        }
      ]
    },
    {
      "@type": "ImageObject",
      "url": "http://resc.deskline.net/images/ZIL/1/bc7b1e9f-1211-4b20-88ca-63a123b9b285/99/image.jpg",
      "caption": [
        {
          "@language": "de",
          "@value": "Fügen Appartement Ebster - Hausansicht"
        },
        {
          "@language": "en",
          "@value": "Fügen Appartement Ebster - Hausansicht"
        }
      ]
    },
    {
      "@type": "ImageObject",
      "url": "http://resc.deskline.net/images/ZIL/1/cd13c4be-9e33-4d74-90db-2f97ccb3ded6/99/image.jpg",
      "caption": [
        {
          "@language": "de",
          "@value": "Fügen Appartement Ebster - Sommer"
        },
        {
          "@language": "en",
          "@value": "Fügen Appartement Ebster - Sommer"
        }
      ]
    },
    {
      "@type": "ImageObject",
      "url": "http://resc.deskline.net/images/ZIL/1/6c96f984-ee05-4cc2-8e86-90a3a2e0fd45/99/image.jpg",
      "caption": [
        {
          "@language": "de",
          "@value": "Fügen Appartement Ebster - Garten"
        },
        {
          "@language": "en",
          "@value": "Fügen Appartement Ebster - Garten"
        }
      ]
    },
    {
      "@type": "ImageObject",
      "url": "http://resc.deskline.net/images/ZIL/1/326f59db-016a-4662-8d84-00d91b48eb99/99/image.jpg",
      "caption": [
        {
          "@language": "de",
          "@value": "Haus-Ebster-Burgi-Fügen-Zillertal-Haus-Badezimmer"
        },
        {
          "@language": "en",
          "@value": "Haus-Ebster-Burgi-Fügen-Zillertal-Haus-Badezimmer"
        }
      ]
    },
    {
      "@type": "ImageObject",
      "url": "http://resc.deskline.net/images/ZIL/1/7242d302-4026-47b9-a06c-e5b94e9cf784/99/image.jpg",
      "caption": [
        {
          "@language": "de",
          "@value": "Haus-Ebster-Burgi-Fügen-Zillertal-Haus-Schlafzimme"
        },
        {
          "@language": "en",
          "@value": "Haus-Ebster-Burgi-Fügen-Zillertal-Haus-Schlafzimme"
        }
      ]
    },
    {
      "@type": "ImageObject",
      "url": "http://resc.deskline.net/images/ZIL/1/96cf5669-6ef0-4e89-b743-ad5905696091/99/image.jpg",
      "caption": [
        {
          "@language": "de",
          "@value": "Haus-Ebster-Burgi-Fügen-Zillertal-Haus-Schlafzimme"
        },
        {
          "@language": "en",
          "@value": "Haus-Ebster-Burgi-Fügen-Zillertal-Haus-Schlafzimme"
        }
      ]
    },
    {
      "@type": "ImageObject",
      "url": "http://resc.deskline.net/images/ZIL/1/37d80efd-9f80-4088-b395-8e21b93a738a/99/image.jpg",
      "caption": [
        {
          "@language": "de",
          "@value": "Haus-Ebster-Burgi-Fügen-Zillertal-Haus-Schlafzimme"
        },
        {
          "@language": "en",
          "@value": "Haus-Ebster-Burgi-Fügen-Zillertal-Haus-Schlafzimme"
        }
      ]
    },
    {
      "@type": "ImageObject",
      "url": "http://resc.deskline.net/images/ZIL/1/83ccd4c6-470b-4f22-8863-693c99017f0e/99/image.jpg",
      "caption": [
        {
          "@language": "de",
          "@value": "Haus-Ebster-Burgi-Fügen-Zillertal-Haus-Schlafzimme"
        },
        {
          "@language": "en",
          "@value": "Haus-Ebster-Burgi-Fügen-Zillertal-Haus-Schlafzimme"
        }
      ]
    },
    {
      "@type": "ImageObject",
      "url": "http://resc.deskline.net/images/ZIL/1/be940c59-cb89-4851-b52b-c69afdfa044d/99/image.jpg",
      "caption": [
        {
          "@language": "de",
          "@value": "Haus-Ebster-Burgi-Fügen-Zillertal-Haus-Schlafzimme"
        },
        {
          "@language": "en",
          "@value": "Haus-Ebster-Burgi-Fügen-Zillertal-Haus-Schlafzimme"
        }
      ]
    },
    {
      "@type": "ImageObject",
      "url": "http://resc.deskline.net/images/ZIL/1/b027921f-ba49-459c-b8ed-12498b1bd069/99/image.jpg",
      "caption": [
        {
          "@language": "de",
          "@value": "Haus-Ebster-Burgi-Fügen-Zillertal-Haus-Schlafzimme"
        },
        {
          "@language": "en",
          "@value": "Haus-Ebster-Burgi-Fügen-Zillertal-Haus-Schlafzimme"
        }
      ]
    },
    {
      "@type": "ImageObject",
      "url": "http://resc.deskline.net/images/ZIL/1/0c2d3bce-aa9c-4b73-81b4-07d31617bb50/99/image.jpg",
      "caption": [
        {
          "@language": "de",
          "@value": "Haus-Ebster-Burgi-Fügen-Zillertal-Haus-Küche"
        },
        {
          "@language": "en",
          "@value": "Haus-Ebster-Burgi-Fügen-Zillertal-Haus-Küche"
        }
      ]
    }
  ],
  "geo": {
    "@type": "GeoCoordinates",
    "latitude": "47.331668018791341",
    "longitude": "11.856082677841187"
  },
  "currenciesAccepted": "EUR",
  "makesOffer": [
    {
      "@type": "Offer",
      "name": [
        {
          "@language": "de",
          "@value": "Appartement/Fewo, Dusche, WC, 4 oder mehr Schlafräume"
        },
        {
          "@language": "en",
          "@value": "Apartment, shower, toilet, 4 or more bed rooms"
        }
      ],
      "description": [
        {
          "@language": "de",
          "@value": "Für 8-10 Personen; 4 x getrennte Doppelzimmer jeweils mit Dusche \u0026 WC, SAT-TV in allen Schlafzimmern, Großer Balkon, südseitig, Küche im Erdgeschoss, Elektroherd, Kühlschrank, Kaffeemaschine, Toaster \u0026 Spülmaschine, Kostenloses WLAN"
        }
      ],
      "availability": "http://schema.org/InStock",
      "itemOffered": [
        {
          "@type": [
            "Apartment",
            "Product"
          ],
          "name": [
            {
              "@language": "de",
              "@value": "Top 1 - Kellerjoch"
            },
            {
              "@language": "en",
              "@value": "Apartment, shower, toilet, 4 or more bed rooms"
            }
          ],
          "numberOfRooms": "4.0",
          "occupancy": {
            "@type": "QuantitativeValue",
            "maxValue": "8",
            "minValue": "6"
          }
        }
      ],
      "priceSpecification": [
        {
          "@type": "PriceSpecification",
          "description": "Pax 6",
          "minPrice": "132.00",
          "maxPrice": "180.00",
          "priceCurrency": "EUR"
        },
        {
          "@type": "PriceSpecification",
          "description": "Pax 7",
          "minPrice": "154.00",
          "maxPrice": "185.00",
          "priceCurrency": "EUR"
        },
        {
          "@type": "PriceSpecification",
          "description": "Pax 8",
          "minPrice": "176.00",
          "maxPrice": "200.00",
          "priceCurrency": "EUR"
        }
      ]
    },
    {
      "@type": "Offer",
      "name": [
        {
          "@language": "de",
          "@value": "Doppelzimmer, Dusche, WC"
        },
        {
          "@language": "en",
          "@value": "Double room, shower, toilet"
        }
      ],
      "description": [
        {
          "@language": "de",
          "@value": "Zimmer mit Frühstück für 2-3 Personen, mit Ausziehcouch, Dusche \u0026 WC, Balkon südseitig mit Liegestühlen, SAT-TV, Kostenloses WLAN"
        }
      ],
      "availability": "http://schema.org/InStock",
      "itemOffered": [
        {
          "@type": [
            "HotelRoom",
            "Product"
          ],
          "name": [
            {
              "@language": "de",
              "@value": "Doppelzimmer mit Dusche, WC"
            },
            {
              "@language": "en",
              "@value": "double room with shower, WC"
            }
          ],
          "bed": {
            "@type": "BedDetails",
            "numberOfBeds": "1"
          },
          "occupancy": {
            "@type": "QuantitativeValue",
            "maxValue": "3",
            "minValue": "1"
          }
        }
      ],
      "priceSpecification": [
        {
          "@type": "PriceSpecification",
          "description": "Pax 1",
          "minPrice": "30.00",
          "maxPrice": "32.00",
          "priceCurrency": "EUR"
        },
        {
          "@type": "PriceSpecification",
          "description": "Pax 2",
          "minPrice": "27.00",
          "maxPrice": "30.00",
          "priceCurrency": "EUR"
        },
        {
          "@type": "PriceSpecification",
          "description": "Pax 3",
          "minPrice": "27.00",
          "maxPrice": "30.00",
          "priceCurrency": "EUR"
        }
      ]
    }
  ]
}