{
  "@context": "http://schema.org",
  "@type": "LodgingBusiness",
  "address": {
    "@type": "PostalAddress",
    "streetAddress": "Waldstraße 8",
    "addressCountry": "AT",
    "postalCode": "6265",
    "addressRegion": "Hart",
    "telephone": "(0043) 5288 64956",
    "faxNumber": "(0043) 5288 64956",
    "email": "stefanklocker@aon.at"
  },
  "name": "Klocker Stefan",
  "description": [
    {
      "@language": "de",
      "@value": "Gepflegter, familienfreundlicher Bergbauernhof-qualitätsgeprüftes-mehrfach ausgezeichnetes Panorama-Ferienhaus in herrlicher Wandergegend auf 1100 m Seehöhe am Südhang des vorderen Zillertales, viele Tiere,Produkte aus eigener Landwirtschaft! Ruhige Lage am Waldrand,abseits von Stress,Hektik u.Verkehrslärm,die umliegenden Skigebiete Fügen-Hochfügen-Hochzillertal sind bequem in nur 10 Autominuten erreichbar,Skitouren beginnen vor der Haustür,gespurte Langlaufloipen führen bei idealen Schneeverhältnissen durch das Zillertal"
    },
    {
      "@language": "de",
      "@value": "Am sonnigen Berghang,auf der Südseite des Zillertales finden Sie unseren mehrfach ausgezeichneten Bauernhof.\nDas Ferienhaus liegt eingebettet in idyllischer Landschaft mitten im Grünen,umgeben von der Gebirgskulisse des Zillertaler Hauptkamms."
    },
    {
      "@language": "de",
      "@value": "Abreise bis 9 Uhr\nAnreise ab 13 Uhr"
    },
    {
      "@language": "en",
      "@value": "Nice and family-friendly farm house in the mountains (1100 m altitude) in beautiful hiking area, quiet location at the edge of the wood, different animals; products of own farm, guided hikes to the summer farm high in the mountains and barbeque evenings"
    }
  ],
  "image": [
    {
      "@type": "ImageObject",
      "url": "http://resc.deskline.net/images/ZIL/1/2d40392c-bf63-4bca-9d31-a7fce4b1735f/99/image.jpg",
      "caption": [
        {
          "@language": "de",
          "@value": "Klockers-Alpenstüberl"
        },
        {
          "@language": "en",
          "@value": "Klockers-Alpenstüberl"
        }
      ]
    },
    {
      "@type": "ImageObject",
      "url": "http://resc.deskline.net/images/ZIL/1/70352bf6-c711-44bf-bad5-7655c2864f39/99/image.jpg",
      "caption": [
        {
          "@language": "de",
          "@value": "Küche der Ferienwohnung Sonnenschein"
        },
        {
          "@language": "en",
          "@value": "Küche der Ferienwohnung Sonnenschein"
        }
      ]
    },
    {
      "@type": "ImageObject",
      "url": "http://resc.deskline.net/images/ZIL/1/c66c7ff4-f73f-4992-af14-16ff13864a98/99/image.jpg",
      "caption": [
        {
          "@language": "de",
          "@value": "Winter - Impressionen"
        },
        {
          "@language": "en",
          "@value": "Winter - Impressionen"
        }
      ]
    },
    {
      "@type": "ImageObject",
      "url": "http://resc.deskline.net/images/ZIL/1/fa3de3f3-f693-470e-a4f7-d69911715cf3/99/image.jpg",
      "caption": [
        {
          "@language": "de",
          "@value": "Urlaub am Bauernhof"
        },
        {
          "@language": "en",
          "@value": "Urlaub am Bauernhof"
        }
      ]
    },
    {
      "@type": "ImageObject",
      "url": "http://resc.deskline.net/images/ZIL/1/cbebd146-4cfa-4103-a594-a7c5b46f92a9/99/image.jpg",
      "caption": [
        {
          "@language": "de",
          "@value": "Kinder-Animation"
        },
        {
          "@language": "en",
          "@value": "Kinder-Animation"
        }
      ]
    },
    {
      "@type": "ImageObject",
      "url": "http://resc.deskline.net/images/ZIL/1/ce0270b0-4a08-4eef-bd07-11f7433a8366/99/image.jpg",
      "caption": [
        {
          "@language": "de",
          "@value": "Ferienhaus Klocker mit Panoramablick"
        },
        {
          "@language": "en",
          "@value": "Ferienhaus Klocker mit Panoramablick"
        }
      ]
    },
    {
      "@type": "ImageObject",
      "url": "http://resc.deskline.net/images/ZIL/1/32aac3e2-1e2f-4d29-ac3f-ca1b5a19e95f/99/image.jpg",
      "caption": [
        {
          "@language": "de",
          "@value": "..ein Bild sagt mehr,als tausend Worte"
        },
        {
          "@language": "en",
          "@value": "..ein Bild sagt mehr,als tausend Worte"
        }
      ]
    }
  ],
  "geo": {
    "@type": "GeoCoordinates",
    "latitude": "47.3682407",
    "longitude": "11.8843304"
  },
  "currenciesAccepted": "EUR",
  "makesOffer": [
    {
      "@type": "Offer",
      "name": [
        {
          "@language": "de",
          "@value": "Appartement/Fewo, Bad, WC, 3 Schlafräume"
        },
        {
          "@language": "en",
          "@value": "Apartment, bath, toilet, 3 bed rooms"
        }
      ],
      "description": [
        {
          "@language": "de",
          "@value": "Appartement for 6-8 persons with about 100 m2, 3 sleeping-rooms, complete equipped kitchen, living-room, TV-room, bath, seperated WC, balcony about 15 m2 to the south with a wonderful view from the glacier of Hintertux to the Achensee!"
        },
        {
          "@language": "de",
          "@value": "Ferienwohnung für 6-8 Personen mit ca. 100 m2, 3 Schlafzimmer, komplett-ausgestatteter Küche, Wohnstube, Fernsehzimmer, Bad, DU/WC, seperat ca. 15 m2 Südbalkon mit herrlichem Panoramablick vom Hintertuxer-Gletscher bis zum Achensee!"
        }
      ],
      "availability": "http://schema.org/InStock",
      "itemOffered": [
        {
          "@type": [
            "Apartment",
            "Product"
          ],
          "name": [
            {
              "@language": "de",
              "@value": "Apartment/3 Schlafräume/Bad, WC"
            },
            {
              "@language": "en",
              "@value": "apartment/3 bedrooms/bath tube, WC"
            }
          ],
          "numberOfRooms": "4.0",
          "occupancy": {
            "@type": "QuantitativeValue",
            "maxValue": "8",
            "minValue": "6"
          }
        }
      ]
    }
  ]
}