{
  "@context": "http://schema.org",
  "@type": "LodgingBusiness",
  "url": [
    "http://maps.best-of-zillertal.at/proxy/frontend/page/fuegen/de?foreignResource\u003d25DD1037-26D3-46D9-B629-A1EC524CA25D"
  ],
  "address": {
    "@type": "PostalAddress",
    "streetAddress": "Gattererberg 6c",
    "addressCountry": "AT",
    "postalCode": "6276",
    "addressRegion": "Stummerberg",
    "telephone": "(0043) 5283 3835",
    "faxNumber": "(0043) 5283 3835"
  },
  "name": "FRANK, Gerda",
  "geo": {
    "@type": "GeoCoordinates",
    "latitude": "47.300559",
    "longitude": "11.893849"
  },
  "currenciesAccepted": "EUR"
}