{
  "@context": "http://schema.org",
  "@type": "LodgingBusiness",
  "url": [
    "http://"
  ],
  "address": {
    "@type": "PostalAddress",
    "name": "Ferienwohnung Taxacher",
    "streetAddress": "Giessenweg 90",
    "addressCountry": "AT",
    "postalCode": "6265",
    "addressRegion": "Hart im Zillertal",
    "telephone": "(0043) 664 53 13 842",
    "email": "landhaus-johannes@gmx.at"
  },
  "name": "Landhaus Johannes",
  "description": [
    {
      "@language": "de",
      "@value": "Appartement: Küche (voll ausgestattet), Wohnzimmer mit Sitzecke und Couch, 3 Schlafzimmer, Balkon; inkl. Bettwäsche und Handtücher;"
    }
  ],
  "aggregateRating": {
    "@type": "AggregateRating",
    "ratingValue": "4.4",
    "reviewCount": "22"
  },
  "image": [
    {
      "@type": "ImageObject",
      "url": "http://resc.deskline.net/images/ZIL/1/59d1753f-2ee0-43c7-94e8-f496dc131b4a/99/image.jpg",
      "caption": [
        {
          "@language": "de",
          "@value": "Winter Aussenansicht"
        },
        {
          "@language": "en",
          "@value": "Winter Aussenansicht"
        }
      ]
    },
    {
      "@type": "ImageObject",
      "url": "http://resc.deskline.net/images/ZIL/1/8fdf4466-0945-4d5b-8544-aabe45d7725e/99/image.jpg",
      "caption": [
        {
          "@language": "de",
          "@value": "Sitzecke"
        },
        {
          "@language": "en",
          "@value": "Sitzecke"
        }
      ]
    },
    {
      "@type": "ImageObject",
      "url": "http://resc.deskline.net/images/ZIL/1/2b84d8dd-547f-4170-a240-90b030957ebd/99/image.jpg",
      "caption": [
        {
          "@language": "de",
          "@value": "Wohnzimmer"
        },
        {
          "@language": "en",
          "@value": "Wohnzimmer"
        }
      ]
    },
    {
      "@type": "ImageObject",
      "url": "http://resc.deskline.net/images/ZIL/1/6b64f96e-5f37-4951-b4c9-05aad73e68b4/99/image.jpg",
      "caption": [
        {
          "@language": "de",
          "@value": "Stub"
        },
        {
          "@language": "en",
          "@value": "Stub"
        }
      ]
    },
    {
      "@type": "ImageObject",
      "url": "http://resc.deskline.net/images/ZIL/1/a7d981f9-bcb5-4356-9656-bda92557dea6/99/image.jpg",
      "caption": [
        {
          "@language": "de",
          "@value": "Sitzecke 2"
        },
        {
          "@language": "en",
          "@value": "Sitzecke 2"
        }
      ]
    },
    {
      "@type": "ImageObject",
      "url": "http://resc.deskline.net/images/ZIL/1/5bdd91dc-2d5c-4d25-8828-dc21ad97e8da/99/image.jpg",
      "caption": [
        {
          "@language": "de",
          "@value": "Zimmer beispiel"
        },
        {
          "@language": "en",
          "@value": "Zimmer beispiel"
        }
      ]
    },
    {
      "@type": "ImageObject",
      "url": "http://resc.deskline.net/images/ZIL/1/6204f108-85bb-4e27-b015-8acbb2da1252/99/image.jpg",
      "caption": [
        {
          "@language": "de",
          "@value": "Zimmer Beispiel 2"
        },
        {
          "@language": "en",
          "@value": "Zimmer Beispiel 2"
        }
      ]
    },
    {
      "@type": "ImageObject",
      "url": "http://resc.deskline.net/images/ZIL/1/f739b42b-2132-4759-8fcc-4447de8615a2/99/image.jpg",
      "caption": [
        {
          "@language": "de",
          "@value": "Zimmer Beispiel 3"
        },
        {
          "@language": "en",
          "@value": "Zimmer Beispiel 3"
        }
      ]
    },
    {
      "@type": "ImageObject",
      "url": "http://resc.deskline.net/images/ZIL/1/ed8a1cbb-f7d3-4eaa-872d-6bd637264642/99/image.jpg",
      "caption": [
        {
          "@language": "de",
          "@value": "Küche 1"
        },
        {
          "@language": "en",
          "@value": "Küche 1"
        }
      ]
    }
  ],
  "geo": {
    "@type": "GeoCoordinates",
    "latitude": "47.3688493",
    "longitude": "11.8644584"
  },
  "currenciesAccepted": "EUR",
  "makesOffer": [
    {
      "@type": "Offer",
      "name": [
        {
          "@language": "de",
          "@value": "Appartement/Fewo, Dusche, WC, 3 Schlafräume"
        },
        {
          "@language": "en",
          "@value": "Apartment, shower, toilet, 3 bed rooms"
        }
      ],
      "availability": "http://schema.org/InStock",
      "itemOffered": [
        {
          "@type": [
            "Apartment",
            "Product"
          ],
          "name": [
            {
              "@language": "de",
              "@value": "Appartement/Fewo, Dusche, WC, 3 Schlafräume"
            },
            {
              "@language": "en",
              "@value": "Apartment, shower, toilet, 3 bed rooms"
            }
          ],
          "numberOfRooms": "0.0",
          "occupancy": {
            "@type": "QuantitativeValue",
            "maxValue": "6",
            "minValue": "2"
          }
        }
      ],
      "priceSpecification": [
        {
          "@type": "PriceSpecification",
          "description": "Pax 2",
          "minPrice": "170.00",
          "maxPrice": "250.00",
          "priceCurrency": "EUR"
        },
        {
          "@type": "PriceSpecification",
          "description": "Pax 3",
          "minPrice": "170.00",
          "maxPrice": "250.00",
          "priceCurrency": "EUR"
        },
        {
          "@type": "PriceSpecification",
          "description": "Pax 4",
          "minPrice": "170.00",
          "maxPrice": "250.00",
          "priceCurrency": "EUR"
        },
        {
          "@type": "PriceSpecification",
          "description": "Pax 5",
          "minPrice": "170.00",
          "maxPrice": "250.00",
          "priceCurrency": "EUR"
        },
        {
          "@type": "PriceSpecification",
          "description": "Pax 6",
          "minPrice": "170.00",
          "maxPrice": "250.00",
          "priceCurrency": "EUR"
        }
      ]
    }
  ]
}