{
  "@context": "http://schema.org",
  "@type": "LodgingBusiness",
  "url": [
    "http://www.tiscover.at/familie.hauser",
    "http://maps.best-of-zillertal.at/proxy/frontend/page/fuegen/de?foreignResource\u003d2E546CBC-AE68-4DC6-BDDD-2956819A337C",
    "http://www.ferienwohnung-hauser.net"
  ],
  "address": {
    "@type": "PostalAddress",
    "streetAddress": "Dorfstraße 93",
    "addressCountry": "AT",
    "postalCode": "6274",
    "addressRegion": "Aschau im Zillertal",
    "telephone": "(0043) 650 2470500",
    "email": "familie.hauser@aon.at",
    "url": "http://www.ferienwohnung-hauser.net"
  },
  "name": "Ferienwohnung Hauser",
  "description": [
    {
      "@language": "de",
      "@value": "Herzlich Willkommen in der Ferienwohnung Hauser in Aschau, mitten in der Ersten Ferienregion im Zillertal! Wir bieten perfektes Ambiente für Urlaub mit Kindern, Ihr vierbeiniger Liebling (Hund) ist bei uns herzlich willkommen!\n\nUnsere familienfreundliche Ferienwohnung Hauser befindet sich nur 5 Gehminuten vom Ortszentrum Aschau entfernt. Dort befinden sich Lebensmittegeschäfte, Bahnhof und Bushaltestelle. \n\nBei uns steht Ihnen ein großer Garten mit Liegewiese, Sonnenterrasse und Kinderspielplatz zur Verfügung. Weiters bieten wir unseren Gästen auch Grillmöglichkeit und einen Tischtennistisch. Bei uns fühlen Sie sich wie zu Hause und für den Urlaub mit Kindern ist somit vorgesorgt. \nGerne geben die Kinder der Ferienwohnung Hauser ein Hausmusik-Konzert inmitten der Zillertaler Bergwelt. Ihr Aufenthalt im Zillertal wird somit nicht nur visuell sondern auch akustisch zu einem echten Tiroler Erlebnis!\n\nEntspannen und Energie auftanken können Sie auch im Wellnessbereich des Hauses in \"Reini’s Klang- und Regentropfenwelt\" bei einer Klangschalenmassage oder Raindrop-Energetikanwendung für groß und klein! Dort werden Sie von Reinhilde Hauser persönlich betreut.\nWir bieten Ihnen eine gemütliche ca. 55m² große Ferienwohnung für 2-5 Personen mit geräumiger Kochnische, Wohnzimmer mit großem Esstisch, SAT-TV, ausziehbares Sofa, 1 Doppelzimmer, Diele mit Garderobe, Balkon rundum,  und DU/WC. Ebenso steht Ihnen in unserer Ferienwohnung ein kostenfreies WLan und kostenlose Parkplätze zur Verfügung. Für Ihren Urlaub mit Kindern sind auch Hochstuhl, Gitterbett u.v.m. vorhanden. Für Ihren Hund stehen Fressnapf und Hundekissen bereit.\n\nAuf Wunsch und gegen Aufpreis servieren wir Ihnen auch gerne ein umfangreiches Frühstück. \n\nAschau liegt in der Ersten Ferienregion im Zillertal und ist somit ein idealer Ausgangspunkt für Wanderungen oder Radsport. Ebenso bieten die umliegenden Orte Fügen und Stumm Badespaß für die ganze Familie. Die Therme Fügen befindet sich 10 Autominuten und die Badewelt Stumm nur 5 Autominuten von unserer Ferienwohnung Hauser entfernt. Kletterhalle im Ort und Klettersteige schnell erreichbar. Action- und Funpark sind ebenso schnell erreichbar.\n\nDie Skigebiete Hochfügen - Hochzillertal und die Zillertal Arena bieten traumhafte Pisten und liegen nur 5 Fahrminuten entfernt. Alle anderen Skigebiete sind schnell erreichbar. Ein kostenloser Skibus hält bei Bedarf direkt vorm Haus. Selbst Skifahren mit Kindern ist im Zillertal einfach und bequem. Die top Skigebiete Hochfügen - Hochzillertal und die Zillertal Arena bieten sowohl Kinderskikurs als auch Skiverleih. Gerne unternehmen wir mit Ihnen zusammen eine zünftige Rodelpartie! \n\nAuf Ihren Besuch freuen wir uns jetzt schon!\nIhre Familie Hauser\n"
    },
    {
      "@language": "de",
      "@value": "Endreinigung für 2-4 Personen EURO 50,00\nHund pro Tag EURO 8,--"
    },
    {
      "@language": "de",
      "@value": "Check-in: ab 14.00 Uhr\nCheck-out: bis 10.00 Uhr"
    },
    {
      "@language": "en",
      "@value": "Welcome to the Hauser holiday apartment in Aschau, at the heart of Erste Ferienregion im Zillertal! We offer the perfect environment for you holidays with children!\n\nOur family-friendly holiday apartment is only 5 minutes from the local centre of Aschau with convenience stores, station and bus stops. \n\nIn our large garden with sunbathing lawn, there is a sun terrace and a playground available for your children. We also offer a barbeque and a table tennis area to our guests. Here with us, you immediately feel at home and your children are taken care of. Our children are happy to invite you to a house music concert at the holiday apartment amidst the Zillertaler mountains, turning your stay in the Zillertal into a genuine Tyrolean experience, not only visually, but also acoustically!\n\nBoth our little and grown-up guests can relax in Reini\u0027 s world of sound and rain drops, enjoying a sound bowl massage and a raindrop energetics treatment!\nWe offer a cosy 55m² holiday apartment for 2-5 people with a roomy kitchenette, living room with large dining table, satellite TV, extendable couch, 1 double room, wardrobe, balcony, and shower/WC. Our holiday apartment also comes with free Wifi and a high chair, as well as a crib for your vacation with children. \nOn request and for a small fee we even serve an extensive breakfast. \n\nAschau lies in the Erste Ferienregion im Zillertal and is thus an ideal starting point for hikes or cycling tours. The neighbouring villages of Fügen und Stumm offer bathing pleasures for the whole family. Therme Fügen is 10 minutes and the leisure pool of Stumm only 5 minutes away from our holiday apartment by car.\n \nThe Hochfügen - Hochzillertal skiing area and the Zillertal Arena offer fantastic runs in less than 5 minutes by car. The free ski bus stop is directly in front of the house. Even skiing with children is easy and comfortable in the Zillertal. The top skiing resorts of Hochfügen - Hochzillertal and the Zillertal Arena both offer children’s ski courses and ski rentals. We also fancy joining you for a sled run where we enjoy the winter fun together with you! \n\nWe are already looking forward to your visit!\nYou Hauser family \n"
    },
    {
      "@language": "en",
      "@value": "Final cleaning charge for 2-4 persons EUR 50.00\nDogs EUR 8.00 per day\n\n"
    },
    {
      "@language": "en",
      "@value": "Check-in: from 02.00 p.m.\nCheck-out: until 10.00 a.m."
    }
  ],
  "image": [
    {
      "@type": "ImageObject",
      "url": "http://resc.deskline.net/images/ZIL/1/537bed07-1264-4c39-b717-d76cdb00bf3d/99/image.jpg",
      "caption": [
        {
          "@language": "de",
          "@value": "Haus Sommer neu"
        },
        {
          "@language": "en",
          "@value": "Haus Sommer neu"
        }
      ]
    },
    {
      "@type": "ImageObject",
      "url": "http://resc.deskline.net/images/ZIL/1/e4a9a4f0-732d-47ed-b1d4-6fbbd83e04e5/99/image.jpg",
      "caption": [
        {
          "@language": "de",
          "@value": "Haus Sommer 2"
        },
        {
          "@language": "en",
          "@value": "Haus Sommer 2"
        }
      ]
    },
    {
      "@type": "ImageObject",
      "url": "http://resc.deskline.net/images/ZIL/1/2ab96d70-bc4c-47c9-98a5-2a7a6b6940e5/99/image.jpg",
      "caption": [
        {
          "@language": "de",
          "@value": "Haus Sommer"
        },
        {
          "@language": "en",
          "@value": "Haus Sommer"
        }
      ]
    },
    {
      "@type": "ImageObject",
      "url": "http://resc.deskline.net/images/ZIL/1/af24878f-47ed-4afe-b9d6-a92b7370ea72/99/image.jpg",
      "caption": [
        {
          "@language": "de",
          "@value": "Schlafzimmer neu"
        },
        {
          "@language": "en",
          "@value": "Schlafzimmer neu"
        }
      ]
    },
    {
      "@type": "ImageObject",
      "url": "http://resc.deskline.net/images/ZIL/1/61351556-04bf-4f71-9df4-d60ee628363a/99/image.jpg",
      "caption": [
        {
          "@language": "de",
          "@value": "Schlafzimmer"
        },
        {
          "@language": "en",
          "@value": "Schlafzimmer"
        }
      ]
    },
    {
      "@type": "ImageObject",
      "url": "http://resc.deskline.net/images/ZIL/1/0a3144a5-4cd8-4e45-8f6d-a4b758908481/99/image.jpg",
      "caption": [
        {
          "@language": "de",
          "@value": "Blick vom Bett"
        },
        {
          "@language": "en",
          "@value": "Blick vom Bett"
        }
      ]
    },
    {
      "@type": "ImageObject",
      "url": "http://resc.deskline.net/images/ZIL/1/e09a4c03-211f-4677-9c84-51988fea1846/99/image.jpg",
      "caption": [
        {
          "@language": "de",
          "@value": "Badezimmer neu"
        },
        {
          "@language": "en",
          "@value": "Badezimmer neu"
        }
      ]
    },
    {
      "@type": "ImageObject",
      "url": "http://resc.deskline.net/images/ZIL/1/0d905cf9-e52b-4a0e-a3d4-ea09b817f6f2/99/image.jpg",
      "caption": [
        {
          "@language": "de",
          "@value": "Badezimmer"
        },
        {
          "@language": "en",
          "@value": "Badezimmer"
        }
      ]
    },
    {
      "@type": "ImageObject",
      "url": "http://resc.deskline.net/images/ZIL/1/e897a998-d89e-4dd7-911f-292ddd4c428e/99/image.jpg",
      "caption": [
        {
          "@language": "de",
          "@value": "Vorraum"
        },
        {
          "@language": "en",
          "@value": "Vorraum"
        }
      ]
    },
    {
      "@type": "ImageObject",
      "url": "http://resc.deskline.net/images/ZIL/1/fb703607-dc50-467a-8d8c-977564f8acba/99/image.jpg",
      "caption": [
        {
          "@language": "de",
          "@value": "Wohnzimmer"
        },
        {
          "@language": "en",
          "@value": "Wohnzimmer"
        }
      ]
    },
    {
      "@type": "ImageObject",
      "url": "http://resc.deskline.net/images/ZIL/1/082b8bbc-3f31-4e19-a85e-8bd31dc73fa3/99/image.jpg",
      "caption": [
        {
          "@language": "de",
          "@value": "Wohnzimmer neu"
        },
        {
          "@language": "en",
          "@value": "Wohnzimmer neu"
        }
      ]
    },
    {
      "@type": "ImageObject",
      "url": "http://resc.deskline.net/images/ZIL/1/df66f8c5-f22f-40b1-8999-83a9650ab9f9/99/image.jpg",
      "caption": [
        {
          "@language": "de",
          "@value": "Wohnzimmer neu 1"
        },
        {
          "@language": "en",
          "@value": "Wohnzimmer neu 1"
        }
      ]
    },
    {
      "@type": "ImageObject",
      "url": "http://resc.deskline.net/images/ZIL/1/c39f04c1-481d-407d-9388-3b99c5397fbe/99/image.jpg",
      "caption": [
        {
          "@language": "de",
          "@value": "Wohnzimmer Küche"
        },
        {
          "@language": "en",
          "@value": "Wohnzimmer Küche"
        }
      ]
    },
    {
      "@type": "ImageObject",
      "url": "http://resc.deskline.net/images/ZIL/1/22c1b8c0-dd08-4eff-9f5f-b21cbb31d07b/99/image.jpg",
      "caption": [
        {
          "@language": "de",
          "@value": "Küche"
        },
        {
          "@language": "en",
          "@value": "Küche"
        }
      ]
    },
    {
      "@type": "ImageObject",
      "url": "http://resc.deskline.net/images/ZIL/1/734d3579-6ed4-4239-a004-05ee067a9210/99/image.jpg",
      "caption": [
        {
          "@language": "de",
          "@value": "Kueche"
        },
        {
          "@language": "en",
          "@value": "Kueche"
        }
      ]
    },
    {
      "@type": "ImageObject",
      "url": "http://resc.deskline.net/images/ZIL/1/e029132b-1336-4b62-8356-22d18f654906/99/image.jpg",
      "caption": [
        {
          "@language": "de",
          "@value": "Balkon 1"
        },
        {
          "@language": "en",
          "@value": "Balkon 1"
        }
      ]
    },
    {
      "@type": "ImageObject",
      "url": "http://resc.deskline.net/images/ZIL/1/9ef28c8c-3a0f-4c4a-852a-40fbf0426f09/99/image.jpg",
      "caption": [
        {
          "@language": "de",
          "@value": "Balkon neu"
        },
        {
          "@language": "en",
          "@value": "Balkon neu"
        }
      ]
    },
    {
      "@type": "ImageObject",
      "url": "http://resc.deskline.net/images/ZIL/1/6d6bacc0-9935-45ab-a8a3-f4fc10f2c3ad/99/image.jpg",
      "caption": [
        {
          "@language": "de",
          "@value": "Balkon"
        },
        {
          "@language": "en",
          "@value": "Balkon"
        }
      ]
    },
    {
      "@type": "ImageObject",
      "url": "http://resc.deskline.net/images/ZIL/1/3cd8b0eb-efb7-4744-abc7-67f67ddd80e7/99/image.jpg",
      "caption": [
        {
          "@language": "de",
          "@value": "Schiraum"
        },
        {
          "@language": "en",
          "@value": "Schiraum"
        }
      ]
    },
    {
      "@type": "ImageObject",
      "url": "http://resc.deskline.net/images/ZIL/1/3a73d595-26d3-46a0-891f-c98dd59e153b/99/image.jpg",
      "caption": [
        {
          "@language": "de",
          "@value": "Treppe"
        },
        {
          "@language": "en",
          "@value": "Treppe"
        }
      ]
    },
    {
      "@type": "ImageObject",
      "url": "http://resc.deskline.net/images/ZIL/1/2bb88324-684c-4ef4-8878-dc6e7a3a5fa4/99/image.jpg",
      "caption": [
        {
          "@language": "de",
          "@value": "Therapieraum Gang"
        },
        {
          "@language": "en",
          "@value": "Therapieraum Gang"
        }
      ]
    },
    {
      "@type": "ImageObject",
      "url": "http://resc.deskline.net/images/ZIL/1/e8de03ce-6170-4213-9fd0-48445e43ce2f/99/image.jpg",
      "caption": [
        {
          "@language": "de",
          "@value": "Behandlungsraum neu1"
        },
        {
          "@language": "en",
          "@value": "Behandlungsraum neu1"
        }
      ]
    },
    {
      "@type": "ImageObject",
      "url": "http://resc.deskline.net/images/ZIL/1/e9a46bb4-bc86-4c33-bd75-634808b85390/99/image.jpg",
      "caption": [
        {
          "@language": "de",
          "@value": "Therapieraum"
        },
        {
          "@language": "en",
          "@value": "Therapieraum"
        }
      ]
    },
    {
      "@type": "ImageObject",
      "url": "http://resc.deskline.net/images/ZIL/1/d694ee2a-ae37-48e2-a6bf-631bf158c3a1/99/image.jpg",
      "caption": [
        {
          "@language": "de",
          "@value": "Therapieraum1"
        },
        {
          "@language": "en",
          "@value": "Therapieraum1"
        }
      ]
    },
    {
      "@type": "ImageObject",
      "url": "http://resc.deskline.net/images/ZIL/1/f8dd0f27-c327-4ecc-bb84-d3f909ebd94e/99/image.jpg",
      "caption": [
        {
          "@language": "de",
          "@value": "Behandlungsraum neu"
        },
        {
          "@language": "en",
          "@value": "Behandlungsraum neu"
        }
      ]
    },
    {
      "@type": "ImageObject",
      "url": "http://resc.deskline.net/images/ZIL/1/637fa04a-399a-43f9-8a4f-ea21cfecb442/99/image.jpg",
      "caption": [
        {
          "@language": "de",
          "@value": "Aussicht Ostseite 1"
        },
        {
          "@language": "en",
          "@value": "Aussicht Ostseite 1"
        }
      ]
    },
    {
      "@type": "ImageObject",
      "url": "http://resc.deskline.net/images/ZIL/1/b7582fdf-dd85-47a8-866e-c694c6f682ff/99/image.jpg",
      "caption": [
        {
          "@language": "de",
          "@value": "Aussicht Südseite"
        },
        {
          "@language": "en",
          "@value": "Aussicht Südseite"
        }
      ]
    },
    {
      "@type": "ImageObject",
      "url": "http://resc.deskline.net/images/ZIL/1/84453931-35e9-4fd6-a88f-620bbeb6fbd2/99/image.jpg",
      "caption": [
        {
          "@language": "de",
          "@value": "Pferdekutschenfahrten"
        },
        {
          "@language": "en",
          "@value": "Pferdekutschenfahrten"
        }
      ]
    },
    {
      "@type": "ImageObject",
      "url": "http://resc.deskline.net/images/ZIL/1/dcd181a8-5719-49bc-9cd5-eb6f5bf3733b/99/image.jpg",
      "caption": [
        {
          "@language": "de",
          "@value": "Winterwanderweg hinterm Haus"
        },
        {
          "@language": "en",
          "@value": "Winterwanderweg hinterm Haus"
        }
      ]
    },
    {
      "@type": "ImageObject",
      "url": "http://resc.deskline.net/images/ZIL/1/aae7a547-2f35-40ac-9119-a5ef951712f8/99/image.jpg",
      "caption": [
        {
          "@language": "de",
          "@value": "Rodelspass mit Familie Gerlosstein"
        },
        {
          "@language": "en",
          "@value": "Rodelspass mit Familie Gerlosstein"
        }
      ]
    },
    {
      "@type": "ImageObject",
      "url": "http://resc.deskline.net/images/ZIL/1/599ee27d-e918-4784-b58e-8ff58c7bf788/99/image.jpg",
      "caption": [
        {
          "@language": "de",
          "@value": "Rodelspass mit Familie Hauser"
        },
        {
          "@language": "en",
          "@value": "Rodelspass mit Familie Hauser"
        }
      ]
    },
    {
      "@type": "ImageObject",
      "url": "http://resc.deskline.net/images/ZIL/1/b8ae3abf-007c-4791-aa74-fb3ce3455c12/99/image.jpg",
      "caption": [
        {
          "@language": "de",
          "@value": "Ferienwohnung Hauser Reinhilde Aschau im Zillertal"
        },
        {
          "@language": "en",
          "@value": "Ferienwohnung Hauser Reinhilde Aschau im Zillertal"
        }
      ]
    },
    {
      "@type": "ImageObject",
      "url": "http://resc.deskline.net/images/ZIL/1/bcb9fb3e-41cf-4f41-a911-987b63dfdae9/99/image.jpg",
      "caption": [
        {
          "@language": "de",
          "@value": "Ferienwohnung Hauser Reinhilde Aschau Zillertal"
        },
        {
          "@language": "en",
          "@value": "Ferienwohnung Hauser Reinhilde Aschau Zillertal"
        }
      ]
    },
    {
      "@type": "ImageObject",
      "url": "http://resc.deskline.net/images/ZIL/1/6765fd6d-ec71-4a09-8744-1d2d571c25f5/99/image.jpg",
      "caption": [
        {
          "@language": "de",
          "@value": "Rodeln mit Familie H"
        },
        {
          "@language": "en",
          "@value": "Rodeln mit Familie H"
        }
      ]
    },
    {
      "@type": "ImageObject",
      "url": "http://resc.deskline.net/images/ZIL/1/0cc15b6f-50d3-481e-82b0-4a21c4e83527/99/image.jpg",
      "caption": [
        {
          "@language": "de",
          "@value": "Rodelspass "
        },
        {
          "@language": "en",
          "@value": "Rodelspass "
        }
      ]
    },
    {
      "@type": "ImageObject",
      "url": "http://resc.deskline.net/images/ZIL/1/0e3c2ccb-25b6-4074-905c-70466f4c70cb/99/image.jpg",
      "caption": [
        {
          "@language": "de",
          "@value": "Schifahren Zillertalarena"
        },
        {
          "@language": "en",
          "@value": "Schifahren Zillertalarena"
        }
      ]
    },
    {
      "@type": "ImageObject",
      "url": "http://resc.deskline.net/images/ZIL/1/b7919085-4711-424b-8574-d63aa6df4e4d/99/image.jpg",
      "caption": [
        {
          "@language": "de",
          "@value": "Schifahren Zillertalarena"
        },
        {
          "@language": "en",
          "@value": "Schifahren Zillertalarena"
        }
      ]
    },
    {
      "@type": "ImageObject",
      "url": "http://resc.deskline.net/images/ZIL/1/7ee83c13-1280-4b2d-9883-9c40b4756a31/99/image.jpg",
      "caption": [
        {
          "@language": "de",
          "@value": "Schifahren Zillertal Arena"
        },
        {
          "@language": "en",
          "@value": "Schifahren Zillertal Arena"
        }
      ]
    },
    {
      "@type": "ImageObject",
      "url": "http://resc.deskline.net/images/ZIL/1/607c0e8c-e625-4f38-9128-454661866eef/99/image.jpg",
      "caption": [
        {
          "@language": "de",
          "@value": "Schifahren Ferienwohnung Hauser Reinhilde Zillerta"
        },
        {
          "@language": "en",
          "@value": "Schifahren Ferienwohnung Hauser Reinhilde Zillerta"
        }
      ]
    },
    {
      "@type": "ImageObject",
      "url": "http://resc.deskline.net/images/ZIL/1/472f5f22-b4df-4f33-be9b-577bf7a3c7d0/99/image.jpg",
      "caption": [
        {
          "@language": "de",
          "@value": "Winterurlaub Ferienwohnung Hauser Reinhilde Ziller"
        },
        {
          "@language": "en",
          "@value": "Winterurlaub Ferienwohnung Hauser Reinhilde Ziller"
        }
      ]
    },
    {
      "@type": "ImageObject",
      "url": "http://resc.deskline.net/images/ZIL/1/f2c21838-ea0f-4d57-9d91-bf62ee3530ca/99/image.jpg",
      "caption": [
        {
          "@language": "de",
          "@value": "Winterurlaub Appartment Reinhilde Hauser Zillertal"
        },
        {
          "@language": "en",
          "@value": "Winterurlaub Appartment Reinhilde Hauser Zillertal"
        }
      ]
    },
    {
      "@type": "ImageObject",
      "url": "http://resc.deskline.net/images/ZIL/1/0f1650c5-8af7-48f8-a326-151d99ba82c9/99/image.jpg",
      "caption": [
        {
          "@language": "de",
          "@value": "Kinderschikurs Ferienwohnung Hauser Dorfstraße 93"
        },
        {
          "@language": "en",
          "@value": "Kinderschikurs Ferienwohnung Hauser Dorfstraße 93"
        }
      ]
    },
    {
      "@type": "ImageObject",
      "url": "http://resc.deskline.net/images/ZIL/1/3297c018-b4f5-4ba6-8804-b2ebe5b80497/99/image.jpg",
      "caption": [
        {
          "@language": "de",
          "@value": "Schikurs Ferienwohnung Reinhilde Hauser Zillertal"
        },
        {
          "@language": "en",
          "@value": "Schikurs Ferienwohnung Reinhilde Hauser Zillertal"
        }
      ]
    },
    {
      "@type": "ImageObject",
      "url": "http://resc.deskline.net/images/ZIL/1/b607e77a-1868-4a4a-8ab9-e7aabab826d7/99/image.jpg",
      "caption": [
        {
          "@language": "de",
          "@value": "Sitzgruppe Terrasse"
        },
        {
          "@language": "en",
          "@value": "Sitzgruppe Terrasse"
        }
      ]
    },
    {
      "@type": "ImageObject",
      "url": "http://resc.deskline.net/images/ZIL/1/b5392dc5-a581-4ce9-b1e8-6413eae0d8ae/99/image.jpg",
      "caption": [
        {
          "@language": "de",
          "@value": "Terrasse Westseite"
        },
        {
          "@language": "en",
          "@value": "Terrasse Westseite"
        }
      ]
    },
    {
      "@type": "ImageObject",
      "url": "http://resc.deskline.net/images/ZIL/1/f3c2c7af-56e8-42f8-8d52-d88761f0ffd4/99/image.jpg",
      "caption": [
        {
          "@language": "de",
          "@value": "Terrasse neu"
        },
        {
          "@language": "en",
          "@value": "Terrasse neu"
        }
      ]
    },
    {
      "@type": "ImageObject",
      "url": "http://resc.deskline.net/images/ZIL/1/3fc2043c-8631-49bf-98fe-94c8e2412869/99/image.jpg",
      "caption": [
        {
          "@language": "de",
          "@value": "Wellnessbereich"
        },
        {
          "@language": "en",
          "@value": "Wellnessbereich"
        }
      ]
    },
    {
      "@type": "ImageObject",
      "url": "http://resc.deskline.net/images/ZIL/1/75a28ecb-bc17-41ad-98c1-4e69f904c0e5/99/image.jpg",
      "caption": [
        {
          "@language": "de",
          "@value": "Terrasse 3"
        },
        {
          "@language": "en",
          "@value": "Terrasse 3"
        }
      ]
    },
    {
      "@type": "ImageObject",
      "url": "http://resc.deskline.net/images/ZIL/1/d0557209-6e2c-440e-861c-6eb2127bd9c4/99/image.jpg",
      "caption": [
        {
          "@language": "de",
          "@value": "Terrasse"
        },
        {
          "@language": "en",
          "@value": "Terrasse"
        }
      ]
    },
    {
      "@type": "ImageObject",
      "url": "http://resc.deskline.net/images/ZIL/1/2ebe7e20-19aa-4daf-8e66-880958dd247e/99/image.jpg",
      "caption": [
        {
          "@language": "de",
          "@value": "Terrasse 2"
        },
        {
          "@language": "en",
          "@value": "Terrasse 2"
        }
      ]
    },
    {
      "@type": "ImageObject",
      "url": "http://resc.deskline.net/images/ZIL/1/166e9540-9253-4150-8a85-7e3d14e9a717/99/image.jpg",
      "caption": [
        {
          "@language": "de",
          "@value": "Garten 1"
        },
        {
          "@language": "en",
          "@value": "Garten 1"
        }
      ]
    },
    {
      "@type": "ImageObject",
      "url": "http://resc.deskline.net/images/ZIL/1/ec661817-a1f0-4fe1-92d5-f1467193ecbf/99/image.jpg",
      "caption": [
        {
          "@language": "de",
          "@value": "Terrasse neu1"
        },
        {
          "@language": "en",
          "@value": "Terrasse neu1"
        }
      ]
    },
    {
      "@type": "ImageObject",
      "url": "http://resc.deskline.net/images/ZIL/1/eef932a3-d6e7-4004-ae5d-de7372b00ae3/99/image.jpg",
      "caption": [
        {
          "@language": "de",
          "@value": "Garten mit Spielplatz"
        },
        {
          "@language": "en",
          "@value": "Garten mit Spielplatz"
        }
      ]
    },
    {
      "@type": "ImageObject",
      "url": "http://resc.deskline.net/images/ZIL/1/1ab13b94-6821-44fe-bdf6-ea3618c6941d/99/image.jpg",
      "caption": [
        {
          "@language": "de",
          "@value": "Spielplatz"
        },
        {
          "@language": "en",
          "@value": "Spielplatz"
        }
      ]
    },
    {
      "@type": "ImageObject",
      "url": "http://resc.deskline.net/images/ZIL/1/ca4a9ed7-2555-43fc-b370-8aa3c793bb8d/99/image.jpg",
      "caption": [
        {
          "@language": "de",
          "@value": "Sandkasten"
        },
        {
          "@language": "en",
          "@value": "Sandkasten"
        }
      ]
    },
    {
      "@type": "ImageObject",
      "url": "http://resc.deskline.net/images/ZIL/1/6f30d10d-5910-42fa-b870-89a40e46689b/99/image.jpg",
      "caption": [
        {
          "@language": "de",
          "@value": "Villa Kunterbunt Garten"
        },
        {
          "@language": "en",
          "@value": "Villa Kunterbunt Garten"
        }
      ]
    },
    {
      "@type": "ImageObject",
      "url": "http://resc.deskline.net/images/ZIL/1/be976d8a-80bb-4f78-8ca2-13d8d1d4fbd4/99/image.jpg",
      "caption": [
        {
          "@language": "de",
          "@value": "Villa Kunterbunt 1"
        },
        {
          "@language": "en",
          "@value": "Villa Kunterbunt 1"
        }
      ]
    },
    {
      "@type": "ImageObject",
      "url": "http://resc.deskline.net/images/ZIL/1/ba33d7b2-828c-42b0-964b-8c7dd0b60b60/99/image.jpg",
      "caption": [
        {
          "@language": "de",
          "@value": "Garten 2"
        },
        {
          "@language": "en",
          "@value": "Garten 2"
        }
      ]
    },
    {
      "@type": "ImageObject",
      "url": "http://resc.deskline.net/images/ZIL/1/bb19b034-c930-4039-9d5a-8ee3785092c1/99/image.jpg",
      "caption": [
        {
          "@language": "de",
          "@value": "Herzlich Willkommen"
        },
        {
          "@language": "en",
          "@value": "Herzlich Willkommen"
        }
      ]
    },
    {
      "@type": "ImageObject",
      "url": "http://resc.deskline.net/images/ZIL/1/a5f58255-9eeb-46cc-9329-cdc749c9b3a5/99/image.jpg",
      "caption": [
        {
          "@language": "de",
          "@value": "Mit allen Sinnen spielen und lernen"
        },
        {
          "@language": "en",
          "@value": "Mit allen Sinnen spielen und lernen"
        }
      ]
    },
    {
      "@type": "ImageObject",
      "url": "http://resc.deskline.net/images/ZIL/1/cfa90042-6110-4ffe-a2bc-1b9e6f37f883/99/image.jpg",
      "caption": [
        {
          "@language": "de",
          "@value": "Babymassage"
        },
        {
          "@language": "en",
          "@value": "Babymassage"
        }
      ]
    },
    {
      "@type": "ImageObject",
      "url": "http://resc.deskline.net/images/ZIL/1/4b9d78ba-03e7-4959-b4cb-6b16280cdafd/99/image.jpg",
      "caption": [
        {
          "@language": "de",
          "@value": "Streichelzoo 1"
        },
        {
          "@language": "en",
          "@value": "Streichelzoo 1"
        }
      ]
    },
    {
      "@type": "ImageObject",
      "url": "http://resc.deskline.net/images/ZIL/1/cabe3465-a440-49e2-a974-e9e17c5f3df9/99/image.jpg",
      "caption": [
        {
          "@language": "de",
          "@value": "Streichelzoo"
        },
        {
          "@language": "en",
          "@value": "Streichelzoo"
        }
      ]
    },
    {
      "@type": "ImageObject",
      "url": "http://resc.deskline.net/images/ZIL/1/4ed93511-8ce1-4684-b70a-dd3ff9e9cf80/99/image.jpg",
      "caption": [
        {
          "@language": "de",
          "@value": "Klangschalenmassage"
        },
        {
          "@language": "en",
          "@value": "Klangschalenmassage"
        }
      ]
    },
    {
      "@type": "ImageObject",
      "url": "http://resc.deskline.net/images/ZIL/1/5112cb8d-ff7f-4578-a6c2-3a51942f7157/99/image.jpg",
      "caption": [
        {
          "@language": "de",
          "@value": "Klangschalenmassage 1"
        },
        {
          "@language": "en",
          "@value": "Klangschalenmassage 1"
        }
      ]
    },
    {
      "@type": "ImageObject",
      "url": "http://resc.deskline.net/images/ZIL/1/150c833d-8649-4b51-aa40-0ac814a8008a/99/image.jpg",
      "caption": [
        {
          "@language": "de",
          "@value": "Raindropenergethik 1"
        },
        {
          "@language": "en",
          "@value": "Raindropenergethik 1"
        }
      ]
    },
    {
      "@type": "ImageObject",
      "url": "http://resc.deskline.net/images/ZIL/1/8eade1a8-64d5-4219-8957-64a3c7d10fe0/99/image.jpg",
      "caption": [
        {
          "@language": "de",
          "@value": "Wandern Zillertaler Bergwelt"
        },
        {
          "@language": "en",
          "@value": "Wandern Zillertaler Bergwelt"
        }
      ]
    },
    {
      "@type": "ImageObject",
      "url": "http://resc.deskline.net/images/ZIL/1/19adcd60-9ac0-4476-ad35-2c31472e95c5/99/image.jpg",
      "caption": [
        {
          "@language": "de",
          "@value": "Wandern Zillertaler Bergwelt"
        },
        {
          "@language": "en",
          "@value": "Wandern Zillertaler Bergwelt"
        }
      ]
    },
    {
      "@type": "ImageObject",
      "url": "http://resc.deskline.net/images/ZIL/1/287cd90d-3697-45a8-a54a-bdc341cab1ae/99/image.jpg",
      "caption": [
        {
          "@language": "de",
          "@value": "Wandern mit Familie Hauser"
        },
        {
          "@language": "en",
          "@value": "Wandern mit Familie Hauser"
        }
      ]
    },
    {
      "@type": "ImageObject",
      "url": "http://resc.deskline.net/images/ZIL/1/ad47d2bc-cd94-4858-9413-96b858a0746f/99/image.jpg",
      "caption": [
        {
          "@language": "de",
          "@value": "Gipfelkreuz Zillertaler Bergwelt"
        },
        {
          "@language": "en",
          "@value": "Gipfelkreuz Zillertaler Bergwelt"
        }
      ]
    },
    {
      "@type": "ImageObject",
      "url": "http://resc.deskline.net/images/ZIL/1/9156f064-8316-4a13-a4e1-d4b0c43fd9c6/99/image.jpg",
      "caption": [
        {
          "@language": "de",
          "@value": "Zillertaler Bergfrühstück Spieljoch"
        },
        {
          "@language": "en",
          "@value": "Zillertaler Bergfrühstück Spieljoch"
        }
      ]
    },
    {
      "@type": "ImageObject",
      "url": "http://resc.deskline.net/images/ZIL/1/af1c27e9-7b52-4bd1-ab83-a1a3b8ed3b3a/99/image.jpg",
      "caption": [
        {
          "@language": "de",
          "@value": "Umgebung Ferienwohnung Hauser Dorfstraße 93"
        },
        {
          "@language": "en",
          "@value": "Umgebung Ferienwohnung Hauser Dorfstraße 93"
        }
      ]
    },
    {
      "@type": "ImageObject",
      "url": "http://resc.deskline.net/images/ZIL/1/5acb5c15-cf80-4734-9e33-7f82a37636bf/99/image.jpg",
      "caption": [
        {
          "@language": "de",
          "@value": "Umgebung Ferienwohnung Hauser Dorfstraße 93"
        },
        {
          "@language": "en",
          "@value": "Umgebung Ferienwohnung Hauser Dorfstraße 93"
        }
      ]
    },
    {
      "@type": "ImageObject",
      "url": "http://resc.deskline.net/images/ZIL/1/66699d9e-bac3-427d-acbc-f6487e7f7270/99/image.jpg",
      "caption": [
        {
          "@language": "de",
          "@value": "Wandern mit Familie Hauser Reinhilde"
        },
        {
          "@language": "en",
          "@value": "Wandern mit Familie Hauser Reinhilde"
        }
      ]
    },
    {
      "@type": "ImageObject",
      "url": "http://resc.deskline.net/images/ZIL/1/7baeb3a2-41af-4ef3-8dad-cd2da57dec97/99/image.jpg",
      "caption": [
        {
          "@language": "de",
          "@value": "Kinderfreundliches Haus"
        },
        {
          "@language": "en",
          "@value": "Kinderfreundliches Haus"
        }
      ]
    },
    {
      "@type": "ImageObject",
      "url": "http://resc.deskline.net/images/ZIL/1/41fda317-81b8-4804-b086-f06b36140c2a/99/image.jpg",
      "caption": [
        {
          "@language": "de",
          "@value": "Gastgeber "
        },
        {
          "@language": "en",
          "@value": "Gastgeber "
        }
      ]
    },
    {
      "@type": "ImageObject",
      "url": "http://resc.deskline.net/images/ZIL/1/2faec733-432a-40dc-85ef-6a43ff716a5c/99/image.jpg",
      "caption": [
        {
          "@language": "de",
          "@value": "Haus aussen"
        },
        {
          "@language": "en",
          "@value": "Haus aussen"
        }
      ]
    },
    {
      "@type": "ImageObject",
      "url": "http://resc.deskline.net/images/ZIL/1/ecf0a31b-84da-4a09-9f1e-0fb4584a3ce8/99/image.jpg",
      "caption": [
        {
          "@language": "de",
          "@value": "Haus aussen1"
        },
        {
          "@language": "en",
          "@value": "Haus aussen1"
        }
      ]
    },
    {
      "@type": "ImageObject",
      "url": "http://resc.deskline.net/images/ZIL/1/4b8c5394-64a3-4f75-ab2d-00b8028813d1/99/image.jpg",
      "caption": [
        {
          "@language": "de",
          "@value": "Haus aussen2"
        },
        {
          "@language": "en",
          "@value": "Haus aussen2"
        }
      ]
    },
    {
      "@type": "ImageObject",
      "url": "http://resc.deskline.net/images/ZIL/1/2d221565-f532-4496-b6f5-faf24f0e6d51/99/image.jpg",
      "caption": [
        {
          "@language": "de",
          "@value": "Haus aussen3"
        },
        {
          "@language": "en",
          "@value": "Haus aussen3"
        }
      ]
    },
    {
      "@type": "ImageObject",
      "url": "http://resc.deskline.net/images/ZIL/1/2810af04-4d22-4703-9d50-c5e9ca32c866/99/image.jpg",
      "caption": [
        {
          "@language": "de",
          "@value": "Haus Winter"
        },
        {
          "@language": "en",
          "@value": "Haus Winter"
        }
      ]
    },
    {
      "@type": "ImageObject",
      "url": "http://resc.deskline.net/images/ZIL/1/aeef6ef9-c9e6-4f05-891b-8e2c0ff03c56/99/image.jpg",
      "caption": [
        {
          "@language": "de",
          "@value": "Haus Winter 1"
        },
        {
          "@language": "en",
          "@value": "Haus Winter 1"
        }
      ]
    },
    {
      "@type": "ImageObject",
      "url": "http://resc.deskline.net/images/ZIL/1/38bd5946-78e3-4f0e-860e-cf709d9b892d/99/image.jpg",
      "caption": [
        {
          "@language": "de",
          "@value": "Haus Südseite"
        },
        {
          "@language": "en",
          "@value": "Haus Südseite"
        }
      ]
    }
  ],
  "geo": {
    "@type": "GeoCoordinates",
    "latitude": "47.254544740625377",
    "longitude": "11.894856691360474"
  },
  "currenciesAccepted": "EUR",
  "makesOffer": [
    {
      "@type": "Offer",
      "name": [
        {
          "@language": "de",
          "@value": "Appartement/Fewo, Dusche, WC, 1 Schlafraum"
        },
        {
          "@language": "en",
          "@value": "Apartment, shower, toilet, 1 bed room"
        }
      ],
      "description": [
        {
          "@language": "de",
          "@value": "Gemütliche Ferienwohnung für 2-4 Personen mit ca. 55m², geräumige Kochnische (Backrohr, Kaffeemaschine, Kühlschrank mit Gefrierfach, Geschirrspüler, Dunstabzug, Wasserkocher, Mikrowelle, Eierkocher) mit Essecke, Wohnzimmer mit großem Esstisch, SAT-TV, Video und Ausziehcouch für 2 Personen, 1 Doppelzimmer, Diele mit Garderobe, rundum Balkon, Dusche/WC. Handtücher, Duschtücher und Bettwäsche vorhanden. W-Lan! DVD, W-Lan."
        },
        {
          "@language": "en",
          "@value": "Comfortable holiday apartment for 2-4 persons with approx. 55m2, spacious kitchenette (oven, coffee maker, fridge with freezer compartment, microwave, fan extractor, water boiler) with eating corner, living room with large dining table, satellite TV, video and sofa bed for 2 persons, 1 double room, hallway with cloakroom, balcony all around, shower/WC.  towels and bed linen provided. Wirelesslan. Dvd, W-Lan.\n"
        }
      ],
      "availability": "http://schema.org/InStock",
      "itemOffered": [
        {
          "@type": [
            "Apartment",
            "Product"
          ],
          "name": [
            {
              "@language": "de",
              "@value": "Appartement Josef"
            },
            {
              "@language": "en",
              "@value": "apartment/1 bedroom/shower, WC"
            }
          ],
          "numberOfRooms": "4.0",
          "occupancy": {
            "@type": "QuantitativeValue",
            "maxValue": "4",
            "minValue": "2"
          }
        }
      ],
      "priceSpecification": [
        {
          "@type": "PriceSpecification",
          "description": "Pax 2",
          "minPrice": "100.00",
          "maxPrice": "100.00",
          "priceCurrency": "EUR"
        },
        {
          "@type": "PriceSpecification",
          "description": "Pax 3",
          "minPrice": "120.00",
          "maxPrice": "120.00",
          "priceCurrency": "EUR"
        },
        {
          "@type": "PriceSpecification",
          "description": "Pax 4",
          "minPrice": "140.00",
          "maxPrice": "140.00",
          "priceCurrency": "EUR"
        }
      ]
    }
  ]
}