{
  "@context": "http://schema.org",
  "@type": "BedAndBreakfast",
  "url": [
    "http://maps.best-of-zillertal.at/proxy/frontend/page/fuegen/de?foreignResource\u003d303EF915-6D54-4649-BF0E-19DFAD6E2E53"
  ],
  "address": {
    "@type": "PostalAddress",
    "name": "Haus Tirol",
    "streetAddress": "Rotholz 126",
    "addressCountry": "AT",
    "postalCode": "6261",
    "addressRegion": "Strass im Zillertal",
    "telephone": "(0043) 5244 62683"
  },
  "name": "Schiestl Rosa",
  "description": [
    {
      "@language": "de",
      "@value": "Aufenthaltsraum mit Sat-TV, Frühstücksraum, Liegewiese"
    },
    {
      "@language": "en",
      "@value": "Lounge with satellite TV, breakfast room, sunbathing lawn"
    }
  ],
  "image": [
    {
      "@type": "ImageObject",
      "url": "http://resc.deskline.net/images/ZIL/1/d928899c-1410-4952-a236-cac7f3c60787/99/image.jpg",
      "caption": [
        {
          "@language": "de",
          "@value": "Haus Tirol"
        },
        {
          "@language": "en",
          "@value": "Haus Tirol"
        }
      ]
    }
  ],
  "geo": {
    "@type": "GeoCoordinates",
    "latitude": "47.388259",
    "longitude": "11.798837"
  },
  "currenciesAccepted": "EUR",
  "makesOffer": [
    {
      "@type": "Offer",
      "name": [
        {
          "@language": "de",
          "@value": "Doppelzimmer, Dusche, WC"
        },
        {
          "@language": "en",
          "@value": "Double room, shower, toilet"
        }
      ],
      "availability": "http://schema.org/InStock",
      "itemOffered": [
        {
          "@type": [
            "HotelRoom",
            "Product"
          ],
          "name": [
            {
              "@language": "de",
              "@value": "Doppelzimmer mit Dusche, WC"
            },
            {
              "@language": "en",
              "@value": "double room with shower, WC"
            }
          ],
          "bed": {
            "@type": "BedDetails",
            "numberOfBeds": "1"
          },
          "occupancy": {
            "@type": "QuantitativeValue",
            "maxValue": "3",
            "minValue": "1"
          }
        }
      ]
    }
  ]
}