{
  "@context": "http://schema.org",
  "@type": "LodgingBusiness",
  "url": [
    "http://maps.best-of-zillertal.at/proxy/frontend/page/fuegen/de?foreignResource\u003d310161B5-467A-4E2F-880A-E771A4D1B54F"
  ],
  "address": {
    "@type": "PostalAddress",
    "streetAddress": "Fügenbergstr. 37",
    "addressCountry": "AT",
    "postalCode": "6264",
    "addressRegion": "Fügenberg",
    "telephone": "(0043) 664 48 73 756"
  },
  "name": "Pölterhof",
  "description": [
    {
      "@language": "de",
      "@value": "Unser Haus liegt außerhalb des Ortszentrums am Fügenberg in einer herrlichen ruhigen Lage mit Blick auf das Zillertal. Ganz in der Nähe ist die Rodelbahn (Sommer \u0026 Winter), Wanderwege, Mountainbikerouten. Ca. 10 - 15 Autominuten zur Spieljochbahn, Hallenbad, Tennisplatz, Reitanlage. Asphaltierte Straße - bequem erreichbar."
    },
    {
      "@language": "de",
      "@value": "Endreinigung € 15,00 pro Person\nIm Vorhinein ist eine Kaution von € 250,- zu hinterlegen."
    },
    {
      "@language": "en",
      "@value": "Our house is located outside the centre at Fügenberg in quiet position with a beautiful view over the Zillertal. Toboggan-run (summer\u0026winter), hiking and mountainbike trails close by. About 10 - 15 minutes with the car to the cable-car Spieljoch, indoor swimmingpool, tennis court, riding court."
    },
    {
      "@language": "en",
      "@value": "final cleaning € 15,00 per person\nYou have to pay a security deposit of € 250,- in advance."
    }
  ],
  "image": [
    {
      "@type": "ImageObject",
      "url": "http://resc.deskline.net/images/ZIL/1/a01afdc9-2080-47ff-85f6-26074b4f026d/99/image.jpg",
      "caption": [
        {
          "@language": "de",
          "@value": "Pölterhof Sommer"
        },
        {
          "@language": "en",
          "@value": "Pölterhof Sommer"
        }
      ]
    },
    {
      "@type": "ImageObject",
      "url": "http://resc.deskline.net/images/ZIL/1/8a4f70d0-d0f9-46f2-ab49-cff816856e7d/99/image.jpg",
      "caption": [
        {
          "@language": "de",
          "@value": "Pölterhof Winter"
        },
        {
          "@language": "en",
          "@value": "Pölterhof Winter"
        }
      ]
    },
    {
      "@type": "ImageObject",
      "url": "http://resc.deskline.net/images/ZIL/1/57717c94-e3b8-47da-be9d-139891f9d923/99/image.jpg",
      "caption": [
        {
          "@language": "de",
          "@value": "Pölterhof"
        },
        {
          "@language": "en",
          "@value": "Pölterhof"
        }
      ]
    }
  ],
  "geo": {
    "@type": "GeoCoordinates",
    "latitude": "47.364972",
    "longitude": "11.838483"
  },
  "currenciesAccepted": "EUR",
  "makesOffer": [
    {
      "@type": "Offer",
      "name": [
        {
          "@language": "de",
          "@value": "Appartement/Fewo, Dusche, WC, 3 Schlafräume"
        },
        {
          "@language": "en",
          "@value": "Apartment, shower, toilet, 3 bed rooms"
        }
      ],
      "description": [
        {
          "@language": "de",
          "@value": "Ausstattung:\nIm 1. Stock: Wohnzimmer, Küche (Backofen, Mikrowelle, Geschirrspülmaschine), WC, Dusche (Kabine)\nIm 2. Stock: Schlafzimmer (Doppelbett), Schlafzimmer (Einzelbett, Doppelbett), Schlafzimmer(Einzelbett, Doppelbett), Schlafzimmer (Doppelbett), Schlafzimmer (Doppelbett), Schlafzimmer (Etagenbett), WC, Dusche (Kabine), Balkon,  Terrasse, Garten.\n\n"
        }
      ],
      "availability": "http://schema.org/InStock",
      "itemOffered": [
        {
          "@type": [
            "Apartment",
            "Product"
          ],
          "name": [
            {
              "@language": "de",
              "@value": "Appartement, 3 Schlafzimmer, Dusche, WC"
            },
            {
              "@language": "en",
              "@value": "Apartment, shower, toilet, 3 bed rooms"
            }
          ],
          "numberOfRooms": "5.0",
          "occupancy": {
            "@type": "QuantitativeValue",
            "maxValue": "6",
            "minValue": "2"
          }
        }
      ],
      "priceSpecification": [
        {
          "@type": "PriceSpecification",
          "description": "Pax 1",
          "minPrice": "22.00",
          "maxPrice": "22.00",
          "priceCurrency": "EUR"
        },
        {
          "@type": "PriceSpecification",
          "description": "Pax 2",
          "minPrice": "22.00",
          "maxPrice": "22.00",
          "priceCurrency": "EUR"
        },
        {
          "@type": "PriceSpecification",
          "description": "Pax 3",
          "minPrice": "22.00",
          "maxPrice": "22.00",
          "priceCurrency": "EUR"
        },
        {
          "@type": "PriceSpecification",
          "description": "Pax 4",
          "minPrice": "22.00",
          "maxPrice": "22.00",
          "priceCurrency": "EUR"
        },
        {
          "@type": "PriceSpecification",
          "description": "Pax 5",
          "minPrice": "22.00",
          "maxPrice": "22.00",
          "priceCurrency": "EUR"
        },
        {
          "@type": "PriceSpecification",
          "description": "Pax 6",
          "minPrice": "22.00",
          "maxPrice": "22.00",
          "priceCurrency": "EUR"
        }
      ]
    }
  ]
}