{
  "@context": "http://schema.org",
  "@type": "LodgingBusiness",
  "address": {
    "@type": "PostalAddress",
    "name": "HochLeger Chalets Deluxe",
    "streetAddress": "Tiefenbachweg 38",
    "addressCountry": "AT",
    "postalCode": "6274",
    "addressRegion": "Aschau im Zillertal",
    "telephone": "(0043) 5282 2236",
    "faxNumber": "(0043) 5282 2236 22",
    "email": "info@hochleger.at",
    "url": "http://www.zillerseasons.at/hochleger/"
  },
  "name": "HochLeger Chalets Deluxe",
  "description": [
    {
      "@language": "de",
      "@value": "Das seltene Gefühl einer wirklichen Entdeckung…\nSie lieben die Kraft der Berge und ihre Erhabenheit? Sie sehnen sich nach Ruhe, ein wenig Abgeschiedenheit und viel Natur? Dabei wollen Sie aber keinesfalls auf Luxus und Individualität verzichten? Herzlich willkommen in den Bergchalets HochLeger!\nErleben Sie die einzigartige Kombination von Stil, Design, Großzügigkeit, Exklusivität und diskretem Service. Unsere luxuriös ausgestatteten Chalets liegen auf 1.054 m Seehöhe in Aschau hoch über dem Zillertal, Tirol.\nOb Romantikurlaub zu zweit oder Skivergnügen und Wanderurlaub mit Familie oder Freunden - die großzügig angelegten Chalets bieten viel Raum für Individualität. Man könnte sie Ferienwohnungen nennen oder Appartements. Genau genommen sind es allerdings Luxus-Almhütten. Die architektonischen Schmuckstücke präsentieren eine gelungene Verbindung von Ästhetik und Funktion. Jedes Chalet ist ausschließlich aus hochwertigem Holz erbaut und mit ausgesuchten, jahrhundertealten Möbelstücken ausgestattet. Edles Design, exklusive Stoffe, modernste Technik und viel Liebe zum Detail setzen kostbare, raumbestimmende Akzente.\nHoch über dem Alltag, hier inmitten der Berge, leben Sie im Einklang mit der Natur und genießen dennoch die Annehmlichkeiten des modernen Lifestyles. Entdecken Sie den außergewöhnlichen Zauber der Bergchalets HochLeger im Zillertal in Tirol."
    },
    {
      "@language": "de",
      "@value": "Die HochLeger-Inklusivleistungen\nTelefonischer Concierge-Service von 08.00 h - 20.00 h: Gerne stehen wir Ihnen in dieser Zeit für Fragen und Informationen zur Verfügung. Selbstverständlich kümmern wir uns um Ihre persönlichen Anliegen wie Restaurant-Empfehlungen, Tischreservierungen, Massage- und Kosmetiktermine, Shuttle-Service, Ski-Tickets und vieles mehr.\nTäglich wird frisch gebackenes Brot von unserer Hausdame Bianca ins Chalet gebracht. Wir bitten um Bestellung am Vortag.\nNatürlich steht Kaffee für die Zubereitung von perfektem, italienischem Espresso zu Ihrer Verfügung.\nGenießen Sie die Auswahl an handverlesenen, biologischen Teesorten in Ihrer Küche!\nGefüllte \"Speisenkredenz\": Bei Anreise erwarten Sie biologische Grundnahrungsmittel wie Bauerneier, Milch, frisch gebackenes Bauernbrot, Bauernbutter uvm.\nFrisches Bergquellwasser zur freien Verfügung\nWiFi, Flat-Sat-TV mit Sky\nPerfekt gelagertes Kaminholz für Ihren Kamin im Chalet\nNutzung der Bergsauna und des Ruhebereichs\nEin kleiner Tipp: Im Bade-Biotop mit seinem kleinen Wasserfall lässt es sich herrlich entspannen! Unser Natur Bade-Biotop ist nicht beheizt und nicht bechlort!\nBademantel und Handtücher stehen Ihnen während Ihres Aufenthaltes zur Verfügung.\nFlauschige Filzpantoffeln warten schon darauf, Ihre Füße wärmen zu dürfen\nNützen Sie den Komfort des Skiraumes mit Ihrem privaten Skispind und der Skischuhheizung\nGaragenstellplatz: 2 Plätze jeweils für das Sport- und Jagdchalet und 1 Stellplatz jeweils pro Romantikchalet\nTägliche Reinigung Ihres Chalets\nEndreinigung\nStrom\nWäschewechsel erledigen wir gerne auf Wunsch\nShuttle-Service: Bitte buchen Sie Ihren privaten Shuttle telefonisch bei Ihrem Concierge (gegen Gebühr)\nBikes oder E-Bikes"
    },
    {
      "@language": "de",
      "@value": "Auf der B 169 Zillertal Bundesstraße nehmen Sie die Ausfahrt Aschau. Diese führt direkt ins Zentrum des kleinen Ortes.\nDort rechts abbiegen, nach 50 m - vor dem Gasthof Löwen - die Straße links auf den Berg nehmen, vorbei am Hotel Aschauer Hof. 15 Stichkurven führen hinauf zum Weiler \"Tiefenbach\".\nEingebettet in 3 Hofstellen liegen die Bergchalets HochLeger auf 1.059 m Seehöhe.\nSchneekettenpflicht im Winter"
    }
  ],
  "aggregateRating": {
    "@type": "AggregateRating",
    "ratingValue": "5.0",
    "reviewCount": "12"
  },
  "image": [
    {
      "@type": "ImageObject",
      "url": "http://resc.deskline.net/images/ZIL/1/3e643b55-f87c-4537-b130-be17e9f96ce6/99/image.jpg",
      "caption": [
        {
          "@language": "de",
          "@value": "Hochleger"
        },
        {
          "@language": "en",
          "@value": "Hochleger"
        }
      ]
    },
    {
      "@type": "ImageObject",
      "url": "http://resc.deskline.net/images/ZIL/1/fe6dd928-97bb-4c33-83a3-ae31f5e5bfc8/99/image.jpg",
      "caption": [
        {
          "@language": "de",
          "@value": "Ansicht"
        },
        {
          "@language": "en",
          "@value": "Ansicht"
        }
      ]
    },
    {
      "@type": "ImageObject",
      "url": "http://resc.deskline.net/images/ZIL/1/ad6ff23a-7b06-4d03-9ac2-a96be81b7a5a/99/image.jpg",
      "caption": [
        {
          "@language": "de",
          "@value": "Ansicht_2"
        },
        {
          "@language": "en",
          "@value": "Ansicht_2"
        }
      ]
    },
    {
      "@type": "ImageObject",
      "url": "http://resc.deskline.net/images/ZIL/1/e2d6edca-4996-40cc-ae6c-fbd0d07160c5/99/image.jpg",
      "caption": [
        {
          "@language": "de",
          "@value": "Außenansicht"
        },
        {
          "@language": "en",
          "@value": "Außenansicht"
        }
      ]
    },
    {
      "@type": "ImageObject",
      "url": "http://resc.deskline.net/images/ZIL/1/49031444-f805-4b93-87e5-bc009608dd5a/99/image.jpg",
      "caption": [
        {
          "@language": "de",
          "@value": "Gemütliche Stunden"
        },
        {
          "@language": "en",
          "@value": "Gemütliche Stunden"
        }
      ]
    },
    {
      "@type": "ImageObject",
      "url": "http://resc.deskline.net/images/ZIL/1/23e5af66-a76e-4c07-bdef-1eb1503fb015/99/image.jpg",
      "caption": [
        {
          "@language": "de",
          "@value": "Beste Produkte"
        },
        {
          "@language": "en",
          "@value": "Beste Produkte"
        }
      ]
    },
    {
      "@type": "ImageObject",
      "url": "http://resc.deskline.net/images/ZIL/1/8df51770-a8af-42d0-b28e-88557060dd74/99/image.jpg",
      "caption": [
        {
          "@language": "de",
          "@value": "Biologisch frisch"
        },
        {
          "@language": "en",
          "@value": "Biologisch frisch"
        }
      ]
    },
    {
      "@type": "ImageObject",
      "url": "http://resc.deskline.net/images/ZIL/1/4aad859d-8a4d-412d-b8b6-9ad2dbf91c28/99/image.jpg",
      "caption": [
        {
          "@language": "de",
          "@value": "Badebiotop"
        },
        {
          "@language": "en",
          "@value": "Badebiotop"
        }
      ]
    },
    {
      "@type": "ImageObject",
      "url": "http://resc.deskline.net/images/ZIL/1/201b50e7-c6be-46e0-b38f-b75217aaa6f9/99/image.jpg",
      "caption": [
        {
          "@language": "de",
          "@value": "Anfahrt"
        },
        {
          "@language": "en",
          "@value": "Anfahrt"
        }
      ]
    },
    {
      "@type": "ImageObject",
      "url": "http://resc.deskline.net/images/ZIL/1/97ec144a-d399-4493-8d4f-d16f3ead86a5/99/image.jpg",
      "caption": [
        {
          "@language": "de",
          "@value": "Materialien"
        },
        {
          "@language": "en",
          "@value": "Materialien"
        }
      ]
    },
    {
      "@type": "ImageObject",
      "url": "http://resc.deskline.net/images/ZIL/1/b62666e3-dfa2-4c74-ba68-7e94b7585d84/99/image.jpg",
      "caption": [
        {
          "@language": "de",
          "@value": "Natur pur"
        },
        {
          "@language": "en",
          "@value": "Natur pur"
        }
      ]
    },
    {
      "@type": "ImageObject",
      "url": "http://resc.deskline.net/images/ZIL/1/cd9648bb-9cea-4f62-be5b-5e3b43fe6096/99/image.jpg",
      "caption": [
        {
          "@language": "de",
          "@value": "Möbel"
        },
        {
          "@language": "en",
          "@value": "Möbel"
        }
      ]
    },
    {
      "@type": "ImageObject",
      "url": "http://resc.deskline.net/images/ZIL/1/3f693035-fcf8-454c-ac05-b067ef08f6f7/99/image.jpg",
      "caption": [
        {
          "@language": "de",
          "@value": "Balkon"
        },
        {
          "@language": "en",
          "@value": "Balkon"
        }
      ]
    },
    {
      "@type": "ImageObject",
      "url": "http://resc.deskline.net/images/ZIL/1/e6fed31e-bb48-4fb5-a000-f4d68617c6a8/99/image.jpg",
      "caption": [
        {
          "@language": "de",
          "@value": "Flauschige Bademäntel"
        },
        {
          "@language": "en",
          "@value": "Flauschige Bademäntel"
        }
      ]
    }
  ],
  "geo": {
    "@type": "GeoCoordinates",
    "latitude": "47.261546033209",
    "longitude": "11.8770146369934"
  },
  "currenciesAccepted": "EUR",
  "makesOffer": [
    {
      "@type": "Offer",
      "name": [
        {
          "@language": "de",
          "@value": "Ferienhaus, Dusche und Bad, WC, Deluxe"
        },
        {
          "@language": "en",
          "@value": "Holiday home, shower and bath, toilet, deluxe"
        }
      ],
      "description": [
        {
          "@language": "de",
          "@value": "Das Chalet für Genießer und Naturliebhaber:\nErlesener Wohnkomfort auf zwei Ebenen im jagdlichen Ambiente: Mit insgesamt 108 m² bietet das Jagdchalet für mindestens 4 und maximal 8 Personen viel Platz. Geschmackvolle Grün- und Brauntöne harmonieren mit edlen Stoffen. Mit Abwurfstangen sowie Trophäen aus dem eigenen Jagdgebiet folgt die Dekoration klar dem Motto Jagd. Für anheimelnde Atmosphäre sorgt ein Juwel der Behaglichkeit: Der offene Kamin aus Südtiroler Dolomit im Wohnraum."
        }
      ],
      "availability": "http://schema.org/InStock",
      "itemOffered": [
        {
          "@type": [
            "Apartment",
            "Product"
          ],
          "name": [
            {
              "@language": "de",
              "@value": "Jagd-Chalet"
            },
            {
              "@language": "en",
              "@value": "Holiday home, shower and bath, toilet, deluxe"
            }
          ],
          "numberOfRooms": "4.0",
          "occupancy": {
            "@type": "QuantitativeValue",
            "maxValue": "8",
            "minValue": "6"
          }
        }
      ]
    },
    {
      "@type": "Offer",
      "name": [
        {
          "@language": "de",
          "@value": "Ferienhaus, Dusche und Bad, WC, Deluxe"
        },
        {
          "@language": "en",
          "@value": "Holiday home, shower and bath, toilet, deluxe"
        }
      ],
      "description": [
        {
          "@language": "de",
          "@value": "Romantikchalet - für Pärchen, Verliebte und kleine Familien:\nRot, Beige und Pink - allein das Farbkonzept macht dieses 70 m² große Chalet zum romantischen Paradies. Natürliche Materialien, edle Verarbeitung, luxuriöse Ausstattung - diese Edel-Almhütte bietet bis zu 4 Personen genügend Raum zur Entspannung. Form und Farbe, Sinnlichkeit und Geschmack: die beiden kuscheligen Romantikchalets sind eine Klasse für sich. "
        }
      ],
      "availability": "http://schema.org/InStock",
      "itemOffered": [
        {
          "@type": [
            "Apartment",
            "Product"
          ],
          "name": [
            {
              "@language": "de",
              "@value": "Romantik-Chalet 1"
            },
            {
              "@language": "en",
              "@value": "Holiday home, shower and bath, toilet, deluxe"
            }
          ],
          "numberOfRooms": "3.0",
          "occupancy": {
            "@type": "QuantitativeValue",
            "maxValue": "4",
            "minValue": "2"
          }
        }
      ]
    },
    {
      "@type": "Offer",
      "name": [
        {
          "@language": "de",
          "@value": "Ferienhaus, Dusche und Bad, WC, Deluxe"
        },
        {
          "@language": "en",
          "@value": "Holiday home, shower and bath, toilet, deluxe"
        }
      ],
      "description": [
        {
          "@language": "de",
          "@value": "Romantikchalet - für Pärchen, Verliebte und kleine Familien\nRot, Beige und Pink - allein das Farbkonzept macht dieses 70 m² große Chalet zum romantischen Paradies. Natürliche Materialien, edle Verarbeitung, luxuriöse Ausstattung - diese Edel-Almhütte bietet bis zu 4 Personen genügend Raum zur Entspannung. Form und Farbe, Sinnlichkeit und Geschmack: die beiden kuscheligen Romantikchalets sind eine Klasse für sich. "
        }
      ],
      "availability": "http://schema.org/InStock",
      "itemOffered": [
        {
          "@type": [
            "Apartment",
            "Product"
          ],
          "name": [
            {
              "@language": "de",
              "@value": "Romantik-Chalet 2"
            },
            {
              "@language": "en",
              "@value": "Holiday home, shower and bath, toilet, deluxe"
            }
          ],
          "numberOfRooms": "3.0",
          "occupancy": {
            "@type": "QuantitativeValue",
            "maxValue": "4",
            "minValue": "2"
          }
        }
      ]
    },
    {
      "@type": "Offer",
      "name": [
        {
          "@language": "de",
          "@value": "Ferienhaus, Dusche und Bad, WC, Deluxe"
        },
        {
          "@language": "en",
          "@value": "Holiday home, shower and bath, toilet, deluxe"
        }
      ],
      "description": [
        {
          "@language": "de",
          "@value": "Sportchalet - Sport \u0026 Spaß für Familien und Freunde bis zu 10 Personen:\nDas sehr großzügig gestaltete Sportchalet mit 125 m² auf drei Ebenen eignet sich für maximal 10 Personen. In dieser luxuriösen Design-Almhütte stehen Sport, Spaß und Erholung im Vordergrund. Hier geben die Farben Rot und Blau den Ton an. Die sportliche Dekoration inklusive Spieltisch aus massiver Eiche lassen keine Wünsche offen."
        }
      ],
      "availability": "http://schema.org/InStock",
      "itemOffered": [
        {
          "@type": [
            "Apartment",
            "Product"
          ],
          "name": [
            {
              "@language": "de",
              "@value": "Sport-Chalet"
            },
            {
              "@language": "en",
              "@value": "Holiday home, shower and bath, toilet, deluxe"
            }
          ],
          "numberOfRooms": "4.0",
          "occupancy": {
            "@type": "QuantitativeValue",
            "maxValue": "8",
            "minValue": "6"
          }
        }
      ]
    }
  ]
}