{
  "@context": "http://schema.org",
  "@type": "Hotel",
  "url": [
    "https://www.youtube.com/embed/2UxnPZVUY6A?rel\u003d0",
    "http://www.asterhof.at",
    "http://maps.best-of-zillertal.at/proxy/frontend/page/fuegen/de?foreignResource\u003d3658BD1E-D4BF-4D81-ACF5-584D89BFACCE"
  ],
  "address": {
    "@type": "PostalAddress",
    "name": "Apart-Hotel Asterhof****",
    "streetAddress": "Asterweg 3",
    "addressCountry": "AT",
    "postalCode": "6264",
    "addressRegion": "Fügenberg",
    "telephone": "(0043) 5288 63225",
    "faxNumber": "(0043) 5288 64601",
    "email": "info@asterhof.at",
    "url": "http://www.asterhof.at"
  },
  "name": "Ferienhäuser Asterhof****",
  "description": [
    {
      "@language": "de",
      "@value": "“Wir möchten Sie an unserem Urlaubsparadies teilhaben lassen und bieten Ihnen Wohlfühl Apartments und exklusive Ferienhäuser mit Hotelservice.\nTipp: ENTSCHLEUNIGEN Sie an unserem Lagerfeuer und genießen Sie Ihre ICHZEIT.”\nIhre Familie Plattner \u0026 Steinberger Anni mit Patrick, Rudi und Franzl sowie Liesi mit Rudl Vom ASTERHOF, Ihre Gastgeber"
    },
    {
      "@language": "de",
      "@value": "Endreinigung - Asterhäusl     € 90,00\nEndreinigung - Bauernhaus   € 110,00\nEndreinigung - Am Marienberg     € 110,00\n"
    },
    {
      "@language": "de",
      "@value": "Check In  16.00 - 19.00 Uhr\nDas gebuchte Ferienhaus steht Ihnen \nam Anreisetag ab 16.00 Uhr zur Verfügung. \nSollten Sie es nicht schaffen vor 20.00 Uhr anzureisen, \nbitten wir Sie uns kurz bis 18.00 Uhr telefonisch Bescheid zu geben."
    },
    {
      "@language": "en",
      "@value": "Our family run business was completly renovated in summer 2005. We offer apartements for 2-8 persons, family rooms as well as comfort rooms, a generous entrance area with reception, an exclusive elevator, parlour made out of wood with tiled stove, large sunbathing terrace with deckchairs, sauna as well as finish sauna, steambath, kneip pools, relaxing room, fresh air room, and solarium, heated ski storage room and ski boot drying room, central position to the skiareas, if there are good snowconditions ther is a directly descent in front of our house possible, 1 minute walking distance to skibusstop free of charge, ideal starting point for walks.\nOur entertainment offer for you: weekly harpmusic with Anni, walks with Patrick, toboggan evening and torch light tour. Special offers for winter: \"White weeks \u0026 all inclusive weeks\", for summer: \", Save-, fit- and familyweeks."
    },
    {
      "@language": "en",
      "@value": "final cleaning:\nApartment \"Spieljoch\":          € 25,--\nApartment \"Onkeljoch\":        € 35,--\nApartment \"Hamberg\":          € 45,--\nApartment \"Kellerjoch\":        € 55,--\nPenthouse Suite \"Bergkristall\" and \"Rosenquarz\" € 50,--\nPenthouse Suite \"Granat\" € 60,--\ncleaning during your stay available € 15,-\nHoliday home \"Asterhäusl\": € 80,--  current according to the meter\nHoliday home \"Bauernhaus\": € 110,-- current according to the meter\nHoliday home \"Am Marienberg\": € 110,-- current according to the meter\n\nBreakfast per person/day € 11,00 (children up to 4 years are free)"
    },
    {
      "@language": "en",
      "@value": "Check in: from 4 pm until 7 pm - please inform us in advance if you plan to arrive after 7 pm - Thank\u0027s."
    }
  ],
  "image": [
    {
      "@type": "ImageObject",
      "url": "http://resc.deskline.net/images/ZIL/1/63953d96-7439-47c8-8b50-df6c32d83a29/99/image.jpg",
      "caption": [
        {
          "@language": "de",
          "@value": "Asterhauesl-Aparthotel-Asterhof-Fuegen-Asterweg-3-"
        },
        {
          "@language": "en",
          "@value": "Asterhauesl-Aparthotel-Asterhof-Fuegen-Asterweg-3-"
        }
      ]
    },
    {
      "@type": "ImageObject",
      "url": "http://resc.deskline.net/images/ZIL/1/0fdce9c6-aa0a-4aad-81dc-552cbc89a755/99/image.jpg",
      "caption": [
        {
          "@language": "de",
          "@value": "Asterhauesl-Aparthotel-Asterhof-Fuegen-Asterweg-3-"
        },
        {
          "@language": "en",
          "@value": "Asterhauesl-Aparthotel-Asterhof-Fuegen-Asterweg-3-"
        }
      ]
    },
    {
      "@type": "ImageObject",
      "url": "http://resc.deskline.net/images/ZIL/1/d38e7cba-3010-4925-8ad4-edc8a397f59e/99/image.jpg",
      "caption": [
        {
          "@language": "de",
          "@value": "Asterhauesl-Aparthotel-Asterhof-Fuegen-Asterweg-3-"
        },
        {
          "@language": "en",
          "@value": "Asterhauesl-Aparthotel-Asterhof-Fuegen-Asterweg-3-"
        }
      ]
    },
    {
      "@type": "ImageObject",
      "url": "http://resc.deskline.net/images/ZIL/1/448481f5-6cee-4b20-a84e-88aa55fd88e1/99/image.jpg",
      "caption": [
        {
          "@language": "de",
          "@value": "Asterhauesl-Aparthotel-Asterhof-Fuegen-Asterweg-3-"
        },
        {
          "@language": "en",
          "@value": "Asterhauesl-Aparthotel-Asterhof-Fuegen-Asterweg-3-"
        }
      ]
    },
    {
      "@type": "ImageObject",
      "url": "http://resc.deskline.net/images/ZIL/1/c471d7a8-3c39-4c27-923e-9fe20dc27663/99/image.jpg",
      "caption": [
        {
          "@language": "de",
          "@value": "Asterhauesl-Aparthotel-Asterhof-Fuegen-Asterweg-3-"
        },
        {
          "@language": "en",
          "@value": "Asterhauesl-Aparthotel-Asterhof-Fuegen-Asterweg-3-"
        }
      ]
    },
    {
      "@type": "ImageObject",
      "url": "http://resc.deskline.net/images/ZIL/1/d452dedc-07ff-41c6-9f27-d5ae77cdb36e/99/image.jpg",
      "caption": [
        {
          "@language": "de",
          "@value": "Asterhauesl-Aparthotel-Asterhof-Fuegen-Asterweg-3-"
        },
        {
          "@language": "en",
          "@value": "Asterhauesl-Aparthotel-Asterhof-Fuegen-Asterweg-3-"
        }
      ]
    },
    {
      "@type": "ImageObject",
      "url": "http://resc.deskline.net/images/ZIL/1/9397a525-4f25-43d8-a41b-cf22029c6e9d/99/image.jpg",
      "caption": [
        {
          "@language": "de",
          "@value": "Asterhauesl-Aparthotel-Asterhof-Fuegen-Asterweg-3-"
        },
        {
          "@language": "en",
          "@value": "Asterhauesl-Aparthotel-Asterhof-Fuegen-Asterweg-3-"
        }
      ]
    },
    {
      "@type": "ImageObject",
      "url": "http://resc.deskline.net/images/ZIL/1/38274b32-807d-4a71-b068-fecc4d92265f/99/image.jpg",
      "caption": [
        {
          "@language": "de",
          "@value": "Asterhauesl-Aparthotel-Asterhof-Fuegen-Asterweg-3-"
        },
        {
          "@language": "en",
          "@value": "Asterhauesl-Aparthotel-Asterhof-Fuegen-Asterweg-3-"
        }
      ]
    },
    {
      "@type": "ImageObject",
      "url": "http://resc.deskline.net/images/ZIL/1/3e825ea3-7a66-4d73-ba57-e766372b0404/99/image.jpg",
      "caption": [
        {
          "@language": "de",
          "@value": "Asterhauesl-Aparthotel-Asterhof-Fuegen-Asterweg-3-"
        },
        {
          "@language": "en",
          "@value": "Asterhauesl-Aparthotel-Asterhof-Fuegen-Asterweg-3-"
        }
      ]
    },
    {
      "@type": "ImageObject",
      "url": "http://resc.deskline.net/images/ZIL/1/cc451cc1-505c-4f98-9c2b-d1a5ee721073/99/image.jpg",
      "caption": [
        {
          "@language": "de",
          "@value": "Asterhauesl-Aparthotel-Asterhof-Fuegen-Asterweg-3-"
        },
        {
          "@language": "en",
          "@value": "Asterhauesl-Aparthotel-Asterhof-Fuegen-Asterweg-3-"
        }
      ]
    },
    {
      "@type": "ImageObject",
      "url": "http://resc.deskline.net/images/ZIL/1/824b18fc-ac9d-4d74-8a91-c86d3b2ebe5c/99/image.jpg",
      "caption": [
        {
          "@language": "de",
          "@value": "Asterhauesl-Aparthotel-Asterhof-Fuegen-Asterweg-3-"
        },
        {
          "@language": "en",
          "@value": "Asterhauesl-Aparthotel-Asterhof-Fuegen-Asterweg-3-"
        }
      ]
    },
    {
      "@type": "ImageObject",
      "url": "http://resc.deskline.net/images/ZIL/1/c6aad130-d350-4523-a41a-99ccfaaaff19/99/image.jpg",
      "caption": [
        {
          "@language": "de",
          "@value": "Asterhauesl-Aparthotel-Asterhof-Fuegen-Asterweg-3-"
        },
        {
          "@language": "en",
          "@value": "Asterhauesl-Aparthotel-Asterhof-Fuegen-Asterweg-3-"
        }
      ]
    },
    {
      "@type": "ImageObject",
      "url": "http://resc.deskline.net/images/ZIL/1/e7dd12d0-7df9-4947-a6be-f6299041dc1a/99/image.jpg",
      "caption": [
        {
          "@language": "de",
          "@value": "Bauernhaus Außen Sommer"
        },
        {
          "@language": "en",
          "@value": "Bauernhaus Außen Sommer"
        }
      ]
    },
    {
      "@type": "ImageObject",
      "url": "http://resc.deskline.net/images/ZIL/1/505484fd-dec2-44ae-b3b2-5ec02074bf9e/99/image.jpg",
      "caption": [
        {
          "@language": "de",
          "@value": "Bauernhaus mit Grillhaus und Spielplatz"
        },
        {
          "@language": "en",
          "@value": "Bauernhaus mit Grillhaus und Spielplatz"
        }
      ]
    },
    {
      "@type": "ImageObject",
      "url": "http://resc.deskline.net/images/ZIL/1/8a2b8827-76e7-454d-a707-4c2bd5821fc4/99/image.jpg",
      "caption": [
        {
          "@language": "de",
          "@value": "Küche"
        },
        {
          "@language": "en",
          "@value": "Küche"
        }
      ]
    },
    {
      "@type": "ImageObject",
      "url": "http://resc.deskline.net/images/ZIL/1/b60c3644-d00c-472a-bfb8-5df7eb9686bc/99/image.jpg",
      "caption": [
        {
          "@language": "de",
          "@value": "6 gemütliche Stube im Bauernhaus"
        },
        {
          "@language": "en",
          "@value": "6 gemütliche Stube im Bauernhaus"
        }
      ]
    },
    {
      "@type": "ImageObject",
      "url": "http://resc.deskline.net/images/ZIL/1/47dfff00-86ff-4e86-91e0-b8ae1b0da48c/99/image.jpg",
      "caption": [
        {
          "@language": "de",
          "@value": "Wanduhr Stube"
        },
        {
          "@language": "en",
          "@value": "Wanduhr Stube"
        }
      ]
    },
    {
      "@type": "ImageObject",
      "url": "http://resc.deskline.net/images/ZIL/1/da05a501-5c41-46b8-8a04-140150bfe7a8/99/image.jpg",
      "caption": [
        {
          "@language": "de",
          "@value": "Kasten"
        },
        {
          "@language": "en",
          "@value": "Kasten"
        }
      ]
    },
    {
      "@type": "ImageObject",
      "url": "http://resc.deskline.net/images/ZIL/1/31727846-767f-4b22-ab4f-ffc40367c025/99/image.jpg",
      "caption": [
        {
          "@language": "de",
          "@value": "Rundblick 2 a"
        },
        {
          "@language": "en",
          "@value": "Rundblick 2 a"
        }
      ]
    },
    {
      "@type": "ImageObject",
      "url": "http://resc.deskline.net/images/ZIL/1/04acaab5-10a2-4455-8264-adc5f5dfc4c5/99/image.jpg",
      "caption": [
        {
          "@language": "de",
          "@value": "Rundblick 1"
        },
        {
          "@language": "en",
          "@value": "Rundblick 1"
        }
      ]
    },
    {
      "@type": "ImageObject",
      "url": "http://resc.deskline.net/images/ZIL/1/903c0fb9-a9d4-45aa-a661-f6a15e6008dc/99/image.jpg",
      "caption": [
        {
          "@language": "de",
          "@value": "Badezimmer 2"
        },
        {
          "@language": "en",
          "@value": "Badezimmer 2"
        }
      ]
    },
    {
      "@type": "ImageObject",
      "url": "http://resc.deskline.net/images/ZIL/1/56a53095-338a-45e9-abb1-f2b624e94fcf/99/image.jpg",
      "caption": [
        {
          "@language": "de",
          "@value": "WC"
        },
        {
          "@language": "en",
          "@value": "WC"
        }
      ]
    },
    {
      "@type": "ImageObject",
      "url": "http://resc.deskline.net/images/ZIL/1/a6c06795-57fb-4406-a2d7-ff44f18c4bb7/99/image.jpg",
      "caption": [
        {
          "@language": "de",
          "@value": "Stiegenaufgang"
        },
        {
          "@language": "en",
          "@value": "Stiegenaufgang"
        }
      ]
    },
    {
      "@type": "ImageObject",
      "url": "http://resc.deskline.net/images/ZIL/1/2c1fedb4-6c3b-4e92-9d1d-342a2d974af7/99/image.jpg",
      "caption": [
        {
          "@language": "de",
          "@value": "Zimmer 3"
        },
        {
          "@language": "en",
          "@value": "Zimmer 3"
        }
      ]
    },
    {
      "@type": "ImageObject",
      "url": "http://resc.deskline.net/images/ZIL/1/f8dba0c6-402b-4297-b591-e53e88b17b8f/99/image.jpg",
      "caption": [
        {
          "@language": "de",
          "@value": "Bauernhaus Schlafzimmer 1"
        },
        {
          "@language": "en",
          "@value": "Bauernhaus Schlafzimmer 1"
        }
      ]
    },
    {
      "@type": "ImageObject",
      "url": "http://resc.deskline.net/images/ZIL/1/3591b618-8a38-46b4-8021-84c7bbe1fbb3/99/image.jpg",
      "caption": [
        {
          "@language": "de",
          "@value": "Schlafzimmer Parterre 1"
        },
        {
          "@language": "en",
          "@value": "Schlafzimmer Parterre 1"
        }
      ]
    },
    {
      "@type": "ImageObject",
      "url": "http://resc.deskline.net/images/ZIL/1/3978c1ba-e5ea-4ed4-a1bf-f4902cd95520/99/image.jpg",
      "caption": [
        {
          "@language": "de",
          "@value": "Bauernhaus Winter"
        },
        {
          "@language": "en",
          "@value": "Bauernhaus Winter"
        }
      ]
    }
  ],
  "geo": {
    "@type": "GeoCoordinates",
    "latitude": "47.3342414947",
    "longitude": "11.834687158991"
  },
  "currenciesAccepted": "EUR",
  "makesOffer": [
    {
      "@type": "Offer",
      "name": [
        {
          "@language": "de",
          "@value": "Ferienhaus, Bad, WC, 2 Schlafräume"
        },
        {
          "@language": "en",
          "@value": "Holiday home, bath, toilet, 2 bed rooms"
        }
      ],
      "description": [
        {
          "@language": "de",
          "@value": "Ferienhaus ASTERHÄUSL\nHerzlich und urig\n\nUnser liebevoll eingerichtetes Ferienhaus ASTERHÄUSL liegt in atemberaubender, sonniger Lage nur 30 Meter vom ApartHOTEL ASTERHOF entfernt. Das besondere Ambiente für Ihren Urlaub bietet die holzgetäfelte Stube mit Kachelofen. Hier können Sie sich an kalten Wintertagen oder nach ausgiebigen Wander- und Bergerlebnissen aufwärmen und gesellige Abende verbringen. Im Asterhäusl können Sie abseits des Trubels ausspannen und sind doch mitten im Geschehen."
        },
        {
          "@language": "en",
          "@value": "Our \"Asterhäusl\" is situated in quiet location, 250 m above Spieljochbahn in Fügen. If there is enough snow you could get on your skis direclty at the house. On the 1st floor are 2 romantic sleeping rooms furnished with spruce wood \u0026 a separat bathroum with shower \u0026 toilet, on ground floor are a antique with wood furnished room with tyrlean stove and satelite TV, complety furnished kitchen,  luxury private wellness with finnish sauna and hot pot"
        }
      ],
      "availability": "http://schema.org/InStock",
      "itemOffered": [
        {
          "@type": [
            "Apartment",
            "Product"
          ],
          "name": [
            {
              "@language": "de",
              "@value": "Ferienhaus ASTERHÄUSL mit privatem Wellnessbereich"
            },
            {
              "@language": "en",
              "@value": "holiday house/3 bedrooms/bath tube, WC"
            }
          ],
          "description": [
            {
              "@language": "de",
              "@value": "Ferienhaus ASTERHÄUSL\nHerzlich und urig\n\nUnser liebevoll eingerichtetes Ferienhaus ASTERHÄUSL liegt in atemberaubender, sonniger Lage nur 30 Meter vom ApartHOTEL ASTERHOF entfernt. Das besondere Ambiente für Ihren Urlaub bietet die holzgetäfelte Stube mit Kachelofen. Hier können Sie sich an kalten Wintertagen oder nach ausgiebigen Wander- und Bergerlebnissen aufwärmen und gesellige Abende verbringen. Im Asterhäusl können Sie abseits des Trubels ausspannen und sind doch mitten im Geschehen.\n"
            }
          ],
          "image": [
            {
              "@type": "ImageObject",
              "url": "http://resc.deskline.net/images/ZIL/1/9bd7f318-b589-4fbb-ba83-e0fe03ff0643/99/image.jpg",
              "caption": [
                {
                  "@language": "de",
                  "@value": "Ferienhaus \"Asterhäusl\""
                },
                {
                  "@language": "en",
                  "@value": "Ferienhaus \"Asterhäusl\""
                }
              ]
            },
            {
              "@type": "ImageObject",
              "url": "http://resc.deskline.net/images/ZIL/1/1159116b-f957-4e84-b6e3-e269b5b5dcad/99/image.jpg",
              "caption": [
                {
                  "@language": "de",
                  "@value": "AsterhäuslSchlafzimmer 1"
                },
                {
                  "@language": "en",
                  "@value": "AsterhäuslSchlafzimmer 1"
                }
              ]
            }
          ],
          "numberOfRooms": "5.0",
          "occupancy": {
            "@type": "QuantitativeValue",
            "maxValue": "7",
            "minValue": "2"
          }
        }
      ],
      "priceSpecification": [
        {
          "@type": "PriceSpecification",
          "description": "Pax 2",
          "minPrice": "260.00",
          "maxPrice": "600.00",
          "priceCurrency": "EUR"
        },
        {
          "@type": "PriceSpecification",
          "description": "Pax 3",
          "minPrice": "270.00",
          "maxPrice": "600.00",
          "priceCurrency": "EUR"
        },
        {
          "@type": "PriceSpecification",
          "description": "Pax 4",
          "minPrice": "280.00",
          "maxPrice": "600.00",
          "priceCurrency": "EUR"
        },
        {
          "@type": "PriceSpecification",
          "description": "Pax 5",
          "minPrice": "290.00",
          "maxPrice": "600.00",
          "priceCurrency": "EUR"
        },
        {
          "@type": "PriceSpecification",
          "description": "Pax 6",
          "minPrice": "300.00",
          "maxPrice": "600.00",
          "priceCurrency": "EUR"
        },
        {
          "@type": "PriceSpecification",
          "description": "Pax 7",
          "minPrice": "330.00",
          "maxPrice": "600.00",
          "priceCurrency": "EUR"
        }
      ]
    },
    {
      "@type": "Offer",
      "name": [
        {
          "@language": "de",
          "@value": "Ferienhaus, Dusche und Bad, WC, 4 oder mehr Schlafräume"
        },
        {
          "@language": "en",
          "@value": "Holiday home, shower and bath, toilet, 4 or more bed rooms"
        }
      ],
      "description": [
        {
          "@language": "de",
          "@value": "Unser Bauernhaus ist ausgestattet mit einem privaten Wellnessbereich (finnische Sauna mit Regenfalldusche und Ruheraum), mit vier gemütlichen Doppelzimmern (jedes mit Flat SAT TV), 1 Küche, 1 holzgetäfelte Stube mit Kachelofe und großem Flat Sat-TV, 1 Bad, 2 Duschen, 3 Waschbecken, 2 separaten WC sowie Balkon und Liegewiese."
        },
        {
          "@language": "en",
          "@value": "our farm house offers 4 cosy double rooms, 1 kitchen, 1 with wood furnished room with tyrolean stove, satelite TV, bath, shower, washbasin, toilet, balcony and garden"
        }
      ],
      "availability": "http://schema.org/InStock",
      "itemOffered": [
        {
          "@type": [
            "Apartment",
            "Product"
          ],
          "name": [
            {
              "@language": "de",
              "@value": "Ferienhaus BAUERNHAUS mit privatem Wellnessbereich"
            },
            {
              "@language": "en",
              "@value": "hol. house/4 + more bedrooms/shower,bath"
            }
          ],
          "description": [
            {
              "@language": "de",
              "@value": "Ferien im BAUERNHAUS\nherzerwärmend und romantisch\n\n„My home is my castle“ – das haben sich wohl unsere Vorfahren, die Erbauer dieses herrlichen Bauernhauses gedacht und viel Liebe in die Ausstattung gelegt. In dem neu renovierten Bauernhaus erlebt man die Faszination des Tiroler Wohnens in seiner Ursprünglichkeit. Wenn man dann noch vom Panoramabalkon den herrlichen Rundumblick auf das Zillertal genießt und doch in wenigen Minuten im Zentrum des Tourismusortes Fügen mit allen Möglichkeiten der U"
            }
          ],
          "image": [
            {
              "@type": "ImageObject",
              "url": "http://resc.deskline.net/images/ZIL/1/3c65e14e-e270-4d67-b329-6ee7e3602a0a/99/image.jpg",
              "caption": [
                {
                  "@language": "de",
                  "@value": "Unser 400 Jahre altes \"Bauernhaus\""
                },
                {
                  "@language": "en",
                  "@value": "Unser 400 Jahre altes \"Bauernhaus\""
                }
              ]
            },
            {
              "@type": "ImageObject",
              "url": "http://resc.deskline.net/images/ZIL/1/f5788413-9060-4fda-b361-c25f26b8af20/99/image.jpg",
              "caption": [
                {
                  "@language": "de",
                  "@value": "Asterhof-11"
                },
                {
                  "@language": "en",
                  "@value": "Asterhof-11"
                }
              ]
            }
          ],
          "numberOfRooms": "6.0",
          "occupancy": {
            "@type": "QuantitativeValue",
            "maxValue": "11",
            "minValue": "4"
          }
        }
      ],
      "priceSpecification": [
        {
          "@type": "PriceSpecification",
          "description": "Pax 4",
          "minPrice": "240.00",
          "maxPrice": "600.00",
          "priceCurrency": "EUR"
        },
        {
          "@type": "PriceSpecification",
          "description": "Pax 5",
          "minPrice": "250.00",
          "maxPrice": "600.00",
          "priceCurrency": "EUR"
        },
        {
          "@type": "PriceSpecification",
          "description": "Pax 6",
          "minPrice": "260.00",
          "maxPrice": "600.00",
          "priceCurrency": "EUR"
        },
        {
          "@type": "PriceSpecification",
          "description": "Pax 7",
          "minPrice": "270.00",
          "maxPrice": "600.00",
          "priceCurrency": "EUR"
        },
        {
          "@type": "PriceSpecification",
          "description": "Pax 8",
          "minPrice": "280.00",
          "maxPrice": "600.00",
          "priceCurrency": "EUR"
        },
        {
          "@type": "PriceSpecification",
          "description": "Pax 9",
          "minPrice": "290.00",
          "maxPrice": "700.00",
          "priceCurrency": "EUR"
        },
        {
          "@type": "PriceSpecification",
          "description": "Pax 10",
          "minPrice": "300.00",
          "maxPrice": "800.00",
          "priceCurrency": "EUR"
        }
      ]
    }
  ]
}