{
  "@context": "http://schema.org",
  "@type": "LodgingBusiness",
  "url": [
    "http://www.apartments-aschau.at",
    "http://maps.best-of-zillertal.at/proxy/frontend/page/fuegen/de?foreignResource\u003d36787F25-9D80-4FAE-8FD7-30EBDC73C936"
  ],
  "address": {
    "@type": "PostalAddress",
    "streetAddress": "Entenweg 4",
    "addressCountry": "AT",
    "postalCode": "6274",
    "addressRegion": "Aschau im Zillertal",
    "telephone": "(0043) 664 5226030",
    "faxNumber": "(0043) 5282 22184",
    "email": "info@apartments-aschau.at",
    "url": "http://www.apartments-aschau.at"
  },
  "name": "Ferienwohnung Apartment Anna",
  "description": [
    {
      "@language": "de",
      "@value": "Herzlich Willkommen in der Ferienwohnung Anna im ruhig gelegenen Ort Aschau in der Ersten Ferienregion Zillertal. Unsere Ferienwohnung eignet sich auch bestens für Ihren Urlaub mit Kindern. \n\nDie Ferienwohnung Anna liegt ruhig und doch zentral, nur 5 Gehminuten vom Dorfzentrum Aschau entfernt, wo Sie einen schönen Dorfplatz, Einkaufsmöglichkeiten, Bahnhof und Bushaltestelle vorfinden. Der kostenfreie Skibus hält nur 100m von unserer Ferienwohnung Anna entfernt.\n \nDie komfortable Ferienwohnung ist im ländlichen Stil eingerichtet, eignet sich für 2 - 4 Personen und befindet sich im 1. Stock mit Balkon und herrlichem Bergblick. Die kinderfreundliche Einrichtung bietet sich auch ideal für den Urlaub mit Kindern an. Die Ausstattung beinhaltet ein gemütliches Wohn/Esszimmer mit TV und kostenfreies WLan, ein Doppel- und ein Einzelbettzimmer mit Etagenbett, Bad/DU und separates WC und einer voll ausgestatteten Küche mit Geschirrspülmaschine.  \nZu den weiteren Annehmlichkeiten des Hauses gehören ein Skiraum mit Skischuhtrockner als auch ausreichende Parkplätze. Der großzügige Garten mit Laube  sowie Sandkiste und Schaukel bietet sich bestens für den Urlaub mit Kindern an.\n\nIm Sommer bietet die Erste Ferienregion Zillertal ein weites Spektrum an Freizeitaktivitäten. Viele Naturwanderwege und Radstrecken können Sie bereits von Ihrer Ferienwohnung aus starten. Im Urlaub mit Kindern ist der Freizeitpark Aufenfeld allenfalls einen Besuch wert. Dieser bietet Beachvolleyballplatz, Skaterpark, Reitanlage, einen wunderschönen Badeteich, u.v.m. Die Western Wellness Oase mit Finnischer Sauna, Bio Sauna, Soledampfbad und Infrarotkabine erfreut Erwachsene. \n\nIm Winter ist Aschau ein perfekter Ausgangspunkt für Skibegeisterte. Die top Skigebiete Hochzillertal - Hochfügen sowie die Zillertal Arena erreichen Sie in nur 5 Fahrminuten. Die beschneite Talabfahrt führt die vom Skigebiet Hochzillertal direkt nach Aschau. Bei der Talstation Hochzillertal finden Sie Einrichtungen wie Skikurs, Skiverleih und Gästekindergarten. Aber auch Nachtschwärmer kommen mit dem Apres Ski Angebot und dem Nachtskilauf auf Ihre Kosten. \n\nWir freuen uns schon jetzt, Sie bei uns in der Ferienwohnung begrüßen zu dürfen. \nIhre Familie Fankhauser\n"
    },
    {
      "@language": "de",
      "@value": "Endreinigung EUR 40.- einmalig \n\n"
    },
    {
      "@language": "en",
      "@value": "Welcome at the quietly located Anna holiday apartment in Aschau in Erste Ferienregion Zillertal. Our holiday apartment is ideally suited for your vacation with children. \n\nThe free ski bus stops only 100m away from our Anna holiday apartment. \n\nThe comfortable holiday apartment is furnished in rural style, suited for 2 - 4 persons and with its balcony offers a wonderful mountain view from the first floor. The child-friendly facilities are ideal for your holidays with children and come with a cosy living/dining room with TV and free Wifi, a double and a single bed room, a tub/shower and a separate WC, as well as a fully equipped kitchen with dishwasher.  \nAmong the further pleasures of the house are a ski room with ski boot dryer and the parking possibilities. The generous garden with summer house, barbeque area, sand box and swing is ideal for spending holidays with your children. \n\nIn summer Erste Ferienregion Zillertal offers a broad spectrum of leisure activities. Many nature hiking paths and cycle trails can directly be accessed from your holiday apartment. When spending your holidays with children the Aufenfeld recreation park is definitely worth a visit.  \n\nIn winter, Aschau is a perfect starting point for skiing enthusiasts. The top skiing areas of Hochzillertal - Hochfügen  as well as the Zillertal Arena are only 5 minutes away by car. The snow-decked valley descent leads from the Hochzillertal skiing area directly to Aschau. Near the Hochzillertal valley station you find many facilities such as ski courses, ski rentals and day-care. In addition to that, night entertainment fans will surely enjoy the après-ski and the night skiing offer. \n\nWe already look forward to welcoming you here with us at the Anna holiday apartment. \nYour hosts, the Fankhauser family\n\n"
    },
    {
      "@language": "en",
      "@value": "final cleaning EUR 30,00 - EUR 35,00\nreduction for children only on request"
    }
  ],
  "image": [
    {
      "@type": "ImageObject",
      "url": "http://resc.deskline.net/images/ZIL/1/1b7a6bc1-f28e-49ad-a066-50950487a34b/99/image.jpg",
      "caption": [
        {
          "@language": "de",
          "@value": "Apartment Anna Aschau - Haus Sommer"
        },
        {
          "@language": "en",
          "@value": "Apartment Anna Aschau - Haus Sommer"
        }
      ]
    },
    {
      "@type": "ImageObject",
      "url": "http://resc.deskline.net/images/ZIL/1/7cef4579-9483-4aeb-843f-52e1f56ad18b/99/image.jpg",
      "caption": [
        {
          "@language": "de",
          "@value": "Apartment Anna Aschau - Haus Sommer 1"
        },
        {
          "@language": "en",
          "@value": "Apartment Anna Aschau - Haus Sommer 1"
        }
      ]
    },
    {
      "@type": "ImageObject",
      "url": "http://resc.deskline.net/images/ZIL/1/331e6ad3-0fdd-48b4-8781-c70fd2035e0c/99/image.jpg",
      "caption": [
        {
          "@language": "de",
          "@value": "Apartment Anna Aschau - Haus Sommer 2"
        },
        {
          "@language": "en",
          "@value": "Apartment Anna Aschau - Haus Sommer 2"
        }
      ]
    },
    {
      "@type": "ImageObject",
      "url": "http://resc.deskline.net/images/ZIL/1/2983cd98-9e19-4a9d-8348-0f3d328e186e/99/image.jpg",
      "caption": [
        {
          "@language": "de",
          "@value": "Apartment Anna Aschau - Balkon"
        },
        {
          "@language": "en",
          "@value": "Apartment Anna Aschau - Balkon"
        }
      ]
    },
    {
      "@type": "ImageObject",
      "url": "http://resc.deskline.net/images/ZIL/1/e45ab44e-e9bf-47e9-8702-3f2ec415a17a/99/image.jpg",
      "caption": [
        {
          "@language": "de",
          "@value": "Apartment Anna Aschau - Ausblick vom Balkon"
        },
        {
          "@language": "en",
          "@value": "Apartment Anna Aschau - Ausblick vom Balkon"
        }
      ]
    },
    {
      "@type": "ImageObject",
      "url": "http://resc.deskline.net/images/ZIL/1/2dcf0410-9fe7-48c2-b0aa-0b8fc8e7a44d/99/image.jpg",
      "caption": [
        {
          "@language": "de",
          "@value": "Apartment Anna Aschau - Ausblick Winter"
        },
        {
          "@language": "en",
          "@value": "Apartment Anna Aschau - Ausblick Winter"
        }
      ]
    },
    {
      "@type": "ImageObject",
      "url": "http://resc.deskline.net/images/ZIL/1/8b5c9c8f-95be-48c5-8d8c-22e9e99574df/99/image.jpg",
      "caption": [
        {
          "@language": "de",
          "@value": "Apartment Anna Aschau - Brunnen"
        },
        {
          "@language": "en",
          "@value": "Apartment Anna Aschau - Brunnen"
        }
      ]
    },
    {
      "@type": "ImageObject",
      "url": "http://resc.deskline.net/images/ZIL/1/c2a82f91-1049-44e4-9e58-b4da902244d6/99/image.jpg",
      "caption": [
        {
          "@language": "de",
          "@value": "Apartment Anna Aschau - Garten"
        },
        {
          "@language": "en",
          "@value": "Apartment Anna Aschau - Garten"
        }
      ]
    },
    {
      "@type": "ImageObject",
      "url": "http://resc.deskline.net/images/ZIL/1/299b3105-e491-4480-8f03-4b4210748bd0/99/image.jpg",
      "caption": [
        {
          "@language": "de",
          "@value": "Apartment Anna Aschau - Gartenlaube"
        },
        {
          "@language": "en",
          "@value": "Apartment Anna Aschau - Gartenlaube"
        }
      ]
    },
    {
      "@type": "ImageObject",
      "url": "http://resc.deskline.net/images/ZIL/1/f3d13a26-f2ac-4519-99ab-a17e639cd595/99/image.jpg",
      "caption": [
        {
          "@language": "de",
          "@value": "Apartment Anna Aschau - Garten Winter"
        },
        {
          "@language": "en",
          "@value": "Apartment Anna Aschau - Garten Winter"
        }
      ]
    },
    {
      "@type": "ImageObject",
      "url": "http://resc.deskline.net/images/ZIL/1/3d2b0ac4-a8fd-4668-a609-823f8eacea46/99/image.jpg",
      "caption": [
        {
          "@language": "de",
          "@value": "Apartment Anna Aschau - Sandkiste"
        },
        {
          "@language": "en",
          "@value": "Apartment Anna Aschau - Sandkiste"
        }
      ]
    },
    {
      "@type": "ImageObject",
      "url": "http://resc.deskline.net/images/ZIL/1/7cab1186-bdd1-4df6-bbcb-2f7d9aba5298/99/image.jpg",
      "caption": [
        {
          "@language": "de",
          "@value": "Apartment Anna Aschau - Schmetterling"
        },
        {
          "@language": "en",
          "@value": "Apartment Anna Aschau - Schmetterling"
        }
      ]
    },
    {
      "@type": "ImageObject",
      "url": "http://resc.deskline.net/images/ZIL/1/a9692093-982a-4b5b-94e5-0561d0a6eb92/99/image.jpg",
      "caption": [
        {
          "@language": "de",
          "@value": "Apartment Anna Aschau - Küche"
        },
        {
          "@language": "en",
          "@value": "Apartment Anna Aschau - Küche"
        }
      ]
    },
    {
      "@type": "ImageObject",
      "url": "http://resc.deskline.net/images/ZIL/1/880c0beb-ca4b-4342-8222-e4ab93861280/99/image.jpg",
      "caption": [
        {
          "@language": "de",
          "@value": "logo"
        },
        {
          "@language": "en",
          "@value": "logo"
        }
      ]
    },
    {
      "@type": "ImageObject",
      "url": "http://resc.deskline.net/images/ZIL/1/6452b207-d0ee-4e43-97cc-6e444cc8c8cd/99/image.jpg",
      "caption": [
        {
          "@language": "de",
          "@value": "Ihre Gastgeber"
        },
        {
          "@language": "en",
          "@value": "Ihre Gastgeber"
        }
      ]
    },
    {
      "@type": "ImageObject",
      "url": "http://resc.deskline.net/images/ZIL/1/23877018-0a2d-40f0-b78c-ce930165deb8/99/image.jpg",
      "caption": [
        {
          "@language": "de",
          "@value": "Brunnen"
        },
        {
          "@language": "en",
          "@value": "Brunnen"
        }
      ]
    },
    {
      "@type": "ImageObject",
      "url": "http://resc.deskline.net/images/ZIL/1/05ee338e-0a0d-4e3b-947c-b07aff6181c6/99/image.jpg",
      "caption": [
        {
          "@language": "de",
          "@value": "Doppelzimmer"
        },
        {
          "@language": "en",
          "@value": "Doppelzimmer"
        }
      ]
    },
    {
      "@type": "ImageObject",
      "url": "http://resc.deskline.net/images/ZIL/1/6fbd1c63-b462-4bc3-9723-64cc115d218d/99/image.jpg",
      "caption": [
        {
          "@language": "de",
          "@value": "Badezimmer"
        },
        {
          "@language": "en",
          "@value": "Badezimmer"
        }
      ]
    },
    {
      "@type": "ImageObject",
      "url": "http://resc.deskline.net/images/ZIL/1/9e629649-43ab-403f-8e06-27e3547abb3d/99/image.jpg",
      "caption": [
        {
          "@language": "de",
          "@value": "Schlafzimmer"
        },
        {
          "@language": "en",
          "@value": "Schlafzimmer"
        }
      ]
    },
    {
      "@type": "ImageObject",
      "url": "http://resc.deskline.net/images/ZIL/1/d957f202-5e52-4237-885a-c08d732f4f22/99/image.jpg",
      "caption": [
        {
          "@language": "de",
          "@value": "Stockbettzimmer"
        },
        {
          "@language": "en",
          "@value": "Stockbettzimmer"
        }
      ]
    },
    {
      "@type": "ImageObject",
      "url": "http://resc.deskline.net/images/ZIL/1/3ea12b3d-3a46-4568-9f91-c1010701209c/99/image.jpg",
      "caption": [
        {
          "@language": "de",
          "@value": "Wohnzimmer"
        },
        {
          "@language": "en",
          "@value": "Wohnzimmer"
        }
      ]
    }
  ],
  "geo": {
    "@type": "GeoCoordinates",
    "latitude": "47.260263447572",
    "longitude": "11.893008414776"
  },
  "currenciesAccepted": "EUR",
  "makesOffer": [
    {
      "@type": "Offer",
      "name": [
        {
          "@language": "de",
          "@value": "Appartement/Fewo, Bad, WC, 2 Schlafräume"
        },
        {
          "@language": "en",
          "@value": "Apartment, bath, toilet, 2 bed rooms"
        }
      ],
      "description": [
        {
          "@language": "de",
          "@value": "Angenehme und komfortable Ferienwohnung im 1. Stock mit Balkon, für 2-4 Personen, 56 m², ländlich eingerichtet, 2 Schlafzimmer  mit Balkonzugang, Bauernstube mit Sat-TV, Radio und gratis W-LAN, Küche praktisch und komplett eingerichtet mit ausreichend Geschirr, (E-Herd, Backrohr, Kühlschrank, Geschirrspülmaschine, Kaffeemaschine, Mikrowelle, Wasserkocher), Badezimmer mit Dusche und WC getrennt, Bettwäsche und Handtücher inklusive. AUSGEZEICHNETES PRIVATQUARTIER!\n"
        },
        {
          "@language": "en",
          "@value": "Pleasant and comfortable holiday apartment 1st floor plus balcony for 2-4 persons, 55m2, \ncountry-style furnishings, 2 bedrooms , and entry to balcony, rustic-style room with sat-TV, radio and free W-LAN, kitchen completely equipped with stove, coffee machine, dish washer, microwave, water cooker; bath and separate WC, bed-linen and towels inclusive.\n\n"
        }
      ],
      "availability": "http://schema.org/InStock",
      "itemOffered": [
        {
          "@type": [
            "Apartment",
            "Product"
          ],
          "name": [
            {
              "@language": "de",
              "@value": "Apartment/2 Schlafräume/Bad, WC"
            },
            {
              "@language": "en",
              "@value": "apartment/2 bedrooms/bath tube, WC"
            }
          ],
          "numberOfRooms": "6.0",
          "occupancy": {
            "@type": "QuantitativeValue",
            "maxValue": "4",
            "minValue": "2"
          }
        }
      ],
      "priceSpecification": [
        {
          "@type": "PriceSpecification",
          "description": "Pax 2",
          "minPrice": "46.00",
          "maxPrice": "84.00",
          "priceCurrency": "EUR"
        },
        {
          "@type": "PriceSpecification",
          "description": "Pax 3",
          "minPrice": "68.00",
          "maxPrice": "84.00",
          "priceCurrency": "EUR"
        },
        {
          "@type": "PriceSpecification",
          "description": "Pax 4",
          "minPrice": "78.00",
          "maxPrice": "84.00",
          "priceCurrency": "EUR"
        }
      ]
    }
  ]
}