{
  "@context": "http://schema.org",
  "@type": "LodgingBusiness",
  "url": [
    "http://www.ferienanlage-eberharter.at",
    "http://maps.best-of-zillertal.at/proxy/frontend/page/fuegen/de?foreignResource\u003d3A1E23BB-E994-4209-8E2C-5E617E337CEC"
  ],
  "address": {
    "@type": "PostalAddress",
    "name": "Eberharter KG",
    "streetAddress": "Taxachgasse 21",
    "addressCountry": "AT",
    "postalCode": "6275",
    "addressRegion": "Stumm",
    "telephone": "(0043) 676 5064406",
    "email": "e.andrea@aon.at",
    "url": "http://www.ferienanlage-eberharter.at"
  },
  "name": "Ferienanlage Eberharter Stumm",
  "description": [
    {
      "@language": "de",
      "@value": "Das neue Alpendorf - Eberharter besteht aus 6 Ferienhäusern und einem Saunahaus für jeweils 2-10 Personen auf ca. 2000m2.\nEin Urlaub im neu errichteten Alpendorf - Eberharter ist Erholung und Romantik pur.\nWeitab vom Alltagsstress finden Sie Ruhe und Erholung in einer schönen Landschaft, denn - SICH WOHLFÜHLEN - in den neuen biologisch errichteten Ferienhäusern steht für die Gäste an erster Stelle.\nAuf Gemütlichkeit der Häuser wurde grosser Wert gelegt.\nDie Häuser sind ausschließlich aus ausgesuchtem Massivholz aus den Zillertaler Wäldern gefertigt, dadurch wird eine sehr hohe Qualität erreicht. \nDurch die Riegelbauweise konnte außerdem ein Standart erreicht werden, der eine außergewöhnliche Baubiologie zur Folge hat und damit ist ein ganz besonderes Wohlbefinden garantiert. Unserer Landschaft bietet jedem Winter bzw. Sommerurlaub ideale Vorraussetzungen sich richtig zu erholen. \nFür die kleine Gäste gibt es einen Kinderspielplatz, sowie einen Gartengrill mit Gartenmöbel;\nEin gut funktionierendes Skibussystem im Winter sorgt dafür, dass Ihr Urlaub zu einem unvergesslichen Erlebnis wird. Entfernung Ortszentrum: 10 Minuten zu Fuß.\nIn unmittelbarer Nähe befinden sich Attraktionen für Alt und Jung - Wildwestfort, Hallenbad, herrlicher Badesee, Minigolf, Tennisplatz, Winterwanderwege und Rodelbahnen; Bei Interesse geführter Wanderungen in unberührter Natur mit Wildbeobachtungen und auf Wunsch übernachtung in uriger Berghütte. (Nähere Auskunft auf Anfrage )."
    },
    {
      "@language": "de",
      "@value": "Kaution € 400,00\nEndreinigung € 75,00\nOrtstaxe € 1,00 pP/Tag, Kinder bis 14 Jahre sind von der Ortstaxe befreit!\nHund ohne Futter Euro 5,- pro Tag,\nBettwäsche Euro 6,-  pro Bett, obligatorisch\nStrom und Holz (Engerie)\nMüllentsorgung € 6,00 pro Sack\n"
    },
    {
      "@language": "en",
      "@value": "Welcome to our \"Alpendorf - Eberharter\"!\n\nThe new \"Alpendorf - Eberharter\" was completed at the beginning of December 2003 according to ecological guidelines.\nThere are 6 separate holiday homes and one sauna-house on appr. 2000 m2 base.\n\nHolidays in our new Alpendorf - Eberharter are pure relaxation and romance. Far from everyday life stress you find silence and recovery in a beautiful landscape.\nWellbeing in the new biologically built holiday homes ist the most important thing for our guests.\nWe attached most importance to comfort of our homes.\nAll homes are manufactured exclusively with solid wood from the Zillertal forests. In that way we could achieve very high quality. By half-timbered building we could also achieve a standard that resulted in an extraordinary building biology and guarantees a special wellbeing. Our countryside offers you ideal preconditions to relax very well.\n\nAll houses are for 10 persons - 5 bed-rooms (double-beds), 2 separate toilets, 2 separate showers, spacious living room with kitchen.\nSeparate sauna-house with rest room.\nAll houses are equipped with sufficient dishes, coffee machine, microwave, dishwasher, sat-tv, etc.\nA stove with visible fireplace offers an additional heating.\nA cot for children is offered free of charge.\nFor our young guests there is a children\u0027s playground, for adults we offer a barbecue area and garden furniture to finish evenings with a good glass of wine.\n\nA well working skibus-system in winter guarantees you a unforgettable winter holiday.\n\nDistance to the centre of the village of STUMM: 10 min. walk\n\nNear our \"Alpendorf\" you find attractions for everybody old and young, for example an adventure park with western-fort, fun-park, gold-washing, indoor pool, lake, crazy golf, tennis, etc.\nThe ski-area Hochzillertal offers 92 km of slopes of all degrees of difficulty. Winter foot-paths and toboggan runs can also be found.\nOn request we offer guided winter walks into unspoiled nature with game-observation and also overnights in a mountain hut.\n\nConvince yoursself and let your holiday-dreams come true!\nWe look forward to your stay!\n"
    },
    {
      "@language": "en",
      "@value": "Charge for final cleaning € 75,00\nDog without food EUR 5,- per day\nBed linen - change EUR 6,- per bed\nElectricity and firewood \nCaution € 400,00\nWaste € 6,00 per bag\n"
    }
  ],
  "image": [
    {
      "@type": "ImageObject",
      "url": "http://resc.deskline.net/images/ZIL/1/74a6ec5d-4c7c-41bf-8fbd-f5b027a8087c/99/image.jpg",
      "caption": [
        {
          "@language": "de",
          "@value": "Haus Sommer"
        },
        {
          "@language": "en",
          "@value": "Haus Sommer"
        }
      ]
    }
  ],
  "geo": {
    "@type": "GeoCoordinates",
    "latitude": "47.299452704113591",
    "longitude": "11.87872052192688"
  },
  "currenciesAccepted": "EUR",
  "makesOffer": [
    {
      "@type": "Offer",
      "name": [
        {
          "@language": "de",
          "@value": "Ferienhaus, Bad, WC, 4 oder mehr Schlafräume"
        },
        {
          "@language": "en",
          "@value": "Holiday home, bath, toilet, 4 or more bed rooms"
        }
      ],
      "description": [
        {
          "@language": "de",
          "@value": "Ferienanlage mit 6 Häusern für 2-10 Personen mit 5 Doppelzimmern, 2 seperate WC, 2 Duschen, großes Wohnzimmer mit Küche; Küche komplett ausgestattet mit Kaffeemaschine, Geschirrspüler, Mikrowelle, SAT-TV, ect.....\nOfen mit sichtbarer Feuerstelle.\nSeparate Sauna in der Anlage.\n\nHandtücher, Geschirrtücher bitte selbst mitbringen;\nKinderbett wird kostenlos bereitgestellt.\n"
        },
        {
          "@language": "en",
          "@value": "All houses are for 10 persons - 5 bed-rooms (double-beds), 2 separate toilets, 2 separate showers, spacious living room with kitchen.\nSeparate sauna-house with rest room.\nAll houses are equipped with sufficient dishes, coffee machine, microwave, dishwasher, sat-tv, etc.\nA stove with visible fireplace offers an additional heating.\nA cot for children is offered free of charge.\nExtra Sauna in the house.\n\nPlease bring along towels and tea-towels.\n"
        }
      ],
      "availability": "http://schema.org/InStock",
      "itemOffered": [
        {
          "@type": [
            "Apartment",
            "Product"
          ],
          "name": [
            {
              "@language": "de",
              "@value": "Ferienhaus/4 od. mehr Schlafr./Bad, WC"
            },
            {
              "@language": "en",
              "@value": "hol. house - 4 + more bedrooms/bath, WC"
            }
          ],
          "numberOfRooms": "6.0",
          "occupancy": {
            "@type": "QuantitativeValue",
            "maxValue": "10",
            "minValue": "2"
          }
        }
      ]
    }
  ]
}