{
  "@context": "http://schema.org",
  "@type": "LodgingBusiness",
  "url": [
    "http://www.ferienwohnung-hoerhager.at",
    "http://maps.best-of-zillertal.at/proxy/frontend/page/fuegen/de?foreignResource\u003d3C4193B8-9B63-432A-A9ED-DDF09F1B6D33"
  ],
  "address": {
    "@type": "PostalAddress",
    "streetAddress": "Dürrbachweg 3",
    "addressCountry": "AT",
    "postalCode": "6272",
    "addressRegion": "Kaltenbach",
    "telephone": "(0043) 5283 29254",
    "faxNumber": "(0043) 5283 2473",
    "email": "h.walter@aon.at",
    "url": "http://www.ferienwohnung-hoerhager.at"
  },
  "name": "Hörhager, Kathrin",
  "description": [
    {
      "@language": "de",
      "@value": "Privathaus in ruhiger Lage, nur wenige Gehminuten vom Zentrum entfernt, auf einer Anhöhe gelegen; direkt an der Talabfahrt bzw. der Gondelbahn gelegen."
    },
    {
      "@language": "de",
      "@value": "Endreinigung: € 15,- pro Person und Woche\n"
    },
    {
      "@language": "de",
      "@value": "Anreise ab 14:00 Uhr"
    },
    {
      "@language": "en",
      "@value": "Privately run establishment in quiet location, only a few minutes\u0027 walk from the centre, situated on a rise adjacent to the downhill run / cable car.\n\n"
    },
    {
      "@language": "en",
      "@value": "Final cleaning:\n€ 15,- per person and week"
    },
    {
      "@language": "en",
      "@value": "Checkin 02:00 pm"
    }
  ],
  "image": [
    {
      "@type": "ImageObject",
      "url": "http://resc.deskline.net/images/ZIL/1/0124a35d-e4c4-4b39-942d-dcabb0441274/99/image.jpg",
      "caption": [
        {
          "@language": "de",
          "@value": "Haus Winter"
        },
        {
          "@language": "en",
          "@value": "Haus Winter"
        }
      ]
    },
    {
      "@type": "ImageObject",
      "url": "http://resc.deskline.net/images/ZIL/1/0d096865-3287-45f5-9480-80508f73a874/99/image.jpg",
      "caption": [
        {
          "@language": "de",
          "@value": "Haus Sommer"
        },
        {
          "@language": "en",
          "@value": "Haus Sommer"
        }
      ]
    }
  ],
  "geo": {
    "@type": "GeoCoordinates",
    "latitude": "47.28814468553383",
    "longitude": "11.872894763946533"
  },
  "currenciesAccepted": "EUR",
  "makesOffer": [
    {
      "@type": "Offer",
      "name": [
        {
          "@language": "de",
          "@value": "Appartement/Fewo, Dusche, WC, 4 oder mehr Schlafräume"
        },
        {
          "@language": "en",
          "@value": "Apartment, shower, toilet, 4 or more bed rooms"
        }
      ],
      "description": [
        {
          "@language": "de",
          "@value": "Neumöblierte Wohnung mit komplett eingerichteter Wohnküche (Backrohr, Kaffeemaschine, Wasserkocher, Geschirrspüler, TV+Sat, Radio), 2 Doppelzimmer(1x mit Couch), 2 Dreibettzimmer (1 Stockbettzimmer), Bad-Dusche, WC, Abstellraum, Diele, Brötchenservice; Handtücher und Bettwäsche vorhanden. Wohnfläche 93m²."
        },
        {
          "@language": "en",
          "@value": "Newly furnished apartment with fully equipped, combined kitchen and living room (oven, coffee maker,\nkettle, dishwasher, TV Sat, radio), 2 double rooms, 2 triple rooms (1 bunk bed room), bath/shower, WC, storage room, hallway, fresh bakery service; hand towels and bed linen provided. Area: 93m².\n\n"
        }
      ],
      "availability": "http://schema.org/InStock",
      "itemOffered": [
        {
          "@type": [
            "Apartment",
            "Product"
          ],
          "name": [
            {
              "@language": "de",
              "@value": "Parterrewohnung - 4 Schlafzimmer"
            },
            {
              "@language": "en",
              "@value": "apartment/4 + more bedrooms/shower, WC"
            }
          ],
          "numberOfRooms": "5.0",
          "occupancy": {
            "@type": "QuantitativeValue",
            "maxValue": "10",
            "minValue": "7"
          }
        }
      ]
    },
    {
      "@type": "Offer",
      "name": [
        {
          "@language": "de",
          "@value": "Appartement/Fewo, Bad, WC, 4 oder mehr Schlafräume"
        },
        {
          "@language": "en",
          "@value": "Apartment, bath, toilet, 4 or more bed rooms"
        }
      ],
      "description": [
        {
          "@language": "de",
          "@value": "Ferienwohnung für 5 - 10 Personen, 103 m2, 4 Schlafzimmer (1 Doppelzimmer, 2 Dreibettzimmer, 1 Stockbettzimmer), 1 x Bad/Dusche/WC (mit Doppelwaschtisch), 1 x WC separat, Balkon beidseitig, 1 x Wohnküche komplett eingerichtet (Mikrowelle, Wasserkocher, Kaffeemaschine, Backrohr, E-Herd, Geschirrspüler, ...), Sat-TV, Radio, Abstellraum, Diele, Handtücher, Bettwäsche und Geschirrtücher vorhanden."
        },
        {
          "@language": "en",
          "@value": "apartment for 5 - 10 persons, 103 m², 4 bedrooms (1 double room, 2 triple rooms, 1 bunkbed room ), 1 x bath/shower/WC (with double washstand), 1 x WC seperate, balcony on both sides, 1 x kitchen-cum-living room completely equipped (microwave, watercook, coffee maker, oven, stove, dishwasher,...), Sat-TV, radio, storage room, towels, bed linen and dishtowels included.\n"
        }
      ],
      "availability": "http://schema.org/InStock",
      "itemOffered": [
        {
          "@type": [
            "Apartment",
            "Product"
          ],
          "name": [
            {
              "@language": "de",
              "@value": "Wohnung 1. Stock - 4 Schlafzimmer"
            },
            {
              "@language": "en",
              "@value": "apartment 1st floor"
            }
          ],
          "numberOfRooms": "5.0",
          "occupancy": {
            "@type": "QuantitativeValue",
            "maxValue": "10",
            "minValue": "6"
          }
        }
      ],
      "priceSpecification": [
        {
          "@type": "PriceSpecification",
          "description": "Pax 6",
          "minPrice": "150.00",
          "maxPrice": "150.00",
          "priceCurrency": "EUR"
        },
        {
          "@type": "PriceSpecification",
          "description": "Pax 7",
          "minPrice": "140.00",
          "maxPrice": "140.00",
          "priceCurrency": "EUR"
        },
        {
          "@type": "PriceSpecification",
          "description": "Pax 8",
          "minPrice": "160.00",
          "maxPrice": "160.00",
          "priceCurrency": "EUR"
        },
        {
          "@type": "PriceSpecification",
          "description": "Pax 9",
          "minPrice": "180.00",
          "maxPrice": "180.00",
          "priceCurrency": "EUR"
        },
        {
          "@type": "PriceSpecification",
          "description": "Pax 10",
          "minPrice": "200.00",
          "maxPrice": "200.00",
          "priceCurrency": "EUR"
        }
      ]
    },
    {
      "@type": "Offer",
      "name": [
        {
          "@language": "de",
          "@value": "Appartement/Fewo, Dusche und Bad, WC, 4 oder mehr Schlafräume"
        },
        {
          "@language": "en",
          "@value": "Apartment, shower and bath, toilet, 4 or more bed rooms"
        }
      ],
      "description": [
        {
          "@language": "de",
          "@value": "Ferienwohnung für 6-9 Personen im 2. Stock, ca. 90 - 100 m2, 4 Schlafzimmer \n( 1 Dreibettzimmer, 2 Doppelzimmer, 1 Zimmer mit Stockbetten), Bad und WC, Wohnküche komplett eingerichtet ( Kaffeemaschine, Geschirrspülmaschine, Wasserkocher), Sat-TV und Radio, Balkon."
        }
      ],
      "availability": "http://schema.org/InStock",
      "itemOffered": [
        {
          "@type": [
            "Apartment",
            "Product"
          ],
          "name": [
            {
              "@language": "de",
              "@value": "Dachwohnung - 4 Schlafzimmer"
            },
            {
              "@language": "en",
              "@value": "ap./4 + more bedrooms/shower, bath, WC"
            }
          ],
          "numberOfRooms": "5.0",
          "occupancy": {
            "@type": "QuantitativeValue",
            "maxValue": "9",
            "minValue": "6"
          }
        }
      ]
    },
    {
      "@type": "Offer",
      "name": [
        {
          "@language": "de",
          "@value": "Appartement/Fewo, Toilette und Bad/Dusche getrennt, 4 oder mehr Schlafräume"
        },
        {
          "@language": "en",
          "@value": "Apartment, separate toilet and shower/bathtub, 4 or more bed rooms"
        }
      ],
      "availability": "http://schema.org/InStock",
      "itemOffered": [
        {
          "@type": [
            "Apartment",
            "Product"
          ],
          "name": [
            {
              "@language": "de",
              "@value": "Appartement/Fewo, Toilette und Bad/Dusche getrennt"
            },
            {
              "@language": "en",
              "@value": "Apartment, separate toilet and shower/bathtub, 4 or more bed rooms"
            }
          ],
          "numberOfRooms": "5.0",
          "occupancy": {
            "@type": "QuantitativeValue",
            "maxValue": "8",
            "minValue": "6"
          }
        }
      ]
    }
  ]
}