{
  "@context": "http://schema.org",
  "@type": "LodgingBusiness",
  "url": [
    "http://"
  ],
  "address": {
    "@type": "PostalAddress",
    "streetAddress": "Bahnhofstraße 13",
    "addressCountry": "AT",
    "postalCode": "6273",
    "addressRegion": "Ried im Zillertal",
    "telephone": "(0043) 5283 2249",
    "faxNumber": "(0043) 5283 2251",
    "email": "office@hotel-pension-jaeger.at",
    "url": "http://www.ferienhaus-jaeger.at"
  },
  "name": "Ferienhaus Jäger",
  "description": [
    {
      "@language": "de",
      "@value": "Pattere: Großes Wohnzimmer mit Kabel-TV und Liegesofa, Essecke, Terrassenausgang, Überdachte Terrasse, großer Garten , Küche mit Einbau Sitzecke , Geschirrspüler, Mikrowellenherd, Herd mit Backrohr, Kühlschrank, Kaffeemaschine, Wasserkocher. WC mit Dusche, und Abstellraum.\n1. Stock:\n3 Doppelzimmer,  1 großes Bad mit Eckbadewanne, Dusche, WC, Doppelwaschbecken, Handtuchheizung, Infrarotkabine.\n2. Stock: Kinderzimmer  2 Betten mit dem Maß 160 x 200 cm. Bettwäsche und Handtücher vorhanden, Keller:  Schikeller, und Waschraum mit Waschmaschine und Trockner"
    },
    {
      "@language": "de",
      "@value": "Gebühr für WLAN: EUR 10,- pro Woche pauschal"
    },
    {
      "@language": "de",
      "@value": "Check-in: ab 14.00 Uhr\nCheck-out: bis 10.00 Uhr"
    },
    {
      "@language": "en",
      "@value": "\n\nGround floor:\nLArge living room with cable TV, couch, eating corner, exit to veranda\nVeranda with roof\nlarge garden\nKitchen with dining area, dishwasher, microwave, oven and grill, fridge, coffee machine, kettle\nWC with shower\nStore room\n \n\n\n1st floor:\n3 double bedrooms\n1 large bathroom with corner bath tub, shower, WC, double sink, towel heater\nInfrared cabin\n \n\n\n\n2nd floor:\nChildren\u0027s room with 160 x 200 cm beds\n \n\n\n\n\nCellar:\nSki cellar\nWashing room with washing machine and tumble dryer\n \n"
    },
    {
      "@language": "en",
      "@value": "fee for WIFI: EUR 10,- per week"
    },
    {
      "@language": "en",
      "@value": "Check-in: from 2.00 pm\nCheck-out: until 10.00 am"
    }
  ],
  "image": [
    {
      "@type": "ImageObject",
      "url": "http://resc.deskline.net/images/ZIL/1/42903ced-288d-4c59-8fb8-2659247dbadf/99/image.jpg",
      "caption": [
        {
          "@language": "de",
          "@value": "IMG_0057"
        },
        {
          "@language": "en",
          "@value": "IMG_0057"
        }
      ]
    },
    {
      "@type": "ImageObject",
      "url": "http://resc.deskline.net/images/ZIL/1/a901a69c-ea48-4df6-9aa1-379b2da086f9/99/image.jpg",
      "caption": [
        {
          "@language": "de",
          "@value": "IMG_0050"
        },
        {
          "@language": "en",
          "@value": "IMG_0050"
        }
      ]
    },
    {
      "@type": "ImageObject",
      "url": "http://resc.deskline.net/images/ZIL/1/3babaf94-222c-4f9d-acda-30e6af29141b/99/image.jpg",
      "caption": [
        {
          "@language": "de",
          "@value": "IMG_0161"
        },
        {
          "@language": "en",
          "@value": "IMG_0161"
        }
      ]
    },
    {
      "@type": "ImageObject",
      "url": "http://resc.deskline.net/images/ZIL/1/43c40acb-b06e-45e3-95b4-f142a05cbf19/99/image.jpg",
      "caption": [
        {
          "@language": "de",
          "@value": "IMG_0162"
        },
        {
          "@language": "en",
          "@value": "IMG_0162"
        }
      ]
    },
    {
      "@type": "ImageObject",
      "url": "http://resc.deskline.net/images/ZIL/1/7c24398e-1df1-4771-b116-026e86c3c099/99/image.jpg",
      "caption": [
        {
          "@language": "de",
          "@value": "IMG_0015"
        },
        {
          "@language": "en",
          "@value": "IMG_0015"
        }
      ]
    },
    {
      "@type": "ImageObject",
      "url": "http://resc.deskline.net/images/ZIL/1/b02f62eb-c3ad-42a6-99b8-511644d8858c/99/image.jpg",
      "caption": [
        {
          "@language": "de",
          "@value": "IMG_0006"
        },
        {
          "@language": "en",
          "@value": "IMG_0006"
        }
      ]
    },
    {
      "@type": "ImageObject",
      "url": "http://resc.deskline.net/images/ZIL/1/683cff94-2c25-4cde-84ae-826911bc8dd1/99/image.jpg",
      "caption": [
        {
          "@language": "de",
          "@value": "IMG_0069"
        },
        {
          "@language": "en",
          "@value": "IMG_0069"
        }
      ]
    },
    {
      "@type": "ImageObject",
      "url": "http://resc.deskline.net/images/ZIL/1/46eef83d-f90d-4358-8486-1c4294f65235/99/image.jpg",
      "caption": [
        {
          "@language": "de",
          "@value": "IMG_0108"
        },
        {
          "@language": "en",
          "@value": "IMG_0108"
        }
      ]
    },
    {
      "@type": "ImageObject",
      "url": "http://resc.deskline.net/images/ZIL/1/e1481616-2497-41f6-96d9-9cb92569ba13/99/image.jpg",
      "caption": [
        {
          "@language": "de",
          "@value": "IMG_0110"
        },
        {
          "@language": "en",
          "@value": "IMG_0110"
        }
      ]
    },
    {
      "@type": "ImageObject",
      "url": "http://resc.deskline.net/images/ZIL/1/41058fc3-3df3-45f6-af77-cf5363f70d48/99/image.jpg",
      "caption": [
        {
          "@language": "de",
          "@value": "IMG_0141"
        },
        {
          "@language": "en",
          "@value": "IMG_0141"
        }
      ]
    },
    {
      "@type": "ImageObject",
      "url": "http://resc.deskline.net/images/ZIL/1/8e17d49f-8780-43b8-9cdb-bec07140c234/99/image.jpg",
      "caption": [
        {
          "@language": "de",
          "@value": "IMG_0142"
        },
        {
          "@language": "en",
          "@value": "IMG_0142"
        }
      ]
    },
    {
      "@type": "ImageObject",
      "url": "http://resc.deskline.net/images/ZIL/1/16eead74-0cf6-44d1-bfd8-450c53234720/99/image.jpg",
      "caption": [
        {
          "@language": "de",
          "@value": "IMG_0104"
        },
        {
          "@language": "en",
          "@value": "IMG_0104"
        }
      ]
    },
    {
      "@type": "ImageObject",
      "url": "http://resc.deskline.net/images/ZIL/1/08ca1dcd-0224-4080-af67-46831d7665bd/99/image.jpg",
      "caption": [
        {
          "@language": "de",
          "@value": "IMG_0152"
        },
        {
          "@language": "en",
          "@value": "IMG_0152"
        }
      ]
    },
    {
      "@type": "ImageObject",
      "url": "http://resc.deskline.net/images/ZIL/1/0cb6b45a-0c94-48cd-a643-bc8206ed8be2/99/image.jpg",
      "caption": [
        {
          "@language": "de",
          "@value": "IMG_0029"
        },
        {
          "@language": "en",
          "@value": "IMG_0029"
        }
      ]
    },
    {
      "@type": "ImageObject",
      "url": "http://resc.deskline.net/images/ZIL/1/1f9053c2-c2b6-4135-bf8d-9bd2fffd45dd/99/image.jpg",
      "caption": [
        {
          "@language": "de",
          "@value": "IMG_0119"
        },
        {
          "@language": "en",
          "@value": "IMG_0119"
        }
      ]
    },
    {
      "@type": "ImageObject",
      "url": "http://resc.deskline.net/images/ZIL/1/1ee780a3-995b-490d-a467-a74944d7c35a/99/image.jpg",
      "caption": [
        {
          "@language": "de",
          "@value": "IMG_0122"
        },
        {
          "@language": "en",
          "@value": "IMG_0122"
        }
      ]
    }
  ],
  "geo": {
    "@type": "GeoCoordinates",
    "latitude": "47.3018277140083",
    "longitude": "11.8722163902268"
  },
  "paymentAccepted": [
    "MasterCard",
    "VISA"
  ],
  "currenciesAccepted": "EUR",
  "makesOffer": [
    {
      "@type": "Offer",
      "name": [
        {
          "@language": "de",
          "@value": "Appartement/Fewo, Dusche und Bad, WC"
        },
        {
          "@language": "en",
          "@value": "Apartment, shower and bath, toilet"
        }
      ],
      "availability": "http://schema.org/InStock",
      "itemOffered": [
        {
          "@type": [
            "Apartment",
            "Product"
          ],
          "name": [
            {
              "@language": "de",
              "@value": "Appartement/Fewo, Dusche und Bad, WC"
            },
            {
              "@language": "en",
              "@value": "Apartment, shower and bath, toilet"
            }
          ],
          "description": [
            {
              "@language": "de",
              "@value": "Großes Wohnzimmer mit Kabel-TV und Liegesofa, Essecke, Terrassenausgang, Überdachte Terrasse, großer Garten, Küche mit Einbau Sitzecke, Geschirrspüler, Mikrowellenherd, Herd mit Backrohr, Kühlschrank, Kaffeemaschine, Wasserkocher"
            },
            {
              "@language": "en",
              "@value": "living room with TV and sofa, dinette, covered terrasse, big garden, kitchen with fitting lounge, dishwasher, microwave, cooker and oven, fridge, coffee mashine, water boiler\n\n"
            }
          ],
          "numberOfRooms": "6.0",
          "occupancy": {
            "@type": "QuantitativeValue",
            "maxValue": "10",
            "minValue": "6"
          }
        }
      ]
    }
  ]
}