{
  "@context": "http://schema.org",
  "@type": "LodgingBusiness",
  "url": [
    "http://www.familie-hotter.at",
    "http://maps.best-of-zillertal.at/proxy/frontend/page/fuegen/de?foreignResource\u003d3ED4C311-546F-4921-BE4B-A0F1DD2323CC"
  ],
  "address": {
    "@type": "PostalAddress",
    "streetAddress": "Brunnenweg 5",
    "addressCountry": "AT",
    "postalCode": "6273",
    "addressRegion": "Ried im Zillertal",
    "faxNumber": "(0043) 5283 2508",
    "email": "info@familie-hotter.at",
    "url": "http://www.familie-hotter.at"
  },
  "name": "Grünitzerhof",
  "description": [
    {
      "@language": "de",
      "@value": "Urlaub bei uns im Grünitzerhof Zimmer mit DU/WC/SAT-TV Balkon Teeküche, Ferienwohnung für 4-5  und 8-10 Personen in sonniger und ruhiger Lage,besonders auch für Musik freunde, gemütlicher Aufenthaltsraum  Skiraum, Sonntenterrasse, Liegewiese, Grillmöglichkeit, Frühstücksbuffet mit Produkten aus der eigenen Landwirtschaft, Parkplatz. Langlaufloipe direkt am Haus, gut erreichbar ohne Schneeketten.\nSkibushaltestelle 150 m entfernt. Gasthöfe in unmittelbarer Nähe "
    },
    {
      "@language": "de",
      "@value": "Keine Haustiere erlaubt wegen Allergie !"
    },
    {
      "@language": "de",
      "@value": "GrÜnitzerhof\n \nDer Grünitzerhof liegt in der Mitte des Zillertals im Ort Ried i. Z. in ruhiger zentraler Lage. In unmittelbarer Nähe befinden sich die Langlaufloipe (bis zum Haus), Rodelbahn, sowie das Skizentrum Hochzillertal/Hochfügen und Spieljoch"
    },
    {
      "@language": "en",
      "@value": "Family-friendly bed and breakfast (farm) in sunny and quiet location, comfortable lounge with guest fridge, satellite TV, ski storage room, sun terrace, sunbathing lawn, barbecuing facilities, breakfast buffet with home-grown produce, car park, easy to reach even without snow chains, skibus stop 150 m away;\n"
    },
    {
      "@language": "en",
      "@value": "no animals possible"
    },
    {
      "@language": "en",
      "@value": "Grünitzerhof\n \nThe Grünitzerhof is in the middle of the Zillertal in Ried i. Z. in a quiet central location. In the immediate vicinity are the cross-country trail (to the house), toboggan run, and the ski center Hochzillertal / Paste and Spieljoch\n\n\n"
    }
  ],
  "image": [
    {
      "@type": "ImageObject",
      "url": "http://resc.deskline.net/images/ZIL/1/d7f87ffd-9605-435b-b663-720b3984a9b8/99/image.jpg",
      "caption": [
        {
          "@language": "de",
          "@value": "_20170120_203815"
        },
        {
          "@language": "en",
          "@value": "_20170120_203815"
        }
      ]
    },
    {
      "@type": "ImageObject",
      "url": "http://resc.deskline.net/images/ZIL/1/45ae5c57-6372-4952-846c-674bd7226d34/99/image.jpg",
      "caption": [
        {
          "@language": "de",
          "@value": "DSC_1094"
        },
        {
          "@language": "en",
          "@value": "DSC_1094"
        }
      ]
    },
    {
      "@type": "ImageObject",
      "url": "http://resc.deskline.net/images/ZIL/1/f1bc526b-314c-43fa-a70b-48c151aab923/99/image.jpg",
      "caption": [
        {
          "@language": "de",
          "@value": "DSC_1090"
        },
        {
          "@language": "en",
          "@value": "DSC_1090"
        }
      ]
    },
    {
      "@type": "ImageObject",
      "url": "http://resc.deskline.net/images/ZIL/1/6007238c-ac0a-4f2b-a7d8-fcdf9c1f7920/99/image.jpg",
      "caption": [
        {
          "@language": "de",
          "@value": "DSC_1106 (2)"
        },
        {
          "@language": "en",
          "@value": "DSC_1106 (2)"
        }
      ]
    },
    {
      "@type": "ImageObject",
      "url": "http://resc.deskline.net/images/ZIL/1/eb171d07-5aff-4df3-917c-8f05374e1015/99/image.jpg",
      "caption": [
        {
          "@language": "de",
          "@value": "15874957_1404701569562625_5936757341602701358_o[1]"
        },
        {
          "@language": "en",
          "@value": "15874957_1404701569562625_5936757341602701358_o[1]"
        }
      ]
    },
    {
      "@type": "ImageObject",
      "url": "http://resc.deskline.net/images/ZIL/1/aa230fd6-caec-45a9-aadf-6726a854cd7c/99/image.jpg",
      "caption": [
        {
          "@language": "de",
          "@value": "Wedelhütte"
        },
        {
          "@language": "en",
          "@value": "Wedelhütte"
        }
      ]
    },
    {
      "@type": "ImageObject",
      "url": "http://resc.deskline.net/images/ZIL/1/76c2a8fb-fa80-489a-9f33-929b50ee193c/99/image.jpg",
      "caption": [
        {
          "@language": "de",
          "@value": "FB_IMG_1484900977351"
        },
        {
          "@language": "en",
          "@value": "FB_IMG_1484900977351"
        }
      ]
    },
    {
      "@type": "ImageObject",
      "url": "http://resc.deskline.net/images/ZIL/1/5cfa35ec-bdc2-491c-938d-630ff9d891b9/99/image.jpg",
      "caption": [
        {
          "@language": "de",
          "@value": "DSC_1087"
        },
        {
          "@language": "en",
          "@value": "DSC_1087"
        }
      ]
    },
    {
      "@type": "ImageObject",
      "url": "http://resc.deskline.net/images/ZIL/1/4bd8990e-1413-4987-a252-f5967fe6a9b3/99/image.jpg",
      "caption": [
        {
          "@language": "de",
          "@value": "DSC_0492"
        },
        {
          "@language": "en",
          "@value": "DSC_0492"
        }
      ]
    },
    {
      "@type": "ImageObject",
      "url": "http://resc.deskline.net/images/ZIL/1/6f8c8a6c-9956-40cf-bf8e-24d89eeff7f2/99/image.jpg",
      "caption": [
        {
          "@language": "de",
          "@value": "Haus Winter"
        },
        {
          "@language": "en",
          "@value": "Haus Winter"
        }
      ]
    },
    {
      "@type": "ImageObject",
      "url": "http://resc.deskline.net/images/ZIL/1/ca559010-aace-41ba-a02e-f255b6ec7de1/99/image.jpg",
      "caption": [
        {
          "@language": "de",
          "@value": "DSC_1104"
        },
        {
          "@language": "en",
          "@value": "DSC_1104"
        }
      ]
    },
    {
      "@type": "ImageObject",
      "url": "http://resc.deskline.net/images/ZIL/1/5a0c3110-fc73-4533-aa30-28fde824bb77/99/image.jpg",
      "caption": [
        {
          "@language": "de",
          "@value": "DSC_1098 (3)"
        },
        {
          "@language": "en",
          "@value": "DSC_1098 (3)"
        }
      ]
    },
    {
      "@type": "ImageObject",
      "url": "http://resc.deskline.net/images/ZIL/1/1174baab-8ee0-4454-a058-de7f0f724432/99/image.jpg",
      "caption": [
        {
          "@language": "de",
          "@value": "Marendalm Hochzillertal"
        },
        {
          "@language": "en",
          "@value": "Marendalm Hochzillertal"
        }
      ]
    },
    {
      "@type": "ImageObject",
      "url": "http://resc.deskline.net/images/ZIL/1/ddf1480f-c3f9-4a42-9258-18d1c7007ec2/99/image.jpg",
      "caption": [
        {
          "@language": "de",
          "@value": "IMG_0927"
        },
        {
          "@language": "en",
          "@value": "IMG_0927"
        }
      ]
    },
    {
      "@type": "ImageObject",
      "url": "http://resc.deskline.net/images/ZIL/1/1c8215bf-78b5-4b29-a914-e46ec2a95d42/99/image.jpg",
      "caption": [
        {
          "@language": "de",
          "@value": "Anreisekarte"
        },
        {
          "@language": "en",
          "@value": "Anreisekarte"
        }
      ]
    },
    {
      "@type": "ImageObject",
      "url": "http://resc.deskline.net/images/ZIL/1/60fa2db9-3050-455b-87a8-41e1cf043178/99/image.jpg",
      "caption": [
        {
          "@language": "de",
          "@value": "35652c1cac5b5639[1]"
        },
        {
          "@language": "en",
          "@value": "35652c1cac5b5639[1]"
        }
      ]
    },
    {
      "@type": "ImageObject",
      "url": "http://resc.deskline.net/images/ZIL/1/d093a535-56d1-4aa6-a214-9e3f52d81812/99/image.jpg",
      "caption": [
        {
          "@language": "de",
          "@value": "DSC_0803"
        },
        {
          "@language": "en",
          "@value": "DSC_0803"
        }
      ]
    },
    {
      "@type": "ImageObject",
      "url": "http://resc.deskline.net/images/ZIL/1/49d62bc6-640f-4f0f-9306-5979bdbfbf7d/99/image.jpg",
      "caption": [
        {
          "@language": "de",
          "@value": "DSC_0764"
        },
        {
          "@language": "en",
          "@value": "DSC_0764"
        }
      ]
    },
    {
      "@type": "ImageObject",
      "url": "http://resc.deskline.net/images/ZIL/1/e7448648-105a-4947-bb82-b970aa6657a1/99/image.jpg",
      "caption": [
        {
          "@language": "de",
          "@value": "DSC_1074 (2)"
        },
        {
          "@language": "en",
          "@value": "DSC_1074 (2)"
        }
      ]
    },
    {
      "@type": "ImageObject",
      "url": "http://resc.deskline.net/images/ZIL/1/02508380-cf10-4802-af8f-f00e070652e4/99/image.jpg",
      "caption": [
        {
          "@language": "de",
          "@value": "DSC_0633"
        },
        {
          "@language": "en",
          "@value": "DSC_0633"
        }
      ]
    },
    {
      "@type": "ImageObject",
      "url": "http://resc.deskline.net/images/ZIL/1/18f808a6-f3ce-47f6-864c-9cd4fa96e57d/99/image.jpg",
      "caption": [
        {
          "@language": "de",
          "@value": "IMG_6962"
        },
        {
          "@language": "en",
          "@value": "IMG_6962"
        }
      ]
    },
    {
      "@type": "ImageObject",
      "url": "http://resc.deskline.net/images/ZIL/1/8a3eb475-673f-4a8c-bd61-af9aab81ece9/99/image.jpg",
      "caption": [
        {
          "@language": "de",
          "@value": "DSC_0775"
        },
        {
          "@language": "en",
          "@value": "DSC_0775"
        }
      ]
    },
    {
      "@type": "ImageObject",
      "url": "http://resc.deskline.net/images/ZIL/1/1f5465b7-e031-46d0-8c53-87f689073fb0/99/image.jpg",
      "caption": [
        {
          "@language": "de",
          "@value": "10177395_10153118073240194_3193499709605388849_n[1"
        },
        {
          "@language": "en",
          "@value": "10177395_10153118073240194_3193499709605388849_n[1"
        }
      ]
    },
    {
      "@type": "ImageObject",
      "url": "http://resc.deskline.net/images/ZIL/1/99f38e42-6637-45b0-9348-a0ecafe7e431/99/image.jpg",
      "caption": [
        {
          "@language": "de",
          "@value": "DSC_0672"
        },
        {
          "@language": "en",
          "@value": "DSC_0672"
        }
      ]
    },
    {
      "@type": "ImageObject",
      "url": "http://resc.deskline.net/images/ZIL/1/efbd81d1-2406-4775-91c2-f0f62103f636/99/image.jpg",
      "caption": [
        {
          "@language": "de",
          "@value": "DSC_0671"
        },
        {
          "@language": "en",
          "@value": "DSC_0671"
        }
      ]
    },
    {
      "@type": "ImageObject",
      "url": "http://resc.deskline.net/images/ZIL/1/445b38b2-9c70-4181-8031-0734c021968f/99/image.jpg",
      "caption": [
        {
          "@language": "de",
          "@value": "DSC_0673"
        },
        {
          "@language": "en",
          "@value": "DSC_0673"
        }
      ]
    },
    {
      "@type": "ImageObject",
      "url": "http://resc.deskline.net/images/ZIL/1/1c7bc8ca-8f91-4f45-a39a-53877010e77b/99/image.jpg",
      "caption": [
        {
          "@language": "de",
          "@value": "IMG_1105"
        },
        {
          "@language": "en",
          "@value": "IMG_1105"
        }
      ]
    },
    {
      "@type": "ImageObject",
      "url": "http://resc.deskline.net/images/ZIL/1/b59e8112-2813-45c2-a1c0-705b62955ad9/99/image.jpg",
      "caption": [
        {
          "@language": "de",
          "@value": "IMG_2440"
        },
        {
          "@language": "en",
          "@value": "IMG_2440"
        }
      ]
    },
    {
      "@type": "ImageObject",
      "url": "http://resc.deskline.net/images/ZIL/1/07051cf1-102e-4f96-8dae-04a1438ab582/99/image.jpg",
      "caption": [
        {
          "@language": "de",
          "@value": "golfplatz-uderns-zillertal[1]"
        },
        {
          "@language": "en",
          "@value": "golfplatz-uderns-zillertal[1]"
        }
      ]
    },
    {
      "@type": "ImageObject",
      "url": "http://resc.deskline.net/images/ZIL/1/8fe9d912-905e-4538-8c17-da1b5dca6fba/99/image.jpg",
      "caption": [
        {
          "@language": "de",
          "@value": "20140915_151329"
        },
        {
          "@language": "en",
          "@value": "20140915_151329"
        }
      ]
    },
    {
      "@type": "ImageObject",
      "url": "http://resc.deskline.net/images/ZIL/1/7441ba69-a041-4dea-acb4-b68e96e5afe8/99/image.jpg",
      "caption": [
        {
          "@language": "de",
          "@value": "DSC_0674"
        },
        {
          "@language": "en",
          "@value": "DSC_0674"
        }
      ]
    }
  ],
  "geo": {
    "@type": "GeoCoordinates",
    "latitude": "47.303993340541",
    "longitude": "11.86710048872"
  },
  "currenciesAccepted": "EUR",
  "makesOffer": [
    {
      "@type": "Offer",
      "name": [
        {
          "@language": "de",
          "@value": "Doppelzimmer, Dusche, WC"
        },
        {
          "@language": "en",
          "@value": "Double room, shower, toilet"
        }
      ],
      "description": [
        {
          "@language": "de",
          "@value": "Rustikale, komfortable Gästezimmer mit DU/WC/SAT-TV, Föhn und Balkon (2 Zimmer mit eingebauter Teeküche);"
        },
        {
          "@language": "en",
          "@value": "Traditional, comfortably appointed guest rooms with shower, WC/Satellite-TV, hair dryer and balcony (2 room  with tea kitchen);"
        }
      ],
      "availability": "http://schema.org/InStock",
      "itemOffered": [
        {
          "@type": [
            "HotelRoom",
            "Product"
          ],
          "name": [
            {
              "@language": "de",
              "@value": "Doppelzimmer mit Dusche, WC"
            },
            {
              "@language": "en",
              "@value": "double room with shower, WC"
            }
          ],
          "bed": {
            "@type": "BedDetails",
            "numberOfBeds": "1"
          },
          "occupancy": {
            "@type": "QuantitativeValue",
            "maxValue": "2",
            "minValue": "1"
          }
        }
      ]
    },
    {
      "@type": "Offer",
      "name": [
        {
          "@language": "de",
          "@value": "Doppelzimmer, Dusche, WC"
        },
        {
          "@language": "en",
          "@value": "Double room, shower, toilet"
        }
      ],
      "description": [
        {
          "@language": "de",
          "@value": "Rustikale, komfortable Gästezimmer mit Dusche, WC/SAT-TV, Föhn und Balkon, besonders geeignet als Familienzimmer (2 Zimmer mit Teeküche: 1 Herdplatte, Kaffeemaschine, Wasserkocher und Kühlschrank);"
        },
        {
          "@language": "en",
          "@value": "Traditional, comfortably appointed guest rooms with shower/WC/satellite-TV, hair dryer and balcony; (2 room with tea kitchen: refigerator, water-cooker, coffee-machine);"
        }
      ],
      "availability": "http://schema.org/InStock",
      "itemOffered": [
        {
          "@type": [
            "HotelRoom",
            "Product"
          ],
          "name": [
            {
              "@language": "de",
              "@value": "Doppelzimmer mit Dusche, WC"
            },
            {
              "@language": "en",
              "@value": "double room with shower, WC"
            }
          ],
          "bed": {
            "@type": "BedDetails",
            "numberOfBeds": "1"
          },
          "occupancy": {
            "@type": "QuantitativeValue",
            "maxValue": "3",
            "minValue": "2"
          }
        }
      ],
      "priceSpecification": [
        {
          "@type": "PriceSpecification",
          "description": "Pax 2",
          "minPrice": "28.00",
          "maxPrice": "33.00",
          "priceCurrency": "EUR"
        },
        {
          "@type": "PriceSpecification",
          "description": "Pax 3",
          "minPrice": "25.00",
          "maxPrice": "33.00",
          "priceCurrency": "EUR"
        }
      ]
    },
    {
      "@type": "Offer",
      "name": [
        {
          "@language": "de",
          "@value": "Dreibettzimmer, Dusche, WC"
        },
        {
          "@language": "en",
          "@value": "Triple room, shower, toilet"
        }
      ],
      "description": [
        {
          "@language": "de",
          "@value": "Zimmer mit Dusche/WC, Sat-TV und Balkon, Teeküche: 1 Herdplatte, Wasserkocher, Kaffeemaschine und Kühlschrank!"
        },
        {
          "@language": "en",
          "@value": "room with shower/wc, sat-tv and balcony, water-cooker, coffee-machine, refrigerator!"
        }
      ],
      "availability": "http://schema.org/InStock",
      "itemOffered": [
        {
          "@type": [
            "HotelRoom",
            "Product"
          ],
          "name": [
            {
              "@language": "de",
              "@value": "Dreibettzimmer mit Dusche, WC"
            },
            {
              "@language": "en",
              "@value": "triple room with shower, WC"
            }
          ],
          "bed": {
            "@type": "BedDetails",
            "numberOfBeds": "1"
          },
          "occupancy": {
            "@type": "QuantitativeValue",
            "maxValue": "3",
            "minValue": "2"
          }
        }
      ],
      "priceSpecification": [
        {
          "@type": "PriceSpecification",
          "description": "Pax 2",
          "minPrice": "28.00",
          "maxPrice": "33.00",
          "priceCurrency": "EUR"
        },
        {
          "@type": "PriceSpecification",
          "description": "Pax 3",
          "minPrice": "25.00",
          "maxPrice": "30.00",
          "priceCurrency": "EUR"
        }
      ]
    },
    {
      "@type": "Offer",
      "name": [
        {
          "@language": "de",
          "@value": "Appartement/Fewo, Bad, WC, 4 oder mehr Schlafräume"
        },
        {
          "@language": "en",
          "@value": "Apartment, bath, toilet, 4 or more bed rooms"
        }
      ],
      "description": [
        {
          "@language": "de",
          "@value": "Gemütliche, im ländlichen Stil eingerichtete Ferienwohnung für 9-10 Personen mit Wohnküche (Kaffeemaschine, Herd, Micro, Wasserkocher, Geschirrspülmaschine,\nKühlschrank etc.), 1 Doppelzimmer mit Zustellbett oder Vierbett, DU/WC/SAT-TV, Föhn, Balkon, DU/WC/SAT-TV, Föhn, Balkon, 3 Doppelzimmer mit je DU/WC/SAT-TV und Föhn, 2 WC separat,  Handtücher und Bettwäsche sind vorhanden. Alle Zimmer mit DU/WC. \n\nAusserhalb der Wohnung noch erweiterbar mit 1 Dreibettlzimmern mit DU/WC, SAT-TV, Föhn, teilweise Balkon;\n\n"
        },
        {
          "@language": "en",
          "@value": "Country-style furnished holiday apartment for 9-10 persons with fully equipped combined kitchen and living room (coofee maker, water cooker, dish washer, microwave, electric cooker etc.), 2 double rooms with camp bed or a fourbedroom, shower/WC/satellite-TV, hair dryer and balcony, 3 double rooms with shower/WC/satellite-TV and hair dryer; 2 WC separeted; all rooms with shower and toilet. \nbed linen and hand towels inclusive;\n\n"
        }
      ],
      "availability": "http://schema.org/InStock",
      "itemOffered": [
        {
          "@type": [
            "Apartment",
            "Product"
          ],
          "name": [
            {
              "@language": "de",
              "@value": "Ap./4 od. mehr Schlafräume/Bad, WC"
            },
            {
              "@language": "en",
              "@value": "apartment/4 + more bedrooms/bath tube,WC"
            }
          ],
          "numberOfRooms": "5.0",
          "occupancy": {
            "@type": "QuantitativeValue",
            "maxValue": "10",
            "minValue": "8"
          }
        }
      ],
      "priceSpecification": [
        {
          "@type": "PriceSpecification",
          "description": "Pax 8",
          "minPrice": "200.00",
          "maxPrice": "225.00",
          "priceCurrency": "EUR"
        },
        {
          "@type": "PriceSpecification",
          "description": "Pax 9",
          "minPrice": "225.00",
          "maxPrice": "250.00",
          "priceCurrency": "EUR"
        },
        {
          "@type": "PriceSpecification",
          "description": "Pax 10",
          "minPrice": "250.00",
          "maxPrice": "250.00",
          "priceCurrency": "EUR"
        }
      ]
    },
    {
      "@type": "Offer",
      "name": [
        {
          "@language": "de",
          "@value": "Appartement/Fewo, Dusche, WC, 2 Schlafräume"
        },
        {
          "@language": "en",
          "@value": "Apartment, shower, toilet, 2 bed rooms"
        }
      ],
      "description": [
        {
          "@language": "de",
          "@value": "Ländlich eingerichtete Ferienwohnung für 4-6 Personen mit komplett eingerichteter Wohnküche (Kaffeemaschine, Herd m. Backrohr, Wasserkocher, Geschirrspülmaschine, Kühlschrank mit Gefrierfach), 1 Doppelzimmer mit Zustellbett, DU/WC und SAT-TV, Föhn; 1 Dreibettzimmer mit Zustellbett und DU/WC und SAT-TV, Föhn, Balkon. Alle Zimmer mit DU/WC. Handtücher und Bettwäsche vorhanden.\n\n"
        },
        {
          "@language": "en",
          "@value": "Country-style furnished holiday apartment for 4-6 persons with fully equipped, combined kitchen and living room (coffee maker, oven, water cooker, dish washer etc.), 1 double room with camp bed, shower/WC and TV; 1 triple room with camp bed and shower/WC, balcony. All rooms with shower and toilet. Hand towels and bed linen provided.\n\n"
        }
      ],
      "availability": "http://schema.org/InStock",
      "itemOffered": [
        {
          "@type": [
            "Apartment",
            "Product"
          ],
          "name": [
            {
              "@language": "de",
              "@value": "Apartment/2 Schlafräume/Dusche, WC"
            },
            {
              "@language": "en",
              "@value": "apartment/2 bedrooms/shower, WC"
            }
          ],
          "numberOfRooms": "3.0",
          "occupancy": {
            "@type": "QuantitativeValue",
            "maxValue": "5",
            "minValue": "4"
          }
        }
      ],
      "priceSpecification": [
        {
          "@type": "PriceSpecification",
          "description": "Pax 4",
          "minPrice": "110.00",
          "maxPrice": "110.00",
          "priceCurrency": "EUR"
        },
        {
          "@type": "PriceSpecification",
          "description": "Pax 5",
          "minPrice": "120.00",
          "maxPrice": "120.00",
          "priceCurrency": "EUR"
        }
      ]
    }
  ]
}