{
  "@context": "http://schema.org",
  "@type": "BedAndBreakfast",
  "url": [
    "http://maps.best-of-zillertal.at/proxy/frontend/page/fuegen/de?foreignResource\u003d40E9207E-B6CE-4F35-916A-39B6C6F13E83"
  ],
  "address": {
    "@type": "PostalAddress",
    "streetAddress": "Dorfstraße 5",
    "addressCountry": "AT",
    "postalCode": "6272",
    "addressRegion": "Kaltenbach",
    "telephone": "(0043) 5283 3744"
  },
  "name": "Strobl, Silvia",
  "description": [
    {
      "@language": "de",
      "@value": "Rustikales Haus in zentraler Lage beim Musikpavillon, Dorfmitte, nahe der Talstation der Bergbahn Hochzillertal, Terrasse, Liegewiese, Südbalkone, Parkplatz, Skiraum, Teeküche mit Fernseher, Hunde nicht erlaubt."
    },
    {
      "@language": "de",
      "@value": "Kinderermäßigung auf Anfrage!"
    },
    {
      "@language": "en",
      "@value": "Rustic house with central location close to the music pavillon, in the village center, cable-car station Hochzillertal (Kaltenbach) nearby, terrace, sunbathing lawn, balkony, car park, ski room, tea kitchen with television."
    },
    {
      "@language": "en",
      "@value": "Children reduction on request!"
    }
  ],
  "image": [
    {
      "@type": "ImageObject",
      "url": "http://resc.deskline.net/images/ZIL/1/2412441a-84c2-49ac-8bae-b29476ad9dd1/99/image.jpg",
      "caption": [
        {
          "@language": "de",
          "@value": "Strobl Silvia außen"
        },
        {
          "@language": "en",
          "@value": "Strobl Silvia außen"
        }
      ]
    }
  ],
  "geo": {
    "@type": "GeoCoordinates",
    "latitude": "47.291943401628721",
    "longitude": "11.873576045036316"
  },
  "currenciesAccepted": "EUR",
  "makesOffer": [
    {
      "@type": "Offer",
      "name": [
        {
          "@language": "de",
          "@value": "Einzelzimmer, fl. k/w Wasser"
        },
        {
          "@language": "en",
          "@value": "Single room, running hot/cold water"
        }
      ],
      "description": [
        {
          "@language": "de",
          "@value": "Einzelzimmer mit Waschbecken, Balkon, Zimmer mit Satanschluss und Etagendusche und Wecker"
        },
        {
          "@language": "en",
          "@value": "Single room with running water, balcony, shower on the floor and alarmclock"
        }
      ],
      "availability": "http://schema.org/InStock",
      "itemOffered": [
        {
          "@type": [
            "HotelRoom",
            "Product"
          ],
          "name": [
            {
              "@language": "de",
              "@value": "Einzelzimmer mit fl. Wasser"
            },
            {
              "@language": "en",
              "@value": "single room with running hot/cold water"
            }
          ],
          "bed": {
            "@type": "BedDetails",
            "numberOfBeds": "1"
          },
          "occupancy": {
            "@type": "QuantitativeValue",
            "maxValue": "1",
            "minValue": "1"
          }
        }
      ]
    },
    {
      "@type": "Offer",
      "name": [
        {
          "@language": "de",
          "@value": "Doppelzimmer, fl. k/w Wasser"
        },
        {
          "@language": "en",
          "@value": "Double room, running hot/cold water"
        }
      ],
      "description": [
        {
          "@language": "de",
          "@value": "Doppelzimmer mit eigenem WC, Waschbecken, Dusche am Gang, Satanschluss, Wecker und Balkon."
        },
        {
          "@language": "en",
          "@value": "double room with own toilet, running water, shower on the floor, balcony and alarm clock."
        }
      ],
      "availability": "http://schema.org/InStock",
      "itemOffered": [
        {
          "@type": [
            "HotelRoom",
            "Product"
          ],
          "name": [
            {
              "@language": "de",
              "@value": "Doppelzimmer mit fl. Wasser"
            },
            {
              "@language": "en",
              "@value": "double room with running hot/cold water"
            }
          ],
          "bed": {
            "@type": "BedDetails",
            "numberOfBeds": "1"
          },
          "occupancy": {
            "@type": "QuantitativeValue",
            "maxValue": "2",
            "minValue": "2"
          }
        }
      ]
    }
  ]
}