{
  "@context": "http://schema.org",
  "@type": "LodgingBusiness",
  "url": [
    "http://www.ferienwohnungen-annemarie.at",
    "http://maps.best-of-zillertal.at/proxy/frontend/page/fuegen/de?foreignResource\u003d40ED663F-434F-46FA-BA65-538527211D69"
  ],
  "address": {
    "@type": "PostalAddress",
    "streetAddress": "Hechtweg 1",
    "addressCountry": "AT",
    "postalCode": "6274",
    "addressRegion": "Aschau im Zillertal",
    "telephone": "(0043) 5282 4884",
    "faxNumber": "(0043) 5282 4884",
    "email": "ferienwohnungen.annemarie@googlemail.com"
  },
  "name": "Gruber, Annemarie",
  "description": [
    {
      "@language": "de",
      "@value": "Das gemütliche Privathaus liegt in ruhiger Lage ca. 5 Gehminuten vom Ortszentrum. Gratis Skibus-Haltestelle ist 2 Gehminuten entfernt,  große Liegewiese mit Grillplatz, Kinderspielplatz mit Spielsachen, Schwimmbecken (3 x 7 m, 1,4 m tief) Brötchenservice möglich."
    },
    {
      "@language": "de",
      "@value": "Endreinigung für 2-4 Personen EURO 26,-\nEndreinigung für 8 Personen EURO 44,-\nHunde auf Anfrage - EURO 3,- pT ohne Futter\nZusätzliches Dreibettzimmer mit DU/WC zu jeder Wohnung buchbar - Preis auf Anfrage."
    },
    {
      "@language": "de",
      "@value": ""
    },
    {
      "@language": "en",
      "@value": "This comfortable, privately run establishment is situated in a quiet location approx. 5 minutes\u0027 walk from the centre. Free ski bus stop just 2 minutes\u0027 walk away, large sunbathing lawn with barbecue area, children\u0027s playground with toys and playthings, swimmingpool 3 x 7 m, 1,4m deep, fresh bakery service available.\n"
    },
    {
      "@language": "en",
      "@value": "Final cleaning charge for 2-4 persons EUR 26.00 \nFinal cleaning charge for 8 persons EUR 44.00 \nDogs subject to prior arrangement - EUR 3.00 per day without food \nAdditional triple room with  shower/WC can be reserved for each apartment - Prices available upon request.\n"
    }
  ],
  "image": [
    {
      "@type": "ImageObject",
      "url": "http://resc.deskline.net/images/ZIL/1/22f7a21b-0929-4d25-a61e-3a8095bf5bea/99/image.jpg",
      "caption": [
        {
          "@language": "de",
          "@value": "IMG_1959"
        },
        {
          "@language": "en",
          "@value": "IMG_1959"
        }
      ]
    },
    {
      "@type": "ImageObject",
      "url": "http://resc.deskline.net/images/ZIL/1/5a4ac856-4e59-4b9a-8d88-e14b99103e80/99/image.jpg",
      "caption": [
        {
          "@language": "de",
          "@value": "IMG_1973"
        },
        {
          "@language": "en",
          "@value": "IMG_1973"
        }
      ]
    },
    {
      "@type": "ImageObject",
      "url": "http://resc.deskline.net/images/ZIL/1/c3838074-252d-4501-a7bc-931d82db2900/99/image.jpg",
      "caption": [
        {
          "@language": "de",
          "@value": "garten"
        },
        {
          "@language": "en",
          "@value": "garten"
        }
      ]
    },
    {
      "@type": "ImageObject",
      "url": "http://resc.deskline.net/images/ZIL/1/d51dcf02-accd-447f-9514-af19a0ec5ea3/99/image.jpg",
      "caption": [
        {
          "@language": "de",
          "@value": "haus"
        },
        {
          "@language": "en",
          "@value": "haus"
        }
      ]
    },
    {
      "@type": "ImageObject",
      "url": "http://resc.deskline.net/images/ZIL/1/30270a87-a91e-4221-98c1-594fbea730d6/99/image.jpg",
      "caption": [
        {
          "@language": "de",
          "@value": "garten_3"
        },
        {
          "@language": "en",
          "@value": "garten_3"
        }
      ]
    }
  ],
  "geo": {
    "@type": "GeoCoordinates",
    "latitude": "47.2585825205364",
    "longitude": "11.892904043197632"
  },
  "currenciesAccepted": "EUR",
  "makesOffer": [
    {
      "@type": "Offer",
      "name": [
        {
          "@language": "de",
          "@value": "Appartement/Fewo, Dusche und Bad, WC, 3 Schlafräume"
        },
        {
          "@language": "en",
          "@value": "Apartment, shower and bath, toilet, 3 bed rooms"
        }
      ],
      "description": [
        {
          "@language": "de",
          "@value": "Ferienwohnung mit ca. 110m² für 4-7 Personen, Küche mit großem Essplatz, Couchgarnitur, SAT-TV (Plattenherd, Backrohr, Wasserkocher,..), 2 große Dreibettzimmer, 1 Doppelzimmer, 1xBad/WC, 1x DU/WC, geräumiger Flur, rundherum Balkon. Bei 4 Personen nur 1xDU/WC! Bettwäsche vorhanden, Handtücher bitte selber mitbringen!"
        },
        {
          "@language": "en",
          "@value": "Holiday apartment with approx. 110m2 for 4-7 persons, kitchen with large eating area, suite of furniture,\nsatellite TV (hotplate cooker, oven, kettle,..), 2 large triple rooms, 1 double room, 1x bath/WC, 1x shower/WC, spacious hall, balcony all way round. For 4 persons only 1x shower/WC! Hand towels and bed linen provided.\n"
        }
      ],
      "availability": "http://schema.org/InStock",
      "itemOffered": [
        {
          "@type": [
            "Apartment",
            "Product"
          ],
          "name": [
            {
              "@language": "de",
              "@value": "Appartement 1"
            },
            {
              "@language": "en",
              "@value": "apartment 1"
            }
          ],
          "numberOfRooms": "6.0",
          "occupancy": {
            "@type": "QuantitativeValue",
            "maxValue": "7",
            "minValue": "4"
          }
        }
      ],
      "priceSpecification": [
        {
          "@type": "PriceSpecification",
          "description": "Pax 4",
          "minPrice": "65.00",
          "maxPrice": "65.00",
          "priceCurrency": "EUR"
        },
        {
          "@type": "PriceSpecification",
          "description": "Pax 5",
          "minPrice": "80.00",
          "maxPrice": "80.00",
          "priceCurrency": "EUR"
        },
        {
          "@type": "PriceSpecification",
          "description": "Pax 6",
          "minPrice": "95.00",
          "maxPrice": "95.00",
          "priceCurrency": "EUR"
        },
        {
          "@type": "PriceSpecification",
          "description": "Pax 7",
          "minPrice": "110.00",
          "maxPrice": "110.00",
          "priceCurrency": "EUR"
        }
      ]
    },
    {
      "@type": "Offer",
      "name": [
        {
          "@language": "de",
          "@value": "Appartement/Fewo, Dusche, WC, 3 Schlafräume"
        },
        {
          "@language": "en",
          "@value": "Apartment, shower, toilet, 3 bed rooms"
        }
      ],
      "description": [
        {
          "@language": "de",
          "@value": "Ferienwohnung mit ca. 85m² für 4-6 Personen; Gemütlicher Wohnraum mit SAT-TV, Küchenblock (Geschirrspüler und Kühlschrank mit Gefrierfach) mit Essplatz, 3 Doppelzimmer (davon 2x DU/WC), Balkon. Bettwäsche vorhanden. Handtücher bitte selber mitbringen!"
        },
        {
          "@language": "en",
          "@value": "Holiday apartment with approx. 85m2 for 4-6 persons; cosy living room with satellite TV, kitchen unit with eating area, tiled stove, 3 double rooms, 2x shower/WC, balcony. Hand towels and bed linen provided.\n"
        }
      ],
      "availability": "http://schema.org/InStock",
      "itemOffered": [
        {
          "@type": [
            "Apartment",
            "Product"
          ],
          "name": [
            {
              "@language": "de",
              "@value": "Apartment 2"
            },
            {
              "@language": "en",
              "@value": "apartment 2"
            }
          ],
          "numberOfRooms": "5.0",
          "occupancy": {
            "@type": "QuantitativeValue",
            "maxValue": "6",
            "minValue": "4"
          }
        }
      ]
    },
    {
      "@type": "Offer",
      "name": [
        {
          "@language": "de",
          "@value": "Appartement/Fewo, Dusche, WC"
        },
        {
          "@language": "en",
          "@value": "Apartment, shower, toilet"
        }
      ],
      "description": [
        {
          "@language": "de",
          "@value": "Ferienwohnung mit ca. 26m² für 2 Personen; Gemütlicher Wohn-Schlafraum mit SAT-TV, Küchenblock mit Essplatz, Kachelofen, DU/WC, grosse Terrasse.  Bettwäsche vorhanden. Handtücher bitte selber mitbringen!"
        },
        {
          "@language": "en",
          "@value": "Holiday apartment with approx. 26m2 for 2 persons; cosy bed-sitting room with satellite TV, kitchen with eating area, tiled stove, shower/WC, large terrace. Hand towels and bed linen provided.\n\n"
        }
      ],
      "availability": "http://schema.org/InStock",
      "itemOffered": [
        {
          "@type": [
            "Apartment",
            "Product"
          ],
          "name": [
            {
              "@language": "de",
              "@value": "Apartment 3"
            },
            {
              "@language": "en",
              "@value": "app. 3"
            }
          ],
          "numberOfRooms": "2.0",
          "occupancy": {
            "@type": "QuantitativeValue",
            "maxValue": "2",
            "minValue": "2"
          }
        }
      ],
      "priceSpecification": [
        {
          "@type": "PriceSpecification",
          "description": "Pax 2",
          "minPrice": "40.00",
          "maxPrice": "40.00",
          "priceCurrency": "EUR"
        }
      ]
    }
  ]
}