{
  "@context": "http://schema.org",
  "@type": "LodgingBusiness",
  "url": [
    "http://www.hochzillertal.net",
    "http://maps.best-of-zillertal.at/proxy/frontend/page/fuegen/de?foreignResource\u003d419A023A-5E95-49EB-A065-9EC951979E28"
  ],
  "address": {
    "@type": "PostalAddress",
    "streetAddress": "Neuhütten 21",
    "addressCountry": "AT",
    "postalCode": "6272",
    "addressRegion": "Kaltenbach",
    "telephone": "(0043) 5282 3867",
    "email": "info@hochzillertal.net",
    "url": "http://www.hochzillertal.net"
  },
  "name": "Alpin-Ferienwohnungen Hochzillertal",
  "description": [
    {
      "@language": "de",
      "@value": "Das Ferienhaus liegt direkt im Skigebiet Hochzillertal, zwischen der urigen \"Kaltenbacher Skihütte\" und dem \"Alpengasthof Zirmstadl\" am Neuhüttenlift. Auf 1.800 m gelegen, ist Schneesicherheit in Hochzillertal kein Thema. Von November bis Mai ist das Ferienhaus nur über die Seilbahn Hochzillertal zu erreichen. Der Transport des Gepäcks mit dem Schneemobil von der Bergbahn Hochzillertal bis zum Haus ist möglich! W-LAN.\n4 Mountainbikes, Nordic-Walking-Stöcke zur freien Verfügung, geführte Wanderungen und Kinderwanderungen, Kornmahlen und Brotbacken und Würstelgrillen am Lagerfeuer, Fackelwanderung (im Sommer). Pauschalangebote siehe Homepage! \nIm Sommer genießen Sie Ruhe und den Blick auf das vordere Zillertal bis hin zum Inntal und Rofangebirge, südlich begrenzt der Zillertaler-Alpenhauptkamm die herrliche Bergkulisse. Für Naturliebhaber, Wanderer, Biker und Familien mit Kindern bietet Hochzillertal vieles. Bei Rundwanderungen, Gipfel- oder Almwanderungen können Sie die Zillertaler-Bergwelt immer wieder von einem anderen Blickwinkel neu entdecken. Bei guter Fernsicht erblickt man im Osten von so manchen Gipfeln das hohe Tauern-Massiv, die Leoganger-Steinberge, den Kaiser bis hin zu den Bayrischen Alpen. Im Norden erblicken Sie das Rofan- und Karwendelgebirge, im Westen die Stubaiaer-Alpen und im Süden begrenzt der Zillertaler-Alpenhauptkamm die herrliche Bergwelt. \nNahegelegene, im Sommer bewirtschaftete Almen erlauben einen Einblick in das Leben der hiesigen Bergbauern.\nSpaziergänge am Abend oder in den frühen Morgenstunden lassen Sie an der Fauna in Hochzillertal teilhaben. Man begegnet Hasen, Rehen, frei lebenden Murmeltieren, Auerhähnen, dem Harmelin, ... und unzähligen Vögeln."
    },
    {
      "@language": "de",
      "@value": ""
    },
    {
      "@language": "de",
      "@value": "Alpin - Ferienwohnungen Hochzillertal, Kaltenbach, Zillertal, Tirol, Österreich, im Schigebiet"
    },
    {
      "@language": "en",
      "@value": "This holiday cottage is situated directly in the ski-are Hochzillertal (1.800 m) between the guesthouses Kaltenbacher Skihütte and Almgasthof Zirmstadl at the \"Neuhütten\" t-bar lift. Snow-guarantee is ensured. From November until May the cottage can be reaches only by the cable-car Hochzillertal from Kaltenbach. The transport of the luggage from the top-section of the cable-car to the cottage is possible. Internet. 4 mountain-bikes  and nordic-walking-staves for free, guided hiking tours and walkings for children,  baking bread, barbecue (sausage), torch walking (in summer), package offers on the webside.\n"
    },
    {
      "@language": "en",
      "@value": "For children in the room of the parents reduction on request.\n\n"
    }
  ],
  "image": [
    {
      "@type": "ImageObject",
      "url": "http://resc.deskline.net/images/ZIL/1/93c34318-8e52-4a08-b690-6a9a80ef8c34/99/image.jpg",
      "caption": [
        {
          "@language": "de",
          "@value": "Alpin-Fereinwohnungen Hochzillertal Sommer"
        },
        {
          "@language": "en",
          "@value": ""
        }
      ]
    },
    {
      "@type": "ImageObject",
      "url": "http://resc.deskline.net/images/ZIL/1/fc7633d6-35a6-4135-8e4d-39300668450e/99/image.jpg",
      "caption": [
        {
          "@language": "de",
          "@value": "Alpin-Ferienwohnungen Hochzillertal Winter"
        },
        {
          "@language": "en",
          "@value": "Alpin-Ferienwohnungen Hochzillertal Winter"
        }
      ]
    },
    {
      "@type": "ImageObject",
      "url": "http://resc.deskline.net/images/ZIL/1/1bd7af68-3e5e-4bf5-bf65-e587e6d572e4/99/image.jpg",
      "caption": [
        {
          "@language": "de",
          "@value": "IMG_9609"
        },
        {
          "@language": "en",
          "@value": "IMG_9609"
        }
      ]
    },
    {
      "@type": "ImageObject",
      "url": "http://resc.deskline.net/images/ZIL/1/40b8de00-cfb2-40ac-a3df-88e312f749d6/99/image.jpg",
      "caption": [
        {
          "@language": "de",
          "@value": "FW Gedrechter Küchenblock"
        },
        {
          "@language": "en",
          "@value": "FW Gedrechter Küchenblock"
        }
      ]
    },
    {
      "@type": "ImageObject",
      "url": "http://resc.deskline.net/images/ZIL/1/b286d610-f36e-43ba-bf6a-73c6491d672c/99/image.jpg",
      "caption": [
        {
          "@language": "de",
          "@value": "FWWetterkreuzTischecke"
        },
        {
          "@language": "en",
          "@value": "FWWetterkreuzTischecke"
        }
      ]
    },
    {
      "@type": "ImageObject",
      "url": "http://resc.deskline.net/images/ZIL/1/27d0f39f-26cb-4883-954e-7ca9aeff8b3b/99/image.jpg",
      "caption": [
        {
          "@language": "de",
          "@value": "FW Wetterkreuz Küchenblock"
        },
        {
          "@language": "en",
          "@value": "FW Wetterkreuz Küchenblock"
        }
      ]
    },
    {
      "@type": "ImageObject",
      "url": "http://resc.deskline.net/images/ZIL/1/5f7903c4-5dbd-4ede-a88d-341b12fee208/99/image.jpg",
      "caption": [
        {
          "@language": "de",
          "@value": "FWMarchkopfStubeR"
        },
        {
          "@language": "en",
          "@value": "FWMarchkopfStubeR"
        }
      ]
    },
    {
      "@type": "ImageObject",
      "url": "http://resc.deskline.net/images/ZIL/1/68dcb381-2f86-48c9-a9fb-5a8a55555f80/99/image.jpg",
      "caption": [
        {
          "@language": "de",
          "@value": "FW Gedrechter Liegewiese"
        },
        {
          "@language": "en",
          "@value": "FW Gedrechter Liegewiese"
        }
      ]
    },
    {
      "@type": "ImageObject",
      "url": "http://resc.deskline.net/images/ZIL/1/5f3593be-f29a-4421-9fb6-fe7cb3cf7a86/99/image.jpg",
      "caption": [
        {
          "@language": "de",
          "@value": "Alpin-Ferienwohnungen Hochzillertal Gedrechter"
        },
        {
          "@language": "en",
          "@value": "Alpin-Ferienwohnungen Hochzillertal Gedrechter"
        }
      ]
    },
    {
      "@type": "ImageObject",
      "url": "http://resc.deskline.net/images/ZIL/1/787b5ff1-7bf0-409c-b15f-856773c066ef/99/image.jpg",
      "caption": [
        {
          "@language": "de",
          "@value": "Alpin-Ferienwohnungen Hochzillertal Marchkopf"
        },
        {
          "@language": "en",
          "@value": "Alpin-Ferienwohnungen Hochzillertal Marchkopf"
        }
      ]
    },
    {
      "@type": "ImageObject",
      "url": "http://resc.deskline.net/images/ZIL/1/cc1cf8b7-7d86-4888-8d1f-c43769635788/99/image.jpg",
      "caption": [
        {
          "@language": "de",
          "@value": "Alpin-Ferienwohnungen Hochzillertal Wetterkreuz"
        },
        {
          "@language": "en",
          "@value": "Alpin-Ferienwohnungen Hochzillertal Wetterkreuz"
        }
      ]
    },
    {
      "@type": "ImageObject",
      "url": "http://resc.deskline.net/images/ZIL/1/cf8ec8b6-bd11-481c-ab7b-8a85216beb08/99/image.jpg",
      "caption": [
        {
          "@language": "de",
          "@value": "MarchkopfZimmer1"
        },
        {
          "@language": "en",
          "@value": "MarchkopfZimmer1"
        }
      ]
    },
    {
      "@type": "ImageObject",
      "url": "http://resc.deskline.net/images/ZIL/1/d6f244b9-0eb1-4127-9b68-75e7cb229df8/99/image.jpg",
      "caption": [
        {
          "@language": "de",
          "@value": "FWGedrechterLZimmer"
        },
        {
          "@language": "en",
          "@value": "FWGedrechterLZimmer"
        }
      ]
    },
    {
      "@type": "ImageObject",
      "url": "http://resc.deskline.net/images/ZIL/1/8f36be64-c37d-4b19-872a-8b55824a57b2/99/image.jpg",
      "caption": [
        {
          "@language": "de",
          "@value": "FWMarchkopf"
        },
        {
          "@language": "en",
          "@value": "FWMarchkopf"
        }
      ]
    },
    {
      "@type": "ImageObject",
      "url": "http://resc.deskline.net/images/ZIL/1/6de7a96a-7e38-4ce1-addb-fd397f994b9e/99/image.jpg",
      "caption": [
        {
          "@language": "de",
          "@value": "FWGedrechterZiL"
        },
        {
          "@language": "en",
          "@value": "FWGedrechterZiL"
        }
      ]
    },
    {
      "@type": "ImageObject",
      "url": "http://resc.deskline.net/images/ZIL/1/6441434f-5014-4695-a96e-5ab07bbf688d/99/image.jpg",
      "caption": [
        {
          "@language": "de",
          "@value": "HerbstAusblickInntal"
        },
        {
          "@language": "en",
          "@value": "HerbstAusblickInntal"
        }
      ]
    },
    {
      "@type": "ImageObject",
      "url": "http://resc.deskline.net/images/ZIL/1/9551a173-d800-43ba-bdd5-c1aad4349c4e/99/image.jpg",
      "caption": [
        {
          "@language": "de",
          "@value": "Alpin-Ferienwohnungen Hochzillertal "
        },
        {
          "@language": "en",
          "@value": "Alpin-Ferienwohnungen Hochzillertal "
        }
      ]
    },
    {
      "@type": "ImageObject",
      "url": "http://resc.deskline.net/images/ZIL/1/5ec4463a-76c8-4530-bf85-fc6b61a5f643/99/image.jpg",
      "caption": [
        {
          "@language": "de",
          "@value": "SommerGarten"
        },
        {
          "@language": "en",
          "@value": "SommerGarten"
        }
      ]
    },
    {
      "@type": "ImageObject",
      "url": "http://resc.deskline.net/images/ZIL/1/e24ac351-df6f-4483-81af-dd3a09b0dbac/99/image.jpg",
      "caption": [
        {
          "@language": "de",
          "@value": "Mizunalm-Wanderung"
        },
        {
          "@language": "en",
          "@value": "Mizunalm-Wanderung"
        }
      ]
    },
    {
      "@type": "ImageObject",
      "url": "http://resc.deskline.net/images/ZIL/1/1a3a7969-1b93-43e2-b849-a232348bcaa1/99/image.jpg",
      "caption": [
        {
          "@language": "de",
          "@value": "Gedrechter-Hochzillertal-Wanderung"
        },
        {
          "@language": "en",
          "@value": "Gedrechter-Hochzillertal-Wanderung"
        }
      ]
    },
    {
      "@type": "ImageObject",
      "url": "http://resc.deskline.net/images/ZIL/1/6a0019c2-1981-45ef-9564-03bc0e61593c/99/image.jpg",
      "caption": [
        {
          "@language": "de",
          "@value": "Abendstimmung Garten Alpin-Fewo Hochzillertal"
        },
        {
          "@language": "en",
          "@value": "Abendstimmung Garten Alpin-Fewo Hochzillertal"
        }
      ]
    },
    {
      "@type": "ImageObject",
      "url": "http://resc.deskline.net/images/ZIL/1/68cd8107-192c-42a7-b0b2-ffcf7b75bef6/99/image.jpg",
      "caption": [
        {
          "@language": "de",
          "@value": "Sonnenuntergang oberer Speichersee Hochzillertal"
        },
        {
          "@language": "en",
          "@value": "Sonnenuntergang oberer Speichersee Hochzillertal"
        }
      ]
    },
    {
      "@type": "ImageObject",
      "url": "http://resc.deskline.net/images/ZIL/1/1ed5919e-89e0-4133-8971-758ad6d5ba6f/99/image.jpg",
      "caption": [
        {
          "@language": "de",
          "@value": "Wandern-Alpin-Ferienwohnungen Hochzillertal"
        },
        {
          "@language": "en",
          "@value": "Wandern-Alpin-Ferienwohnungen Hochzillertal"
        }
      ]
    },
    {
      "@type": "ImageObject",
      "url": "http://resc.deskline.net/images/ZIL/1/58f77be5-64b1-4d51-af93-dbd9d0f6e94c/99/image.jpg",
      "caption": [
        {
          "@language": "de",
          "@value": "Schigebiet Hochzillertal"
        },
        {
          "@language": "en",
          "@value": "Schigebiet Hochzillertal"
        }
      ]
    },
    {
      "@type": "ImageObject",
      "url": "http://resc.deskline.net/images/ZIL/1/309e019b-7bf2-437a-b378-4e4df67a868a/99/image.jpg",
      "caption": [
        {
          "@language": "de",
          "@value": "Winter-Alpin-Ferienwohnungen Hochzillertal"
        },
        {
          "@language": "en",
          "@value": "Winter-Alpin-Ferienwohnungen Hochzillertal"
        }
      ]
    },
    {
      "@type": "ImageObject",
      "url": "http://resc.deskline.net/images/ZIL/1/2853a97b-80d5-40ee-80aa-90b97fcfc2ae/99/image.jpg",
      "caption": [
        {
          "@language": "de",
          "@value": "Alpin-FerienwohnungenHochzillertal"
        },
        {
          "@language": "en",
          "@value": "Alpin-FerienwohnungenHochzillertal"
        }
      ]
    }
  ],
  "geo": {
    "@type": "GeoCoordinates",
    "latitude": "47.272350163314016",
    "longitude": "11.842918395996094"
  },
  "currenciesAccepted": "EUR",
  "makesOffer": [
    {
      "@type": "Offer",
      "name": [
        {
          "@language": "de",
          "@value": "Appartement/Fewo, Bad, WC, 3 Schlafräume"
        },
        {
          "@language": "en",
          "@value": "Apartment, bath, toilet, 3 bed rooms"
        }
      ],
      "description": [
        {
          "@language": "de",
          "@value": "Die große Wohnküche ist sehr gemütlich und komfortabel im Tiroler Stil eingerichtet. Der begehrteste Platz ist der Divan. Alle gängigen Haushaltsgeräte sind vorhanden. Die drei Schlafzimmer (3 Doppelbetten, 1 Hochbett) sind evenfalls individuell geplant und eingebaut. Alle Möbel der Wohnung sind aus Vollholz. Weiters befinden sich ein größeres Bad mit Dusche/WC und Doppelwaschbecken und ein zusätzliches WC in der Wohnung. Südliche Terrasse und Garten mit Ausblick über das vordere Zillertal. Breitbandinternet."
        },
        {
          "@language": "en",
          "@value": "The large combined living-kitchen is equipped very cosy and comfortable in tyrolean style. The sofabed is on of the popular places. All common household appliance are available. The 3 bedrooms (3 doublebed, 1 bunkbed) are planned  and built-in individual. The furniture of the apartement is made out of wood. There is also a large bath with shower/WC and double washbasin and a seaparate WC. In the south there is the terrace and the garden with a view over the front Zillertal. Internet."
        }
      ],
      "availability": "http://schema.org/InStock",
      "itemOffered": [
        {
          "@type": [
            "Apartment",
            "Product"
          ],
          "name": [
            {
              "@language": "de",
              "@value": "Appartement Gedrechter"
            },
            {
              "@language": "en",
              "@value": "Apartment, bath, toilet, 3 bed rooms"
            }
          ],
          "numberOfRooms": "6.0",
          "occupancy": {
            "@type": "QuantitativeValue",
            "maxValue": "7",
            "minValue": "2"
          }
        }
      ],
      "priceSpecification": [
        {
          "@type": "PriceSpecification",
          "description": "Pax 4",
          "minPrice": "195.00",
          "maxPrice": "260.00",
          "priceCurrency": "EUR"
        },
        {
          "@type": "PriceSpecification",
          "description": "Pax 5",
          "minPrice": "195.00",
          "maxPrice": "260.00",
          "priceCurrency": "EUR"
        },
        {
          "@type": "PriceSpecification",
          "description": "Pax 6",
          "minPrice": "195.00",
          "maxPrice": "260.00",
          "priceCurrency": "EUR"
        },
        {
          "@type": "PriceSpecification",
          "description": "Pax 7",
          "minPrice": "217.00",
          "maxPrice": "295.00",
          "priceCurrency": "EUR"
        }
      ]
    },
    {
      "@type": "Offer",
      "name": [
        {
          "@language": "de",
          "@value": "Appartement/Fewo, Bad, WC, 3 Schlafräume"
        },
        {
          "@language": "en",
          "@value": "Apartment, bath, toilet, 3 bed rooms"
        }
      ],
      "description": [
        {
          "@language": "de",
          "@value": "Die große Wohnküche ist sehr gemütlich und komfortabel im Tiroler Stil eingerichtet. Alle gängigen Haushaltsgeräte sind vorhanden. Von der Wohnküche kommen Sie direkt auf den großzügigen Balkon mit Ausblick über das vordere Zillertal. Herz der Wohnküche ist der Kachelofen. In den drei Schlafzimmern (2 Doppelzimmer mit südlichem Balkon, 1 Dreibettzimmer) werden Sie hervorragend schlafen. Alle Möbel der Wohnung sind aus Vollholz. Weiteres befinden sich zwei Duschen/WC in der Wohnung, Breitbandinernet."
        },
        {
          "@language": "en",
          "@value": "The big combined living kitchen area is cosy and comfortable equipped in tyrolean style. From the combined living kitchen you will reach directly the large balcony with a wonderful view to the front Zillertal. Heart of the living kitchen is the tiled stove. In the 3 bedrooms (2 doublerooms with a balcony in the south, 1 triple room) you will have a wonderful sleep. The furniture of the apartement is made out of wood. There are also 2 shower/WC in the apartement. Internet."
        }
      ],
      "availability": "http://schema.org/InStock",
      "itemOffered": [
        {
          "@type": [
            "Apartment",
            "Product"
          ],
          "name": [
            {
              "@language": "de",
              "@value": "Appartement Wetterkreuz"
            },
            {
              "@language": "en",
              "@value": "apartment/3 bedrooms/bath tube, WC"
            }
          ],
          "numberOfRooms": "6.0",
          "occupancy": {
            "@type": "QuantitativeValue",
            "maxValue": "8",
            "minValue": "2"
          }
        }
      ],
      "priceSpecification": [
        {
          "@type": "PriceSpecification",
          "description": "Pax 3",
          "minPrice": "95.00",
          "maxPrice": "95.00",
          "priceCurrency": "EUR"
        },
        {
          "@type": "PriceSpecification",
          "description": "Pax 4",
          "minPrice": "100.00",
          "maxPrice": "100.00",
          "priceCurrency": "EUR"
        },
        {
          "@type": "PriceSpecification",
          "description": "Pax 5",
          "minPrice": "125.00",
          "maxPrice": "125.00",
          "priceCurrency": "EUR"
        },
        {
          "@type": "PriceSpecification",
          "description": "Pax 6",
          "minPrice": "145.00",
          "maxPrice": "145.00",
          "priceCurrency": "EUR"
        },
        {
          "@type": "PriceSpecification",
          "description": "Pax 7",
          "minPrice": "165.00",
          "maxPrice": "165.00",
          "priceCurrency": "EUR"
        }
      ]
    }
  ]
}