{
  "@context": "http://schema.org",
  "@type": "Hotel",
  "url": [
    "http://www.erzherzog.at",
    "http://maps.best-of-zillertal.at/proxy/frontend/page/fuegen/de?foreignResource\u003d43BEA563-D1C9-40C8-80AE-771951B02257"
  ],
  "address": {
    "@type": "PostalAddress",
    "name": "Hotel Erzherzog Johann",
    "streetAddress": "Dorfstraße 32",
    "addressCountry": "AT",
    "postalCode": "6271",
    "addressRegion": "Uderns",
    "telephone": "(0043) 5288 62590",
    "faxNumber": "(0043) 5288 64140",
    "email": "hotel@erzherzog.at",
    "url": "http://www.erzherzog.at"
  },
  "name": "Hotel Erzherzog Johann",
  "description": [
    {
      "@language": "de",
      "@value": "Tradition mit frischem Wind...\nUnser beliebtes und traditionsreiches 3 Stern Hotel Erzherzog Johann in Uderns besticht durch seine gemütlich, familiärer Atmosphäre und die traumhafte Lage inmitten der Ersten Ferienregion Zillertal.\n\nUnser 3 Stern Hotel Erzherzog Johann liegt im Zentrum von Uderns mit direkter Skibusverbindung vom Hotel ins top Skigebiet Hochzillertal - Hochfügen sowie der Spieljochbahn. Nur 3 Minuten Fußweg vom Hotel entfernt liegt der Bahnhof der romantischen Zillertalbahn. Auch die Bushaltestelle befindet sich in unmittelbarer Nähe.\n\nBei uns im Hotel Erzherzog Johann wohnen Sie in traditionell eingerichteten Zimmern mit DU/WC oder Bad/WC, SAT-TV und Telefon. WLan steht Ihnen bei uns im ganzen Hotel zur Verfügung und ein Hotelsafe befindet sich an der Rezeption. Ihr Auto können Sie auf unseren Parkplätzen kostenlos abstellen. Für den Urlaub mit Kindern bieten wir Einrichtungen wie Babyphone, Kinderstühle, etc. sowie spezielle Angebote in Familien- oder separaten Zimmern.\n\nEntspannung pur bietet unser Wohlfühlbereich mit Hallenbad, Sauna, Dampfbad und Infrarotkabine, welcher unseren Gästen zur kostenlosen Benützung zur Verfügung steht. Einem Wohlfühltag mit Sauna steht somit nichts im Wege.  \n\nFür Winterzauber \u0026 Sommerfrische bietet die Erste Ferienregion Zillertal so allerhand! Uderns wird von den Skigebieten Hochzillertal - Hochfügen und Spieljoch umringt und ist somit der ideale Ausgangspunkt für unvergessliche Tage auf schneesicheren Pisten. Der kostenlose Skibus bringt Sie in nur 5-10min in die Skigebiete Hochzillertal - Hochfügen bzw. zur Spieljochbahn. \n\nIm Sommer eröffnet sich die Erste Ferienregion Zillertal als wahres Wander-, Rad- und Familienparadies. Die Spieljochbahn ist ein idealer Zubringer in die  Bergwelt und traumhaften Wanderwege, welche sich bestens für den Urlaub mit Kindern eignen. Den Radweg Zillertal erkunden Sie am besten mit unseren E-Bikes welche Sie direkt im Haus ausleihen können. In wenigen Gehminuten erreichen Sie den neuen 18-Loch Golfplatz in Uderns der sich auch ideal zum Spazieren anbietet. Als unsere Hotelgäste können Sie kostenlos am Wochenprogramm mit geführten Wanderungen, Klettertouren, Slackline Workshops, u.v.m. des Aktivzentrums Zillertal teilnehmen und für Angelfreunde bieten wir Ihnen unser Angelrevier im Nachbarort Fügen.\n\nFerien im Hotel Erzherzog Johann in Uderns - ob im Sommer oder Winter, bei uns sind Sie immer richtig!\nWir freuen uns auf Sie,\nIhre Familie Soier\n"
    },
    {
      "@language": "de",
      "@value": "Im Preis inklusive: \n*Freie Benützung vom Hallenbad u. Sauna Paradies\n*reichhaltiges Frühstücksbuffet\n*Sommer 3-Gang-Abendwahlmenü\n*Winter 4-Gang-Abendwahlmenü\n*Sport- und Unterhaltungsprogramm;\n\nKinder im Zimmer der Eltern:\nBis 6 Jahre 100 % Ermäßigung ohne Verpflegung - und bis 12 Jahre 50% Ermäßigung mit Kinderportion."
    },
    {
      "@language": "de",
      "@value": "check-in: ab 14:00\ncheck out: bis 10:00"
    },
    {
      "@language": "en",
      "@value": "Tradition meets modernity …\nOur popular and tradition-conscious 3-star Hotel Erzherzog Johann in Uderns is characterised by its cosy, family-friendly atmosphere and its unique situation in the midst of Erste Ferienregion Zillertal.\n\nOur 3-star Hotel Erzherzog Johann is located in the centre of Uderns with direct ski bus connection to the top the skiing areas of Hochzillertal- Hochfügen as well as to the Spieljochbahn. On foot you reach the station of the romantic Zillertalbahn within 3 minutes from the hotel. A bus stop is in direct proximity too.\n\nWith us in the Hotel Erzherzog Johann you are accommodated in traditionally furnished rooms with shower/WC or tub/WC, satellite TV and telephone. Wifi is available throughout the entire hotel and a safe can be found at the reception. You can park your car free of charge. For your holidays with children we offer facilities such as baby monitors, high chairs, etc. as well as special packages in family or separate rooms.\nPure relaxation promises our feel-good spa area with indoor swimming pool, sauna, steam bath and infrared cabin that our guests, of course, use for free and which ensures that nothing is in the way of a perfect feel-good day with sauna.  \n\nFor winter charms \u0026 summer action Erste Ferienregion Zillertal offers a wide range of options! Uderns is surrounded by the skiing areas of Hochzillertal - Hochfügen and Spieljoch and is thus the ideal starting point for unforgettable days on pistes with guaranteed snow. The free ski bus takes you to the Hochzillertal - Hochfügen skiing resort and/or to the Spieljochbahn in less than 10 minutes. \n\nIn summer Erste Ferienregion Zillertal is a true hiker’s, biking and family paradise. The Spieljochbahn provides ideal access to the mountains and fantastic hiking paths which are also ideally suited for your holidays with children. The Zillertal bicycle track can best be explored with our e-bikes which you can rent directly at our house. Within a few minutes you reach the new 18-hole golf course in Uderns that is also ideal for walking. As our guests you can participate in the weekly programme with guided hikes, climbing tours, slack line workshops, etc. of the Aktivzentrum Zillertal free of charge and to fishermen we offer our fishing ground in the neighbouring village of Fügen.\n\nWhether summer or winter, when spending your holidays at the Erzherzog Hotel Johann in Uderns you are always at the right place!\nWe look forward to welcoming you.\nYour hosts, the Soier family\n"
    },
    {
      "@language": "en",
      "@value": "Included in the price:\n*Free using the indoor swimming pool and sauna paradise\n*generous breakfast buffet\n*3-course choosing-menue in summer\n*4-course choosing-menue in winter\n*week-programme\n\nChildren reduction in the same room with the parents:\nTill 6 years 100 % reduction without meal - and till 12 years 50 % reduction with meal.\n"
    },
    {
      "@language": "en",
      "@value": "check-in: from 2.00 pm\ncheck-out: until 10.00 am"
    }
  ],
  "aggregateRating": {
    "@type": "AggregateRating",
    "ratingValue": "4.1",
    "reviewCount": "13"
  },
  "image": [
    {
      "@type": "ImageObject",
      "url": "http://resc.deskline.net/images/ZIL/1/99b74669-9c2e-41da-af75-6a8280355024/99/image.jpg",
      "caption": [
        {
          "@language": "de",
          "@value": "Haus Sommer"
        },
        {
          "@language": "en",
          "@value": "Haus Sommer"
        }
      ]
    },
    {
      "@type": "ImageObject",
      "url": "http://resc.deskline.net/images/ZIL/1/6046f7f0-f156-4e1d-a7b7-e467dacc708f/99/image.jpg",
      "caption": [
        {
          "@language": "de",
          "@value": "Aussenansicht"
        },
        {
          "@language": "en",
          "@value": "Aussenansicht"
        }
      ]
    },
    {
      "@type": "ImageObject",
      "url": "http://resc.deskline.net/images/ZIL/1/5d3a8584-2fbb-459f-add1-99e66434cc45/99/image.jpg",
      "caption": [
        {
          "@language": "de",
          "@value": "Aussenansicht Sommer"
        },
        {
          "@language": "en",
          "@value": "Aussenansicht Sommer"
        }
      ]
    },
    {
      "@type": "ImageObject",
      "url": "http://resc.deskline.net/images/ZIL/1/49da08bd-22f9-4ad1-a3d3-a2efebe2a398/99/image.jpg",
      "caption": [
        {
          "@language": "de",
          "@value": "Bar"
        },
        {
          "@language": "en",
          "@value": "Bar"
        }
      ]
    },
    {
      "@type": "ImageObject",
      "url": "http://resc.deskline.net/images/ZIL/1/76b686e6-1f3c-45cc-bf7c-19106f4941e8/99/image.jpg",
      "caption": [
        {
          "@language": "de",
          "@value": "Restaurantstube"
        },
        {
          "@language": "en",
          "@value": "Restaurantstube"
        }
      ]
    },
    {
      "@type": "ImageObject",
      "url": "http://resc.deskline.net/images/ZIL/1/6d17d09d-d2d2-4b98-8831-69e9c676d865/99/image.jpg",
      "caption": [
        {
          "@language": "de",
          "@value": "Hallenbad 1"
        },
        {
          "@language": "en",
          "@value": "Hallenbad 1"
        }
      ]
    },
    {
      "@type": "ImageObject",
      "url": "http://resc.deskline.net/images/ZIL/1/7284c5c6-1cdc-461d-8d5b-d518b7ba2b1a/99/image.jpg",
      "caption": [
        {
          "@language": "de",
          "@value": "Hallenbad 2"
        },
        {
          "@language": "en",
          "@value": "Hallenbad 2"
        }
      ]
    },
    {
      "@type": "ImageObject",
      "url": "http://resc.deskline.net/images/ZIL/1/87a1f49c-083d-4367-b7c8-eab46a144e0c/99/image.jpg",
      "caption": [
        {
          "@language": "de",
          "@value": "Zimmer"
        },
        {
          "@language": "en",
          "@value": "Zimmer"
        }
      ]
    },
    {
      "@type": "ImageObject",
      "url": "http://resc.deskline.net/images/ZIL/1/b2d2c7f1-27f2-4849-86fe-c0481350cf8b/99/image.jpg",
      "caption": [
        {
          "@language": "de",
          "@value": "Restaurant"
        },
        {
          "@language": "en",
          "@value": "Restaurant"
        }
      ]
    },
    {
      "@type": "ImageObject",
      "url": "http://resc.deskline.net/images/ZIL/1/9c94dbe6-d047-438a-8c70-3aba534263d2/99/image.jpg",
      "caption": [
        {
          "@language": "de",
          "@value": "Sauna"
        },
        {
          "@language": "en",
          "@value": "Sauna"
        }
      ]
    },
    {
      "@type": "ImageObject",
      "url": "http://resc.deskline.net/images/ZIL/1/3c0ac9de-835d-4fe3-850f-25d7e1e171fb/99/image.jpg",
      "caption": [
        {
          "@language": "de",
          "@value": "Infrarotkabine"
        },
        {
          "@language": "en",
          "@value": "Infrarotkabine"
        }
      ]
    },
    {
      "@type": "ImageObject",
      "url": "http://resc.deskline.net/images/ZIL/1/52305020-7df9-4ae2-992a-e0a926308266/99/image.jpg",
      "caption": [
        {
          "@language": "de",
          "@value": "Sauna neu"
        },
        {
          "@language": "en",
          "@value": "Sauna neu"
        }
      ]
    },
    {
      "@type": "ImageObject",
      "url": "http://resc.deskline.net/images/ZIL/1/592b17b8-2bad-49af-917e-53a352066afd/99/image.jpg",
      "caption": [
        {
          "@language": "de",
          "@value": "Schwimmbad"
        },
        {
          "@language": "en",
          "@value": "Schwimmbad"
        }
      ]
    },
    {
      "@type": "ImageObject",
      "url": "http://resc.deskline.net/images/ZIL/1/a5cbfe46-f0a2-4f68-9488-6e7d99bb4ea1/99/image.jpg",
      "caption": [
        {
          "@language": "de",
          "@value": "Schwimmbad Ruheraum"
        },
        {
          "@language": "en",
          "@value": "Schwimmbad Ruheraum"
        }
      ]
    },
    {
      "@type": "ImageObject",
      "url": "http://resc.deskline.net/images/ZIL/1/a9bed756-2674-4e59-88e9-fcf6c6fd18e3/99/image.jpg",
      "caption": [
        {
          "@language": "de",
          "@value": "Schwimmbad Terrasse"
        },
        {
          "@language": "en",
          "@value": "Schwimmbad Terrasse"
        }
      ]
    },
    {
      "@type": "ImageObject",
      "url": "http://resc.deskline.net/images/ZIL/1/257d7ac8-5ba4-4b67-afbd-f36cb2e84e34/99/image.jpg",
      "caption": [
        {
          "@language": "de",
          "@value": "Zimmer neu"
        },
        {
          "@language": "en",
          "@value": "Zimmer neu"
        }
      ]
    },
    {
      "@type": "ImageObject",
      "url": "http://resc.deskline.net/images/ZIL/1/c338452c-3868-42a0-87e8-6de953e09401/99/image.jpg",
      "caption": [
        {
          "@language": "de",
          "@value": "Zimmer Badezimmer"
        },
        {
          "@language": "en",
          "@value": "Zimmer Badezimmer"
        }
      ]
    },
    {
      "@type": "ImageObject",
      "url": "http://resc.deskline.net/images/ZIL/1/ea05faba-367d-48bd-8d63-340b26cd34c0/99/image.jpg",
      "caption": [
        {
          "@language": "de",
          "@value": "Stube 1"
        },
        {
          "@language": "en",
          "@value": "Stube 1"
        }
      ]
    },
    {
      "@type": "ImageObject",
      "url": "http://resc.deskline.net/images/ZIL/1/b3deb0ed-574b-4a23-aa20-1064b0f81c95/99/image.jpg",
      "caption": [
        {
          "@language": "de",
          "@value": "Stube "
        },
        {
          "@language": "en",
          "@value": "Stube "
        }
      ]
    },
    {
      "@type": "ImageObject",
      "url": "http://resc.deskline.net/images/ZIL/1/8063f26f-2711-48f6-a998-945d444e8d80/99/image.jpg",
      "caption": [
        {
          "@language": "de",
          "@value": "Stube Detail1"
        },
        {
          "@language": "en",
          "@value": "Stube Detail1"
        }
      ]
    },
    {
      "@type": "ImageObject",
      "url": "http://resc.deskline.net/images/ZIL/1/959bc907-9d99-4a59-be0f-4884fc4571b5/99/image.jpg",
      "caption": [
        {
          "@language": "de",
          "@value": "Stube Detail"
        },
        {
          "@language": "en",
          "@value": "Stube Detail"
        }
      ]
    },
    {
      "@type": "ImageObject",
      "url": "http://resc.deskline.net/images/ZIL/1/18972b41-abeb-4eb3-868c-1e714e4d17af/99/image.jpg",
      "caption": [
        {
          "@language": "de",
          "@value": "Stube Klein"
        },
        {
          "@language": "en",
          "@value": "Stube Klein"
        }
      ]
    },
    {
      "@type": "ImageObject",
      "url": "http://resc.deskline.net/images/ZIL/1/5a144783-d75b-4ac7-a64e-99914aaff5c4/99/image.jpg",
      "caption": [
        {
          "@language": "de",
          "@value": "Zimmer 111"
        },
        {
          "@language": "en",
          "@value": "Zimmer 111"
        }
      ]
    },
    {
      "@type": "ImageObject",
      "url": "http://resc.deskline.net/images/ZIL/1/d256216e-1222-452b-892b-c6cbcb96adab/99/image.jpg",
      "caption": [
        {
          "@language": "de",
          "@value": "Zimmer 111 Badezimmer"
        },
        {
          "@language": "en",
          "@value": "Zimmer 111 Badezimmer"
        }
      ]
    },
    {
      "@type": "ImageObject",
      "url": "http://resc.deskline.net/images/ZIL/1/19f22e54-ba59-4a7c-bb9b-dbf87002334d/99/image.jpg",
      "caption": [
        {
          "@language": "de",
          "@value": "Zimmer 111 Zusatzzimmer"
        },
        {
          "@language": "en",
          "@value": "Zimmer 111 Zusatzzimmer"
        }
      ]
    },
    {
      "@type": "ImageObject",
      "url": "http://resc.deskline.net/images/ZIL/1/055d9660-8b24-4dfe-a14c-9787835a69ee/99/image.jpg",
      "caption": [
        {
          "@language": "de",
          "@value": "Zimmer 210 1"
        },
        {
          "@language": "en",
          "@value": "Zimmer 210 1"
        }
      ]
    },
    {
      "@type": "ImageObject",
      "url": "http://resc.deskline.net/images/ZIL/1/15c5ac92-caf1-4b2c-b833-9c1684d29fdc/99/image.jpg",
      "caption": [
        {
          "@language": "de",
          "@value": "Zimmer 210"
        },
        {
          "@language": "en",
          "@value": "Zimmer 210"
        }
      ]
    },
    {
      "@type": "ImageObject",
      "url": "http://resc.deskline.net/images/ZIL/1/f0dc0f1c-5938-4615-b8de-04bf81dcaf9e/99/image.jpg",
      "caption": [
        {
          "@language": "de",
          "@value": "Haus Winter"
        },
        {
          "@language": "en",
          "@value": "Haus Winter"
        }
      ]
    }
  ],
  "geo": {
    "@type": "GeoCoordinates",
    "latitude": "47.3270867720796",
    "longitude": "11.8639147281647"
  },
  "currenciesAccepted": "EUR",
  "makesOffer": [
    {
      "@type": "Offer",
      "name": [
        {
          "@language": "de",
          "@value": "Doppelzimmer, Dusche oder Bad, WC"
        },
        {
          "@language": "en",
          "@value": "Double room, shower or bath, toilet"
        }
      ],
      "description": [
        {
          "@language": "de",
          "@value": "Modern eingerichtete Zimmer mit Dusche oder Bad/WC, Telefon, SAT-TV,"
        },
        {
          "@language": "en",
          "@value": "Modern furnished rooms with shower and toilet, Sat-TV, phone"
        }
      ],
      "availability": "http://schema.org/InStock",
      "itemOffered": [
        {
          "@type": [
            "HotelRoom",
            "Product"
          ],
          "name": [
            {
              "@language": "de",
              "@value": "Doppelzimmer mit Dusche od. Bad, WC"
            },
            {
              "@language": "en",
              "@value": "double room with shower or bath tube, WC"
            }
          ],
          "bed": {
            "@type": "BedDetails",
            "numberOfBeds": "1"
          },
          "occupancy": {
            "@type": "QuantitativeValue",
            "maxValue": "2",
            "minValue": "1"
          }
        }
      ],
      "priceSpecification": [
        {
          "@type": "PriceSpecification",
          "description": "Pax 1",
          "minPrice": "65.00",
          "maxPrice": "78.00",
          "priceCurrency": "EUR"
        },
        {
          "@type": "PriceSpecification",
          "description": "Pax 2",
          "minPrice": "55.00",
          "maxPrice": "68.00",
          "priceCurrency": "EUR"
        }
      ]
    },
    {
      "@type": "Offer",
      "name": [
        {
          "@language": "de",
          "@value": "Dreibettzimmer, Dusche, WC"
        },
        {
          "@language": "en",
          "@value": "Triple room, shower, toilet"
        }
      ],
      "availability": "http://schema.org/InStock",
      "itemOffered": [
        {
          "@type": [
            "HotelRoom",
            "Product"
          ],
          "name": [
            {
              "@language": "de",
              "@value": "Dreibettzimmer mit Dusche, WC"
            },
            {
              "@language": "en",
              "@value": "triple room with shower, WC"
            }
          ],
          "bed": {
            "@type": "BedDetails",
            "numberOfBeds": "1"
          },
          "occupancy": {
            "@type": "QuantitativeValue",
            "maxValue": "3",
            "minValue": "2"
          }
        }
      ],
      "priceSpecification": [
        {
          "@type": "PriceSpecification",
          "description": "Pax 2",
          "minPrice": "55.00",
          "maxPrice": "55.00",
          "priceCurrency": "EUR"
        },
        {
          "@type": "PriceSpecification",
          "description": "Pax 3",
          "minPrice": "55.00",
          "maxPrice": "55.00",
          "priceCurrency": "EUR"
        }
      ]
    }
  ]
}