{
  "@context": "http://schema.org",
  "@type": "LodgingBusiness",
  "address": {
    "@type": "PostalAddress",
    "streetAddress": "Hochfügenerstraße 156",
    "addressCountry": "AT",
    "postalCode": "6264",
    "addressRegion": "Fügenberg",
    "telephone": "(0031) 6537 85945",
    "faxNumber": "(0031) 162 470 713",
    "email": "Toine@schellekens-vanriel.nl",
    "url": "http://www.fugenberg.nl"
  },
  "name": "Schellekens, Johannes",
  "description": [
    {
      "@language": "de",
      "@value": "Im gemütlichen  Fügenberg wurde im Sommer 2012 dieses schöne Haus erbaut. Das Haus kann 12 bis 14 Personen unterbringen. Es ist auch sehr gut für kleinere Gruppen geeignet. Die Wohnung im Erdgeschoss ist für 2 bis 4 Personen. \n"
    },
    {
      "@language": "en",
      "@value": "Im gemütlichen  Fügenberg wurde im Sommer 2012 dieses schöne Haus erbaut. Das Haus kann 12 bis 14 Personen unterbringen. Es ist auch sehr gut für kleinere Gruppen geeignet. Die Wohnung im Erdgeschoss ist für 2 bis 4 Personen. "
    }
  ],
  "image": [
    {
      "@type": "ImageObject",
      "url": "http://resc.deskline.net/images/ZIL/1/63bc451e-5e2b-4d55-9c95-e989fd27490f/99/image.jpg",
      "caption": [
        {
          "@language": "de",
          "@value": "Schellekens Johannes Außen"
        },
        {
          "@language": "en",
          "@value": "Schellekens Johannes Außen"
        }
      ]
    }
  ],
  "geo": {
    "@type": "GeoCoordinates",
    "latitude": "47.3378484",
    "longitude": "11.8433942"
  },
  "currenciesAccepted": "EUR",
  "makesOffer": [
    {
      "@type": "Offer",
      "name": [
        {
          "@language": "de",
          "@value": "Appartement/Fewo, Bad, WC, 3 Schlafräume"
        },
        {
          "@language": "en",
          "@value": "Apartment, bath, toilet, 3 bed rooms"
        }
      ],
      "availability": "http://schema.org/InStock",
      "itemOffered": [
        {
          "@type": [
            "Apartment",
            "Product"
          ],
          "name": [
            {
              "@language": "de",
              "@value": "Appartement/Fewo, Bad, WC, 3 Schlafräume"
            },
            {
              "@language": "en",
              "@value": "Apartment, bath, toilet, 3 bed rooms"
            }
          ],
          "numberOfRooms": "5.0",
          "occupancy": {
            "@type": "QuantitativeValue",
            "maxValue": "8",
            "minValue": "4"
          }
        }
      ]
    }
  ]
}