{
  "@context": "http://schema.org",
  "@type": "LodgingBusiness",
  "url": [
    "http://maps.best-of-zillertal.at/nefos_app/frontend/page/fuegen/de?foreignResource\u003dE25CAC8E-133A-4EA5-86A1-A878DE556EEE#resourceDetail,3433837",
    "http://www.apartzillertal.at/"
  ],
  "address": {
    "@type": "PostalAddress",
    "streetAddress": "Föhrenweg 3",
    "addressCountry": "AT",
    "postalCode": "6274",
    "addressRegion": "Aschau im Zillertal",
    "telephone": "(0043) 664 1531540",
    "email": "info@apartzillertal.at",
    "url": "http://www.apartzillertal.at"
  },
  "name": "Apart Zillertal",
  "description": [
    {
      "@language": "de",
      "@value": "Unser neu erbautes Apart Zillertal liegt am Ortsrand von Aschau im Zillertal. Unsere moderne und hochwertig ausgestattete Ferienwohnung zeichnet sich besonders durch die ruhige und sonnige Lage aus und ist dennoch nur 3 Gehminuten vom Dorfzentrum Aschau entfernt. \n\nUnsere 2012 fertiggestellte, 68m² große, ebenerdige, familienfreundliche Wohlfühl -Ferienwohnung verfügt über einen separaten Hauseingang. Bei uns finden Sie alles vor, was Sie für einen gelungenen Urlaub in einer Ferienwohnung mit der ganzen Familie brauchen. \n\nVorraum mit Garderobe und Schischuhtrockner, 2 Schlafzimmer, Wohnküche mit gemütlicher Sitzecke, 2 Badezimmer mit DU/WC/Fön. Bei Bedarf stellen wir Ihnen gerne 2 Zustellbetten, ein zusätzliches Gitterbett und/oder einen Kinderhochstuhl zur Verfügung. Wir sorgen dafür, dass sich Ihre ganze Familie wohlfühlt und ihr Urlaub mit Kindern von Anfang an viel Freude bereitet.\nDie Küche ist komplett ausgestattet: Kühlschrank mit Gefrierfach, Geschirrspülmaschine, Backofen, Cerankochfeld, Mikrowelle, Kaffeemaschine, Wasserkocher, Toaster, Radio, Flat-TV, sowie genügend Koch- und Essgeschirr.\nSelbstverständlich stehen Ihnen Bettwäsche, Hand-, Bade- und Geschirrtücher für die Dauer ihres Aufenthalts zur Verfügung. Unsere Ferienwohnung ist eine Nichtraucherwohnung und Haustiere sind im Apart Zillertal leider nicht erlaubt.\n\nDie absoluten Highlights unserer Ferienwohnung dürfen Sie sich nicht entgehen lassen! Eine Fußbodenheizung und eine kleine Terrasse mit Gartengarnitur die Ihre ganze Familie zum Verweilen einlädt. Die Ferienwohnung ist außerdem durch die alleinige Verwendung von PVC und Fliesböden für Allergiker bestens geeignet! Gerne bringen wir Ihnen fürs Frühstück frische Brötchen und unseren Gästen stehen selbstverständlich genügend Parkplätze zur Verfügung. \n\nUnser Apart liegt nur ca. 100 m von der Skiabfahrt Hochzillertal entfernt. Für den Winterurlaub ist die unmittelbare Nähe unserer Ferienwohnung zu den Top-Skigebieten Hochzillertal - Hochfügen und Zillertal Arena optimal. Über die beschneite Talabfahrt Aschau des Skigebiets Hochzillertal können Sie bis direkt vor unsere Haustüre abfahren. In nächster Nähe der Ferienwohnung befinden sich viele Winterwanderwege, ein Supermarkt, eine Metzgerei und diverse Restaurants. \n\nIm Sommer ist unsere Ferienwohnung ein idealer Ausgangspunkt für Wanderungen oder sportliche Betätigung für die ganze Familie jeglicher Art. Ein toller Badesee befindet sich in unmittelbarer Nähe. Gut gepflegte Wanderwege und Klettersteige laden Sie ein, die schöne Natur im Kreise der Familie zu erkunden. Vom gemütlichen Spaziergang entlang der Zillerpromenade, einer Hüttenwanderung in einem unserer wildromantischen Seitentäler bis zur Bergtour auf die imposanten Dreitausender - es ist für Jeden etwas dabei.\n\nWir würden uns sehr freuen Sie als Gast bei uns im Apart Zillertal begrüßen zu dürfen!"
    },
    {
      "@language": "de",
      "@value": "* Storno: nur schriftl. Es gelten die österr. Hotelvertragsbedingungen!\n* Endreinigung € 65,- \n* Kurtaxe: € 0,75 im Sommer, € 1,- im Winter pro Pers./Tag\n* Je nach Buchungsplan Anreise auch von MO-FR möglich."
    },
    {
      "@language": "en",
      "@value": "Our newly constructed Apart Zillertal is located on the outskirts of Aschau in the Zillertal. Our modern and high-quality holiday apartment is particularly characterised by its quiet and sunny situation, only 3 minutes from Aschau centre on foot. \n\nOur family-friendly, 68m² feel-good holiday apartment, that is located at ground level and was completed in 2012, has a separate entrance. \n\nWe provide everything you look for when spending a perfect vacation together with your family, including a vestibule with wardrobe and ski boot dryer, 2 bedrooms, apartment kitchen with a cosy sitting corner, 2 bathrooms with shower/WC and a hair dryer. On request, we also offer 2 additional beds, a crib and/or a high chair for children. We make sure that your entire family feels at home and that you can enjoy your stay from the very start.\nThe kitchen is fully equipped with a fridge including freezer, dishwasher, oven, ceramic glass hob, microwave, coffee machine, kettle, toaster, radio, flat screen TV, as well as cookware and cutlery.\nOf course bed linen, towels and table-ware are provided free of charge during your stay. Our holiday apartment is a non-smoking facility and pets are not permitted at Apart Zillertal.\n\nAmong the absolute highlights of our holiday apartment are the integrated floor heating and a small terrace with a lounge set that invites your whole family to spend relaxing hours. Due to the exclusive use of PVC and tiled floors, the apartment is also ideally suited for guests suffering from allergies! We offer all our guests a breakfast service with fresh rolls and, of course, sufficient parking space. \n\nOur house is only about 100 m from the Hochzillertal ski run. The location of our holiday apartment next to the top skiing areas Hochzillertal - Hochfügen and Zillertal Arena is optimal. Via the snow-decked Aschau valley descent you can ski down from the Hochzillertal skiing resort right to your doorstep. Directly next to the holiday apartment are many winter hiking trails, a supermarket, a butcher\u0027s shop and various restaurants. \n\nIn summer, our holiday apartment is an ideal starting point for hikes or other sportive activities for the whole family. A bathing lake is right around the corner as well. Well-groomed hiking paths and climbing trails invite you to explore the beautiful nature together with your family. From a cosy walk along the Ziller promenade, a trip to a mountain hut in one of our romantic side valleys, all the way to a tour to one of the many three-thousand-metre peeks - there\u0027s something for everybody.\n\nWe look forward to welcoming you as a guest, here with us at the Apart Zillertal!\n\n\n\n\n\n\n"
    },
    {
      "@language": "en",
      "@value": "* Cancellations are only in written form available! \n*final cleaning 65,--\n* visitors tax : € 0,75 in summer and € 1,- in winter per person/day\n* the reservation is with 30% deposit from the total sum banded. If we are free it is possible to arrive a"
    }
  ],
  "aggregateRating": {
    "@type": "AggregateRating",
    "ratingValue": "4.9",
    "reviewCount": "16"
  },
  "image": [
    {
      "@type": "ImageObject",
      "url": "http://resc.deskline.net/images/ZIL/1/37498a6b-4f9c-4f99-bb96-33cb09db24e4/99/image.jpg",
      "caption": [
        {
          "@language": "de",
          "@value": "DSC03235"
        },
        {
          "@language": "en",
          "@value": "DSC03235"
        }
      ]
    },
    {
      "@type": "ImageObject",
      "url": "http://resc.deskline.net/images/ZIL/1/bc967178-e4bc-4432-b9a1-24617aeeefda/99/image.png",
      "caption": [
        {
          "@language": "de",
          "@value": "apart_zillertal_logo_ok"
        },
        {
          "@language": "en",
          "@value": "apart_zillertal_logo_ok"
        }
      ]
    },
    {
      "@type": "ImageObject",
      "url": "http://resc.deskline.net/images/ZIL/1/52bef75e-8650-4c56-929c-de82be9fd5f9/99/image.jpg",
      "caption": [
        {
          "@language": "de",
          "@value": "Zugang zum Apart"
        },
        {
          "@language": "en",
          "@value": "Zugang zum Apart"
        }
      ]
    },
    {
      "@type": "ImageObject",
      "url": "http://resc.deskline.net/images/ZIL/1/b8114b04-a875-4d88-a472-c02024c5bc1a/99/image.jpg",
      "caption": [
        {
          "@language": "de",
          "@value": "Willkommen"
        },
        {
          "@language": "en",
          "@value": "Willkommen"
        }
      ]
    },
    {
      "@type": "ImageObject",
      "url": "http://resc.deskline.net/images/ZIL/1/77c1c018-8e08-4d51-b292-99b67c49aa31/99/image.jpg",
      "caption": [
        {
          "@language": "de",
          "@value": "Hansl\u0027s Holzbank"
        },
        {
          "@language": "en",
          "@value": "Hansl\u0027s Holzbank"
        }
      ]
    },
    {
      "@type": "ImageObject",
      "url": "http://resc.deskline.net/images/ZIL/1/217d55fb-2742-40c8-8dfd-387e6fae2419/99/image.jpg",
      "caption": [
        {
          "@language": "de",
          "@value": "Haus Sommer"
        },
        {
          "@language": "en",
          "@value": "Haus Sommer"
        }
      ]
    },
    {
      "@type": "ImageObject",
      "url": "http://resc.deskline.net/images/ZIL/1/bf08b26e-7b93-48f6-a6db-fe9d14342ac1/99/image.jpg",
      "caption": [
        {
          "@language": "de",
          "@value": "Garten"
        },
        {
          "@language": "en",
          "@value": "Garten"
        }
      ]
    },
    {
      "@type": "ImageObject",
      "url": "http://resc.deskline.net/images/ZIL/1/12cd960f-252e-436f-97ce-7903211444ae/99/image.jpg",
      "caption": [
        {
          "@language": "de",
          "@value": "Talabfahrt u Schibus"
        },
        {
          "@language": "en",
          "@value": "Talabfahrt u Schibus"
        }
      ]
    },
    {
      "@type": "ImageObject",
      "url": "http://resc.deskline.net/images/ZIL/1/d96dacdb-b62e-449f-9c68-8d26264032e0/99/image.jpg",
      "caption": [
        {
          "@language": "de",
          "@value": "Blick auf die Talabfahrt hinter dem Apart"
        },
        {
          "@language": "en",
          "@value": "Blick auf die Talabfahrt hinter dem Apart"
        }
      ]
    },
    {
      "@type": "ImageObject",
      "url": "http://resc.deskline.net/images/ZIL/1/8f615281-dba6-484e-8a8c-b0351172a08b/99/image.jpg",
      "caption": [
        {
          "@language": "de",
          "@value": "Hauseingang"
        },
        {
          "@language": "en",
          "@value": "Hauseingang"
        }
      ]
    },
    {
      "@type": "ImageObject",
      "url": "http://resc.deskline.net/images/ZIL/1/93dfb650-9198-4e5b-9b20-1ba26ae1d5d4/99/image.jpg",
      "caption": [
        {
          "@language": "de",
          "@value": "Küche"
        },
        {
          "@language": "en",
          "@value": "Küche"
        }
      ]
    },
    {
      "@type": "ImageObject",
      "url": "http://resc.deskline.net/images/ZIL/1/aff7522a-6ebb-4731-b362-6a4f8455047d/99/image.jpg",
      "caption": [
        {
          "@language": "de",
          "@value": "Tisch"
        },
        {
          "@language": "en",
          "@value": "Tisch"
        }
      ]
    },
    {
      "@type": "ImageObject",
      "url": "http://resc.deskline.net/images/ZIL/1/d992ff44-394d-46ba-960d-20232c300a40/99/image.jpg",
      "caption": [
        {
          "@language": "de",
          "@value": "Küche"
        },
        {
          "@language": "en",
          "@value": "Küche"
        }
      ]
    },
    {
      "@type": "ImageObject",
      "url": "http://resc.deskline.net/images/ZIL/1/fee2c2b7-2933-461d-89e6-58cf0a42ea05/99/image.jpg",
      "caption": [
        {
          "@language": "de",
          "@value": "Tisch"
        },
        {
          "@language": "en",
          "@value": "Tisch"
        }
      ]
    },
    {
      "@type": "ImageObject",
      "url": "http://resc.deskline.net/images/ZIL/1/eb90d206-de6f-4a8f-bafc-9c3a7da2a558/99/image.jpg",
      "caption": [
        {
          "@language": "de",
          "@value": "Pano"
        },
        {
          "@language": "en",
          "@value": "Pano"
        }
      ]
    },
    {
      "@type": "ImageObject",
      "url": "http://resc.deskline.net/images/ZIL/1/9a38070c-cd3c-406a-af8f-3814d1abd791/99/image.jpg",
      "caption": [
        {
          "@language": "de",
          "@value": "SZ 1"
        },
        {
          "@language": "en",
          "@value": "SZ 1"
        }
      ]
    },
    {
      "@type": "ImageObject",
      "url": "http://resc.deskline.net/images/ZIL/1/47f975ac-b272-450e-abdc-0640c1bdcf5e/99/image.jpg",
      "caption": [
        {
          "@language": "de",
          "@value": "Zustellbett SZ 1"
        },
        {
          "@language": "en",
          "@value": "Zustellbett SZ 1"
        }
      ]
    },
    {
      "@type": "ImageObject",
      "url": "http://resc.deskline.net/images/ZIL/1/618215b9-0471-41e2-aa4b-b451b67f7ec6/99/image.jpg",
      "caption": [
        {
          "@language": "de",
          "@value": "SZ 2"
        },
        {
          "@language": "en",
          "@value": "SZ 2"
        }
      ]
    },
    {
      "@type": "ImageObject",
      "url": "http://resc.deskline.net/images/ZIL/1/2dc5bf0c-3d67-449b-af31-a3fd2ea3f024/99/image.jpg",
      "caption": [
        {
          "@language": "de",
          "@value": "Ausziehsessel SZ 2"
        },
        {
          "@language": "en",
          "@value": "Ausziehsessel SZ 2"
        }
      ]
    },
    {
      "@type": "ImageObject",
      "url": "http://resc.deskline.net/images/ZIL/1/b3ac7498-bfd6-4b52-af48-0cedcee01146/99/image.jpg",
      "caption": [
        {
          "@language": "de",
          "@value": "SZ 2 Vorraum"
        },
        {
          "@language": "en",
          "@value": "SZ 2 Vorraum"
        }
      ]
    },
    {
      "@type": "ImageObject",
      "url": "http://resc.deskline.net/images/ZIL/1/342cbe19-e59c-41ed-a20c-a415a99f87a1/99/image.jpg",
      "caption": [
        {
          "@language": "de",
          "@value": "Badezimmer 1"
        },
        {
          "@language": "en",
          "@value": "Badezimmer 1"
        }
      ]
    },
    {
      "@type": "ImageObject",
      "url": "http://resc.deskline.net/images/ZIL/1/b56d9132-e474-49ac-97d6-fc2b3261a1a7/99/image.jpg",
      "caption": [
        {
          "@language": "de",
          "@value": "Badezimmer 2"
        },
        {
          "@language": "en",
          "@value": "Badezimmer 2"
        }
      ]
    },
    {
      "@type": "ImageObject",
      "url": "http://resc.deskline.net/images/ZIL/1/6000db38-aac8-47e1-aed3-653a156da8e0/99/image.jpg",
      "caption": [
        {
          "@language": "de",
          "@value": "Hausgang"
        },
        {
          "@language": "en",
          "@value": "Hausgang"
        }
      ]
    },
    {
      "@type": "ImageObject",
      "url": "http://resc.deskline.net/images/ZIL/1/02e3b34a-66a8-408c-9d70-30f399e82b2d/99/image.jpg",
      "caption": [
        {
          "@language": "de",
          "@value": "Schischuhtrockner"
        },
        {
          "@language": "en",
          "@value": "Schischuhtrockner"
        }
      ]
    },
    {
      "@type": "ImageObject",
      "url": "http://resc.deskline.net/images/ZIL/1/3af7eb9e-2e8a-498f-a93c-32f6e0d3ed0f/99/image.jpg",
      "caption": [
        {
          "@language": "de",
          "@value": "Grundriss"
        },
        {
          "@language": "en",
          "@value": "Grundriss"
        }
      ]
    }
  ],
  "geo": {
    "@type": "GeoCoordinates",
    "latitude": "47.265120959184",
    "longitude": "11.8908548355103"
  },
  "currenciesAccepted": "EUR",
  "makesOffer": [
    {
      "@type": "Offer",
      "name": [
        {
          "@language": "de",
          "@value": "Appartement/Fewo, Dusche, WC, 2 Schlafräume"
        },
        {
          "@language": "en",
          "@value": "Apartment, shower, toilet, 2 bed rooms"
        }
      ],
      "description": [
        {
          "@language": "de",
          "@value": "Unsere 2012 fertiggestellte, 68m² große, ebenerdige, familienfreundliche Wohlfühl-Ferienwohnung verfügt über einen separaten Hauseingang und ist wie folgt ausgestattet:\nVorraum mit Garderobe/Schischuhtrockner, 2 Schlafzimmer, Wohnküche mit gemütlicher Sitzecke, 2 Badezimmer mit DU/WC/Fön; \n2 Zustellbetten bei Bedarf. Gitterbett und Kinderhochstuhl auf Wunsch.  \nDie Küche ist komplett ausgestattet: \nKühlschrank mit Gefrierfach, Geschirrspülmaschine, Backofen, Cerankochfeld, Mikrowelle, Kaffeemaschine, Wasserkocher, Toaster, Radio, Flat-TV/SAT, sowie genügend Koch- und Essgeschirr.\nBettwäsche, Hand-, Bade-, Geschirrtücher stehen für die Dauer ihres Aufenthalts zur Verfügung.\nNichtraucher-Apart; Haustiere sind nicht erlaubt.\nWeitere Extras:\nFußbodenheizung\nkleine Terrasse mit Gartengarnitur\nAußenjalousien\nAllergiker geeignet (nur PVC und Fliesenböden)\n\nVerpflegung:\nBrötchenservice auf Wunsch\n"
        },
        {
          "@language": "en",
          "@value": "Our 2012 new buildet, 68 m² great, grounded level and family friendly comfortable Appartement dispose about an own entrance and is equipped like:\nanterrroom with coattrack, ski shoe dryer, two sleeping rooms, living kitchen with comfortable lounge, 2 bathing rooms with shower, WC, Dryer;\n2 extra beds, a cot or a child high chair on request.\nThe kitchen is completely equipped with: a fridge with freezer, dish washer, baking oven, ceramic stove top, microwave, coffee machine, electric kettle, toaster, radio, Flat TV/SAT, as enough dinner wear for cooking and eating.\nDuring your stay you have bed-clothes, towels, bath towels and dishtowels for free order.\nWe are a non smoker Apart and pets are not allowed.\n\nMore extras:\n- floor heating\n- small terrasse with a lot of seating facilities\n- window shades\n- suitable for people suffering from an allergy ( PVC floor and tiled floors)\n- fresh rolls on request"
        }
      ],
      "availability": "http://schema.org/InStock",
      "itemOffered": [
        {
          "@type": [
            "Apartment",
            "Product"
          ],
          "name": [
            {
              "@language": "de",
              "@value": "Appartement/Fewo, 2 Dusche, WC, 2 Schlafräume"
            },
            {
              "@language": "en",
              "@value": "Apartment, shower, toilet, 2 bed rooms"
            }
          ],
          "numberOfRooms": "5.0",
          "occupancy": {
            "@type": "QuantitativeValue",
            "maxValue": "6",
            "minValue": "2"
          }
        }
      ],
      "priceSpecification": [
        {
          "@type": "PriceSpecification",
          "description": "Pax 2",
          "minPrice": "86.00",
          "maxPrice": "126.00",
          "priceCurrency": "EUR"
        },
        {
          "@type": "PriceSpecification",
          "description": "Pax 3",
          "minPrice": "86.00",
          "maxPrice": "126.00",
          "priceCurrency": "EUR"
        },
        {
          "@type": "PriceSpecification",
          "description": "Pax 4",
          "minPrice": "86.00",
          "maxPrice": "126.00",
          "priceCurrency": "EUR"
        },
        {
          "@type": "PriceSpecification",
          "description": "Pax 5",
          "minPrice": "106.00",
          "maxPrice": "152.00",
          "priceCurrency": "EUR"
        },
        {
          "@type": "PriceSpecification",
          "description": "Pax 6",
          "minPrice": "126.00",
          "maxPrice": "178.00",
          "priceCurrency": "EUR"
        }
      ]
    }
  ]
}