{
  "@context": "http://schema.org",
  "@type": "LodgingBusiness",
  "url": [
    "http://ferienwohnung.la-wurm.at",
    "http://ferienwohnung.la-wurm.at"
  ],
  "address": {
    "@type": "PostalAddress",
    "name": "Ferienwohnung La Wurm",
    "streetAddress": "Kapellstr. 84",
    "addressCountry": "AT",
    "postalCode": "6265",
    "addressRegion": "Hart im Zillertal",
    "telephone": "(0043) 664 1030403",
    "email": "rene.wurm1105@gmail.com"
  },
  "name": "Ferienwohnung La Wurm",
  "description": [
    {
      "@language": "de",
      "@value": "Die Ferienwohnung La Wurm, für  2-6 Personen, befindet sich in ruhiger Lage auf ca. 900 m Seehöhe und bietet einen atemberaubenden Bliuck ins Zillertal. Direkt am Waldrand befindet sich die  150 QUadratmeter große Ferienwohnung, die sich über zwei Etagen erstreckt.\nZusätzlich steht Ihnen eine 70 Quadratmeter große Sonnenterrasse zur Verfügung - ein idealer Platz, um sich wohl zu fühlen und um die Aussicht auf die umliegende Bergwelt zu genießen."
    },
    {
      "@language": "de",
      "@value": "Im Preis sind bereits die Betriebskosten inkludiert."
    },
    {
      "@language": "de",
      "@value": "Anreise ab 15.00 Uhr\nAbreise bis 8.00 Uhr"
    },
    {
      "@language": "en",
      "@value": "appartment with 150 square meters for 2-6 persons in a calm and sunny situation.A big terrasse for relaxing hilidays."
    },
    {
      "@language": "en",
      "@value": "incl. operating cost"
    },
    {
      "@language": "en",
      "@value": "check-in 15.00 p.m.\ncheck-out 8.00 a.m."
    }
  ],
  "image": [
    {
      "@type": "ImageObject",
      "url": "http://resc.deskline.net/images/ZIL/1/bab0842b-9462-4221-a424-ac16083b0ac6/99/image.jpg",
      "caption": [
        {
          "@language": "de",
          "@value": "Gebäudeansicht ins Zillertal"
        },
        {
          "@language": "en",
          "@value": "Gebäudeansicht ins Zillertal"
        }
      ]
    },
    {
      "@type": "ImageObject",
      "url": "http://resc.deskline.net/images/ZIL/1/a6884090-40c2-4ce3-98ce-7cca902ef432/99/image.jpg",
      "caption": [
        {
          "@language": "de",
          "@value": "Balkon Schlafzimmer"
        },
        {
          "@language": "en",
          "@value": "Balkon Schlafzimmer"
        }
      ]
    },
    {
      "@type": "ImageObject",
      "url": "http://resc.deskline.net/images/ZIL/1/791ea75a-3adb-4642-8579-54b45bab5750/99/image.jpg",
      "caption": [
        {
          "@language": "de",
          "@value": "Eingangsansicht Fewo"
        },
        {
          "@language": "en",
          "@value": "Eingangsansicht Fewo"
        }
      ]
    },
    {
      "@type": "ImageObject",
      "url": "http://resc.deskline.net/images/ZIL/1/16906b6f-966a-402f-9df4-5ecf27b83814/99/image.jpg",
      "caption": [
        {
          "@language": "de",
          "@value": "Gebäudeansicht ins Tal"
        },
        {
          "@language": "en",
          "@value": "Gebäudeansicht ins Tal"
        }
      ]
    },
    {
      "@type": "ImageObject",
      "url": "http://resc.deskline.net/images/ZIL/1/40dc0dd0-8b67-4388-8275-9c3178f590ec/99/image.jpg",
      "caption": [
        {
          "@language": "de",
          "@value": "Terrasse EG"
        },
        {
          "@language": "en",
          "@value": "Terrasse EG"
        }
      ]
    },
    {
      "@type": "ImageObject",
      "url": "http://resc.deskline.net/images/ZIL/1/b7ac3832-b3c9-4555-97a0-a35af6ec7e1b/99/image.jpg",
      "caption": [
        {
          "@language": "de",
          "@value": "Homepage"
        },
        {
          "@language": "en",
          "@value": "Homepage"
        }
      ]
    },
    {
      "@type": "ImageObject",
      "url": "http://resc.deskline.net/images/ZIL/1/150a6094-6ac5-4ec3-835c-f53d04a2d09f/99/image.jpg",
      "caption": [
        {
          "@language": "de",
          "@value": "Eckbank Terrasse"
        },
        {
          "@language": "en",
          "@value": "Eckbank Terrasse"
        }
      ]
    },
    {
      "@type": "ImageObject",
      "url": "http://resc.deskline.net/images/ZIL/1/5429de69-4687-470c-a619-48f6a70904ab/99/image.jpg",
      "caption": [
        {
          "@language": "de",
          "@value": "Eckbank auf Terrasse"
        },
        {
          "@language": "en",
          "@value": "Eckbank auf Terrasse"
        }
      ]
    },
    {
      "@type": "ImageObject",
      "url": "http://resc.deskline.net/images/ZIL/1/e920dcb4-7bc8-4dda-859d-c9f6fc442ec0/99/image.jpg",
      "caption": [
        {
          "@language": "de",
          "@value": "Aussicht EG Terrasse"
        },
        {
          "@language": "en",
          "@value": "Aussicht EG Terrasse"
        }
      ]
    },
    {
      "@type": "ImageObject",
      "url": "http://resc.deskline.net/images/ZIL/1/8b17662d-5735-44f0-8c45-f7cfa702feb7/99/image.jpg",
      "caption": [
        {
          "@language": "de",
          "@value": "Gebäudeansicht"
        },
        {
          "@language": "en",
          "@value": "Gebäudeansicht"
        }
      ]
    },
    {
      "@type": "ImageObject",
      "url": "http://resc.deskline.net/images/ZIL/1/9f357631-9642-46f3-984c-d93a61ae567b/99/image.jpg",
      "caption": [
        {
          "@language": "de",
          "@value": "Parkplatz Ferienwohnung"
        },
        {
          "@language": "en",
          "@value": "Parkplatz Ferienwohnung"
        }
      ]
    },
    {
      "@type": "ImageObject",
      "url": "http://resc.deskline.net/images/ZIL/1/e75c0440-c989-402b-bb1b-e71226eb4b92/99/image.jpg",
      "caption": [
        {
          "@language": "de",
          "@value": "Küche"
        },
        {
          "@language": "en",
          "@value": "Küche"
        }
      ]
    },
    {
      "@type": "ImageObject",
      "url": "http://resc.deskline.net/images/ZIL/1/0a990ceb-c4f7-47be-9c93-cc8b6dea59ce/99/image.jpg",
      "caption": [
        {
          "@language": "de",
          "@value": "Eckbank in der Küche"
        },
        {
          "@language": "en",
          "@value": "Eckbank in der Küche"
        }
      ]
    },
    {
      "@type": "ImageObject",
      "url": "http://resc.deskline.net/images/ZIL/1/e936c9ec-c413-49f1-990d-e63b28b66beb/99/image.jpg",
      "caption": [
        {
          "@language": "de",
          "@value": "Willkommensgeschenk"
        },
        {
          "@language": "en",
          "@value": "Willkommensgeschenk"
        }
      ]
    },
    {
      "@type": "ImageObject",
      "url": "http://resc.deskline.net/images/ZIL/1/83619009-b5f6-448e-ba42-89839f6f2dee/99/image.jpg",
      "caption": [
        {
          "@language": "de",
          "@value": "Küche"
        },
        {
          "@language": "en",
          "@value": "Küche"
        }
      ]
    },
    {
      "@type": "ImageObject",
      "url": "http://resc.deskline.net/images/ZIL/1/6d2655c6-d001-4a5a-85bb-961e332c0bd0/99/image.jpg",
      "caption": [
        {
          "@language": "de",
          "@value": "DSC_0060"
        },
        {
          "@language": "en",
          "@value": "DSC_0060"
        }
      ]
    },
    {
      "@type": "ImageObject",
      "url": "http://resc.deskline.net/images/ZIL/1/b1db5591-e752-4a30-9697-ea995a282bcd/99/image.jpg",
      "caption": [
        {
          "@language": "de",
          "@value": "Küche"
        },
        {
          "@language": "en",
          "@value": "Küche"
        }
      ]
    },
    {
      "@type": "ImageObject",
      "url": "http://resc.deskline.net/images/ZIL/1/c2ce61ea-bbc8-42fb-a761-9a24d0efa981/99/image.jpg",
      "caption": [
        {
          "@language": "de",
          "@value": "Wohnzimmer (4)"
        },
        {
          "@language": "en",
          "@value": "Wohnzimmer (4)"
        }
      ]
    },
    {
      "@type": "ImageObject",
      "url": "http://resc.deskline.net/images/ZIL/1/5e8b02dc-4f27-4f2b-a773-ac967a4be059/99/image.jpg",
      "caption": [
        {
          "@language": "de",
          "@value": "WZ L"
        },
        {
          "@language": "en",
          "@value": "WZ L"
        }
      ]
    },
    {
      "@type": "ImageObject",
      "url": "http://resc.deskline.net/images/ZIL/1/f2ec6869-911d-4563-983a-f464cd105e1e/99/image.jpg",
      "caption": [
        {
          "@language": "de",
          "@value": "WZ 1"
        },
        {
          "@language": "en",
          "@value": "WZ 1"
        }
      ]
    },
    {
      "@type": "ImageObject",
      "url": "http://resc.deskline.net/images/ZIL/1/88c8ba29-5a20-4dca-96b5-8547185507a4/99/image.jpg",
      "caption": [
        {
          "@language": "de",
          "@value": "Trockenraum"
        },
        {
          "@language": "en",
          "@value": "Trockenraum"
        }
      ]
    },
    {
      "@type": "ImageObject",
      "url": "http://resc.deskline.net/images/ZIL/1/713a8535-f98d-4160-95d2-ac6c76896680/99/image.jpg",
      "caption": [
        {
          "@language": "de",
          "@value": "DSC_0422"
        },
        {
          "@language": "en",
          "@value": "DSC_0422"
        }
      ]
    },
    {
      "@type": "ImageObject",
      "url": "http://resc.deskline.net/images/ZIL/1/4ff02ef8-4d14-4ec6-8509-f78182d88ef2/99/image.jpg",
      "caption": [
        {
          "@language": "de",
          "@value": "Aufgang ins OG"
        },
        {
          "@language": "en",
          "@value": "Aufgang ins OG"
        }
      ]
    },
    {
      "@type": "ImageObject",
      "url": "http://resc.deskline.net/images/ZIL/1/84fa7e14-3343-4685-a2be-f39f279abba4/99/image.jpg",
      "caption": [
        {
          "@language": "de",
          "@value": "Eichenholz Schlafzimmer"
        },
        {
          "@language": "en",
          "@value": "Eichenholz Schlafzimmer"
        }
      ]
    },
    {
      "@type": "ImageObject",
      "url": "http://resc.deskline.net/images/ZIL/1/77ee0cc4-afdb-49b2-9fe4-890edc114a48/99/image.jpg",
      "caption": [
        {
          "@language": "de",
          "@value": "Zirbenholzschlafzimmer OG"
        },
        {
          "@language": "en",
          "@value": "Zirbenholzschlafzimmer OG"
        }
      ]
    },
    {
      "@type": "ImageObject",
      "url": "http://resc.deskline.net/images/ZIL/1/e77e2edd-13cc-48a4-81c4-7cb30bc48216/99/image.jpg",
      "caption": [
        {
          "@language": "de",
          "@value": "Kinderzimmer"
        },
        {
          "@language": "en",
          "@value": "Kinderzimmer"
        }
      ]
    },
    {
      "@type": "ImageObject",
      "url": "http://resc.deskline.net/images/ZIL/1/c2b4a06f-c8ac-4305-b3a4-b83cdd8f00ba/99/image.jpg",
      "caption": [
        {
          "@language": "de",
          "@value": "Aussicht"
        },
        {
          "@language": "en",
          "@value": "Aussicht"
        }
      ]
    },
    {
      "@type": "ImageObject",
      "url": "http://resc.deskline.net/images/ZIL/1/4ef46d3e-b9cf-49dc-8b00-39fba21a70ac/99/image.jpg",
      "caption": [
        {
          "@language": "de",
          "@value": "Balkon OG"
        },
        {
          "@language": "en",
          "@value": "Balkon OG"
        }
      ]
    },
    {
      "@type": "ImageObject",
      "url": "http://resc.deskline.net/images/ZIL/1/6d0cff6f-a172-4e83-8801-c1d0260613b7/99/image.jpg",
      "caption": [
        {
          "@language": "de",
          "@value": "DSC_0056"
        },
        {
          "@language": "en",
          "@value": "DSC_0056"
        }
      ]
    },
    {
      "@type": "ImageObject",
      "url": "http://resc.deskline.net/images/ZIL/1/d6e267eb-2a28-4385-a1c4-9ec0117f030c/99/image.jpg",
      "caption": [
        {
          "@language": "de",
          "@value": "Eichenholzschlafzimmer"
        },
        {
          "@language": "en",
          "@value": "Eichenholzschlafzimmer"
        }
      ]
    },
    {
      "@type": "ImageObject",
      "url": "http://resc.deskline.net/images/ZIL/1/183d793e-87d3-4827-b220-1d00f7ef8670/99/image.jpg",
      "caption": [
        {
          "@language": "de",
          "@value": "Begehbare Dusche"
        },
        {
          "@language": "en",
          "@value": "Begehbare Dusche"
        }
      ]
    },
    {
      "@type": "ImageObject",
      "url": "http://resc.deskline.net/images/ZIL/1/eb128939-bb77-42f8-a08b-cfd15ba19a88/99/image.jpg",
      "caption": [
        {
          "@language": "de",
          "@value": "Bad"
        },
        {
          "@language": "en",
          "@value": "Bad"
        }
      ]
    },
    {
      "@type": "ImageObject",
      "url": "http://resc.deskline.net/images/ZIL/1/95839b78-a932-4098-8376-7e7b733be0e6/99/image.jpg",
      "caption": [
        {
          "@language": "de",
          "@value": "Position der Ferienwohnung"
        },
        {
          "@language": "en",
          "@value": "Position der Ferienwohnung"
        }
      ]
    },
    {
      "@type": "ImageObject",
      "url": "http://resc.deskline.net/images/ZIL/1/7577e58b-85e2-47e0-a1a3-59330f1aa8d8/99/image.jpg",
      "caption": [
        {
          "@language": "de",
          "@value": "Gebäudeansicht"
        },
        {
          "@language": "en",
          "@value": "Gebäudeansicht"
        }
      ]
    },
    {
      "@type": "ImageObject",
      "url": "http://resc.deskline.net/images/ZIL/1/d72c856a-0ed7-405a-a8bb-1e1a00749900/99/image.jpg",
      "caption": [
        {
          "@language": "de",
          "@value": "Aussicht Terrasse"
        },
        {
          "@language": "en",
          "@value": "Aussicht Terrasse"
        }
      ]
    },
    {
      "@type": "ImageObject",
      "url": "http://resc.deskline.net/images/ZIL/1/d1080008-a010-4e4e-bce5-44057d82f9b1/99/image.jpg",
      "caption": [
        {
          "@language": "de",
          "@value": "DSC_0445"
        },
        {
          "@language": "en",
          "@value": "DSC_0445"
        }
      ]
    },
    {
      "@type": "ImageObject",
      "url": "http://resc.deskline.net/images/ZIL/1/fc899148-9008-460d-ae01-f8af6fd412bd/99/image.jpg",
      "caption": [
        {
          "@language": "de",
          "@value": "Nachtaussicht"
        },
        {
          "@language": "en",
          "@value": "Nachtaussicht"
        }
      ]
    },
    {
      "@type": "ImageObject",
      "url": "http://resc.deskline.net/images/ZIL/1/8c31defd-5e5f-4572-b1a3-26c5c6aaecf7/99/image.jpg",
      "caption": [
        {
          "@language": "de",
          "@value": "Tiefschneefahren"
        },
        {
          "@language": "en",
          "@value": "Tiefschneefahren"
        }
      ]
    },
    {
      "@type": "ImageObject",
      "url": "http://resc.deskline.net/images/ZIL/1/f29ef277-f7c8-4be3-bbae-f27b45c420a8/99/image.jpg",
      "caption": [
        {
          "@language": "de",
          "@value": "Panorama01"
        },
        {
          "@language": "en",
          "@value": "Panorama01"
        }
      ]
    },
    {
      "@type": "ImageObject",
      "url": "http://resc.deskline.net/images/ZIL/1/32174c09-7837-4761-9c2b-de62441412fd/99/image.jpg",
      "caption": [
        {
          "@language": "de",
          "@value": "IMG-20160921-WA0003"
        },
        {
          "@language": "en",
          "@value": "IMG-20160921-WA0003"
        }
      ]
    },
    {
      "@type": "ImageObject",
      "url": "http://resc.deskline.net/images/ZIL/1/9f61a830-8a88-4c98-98d8-643f0bf16af9/99/image.jpg",
      "caption": [
        {
          "@language": "de",
          "@value": "Schneeschuhwanderung"
        },
        {
          "@language": "en",
          "@value": "Schneeschuhwanderung"
        }
      ]
    },
    {
      "@type": "ImageObject",
      "url": "http://resc.deskline.net/images/ZIL/1/551bfdde-3a48-4361-8b20-7ba3d80a685f/99/image.jpg",
      "caption": [
        {
          "@language": "de",
          "@value": "Tiefschneefahren"
        },
        {
          "@language": "en",
          "@value": "Tiefschneefahren"
        }
      ]
    },
    {
      "@type": "ImageObject",
      "url": "http://resc.deskline.net/images/ZIL/1/0b34f377-691d-4191-b66b-85fdfbf4c9a3/99/image.jpg",
      "caption": [
        {
          "@language": "de",
          "@value": "Hochfügen Skigebiet"
        },
        {
          "@language": "en",
          "@value": "Hochfügen Skigebiet"
        }
      ]
    },
    {
      "@type": "ImageObject",
      "url": "http://resc.deskline.net/images/ZIL/1/a9665b7c-de75-481a-a659-de870d4e0213/99/image.jpg",
      "caption": [
        {
          "@language": "de",
          "@value": "Tourenskiwanderung"
        },
        {
          "@language": "en",
          "@value": "Tourenskiwanderung"
        }
      ]
    },
    {
      "@type": "ImageObject",
      "url": "http://resc.deskline.net/images/ZIL/1/f544bd03-80f1-4b3c-a558-5bc4dad8eb59/99/image.jpg",
      "caption": [
        {
          "@language": "de",
          "@value": "Schlitterer SEE"
        },
        {
          "@language": "en",
          "@value": "Schlitterer SEE"
        }
      ]
    },
    {
      "@type": "ImageObject",
      "url": "http://resc.deskline.net/images/ZIL/1/d5aebdcf-bdec-4bfd-92dc-ee802b99d0c0/99/image.jpg",
      "caption": [
        {
          "@language": "de",
          "@value": "Therme Fügen"
        },
        {
          "@language": "en",
          "@value": "Therme Fügen"
        }
      ]
    },
    {
      "@type": "ImageObject",
      "url": "http://resc.deskline.net/images/ZIL/1/968b3e4a-aeb9-42fd-9984-b94dce752add/99/image.jpg",
      "caption": [
        {
          "@language": "de",
          "@value": "Haussansicht"
        },
        {
          "@language": "en",
          "@value": "Haussansicht"
        }
      ]
    },
    {
      "@type": "ImageObject",
      "url": "http://resc.deskline.net/images/ZIL/1/7d11b4a5-7032-42ed-be93-f595362b7e4b/99/image.jpg",
      "caption": [
        {
          "@language": "de",
          "@value": "Terrasse OG"
        },
        {
          "@language": "en",
          "@value": "Terrasse OG"
        }
      ]
    }
  ],
  "geo": {
    "@type": "GeoCoordinates",
    "latitude": "47.3664067",
    "longitude": "11.8751102"
  },
  "currenciesAccepted": "EUR",
  "makesOffer": [
    {
      "@type": "Offer",
      "name": [
        {
          "@language": "de",
          "@value": "Appartement/Fewo, Bad, WC, 3 Schlafräume"
        },
        {
          "@language": "en",
          "@value": "Apartment, bath, toilet, 3 bed rooms"
        }
      ],
      "description": [
        {
          "@language": "de",
          "@value": "150 Quadratmeter große, neue Ferienwohnung in sonniger, ruhiger Berglage mit einer großen Sonnenterrasse für entspannte Abende.\n"
        },
        {
          "@language": "en",
          "@value": "appartement with 3 bedrooms for 2-6 persons in a calm and sunny situation."
        }
      ],
      "availability": "http://schema.org/InStock",
      "itemOffered": [
        {
          "@type": [
            "Apartment",
            "Product"
          ],
          "name": [
            {
              "@language": "de",
              "@value": "Ferienwohnung La Wurm"
            },
            {
              "@language": "en",
              "@value": "Apartment, bath, toilet, 3 bed rooms"
            }
          ],
          "numberOfRooms": "4.0",
          "occupancy": {
            "@type": "QuantitativeValue",
            "maxValue": "6",
            "minValue": "2"
          }
        }
      ],
      "priceSpecification": [
        {
          "@type": "PriceSpecification",
          "description": "Pax 2",
          "minPrice": "160.00",
          "maxPrice": "300.00",
          "priceCurrency": "EUR"
        },
        {
          "@type": "PriceSpecification",
          "description": "Pax 3",
          "minPrice": "160.00",
          "maxPrice": "300.00",
          "priceCurrency": "EUR"
        },
        {
          "@type": "PriceSpecification",
          "description": "Pax 4",
          "minPrice": "160.00",
          "maxPrice": "300.00",
          "priceCurrency": "EUR"
        }
      ]
    }
  ]
}