{
  "@context": "http://schema.org",
  "@type": "LodgingBusiness",
  "address": {
    "@type": "PostalAddress",
    "streetAddress": "Hochfügenerstr. 38a/Top 2",
    "addressCountry": "AT",
    "postalCode": "6263",
    "addressRegion": "Fügen",
    "telephone": "(0043) 664 483 84 48",
    "email": "info@ferien-zillertal.tirol",
    "url": "http://www.ferien-zillertal.tirol"
  },
  "name": "Ferienwohnung Haus Markus",
  "description": [
    {
      "@language": "de",
      "@value": "Verbringen Sie traumhafte Tage und unvergessliche Momente mit Ihrer Familie in der Ferienwohnung Haus Markus im malerischen Fügen inmitten der Ersten Ferienregion Zillertal! \nBezwingen Sie beim Wandern die majestätischen Gipfel im Zillertal und erkunden Sie die weitläufigen Pisten der Skigebiete Hochfügen-Hochzillertal und Spieljoch. \n \nDie Ferienwohnung Haus Markus bietet Ihnen auf 60 m2 Platz für bis zu 4 Personen. In der Unterkunft erwarten Sie zwei gemütlich und hell eingerichtete Doppelzimmer, ein charmanter Wohn-Essbereich mit voll ausgestatteter Küchenzeile und ein nach modernen Standards saniertes Badezimmer mit Dusche und separatem WC. W-Lan und Sat-TV sind natürlich kostenlos und überall in der Ferienwohnung vorhanden, ebenso wie ein großer PKW-Parkplatz und ein privater Wohnungseingang. \n \nSitzgelegenheiten vor dem Haus Markus bieten Ihnen die Möglichkeit, das atemberaubende Alpenpanorama bei herrlichem Sonnenschein zu genießen und Ihren Kindern beim Spielen auf den einladenden Wiesen rund um Ihre Ferienwohnung zu lauschen.  \n \nIm Winter gelangen Sie von der Ferienwohnung Haus Markus bequem und einfach entweder in 15 Minuten Fußweg oder mit dem kostenlosen Skibus, der 100 Meter vor der Haustür abfährt, zur Talstation in Fügen. Von hier aus erwarten Sie in Ihrem Ski-Urlaub mit der ganzen Familie über 100 km bestens präparierte Pisten im Skigebiet Hochfügen-Hochzillertal und dem familienfreundlichen Skigebiet Spieljoch. Die Tage abseits der Berge gestalten Sie abwechslungsreich und voller Spaß rund um Fügen im Zillertal. Gehen Sie auf eine traumhafte Schneeschuhwanderung oder erleben Sie mit Ihrer Familie eine der Naturrodelbahnen in der Umgebung. Verbringen Sie erholsame Stunden bei Wellness und Entspannung in der nur 3 Fahrminuten entfernten Erlebnis-Therme Zillertal, während Ihre Kinder das Rutschenparadies für sich entdecken. \n \nIm Sommer ist die Ferienwohnung Haus Markus der ideale Ausgangspunkt zum Wandern und für einzigartige Erlebnisse auf einem der vielen Themenwege rund um Fügen. Lassen Sie sich von der Natur im Zillertal verzaubern und erklimmen Sie beim Klettern oder auf Touren mit dem Fahrrad und Mountainbike die Bergwelt Tirols. Für Abkühlung und Badespaß sorgen das 15 Gehminuten entfernte Freibad in Fügen und die zahlreichen erfrischenden Badeseen. Für unvergessliche Tagesausflüge garantiert Ihnen die Zillertaler Höhenstraße atemberaubende Ausblicke und Naturspektakel für die ganze Familie.  \n \nGerne begrüßen wir Sie in Ihrem Urlaub mit der Familie in der Ferienwohnung Haus Markus in Fügen im Zillertal und freuen uns auf Ihren Besuch! \n \nIhre Familie Zeller "
    },
    {
      "@language": "en",
      "@value": "Spend wonderful days and unforgettable moments together with your family in the holiday apartment of the Markus guesthouse in the picturesque Fügen at the heart of Erste Ferienregion Zillertal! Conquer the majestic summits of the Zillertal when hiking and explore the vast slopes of the skiing resorts Hochfügen-Hochzillertal and Spieljoch.\n\nThe apartment of the Markus guesthouse accommodates up to 4 people across 60 m2 and offers two cosy and brightly furnished double rooms, a charming living-dining area with a fully equipped kitchenette and a modern standard bathroom with shower and separate toilet. Wi-Fi and satellite TV are available free of charge throughout the apartment, and a large car park as well as a private entrance to the apartment are on offer as well.\n\nSitting in front of the Markus guesthouse you can enjoy the breath-taking alpine panorama in glorious sunshine while supervising your children, who are playing on the inviting meadows around your apartment.\n\nIn winter, you can comfortably and easily reach the Valley Station in Fügen either after a 15-minute walk or when taking the free ski bus, which departs only 100 metres from the apartment of the Markus guesthouse. From there you can start your skiing holiday together with your entire family across more than 100 km of perfectly groomed slopes in the Hochfügen-Hochzillertal skiing resort and in the family-friendly Spieljoch skiing area. Your days off the Zillertal Mountains can, of course, be varied and fun-filled as well. Experience a fantastic snowshoe hike or discover one of the sled runs in the area with your family. Spend relaxing hours at Erlebnis-Therme Zillertal where spa pleasures and relaxation are just a 3-minute drive away, while your children discover the slide paradise there.\n\nIn summer, the Markus guesthouse is the ideal starting point for hiking tours and unique experiences on the many themed trails around Fügen. Be enchanted by Zillertal’s nature and conquer the mountains of Tyrol when climbing or on occasion of bicycle and mountain bike tour. The outdoor pool in Fügen, which is only a 15-minute drive away, and the many lakes ensure refreshing bathing fun. Zillertaler Höhenstraße guarantees breath-taking views, unforgettable day trips and natural spectacles for the whole family.\n\nWe are happy to welcome you in your family holidays at the apartment of the Markus guesthouse in the Zillertal and look forward to your visit!\n\nYour hosts, the Zeller family"
    }
  ],
  "image": [
    {
      "@type": "ImageObject",
      "url": "http://resc.deskline.net/images/ZIL/1/3ee77cf4-8c1b-45b8-a958-908c078a5ad7/99/image.jpg",
      "caption": [
        {
          "@language": "de",
          "@value": "Haus Ansicht"
        },
        {
          "@language": "en",
          "@value": "Haus Ansicht"
        }
      ]
    },
    {
      "@type": "ImageObject",
      "url": "http://resc.deskline.net/images/ZIL/1/44af5279-6ac0-4d73-b4fb-4e3dd942d8e6/99/image.jpg",
      "caption": [
        {
          "@language": "de",
          "@value": "Ansicht Sommer"
        },
        {
          "@language": "en",
          "@value": "Ansicht Sommer"
        }
      ]
    }
  ],
  "geo": {
    "@type": "GeoCoordinates",
    "latitude": "47.343235715813293",
    "longitude": "11.846083402633667"
  },
  "currenciesAccepted": "EUR",
  "makesOffer": [
    {
      "@type": "Offer",
      "name": [
        {
          "@language": "de",
          "@value": "Appartement/Fewo, Toilette und Bad/Dusche getrennt, 2 Schlafräume"
        },
        {
          "@language": "en",
          "@value": "Apartment, separate toilet and shower/bathtub, 2 bed rooms"
        }
      ],
      "description": [
        {
          "@language": "de",
          "@value": "Parkplatz auf dem Grundstück. Gepflegte, gute Einrichtung mit hellen Möbeln. Sat-TV in allen Zimmern . Freies W-Lan. Abstell- und Skischuhraum im Haus. Fliesen-, Laminat- und Parkettböden. Die Besitzer bewohnen die beiden oberen Etagen. Kleine Sitzgarnitur vor dem Haus, Hinweis: Rauchen ist in der Wohnung nicht gestattet. Nebenkosten vor Ort € 22,- pro Person/Woche (je nach Belegung) plus Kurtaxe. Wäsche vorhanden. Kaution € 100. Kinderbett/Hochstuhl ohne Berechnung (Bestellung). Haustier nicht erlaubt. 3-Zimmer-Wohnung, Erdgeschoss, ca. 60 m². Separater Eingang in Flur. Wohnraum mit Eßplatz, große Eckbank und Küchenzeile (4 Ceranfelder, Backofen, Geschirrspüler, Mikrowelle, Kaffeemaschine, Wasserkocher). 2 Doppelzimmer. Dusche. Sep.WC."
        }
      ],
      "availability": "http://schema.org/InStock",
      "itemOffered": [
        {
          "@type": [
            "Apartment",
            "Product"
          ],
          "name": [
            {
              "@language": "de",
              "@value": "Ferienwohnung"
            },
            {
              "@language": "en",
              "@value": "Apartment, separate toilet and shower/bathtub, 2 bed rooms"
            }
          ],
          "numberOfRooms": "3.0",
          "occupancy": {
            "@type": "QuantitativeValue",
            "maxValue": "4",
            "minValue": "1"
          }
        }
      ],
      "priceSpecification": [
        {
          "@type": "PriceSpecification",
          "description": "Pax 1",
          "minPrice": "54.00",
          "maxPrice": "125.00",
          "priceCurrency": "EUR"
        },
        {
          "@type": "PriceSpecification",
          "description": "Pax 2",
          "minPrice": "54.00",
          "maxPrice": "125.00",
          "priceCurrency": "EUR"
        },
        {
          "@type": "PriceSpecification",
          "description": "Pax 3",
          "minPrice": "54.00",
          "maxPrice": "125.00",
          "priceCurrency": "EUR"
        },
        {
          "@type": "PriceSpecification",
          "description": "Pax 4",
          "minPrice": "54.00",
          "maxPrice": "125.00",
          "priceCurrency": "EUR"
        }
      ]
    }
  ]
}