{
  "@context": "http://schema.org",
  "@type": "LodgingBusiness",
  "address": {
    "@type": "PostalAddress",
    "streetAddress": "Hnr. 15",
    "addressCountry": "AT",
    "postalCode": "6261",
    "addressRegion": "Strass im Zillertal",
    "telephone": "(0043)  5244 62167"
  },
  "name": "Furtnerhof",
  "description": [
    {
      "@language": "de",
      "@value": "Bauernhof in zentraler Lage, Liegewiese, Parkplatz, Aufenthaltsraum"
    },
    {
      "@language": "en",
      "@value": "Farmhouse in quiet, central position, sunbathing lawn, car-park, lounge"
    }
  ],
  "image": [
    {
      "@type": "ImageObject",
      "url": "http://resc.deskline.net/images/ZIL/1/d50ffc1c-4f35-42cd-9728-6af43943e17d/99/image.jpg",
      "caption": [
        {
          "@language": "de",
          "@value": "Furtnerhof"
        },
        {
          "@language": "en",
          "@value": "Furtnerhof"
        }
      ]
    }
  ],
  "geo": {
    "@type": "GeoCoordinates",
    "latitude": "47.395872691433574",
    "longitude": "11.821696758270264"
  },
  "currenciesAccepted": "EUR"
}