{
  "@context": "http://schema.org",
  "@type": "LodgingBusiness",
  "address": {
    "@type": "PostalAddress",
    "name": "Apart Cirrus",
    "streetAddress": "Hochfügen 26",
    "addressCountry": "AT",
    "postalCode": "6264",
    "addressRegion": "Hochfügen",
    "telephone": "(0049) 173 5795343",
    "email": "felix.hofmann@gmail.com"
  },
  "name": "Apart Cirrus",
  "geo": {
    "@type": "GeoCoordinates",
    "latitude": "47.26759",
    "longitude": "11.77616"
  },
  "currenciesAccepted": "EUR"
}