{
  "@context": "http://schema.org",
  "@type": "LodgingBusiness",
  "url": [
    "http://www.appartementhuber.at",
    "http://maps.best-of-zillertal.at/proxy/frontend/page/fuegen/de?foreignResource\u003d4E051387-1354-422B-9EE7-376B0AE39CD8"
  ],
  "address": {
    "@type": "PostalAddress",
    "name": "Ferienhaus Berggruben",
    "streetAddress": "Hochfügener-Straße 175",
    "addressCountry": "AT",
    "postalCode": "6264",
    "addressRegion": "Fügenberg",
    "telephone": "(0043) 5288 63555",
    "faxNumber": "(0043) 5288 62849",
    "email": "huber-appartement@aon.at",
    "url": "http://www.appartementhuber.at"
  },
  "name": "Bauernhof Berggruben",
  "description": [
    {
      "@language": "de",
      "@value": "Erdgeschoss:\ngroße, vollausgestattete Küche mit Gefrierschrank, Kühlschrank, Spülmaschine, Wasserkocher, Kaffeemaschine, Mikrowelle, Staubsauger, Elektroherd mit Backrohr und Holzherd zum Kochen. Aufenthaltsraum mit Fernseher. 1x Doppelzimmer. Bad mit Waschbecken und WC. WC extra. Kellerraum.\n1. Stock:\n4x Doppelzimmer, 1x Dreibettzimmer, Bad mit Dusche und Waschbecken, WC extra.\n2. Stock:\n2x Dreibettzimmer, Bad mit Duscheu nd Waschbecken. WC extra.\n\nSchöne Terrasse mit Griller - Skikeller extra.\nEs sind auch romantische Kutschenfahrten oder Ponyreiten auf Anfrage möglich."
    },
    {
      "@language": "de",
      "@value": "Endreinigung: EUR 130,00\nHaustiere: EUR 6,- pro Tag\nKurtaxe: EUR 1,- pro Person pro Tag (ab 15 Jahre)\n\nBettwäsche und Handtücher sind nicht vorhanden!"
    },
    {
      "@language": "en",
      "@value": "Ground floor:\nlarge fully equiped kitchen with freezer, fridge, dish washer, electric kettle, coffee maker, microwavce, oven. Living room with TV. 1 double room. Bath room with wahs basin and toilet. Toilet seperate. \nFirst floor:\n4 double rooms, 1 triple room, bath room with shower and wash basin. Toilet extra.\nSecond floor:\n2 triple rooms, bath room with shower and wash basin. Toilet extra.\n\nTerrace with barbecue possibility - Room for skies seperate."
    },
    {
      "@language": "en",
      "@value": "Final cleaning: EUR 140,00\nPets: EUR 50,00 per week\nLocal tax: EUR 0,75 per person per day (from 15 years)\n\nBed linen and towels are not available!"
    }
  ],
  "image": [
    {
      "@type": "ImageObject",
      "url": "http://resc.deskline.net/images/ZIL/1/ee42c4a0-23cb-46bf-8c4d-a08b89f4173d/99/image.jpg",
      "caption": [
        {
          "@language": "de",
          "@value": "Ferienhaus Berggruben"
        },
        {
          "@language": "en",
          "@value": "Ferienhaus Berggruben"
        }
      ]
    }
  ],
  "geo": {
    "@type": "GeoCoordinates",
    "latitude": "47.3205495",
    "longitude": "11.8232657"
  },
  "currenciesAccepted": "EUR",
  "makesOffer": [
    {
      "@type": "Offer",
      "name": [
        {
          "@language": "de",
          "@value": "Ferienhaus, Bad, WC, 4 oder mehr Schlafräume"
        },
        {
          "@language": "en",
          "@value": "Holiday home, bath, toilet, 4 or more bed rooms"
        }
      ],
      "description": [
        {
          "@language": "de",
          "@value": "Genießen Sie einen erholsamen Urlaub in unserem gemütlichen Bauernhaus Berggrubenhof. Wir bieten Platz für bis zu 19 Personen. Das Haus befindet sich in einer ruhigen und sehr sonnigen, idyllischen Lage, mit Blick auf die Zillertaler Bergwelt. Parkplätze sind direkt am Haus vorhanden. Das Bauernhaus ist mit Zentralheizung ausgestattet. Der Holzofen in der Küche kann zusätzlich beheizt werden. Holz für den Ofen steht ausreichend zur Verfügung. "
        }
      ],
      "availability": "http://schema.org/InStock",
      "itemOffered": [
        {
          "@type": [
            "Apartment",
            "Product"
          ],
          "name": [
            {
              "@language": "de",
              "@value": "Ferienhaus/4 od. mehr Schlafr./Bad, WC"
            },
            {
              "@language": "en",
              "@value": "hol. house - 4 + more bedrooms/bath tube"
            }
          ],
          "numberOfRooms": "8.0",
          "occupancy": {
            "@type": "QuantitativeValue",
            "maxValue": "19",
            "minValue": "8"
          }
        }
      ]
    }
  ]
}