{
  "@context": "http://schema.org",
  "@type": "BedAndBreakfast",
  "url": [
    "http://www.pfister.esterhammer.at.tf",
    "http://maps.best-of-zillertal.at/proxy/frontend/page/fuegen/de?foreignResource\u003d559B3987-F721-495C-B2BE-773990D43679"
  ],
  "address": {
    "@type": "PostalAddress",
    "streetAddress": "Schmiedgasse 15",
    "addressCountry": "AT",
    "postalCode": "6265",
    "addressRegion": "Hart",
    "telephone": "(0043) 5288 62060",
    "email": "pfister.esterhammer@aon.at",
    "url": "http://www.pfister.esterhammer.at.tf"
  },
  "name": "Esterhammer, Erika",
  "description": [
    {
      "@language": "de",
      "@value": "Herzlich willkommen in unserem Haus! Die familiäre Frühstückspension liegt im Herzen des Zillertales auf der Sonnenseite in Hart. Hart klingt der Name, doch sonnig ist die Lage des Ortes und fröhlich sein Charakter. Da ist nichts hektisch und allerweltsmäßig, in wenigen Schritten ist man mitten in der Natur und zu den Skigebieten Spieljoch und Hochfügen/Hochzillertal ist es nur den berühmten Katzensprung weit.  Das Haus Pfister-Esterhammer liegt in ruhiger, sonniger Lage mit herrlichem Blick auf die Zillertaler Alpen. Gute Ausgangsmöglichkeit für Wanderungen.\n\n"
    },
    {
      "@language": "en",
      "@value": "Warlmy welcome in our house! Informal bed \u0026 breakfast in the heart of the Zillervalley at the sun-side in Hart. Hard sound the name, but sunny is the position of the valley and cheerful is the character. There is nothing hectic and all-day-life. Only a few steps and you will be in the middle of the nature. The ski areas Spieljoch and Hochfügen/Hochzillertal are only 10 minutes far. The house Pfister-Esterhammer is situated in quiet, sunny position with a beautiful view over the Zillertaler alps. Good starting point for walking tours."
    }
  ],
  "image": [
    {
      "@type": "ImageObject",
      "url": "http://resc.deskline.net/images/ZIL/1/2ebf0903-e59b-45d9-a2f4-66a670725d49/99/image.jpg",
      "caption": [
        {
          "@language": "de",
          "@value": "Frühstückspension Esterhammer"
        },
        {
          "@language": "en",
          "@value": "Frühstückspension Esterhammer"
        }
      ]
    },
    {
      "@type": "ImageObject",
      "url": "http://resc.deskline.net/images/ZIL/1/5b30068d-2e68-43de-9eb4-43e5b620b4bf/99/image.jpg",
      "caption": [
        {
          "@language": "de",
          "@value": "Haus im Winter"
        },
        {
          "@language": "en",
          "@value": "Haus im Winter"
        }
      ]
    }
  ],
  "geo": {
    "@type": "GeoCoordinates",
    "latitude": "47.345867358342687",
    "longitude": "11.872004270553589"
  },
  "currenciesAccepted": "EUR",
  "makesOffer": [
    {
      "@type": "Offer",
      "name": [
        {
          "@language": "de",
          "@value": "Doppelzimmer, Dusche"
        },
        {
          "@language": "en",
          "@value": "Double room, shower"
        }
      ],
      "description": [
        {
          "@language": "de",
          "@value": "Zimmer mit Dusche, das WC befindet sich im Bad bzw. am Gang."
        },
        {
          "@language": "en",
          "@value": "rooms with shower, toilet in the bath on the floor."
        }
      ],
      "availability": "http://schema.org/InStock",
      "itemOffered": [
        {
          "@type": [
            "HotelRoom",
            "Product"
          ],
          "name": [
            {
              "@language": "de",
              "@value": "Doppelzimmer mit Dusche"
            },
            {
              "@language": "en",
              "@value": "double room with shower"
            }
          ],
          "bed": {
            "@type": "BedDetails",
            "numberOfBeds": "1"
          },
          "occupancy": {
            "@type": "QuantitativeValue",
            "maxValue": "2",
            "minValue": "2"
          }
        }
      ]
    },
    {
      "@type": "Offer",
      "name": [
        {
          "@language": "de",
          "@value": "Doppelzimmer, fl. k/w Wasser"
        },
        {
          "@language": "en",
          "@value": "Double room, running hot/cold water"
        }
      ],
      "description": [
        {
          "@language": "de",
          "@value": "Zimmer mit Fließwasser, die Dusche und das WC befindet sich im Bad bzw. am Gang."
        },
        {
          "@language": "en",
          "@value": "rooms with running cold/warm water, shower and toilet in the bath on the floor."
        }
      ],
      "availability": "http://schema.org/InStock",
      "itemOffered": [
        {
          "@type": [
            "HotelRoom",
            "Product"
          ],
          "name": [
            {
              "@language": "de",
              "@value": "Doppelzimmer mit fl. Wasser"
            },
            {
              "@language": "en",
              "@value": "double room with running hot/cold water"
            }
          ],
          "bed": {
            "@type": "BedDetails",
            "numberOfBeds": "1"
          },
          "occupancy": {
            "@type": "QuantitativeValue",
            "maxValue": "2",
            "minValue": "2"
          }
        }
      ]
    }
  ]
}