{
  "@context": "http://schema.org",
  "@type": "LodgingBusiness",
  "url": [
    "http://www.dorfwirt-bruck.at",
    "http://maps.best-of-zillertal.at/proxy/frontend/page/fuegen/de?foreignResource\u003d560D8C91-891B-494A-9D4F-C959720CF221"
  ],
  "address": {
    "@type": "PostalAddress",
    "streetAddress": "Dorf 43a",
    "addressCountry": "AT",
    "postalCode": "6260",
    "addressRegion": "Bruck am Ziller",
    "telephone": "(0043) 5288 72136",
    "faxNumber": "(0043) 5288 72136 4",
    "email": "info@dorfwirt-bruck.at",
    "url": "http://www.dorfwirt-bruck.at"
  },
  "name": "Ferienwohnungen Demlhof",
  "description": [
    {
      "@language": "de",
      "@value": "Unser Ferienhaus mit 2 gemütlich eingerichteten Ferienwohnungen befindet sich direkt in Zentrum von Bruck auf der Sonnenseite des Zillertales."
    },
    {
      "@language": "de",
      "@value": "Endreinigung: EUR 40,00"
    },
    {
      "@language": "en",
      "@value": "Our holiday house with 2 cosy furnished appartements is situated in the center of Bruck in the sunny site of the Zillertal valley."
    },
    {
      "@language": "en",
      "@value": "Final cleaning: EUR 40,00"
    }
  ],
  "image": [
    {
      "@type": "ImageObject",
      "url": "http://resc.deskline.net/images/ZIL/1/d1c00d2e-25e9-4cff-be3b-932b0af26b27/99/image.jpg",
      "caption": [
        {
          "@language": "de",
          "@value": "Gasthof"
        },
        {
          "@language": "en",
          "@value": "Gasthof"
        }
      ]
    },
    {
      "@type": "ImageObject",
      "url": "http://resc.deskline.net/images/ZIL/1/6fe11816-d143-458c-a2c3-8471a3f3e490/99/image.jpg",
      "caption": [
        {
          "@language": "de",
          "@value": "Haus im Winter"
        },
        {
          "@language": "en",
          "@value": "Haus im Winter"
        }
      ]
    },
    {
      "@type": "ImageObject",
      "url": "http://resc.deskline.net/images/ZIL/1/e7bba937-34c4-44c7-ab7a-27b0953b451d/99/image.jpg",
      "caption": [
        {
          "@language": "de",
          "@value": "Gastgarten"
        },
        {
          "@language": "en",
          "@value": "Gastgarten"
        }
      ]
    }
  ],
  "geo": {
    "@type": "GeoCoordinates",
    "latitude": "47.39059",
    "longitude": "11.851313"
  },
  "currenciesAccepted": "EUR",
  "makesOffer": [
    {
      "@type": "Offer",
      "name": [
        {
          "@language": "de",
          "@value": "Appartement/Fewo, Dusche, WC, 2 Schlafräume"
        },
        {
          "@language": "en",
          "@value": "Apartment, shower, toilet, 2 bed rooms"
        }
      ],
      "availability": "http://schema.org/InStock",
      "itemOffered": [
        {
          "@type": [
            "Apartment",
            "Product"
          ],
          "name": [
            {
              "@language": "de",
              "@value": "Apartment/2 Schlafräume - 4 Personen"
            },
            {
              "@language": "en",
              "@value": "apartment/2 bedrooms/shower, WC"
            }
          ],
          "numberOfRooms": "2.0",
          "occupancy": {
            "@type": "QuantitativeValue",
            "maxValue": "4",
            "minValue": "2"
          }
        }
      ]
    },
    {
      "@type": "Offer",
      "name": [
        {
          "@language": "de",
          "@value": "Appartement/Fewo, Dusche, WC, 2 Schlafräume"
        },
        {
          "@language": "en",
          "@value": "Apartment, shower, toilet, 2 bed rooms"
        }
      ],
      "availability": "http://schema.org/InStock",
      "itemOffered": [
        {
          "@type": [
            "Apartment",
            "Product"
          ],
          "name": [
            {
              "@language": "de",
              "@value": "Apartment/2 Schlafräume - 6 Personen"
            },
            {
              "@language": "en",
              "@value": "apartment/2 bedrooms/shower, WC"
            }
          ],
          "numberOfRooms": "2.0",
          "occupancy": {
            "@type": "QuantitativeValue",
            "maxValue": "8",
            "minValue": "4"
          }
        }
      ]
    }
  ]
}