{
  "@context": "http://schema.org",
  "@type": "LodgingBusiness",
  "url": [
    "http://maps.best-of-zillertal.at/proxy/frontend/page/fuegen/de?foreignResource\u003d57FB9A43-BAE2-4452-9017-3EB718B3F663"
  ],
  "address": {
    "@type": "PostalAddress",
    "streetAddress": "Gattererberg 6",
    "addressCountry": "AT",
    "postalCode": "6276",
    "addressRegion": "Stummerberg",
    "telephone": "(0043) 5283 3835"
  },
  "name": "Thaurer, Veronika",
  "geo": {
    "@type": "GeoCoordinates",
    "latitude": "47.3006984",
    "longitude": "11.8936319"
  },
  "currenciesAccepted": "EUR"
}