{
  "@context": "http://schema.org",
  "@type": "LodgingBusiness",
  "url": [
    "http://maps.best-of-zillertal.at/proxy/frontend/page/fuegen/de?foreignResource\u003d59B9313A-4A50-4486-82FE-4ED2FF58569A"
  ],
  "address": {
    "@type": "PostalAddress",
    "streetAddress": "Siedlweg 1",
    "addressCountry": "AT",
    "postalCode": "6274",
    "addressRegion": "Aschau im Zillertal",
    "telephone": "(0043) 5282 3234",
    "faxNumber": "(0043) 5282 3234",
    "email": "egger7@gmx.at"
  },
  "name": "Siedlhof",
  "description": [
    {
      "@language": "de",
      "@value": "Unser Haus steht im Ortsteil Distelberg, ca. 140 m über Aschau (ca. 5 Autominuten vom Ortszentrum entfernt) in herrlicher Aussichtslage mit Blick auf die Zillertaler Alpen. Absolut ruhige Lage, Sonnenterrasse sowie Balkon. Der Freizeitpart Camping Aufenfeld mit Badesee ist bei einem gemütlichen Spaziergang in ca. 20 min. zu erreichen. Brötchenservice möglich. Endreinigung EUR 40,-"
    },
    {
      "@language": "en",
      "@value": "Our house is situated in Distelberg, appr. 140 m above the village of Aschau (appr. 5 car-minutes from the centre) with a beautiful view to the Zillertal Alps. Absolute quiet position, sun-terrace, balcony; The leisure parc camping Aufenfeld can be reaches in a 20 min. walk; fresh-bread-service possible; final cleaning EUR 40,-\n"
    }
  ],
  "image": [
    {
      "@type": "ImageObject",
      "url": "http://resc.deskline.net/images/ZIL/1/bd77f573-1f22-4683-abfa-6e8b20f5b832/99/image.jpg",
      "caption": [
        {
          "@language": "de",
          "@value": "Haus Sommer 1"
        },
        {
          "@language": "en",
          "@value": "Haus Sommer 1"
        }
      ]
    },
    {
      "@type": "ImageObject",
      "url": "http://resc.deskline.net/images/ZIL/1/16705c8e-bf3b-4991-9027-6a981c05efdd/99/image.jpg",
      "caption": [
        {
          "@language": "de",
          "@value": "Haus Sommer 2"
        },
        {
          "@language": "en",
          "@value": "Haus Sommer 2"
        }
      ]
    },
    {
      "@type": "ImageObject",
      "url": "http://resc.deskline.net/images/ZIL/1/42facad2-c0cd-4ff0-b92e-090ee5b2ee94/99/image.jpg",
      "caption": [
        {
          "@language": "de",
          "@value": "Blick auf Aschau"
        },
        {
          "@language": "en",
          "@value": "Blick auf Aschau"
        }
      ]
    },
    {
      "@type": "ImageObject",
      "url": "http://resc.deskline.net/images/ZIL/1/4dd4ab41-0166-4cb3-9283-17eb22d4b2f4/99/image.jpg",
      "caption": [
        {
          "@language": "de",
          "@value": "Heu"
        },
        {
          "@language": "en",
          "@value": "Heu"
        }
      ]
    },
    {
      "@type": "ImageObject",
      "url": "http://resc.deskline.net/images/ZIL/1/c86e2956-536e-47e9-918b-d2fbf5157788/99/image.jpg",
      "caption": [
        {
          "@language": "de",
          "@value": "Grillhütte"
        },
        {
          "@language": "en",
          "@value": "Grillhütte"
        }
      ]
    }
  ],
  "geo": {
    "@type": "GeoCoordinates",
    "latitude": "47.2644474936222",
    "longitude": "11.905204653739929"
  },
  "currenciesAccepted": "EUR",
  "makesOffer": [
    {
      "@type": "Offer",
      "name": [
        {
          "@language": "de",
          "@value": "Appartement/Fewo, Bad, WC, 3 Schlafräume"
        },
        {
          "@language": "en",
          "@value": "Apartment, bath, toilet, 3 bed rooms"
        }
      ],
      "description": [
        {
          "@language": "de",
          "@value": "Die 2006 renovierte Ferienwohnung mit neumöblierter Wohnküche (Backrohr, Kaffeemaschine, Geschirrspüler, Mikrowelle, Wasserkocher, Toaster), gemütliche Bauernstube mit Bettcouch, 1 Doppelzimmer mit SAT-TV und Dusche, 1 Doppelzimmer mit Bettcouch und Waschbecken (von hier Zugang zu kl. Schlafzimmer mit franz. Bett und Dusche. Fewo mit 110 m2. Bettwäsche und Handtücher sind vorhanden. Brötchenservice möglich!"
        },
        {
          "@language": "en",
          "@value": "2006 renovated apartment with 110 m2. New refurnished living-kitchen (microwave, dishwasher, toaster, coffeemachine), living room in farmers style with couch, 1double-room with SAT-TV and shower, 1 double-room with couch and wash-basin (from here you get to the small bed room with franc. bed and shower). Bed-linen and towels included. Bread roll service possible!\n"
        }
      ],
      "availability": "http://schema.org/InStock",
      "itemOffered": [
        {
          "@type": [
            "Apartment",
            "Product"
          ],
          "name": [
            {
              "@language": "de",
              "@value": "Apartment/3 Schlafräume/Bad, WC"
            },
            {
              "@language": "en",
              "@value": "apartment/3 bedrooms/bath tube, WC"
            }
          ],
          "numberOfRooms": "4.0",
          "occupancy": {
            "@type": "QuantitativeValue",
            "maxValue": "8",
            "minValue": "4"
          }
        }
      ]
    }
  ]
}