{
  "@context": "http://schema.org",
  "@type": "LodgingBusiness",
  "url": [
    "http://www.stanzl-haus.at",
    "http://maps.best-of-zillertal.at/proxy/frontend/page/fuegen/de?foreignResource\u003d5A04D5CC-93C7-4B4B-804C-F8DBD02A2502"
  ],
  "address": {
    "@type": "PostalAddress",
    "streetAddress": "Dorfplatz 5",
    "addressCountry": "AT",
    "postalCode": "6272",
    "addressRegion": "Kaltenbach",
    "telephone": "(0043) 664 1910543",
    "email": "brigitte.heiss@stanzl-haus.at",
    "url": "http://www.stanzl-haus.at"
  },
  "name": "Stanzl Haus",
  "description": [
    {
      "@language": "de",
      "@value": "Ferienhaus in zentraler Lage direkt im Ortszentrum von Kaltenbach, Skigebiet nur wenige Gehminuten entfernt, Fahrradweg vorm Haus, Geschäfte und Restaurants direkt nebenan."
    },
    {
      "@language": "de",
      "@value": "Endreinigung zwischen EUR 40,-- und EUR 50,--"
    },
    {
      "@language": "de",
      "@value": "Check in um 13 Uhr!\nCheck out um 9.00 Uhr!"
    },
    {
      "@language": "en",
      "@value": "Holiday home with central location direct in the center of Kaltenbach, cable-car station only few minutes by foot, cycle path, restaurants and shops are close by."
    },
    {
      "@language": "en",
      "@value": "Final cleaning between EUR 40,-- and EUR 50,--"
    },
    {
      "@language": "en",
      "@value": "Check in at 1.00 p.m.!!\nCheck out at 9.00 a.m.!!"
    }
  ],
  "aggregateRating": {
    "@type": "AggregateRating",
    "ratingValue": "4.5",
    "reviewCount": "38"
  },
  "image": [
    {
      "@type": "ImageObject",
      "url": "http://resc.deskline.net/images/ZIL/1/5fdfd774-799c-4712-9de8-ef53f46ea791/99/image.jpg",
      "caption": [
        {
          "@language": "de",
          "@value": "Stanzl Haus Kaltenbach Zillertal Sommer"
        },
        {
          "@language": "en",
          "@value": "Stanzl Haus Kaltenbach Zillertal Sommer"
        }
      ]
    },
    {
      "@type": "ImageObject",
      "url": "http://resc.deskline.net/images/ZIL/1/03a1ffcd-d26e-4a1f-a388-2459c7e23e85/99/image.jpg",
      "caption": [
        {
          "@language": "de",
          "@value": "Stanzl Haus Hausansicht"
        },
        {
          "@language": "en",
          "@value": "Stanzl Haus Hausansicht"
        }
      ]
    },
    {
      "@type": "ImageObject",
      "url": "http://resc.deskline.net/images/ZIL/1/05e7c434-4e9a-4f60-bedb-82351dcce4ac/99/image.jpg",
      "caption": [
        {
          "@language": "de",
          "@value": "Stanzl Haus Apartment Dorfplatz  Essbereich"
        },
        {
          "@language": "en",
          "@value": "Stanzl Haus Apartment Dorfplatz  Essbereich"
        }
      ]
    },
    {
      "@type": "ImageObject",
      "url": "http://resc.deskline.net/images/ZIL/1/1c086ce1-f77a-42f0-8047-71479baac86c/99/image.jpg",
      "caption": [
        {
          "@language": "de",
          "@value": "Stanzl Haus Apartment Dorfplatz Essbereich/Küche"
        },
        {
          "@language": "en",
          "@value": "Stanzl Haus Apartment Dorfplatz Essbereich/Küche"
        }
      ]
    },
    {
      "@type": "ImageObject",
      "url": "http://resc.deskline.net/images/ZIL/1/f3ea1805-ad60-4b10-987a-eec26f245fb3/99/image.jpg",
      "caption": [
        {
          "@language": "de",
          "@value": "Stanzl Haus Apartment Dorfplatz Küche"
        },
        {
          "@language": "en",
          "@value": "Stanzl Haus Apartment Dorfplatz Küche"
        }
      ]
    },
    {
      "@type": "ImageObject",
      "url": "http://resc.deskline.net/images/ZIL/1/184357dc-f9c9-4fe6-bd7e-8047cfa19fe3/99/image.jpg",
      "caption": [
        {
          "@language": "de",
          "@value": "Stanzl Haus Apartment Dorfplatz Fernsehraum"
        },
        {
          "@language": "en",
          "@value": "Stanzl Haus Apartment Dorfplatz Fernsehraum"
        }
      ]
    },
    {
      "@type": "ImageObject",
      "url": "http://resc.deskline.net/images/ZIL/1/57785755-c65b-4ed7-824a-c9c10370f561/99/image.jpg",
      "caption": [
        {
          "@language": "de",
          "@value": "Stanzl Haus Apartment Dorfplatz Eingang"
        },
        {
          "@language": "en",
          "@value": "Stanzl Haus Apartment Dorfplatz Eingang"
        }
      ]
    },
    {
      "@type": "ImageObject",
      "url": "http://resc.deskline.net/images/ZIL/1/117a004b-d2e0-4ddc-80cc-345216cef9f9/99/image.jpg",
      "caption": [
        {
          "@language": "de",
          "@value": "Stanzl Haus Apartment Dorfplatz Schlafzimmer"
        },
        {
          "@language": "en",
          "@value": "Stanzl Haus Apartment Dorfplatz Schlafzimmer"
        }
      ]
    },
    {
      "@type": "ImageObject",
      "url": "http://resc.deskline.net/images/ZIL/1/3890647d-70ed-46a1-99f3-a7610010c23a/99/image.jpg",
      "caption": [
        {
          "@language": "de",
          "@value": "Stanzl Haus Apartment Dorfplatz Schlafzimmer"
        },
        {
          "@language": "en",
          "@value": "Stanzl Haus Apartment Dorfplatz Schlafzimmer"
        }
      ]
    },
    {
      "@type": "ImageObject",
      "url": "http://resc.deskline.net/images/ZIL/1/fd381ce8-781b-4183-baa7-40a404f6e813/99/image.jpg",
      "caption": [
        {
          "@language": "de",
          "@value": "Apartment Kaltenbach (2)"
        },
        {
          "@language": "en",
          "@value": "Apartment Kaltenbach (2)"
        }
      ]
    }
  ],
  "geo": {
    "@type": "GeoCoordinates",
    "latitude": "47.292525556229364",
    "longitude": "11.875308752059937"
  },
  "currenciesAccepted": "EUR",
  "makesOffer": [
    {
      "@type": "Offer",
      "name": [
        {
          "@language": "de",
          "@value": "Appartement/Fewo, Bad, WC, 3 Schlafräume"
        },
        {
          "@language": "en",
          "@value": "Apartment, bath, toilet, 3 bed rooms"
        }
      ],
      "description": [
        {
          "@language": "de",
          "@value": "Appartment mit 3 Schlafräumen, DU/WC, große Wohnküche komplett eingerichtet mit Mikrowelle, Geschirrspüler, Sat-TV und Sofa; extra Fernsehraum mit SAT-TV, Terrasse; Handtücher, Bettwäsche und Geschirr vorhanden. \n"
        },
        {
          "@language": "en",
          "@value": "3 bed-rooms, shower/wc, living-kitchen complete with microwave, dish-washer sat-tv and sofa; extra tv-room with sat-tv; terrace, towels, bed-linen and dish are in the appartment\n"
        }
      ],
      "availability": "http://schema.org/InStock",
      "itemOffered": [
        {
          "@type": [
            "Apartment",
            "Product"
          ],
          "name": [
            {
              "@language": "de",
              "@value": "Appartement Dorfplatz"
            },
            {
              "@language": "en",
              "@value": "apartment/3 bedrooms/bath tube, WC"
            }
          ],
          "numberOfRooms": "4.0",
          "occupancy": {
            "@type": "QuantitativeValue",
            "maxValue": "6",
            "minValue": "4"
          }
        }
      ],
      "priceSpecification": [
        {
          "@type": "PriceSpecification",
          "description": "Pax 4",
          "minPrice": "92.00",
          "maxPrice": "150.00",
          "priceCurrency": "EUR"
        },
        {
          "@type": "PriceSpecification",
          "description": "Pax 5",
          "minPrice": "115.00",
          "maxPrice": "150.00",
          "priceCurrency": "EUR"
        },
        {
          "@type": "PriceSpecification",
          "description": "Pax 6",
          "minPrice": "138.00",
          "maxPrice": "150.00",
          "priceCurrency": "EUR"
        }
      ]
    },
    {
      "@type": "Offer",
      "name": [
        {
          "@language": "de",
          "@value": "Appartement/Fewo, Bad, WC, 2 Schlafräume"
        },
        {
          "@language": "en",
          "@value": "Apartment, bath, toilet, 2 bed rooms"
        }
      ],
      "description": [
        {
          "@language": "de",
          "@value": "Appartment mit 2 Schlafzimmern, DU/WC, große Wohnküche, komplett eingerichtet mit Mikrowelle, Geschirrspüler und Sat-TV, Balkon; Handtücher, Bettwäsche und Geschirr vorhanden."
        },
        {
          "@language": "en",
          "@value": "Appartment with 2 bed-rooms, shower/wc, living-kitchen complete with microwave, dish-washer and sat-tv, balcony, towels, bed-linen and dish are in the appartment\n"
        }
      ],
      "availability": "http://schema.org/InStock",
      "itemOffered": [
        {
          "@type": [
            "Apartment",
            "Product"
          ],
          "name": [
            {
              "@language": "de",
              "@value": "Appartement Zillertal"
            },
            {
              "@language": "en",
              "@value": "apartment/2 bedrooms/bath tube, WC"
            }
          ],
          "numberOfRooms": "0.0",
          "occupancy": {
            "@type": "QuantitativeValue",
            "maxValue": "4",
            "minValue": "2"
          }
        }
      ],
      "priceSpecification": [
        {
          "@type": "PriceSpecification",
          "description": "Pax 2",
          "minPrice": "55.00",
          "maxPrice": "100.00",
          "priceCurrency": "EUR"
        },
        {
          "@type": "PriceSpecification",
          "description": "Pax 3",
          "minPrice": "78.00",
          "maxPrice": "100.00",
          "priceCurrency": "EUR"
        },
        {
          "@type": "PriceSpecification",
          "description": "Pax 4",
          "minPrice": "92.00",
          "maxPrice": "100.00",
          "priceCurrency": "EUR"
        }
      ]
    },
    {
      "@type": "Offer",
      "name": [
        {
          "@language": "de",
          "@value": "Appartement/Fewo, Bad, WC, 3 Schlafräume"
        },
        {
          "@language": "en",
          "@value": "Apartment, bath, toilet, 3 bed rooms"
        }
      ],
      "description": [
        {
          "@language": "de",
          "@value": "Appartment mit 3 Schlafräumen, DU/WC, große Wohnküche komplett eingerichtet mit Mikrowelle, Geschirrspüler, Sat-TV und Sofa; Terrasse; Handtücher, Bettwäsche und Geschirr vorhanden. \n"
        },
        {
          "@language": "en",
          "@value": "3 bed-rooms, shower/wc, living-kitchen complete with microwave, dish-washer sat-tv and sofa; terrace, towels, bed-linen and dish are in the appartment\n"
        }
      ],
      "availability": "http://schema.org/InStock",
      "itemOffered": [
        {
          "@type": [
            "Apartment",
            "Product"
          ],
          "name": [
            {
              "@language": "de",
              "@value": "Appartement Kaltenbach"
            },
            {
              "@language": "en",
              "@value": "apartment/3 bedrooms/bath tube, WC"
            }
          ],
          "numberOfRooms": "4.0",
          "occupancy": {
            "@type": "QuantitativeValue",
            "maxValue": "6",
            "minValue": "4"
          }
        }
      ],
      "priceSpecification": [
        {
          "@type": "PriceSpecification",
          "description": "Pax 4",
          "minPrice": "92.00",
          "maxPrice": "150.00",
          "priceCurrency": "EUR"
        },
        {
          "@type": "PriceSpecification",
          "description": "Pax 5",
          "minPrice": "115.00",
          "maxPrice": "150.00",
          "priceCurrency": "EUR"
        },
        {
          "@type": "PriceSpecification",
          "description": "Pax 6",
          "minPrice": "138.00",
          "maxPrice": "150.00",
          "priceCurrency": "EUR"
        }
      ]
    }
  ]
}