{
  "@context": "http://schema.org",
  "@type": "LodgingBusiness",
  "url": [
    "http://maps.best-of-zillertal.at/proxy/frontend/page/fuegen/de?foreignResource\u003d5AA6D4C5-8AC7-4F53-ADF3-20C590E97200"
  ],
  "address": {
    "@type": "PostalAddress",
    "streetAddress": "Bachstraße 11",
    "addressCountry": "AT",
    "postalCode": "6265",
    "addressRegion": "Hart",
    "telephone": "(0043) 5288 72577",
    "faxNumber": "(0043) 5288 72577",
    "email": "hildegard.haas@gmx.at"
  },
  "name": "Haas, Hildegard",
  "description": [
    {
      "@language": "de",
      "@value": "Gemütliches Privathaus im Tiroler Stil, ruhige und sonnige Lage in Hart mit schöner Aussicht, ca. 5 Minuter zur nächsten Skibushaltestelle und 8 Minuten ins Zentrum nach Fügen, im Sommer steht auch eine Liegewiese zur Verfügung."
    },
    {
      "@language": "de",
      "@value": "Endreinigung ab EUR 30,--"
    },
    {
      "@language": "en",
      "@value": "Comfortable Tyroelen-style private house; quiet and sunny position in the village of HART with a nice view; appr. 5 min. to the next skibus-stop and 8 min. to the centre of Fügen; in summer with sunbathing-lawn.\n"
    },
    {
      "@language": "en",
      "@value": "Final cleaning EUR 30,-"
    }
  ],
  "image": [
    {
      "@type": "ImageObject",
      "url": "http://resc.deskline.net/images/ZIL/1/be729e65-84fa-4a41-b586-e544b031d699/99/image.jpg",
      "caption": [
        {
          "@language": "de",
          "@value": "Haus Immenheim"
        },
        {
          "@language": "en",
          "@value": "Haus Immenheim"
        }
      ]
    },
    {
      "@type": "ImageObject",
      "url": "http://resc.deskline.net/images/ZIL/1/d9c5d442-314b-4262-a9ea-e2e86728afd8/99/image.jpg",
      "caption": [
        {
          "@language": "de",
          "@value": "Küche Wg 1"
        },
        {
          "@language": "en",
          "@value": "Küche Wg 1"
        }
      ]
    },
    {
      "@type": "ImageObject",
      "url": "http://resc.deskline.net/images/ZIL/1/ed507650-841f-4990-a09a-b817564ef645/99/image.jpg",
      "caption": [
        {
          "@language": "de",
          "@value": "Schlafzimmer"
        },
        {
          "@language": "en",
          "@value": "Schlafzimmer"
        }
      ]
    },
    {
      "@type": "ImageObject",
      "url": "http://resc.deskline.net/images/ZIL/1/6fb887e3-73f0-4405-ba53-d50ff0e8f758/99/image.jpg",
      "caption": [
        {
          "@language": "de",
          "@value": "Schlafzimmer"
        },
        {
          "@language": "en",
          "@value": "Schlafzimmer"
        }
      ]
    },
    {
      "@type": "ImageObject",
      "url": "http://resc.deskline.net/images/ZIL/1/03f1bf0b-52bf-4633-8824-91f72d6e04c7/99/image.jpg",
      "caption": [
        {
          "@language": "de",
          "@value": "Schlafzimmer"
        },
        {
          "@language": "en",
          "@value": "Schlafzimmer"
        }
      ]
    },
    {
      "@type": "ImageObject",
      "url": "http://resc.deskline.net/images/ZIL/1/638ade1a-c418-4f10-9828-871521f895ff/99/image.jpg",
      "caption": [
        {
          "@language": "de",
          "@value": "Küche Wg1"
        },
        {
          "@language": "en",
          "@value": "Küche Wg1"
        }
      ]
    },
    {
      "@type": "ImageObject",
      "url": "http://resc.deskline.net/images/ZIL/1/0a9a469c-54ea-4036-9a8e-f55140a8bbfe/99/image.jpg",
      "caption": [
        {
          "@language": "de",
          "@value": "Haus Immenheim"
        },
        {
          "@language": "en",
          "@value": "Haus Immenheim"
        }
      ]
    }
  ],
  "geo": {
    "@type": "GeoCoordinates",
    "latitude": "47.344893229716419",
    "longitude": "11.867508888244629"
  },
  "currenciesAccepted": "EUR",
  "makesOffer": [
    {
      "@type": "Offer",
      "name": [
        {
          "@language": "de",
          "@value": "Appartement/Fewo, Bad, WC, 2 Schlafräume"
        },
        {
          "@language": "en",
          "@value": "Apartment, bath, toilet, 2 bed rooms"
        }
      ],
      "description": [
        {
          "@language": "de",
          "@value": "Ferienwohnung für 2-5 Personen mit ca. 90m2, 1 Doppelzimmer, 1 Dreibettzimmer, Bad, 2 Toiletten, Abstellraum, Wohnküche mit Elektroherd, Kaffeemaschine, Wasserkocher und Sitzecke, Sat-TV, kleine Terrasse."
        },
        {
          "@language": "en",
          "@value": "appartment for 2-5 persons with approx 90 qm, 1 double room, 1 triple room, bath, 2 toilets, siding room, living kitchen with stove, coffee maker, water boiler, seating corner, satelite TV, small terrace"
        }
      ],
      "availability": "http://schema.org/InStock",
      "itemOffered": [
        {
          "@type": [
            "Apartment",
            "Product"
          ],
          "name": [
            {
              "@language": "de",
              "@value": "Apartment/2 Schlafräume/Bad, WC"
            },
            {
              "@language": "en",
              "@value": "apartment/2 bedrooms/bath tube, WC"
            }
          ],
          "numberOfRooms": "3.0",
          "occupancy": {
            "@type": "QuantitativeValue",
            "maxValue": "5",
            "minValue": "2"
          }
        }
      ],
      "priceSpecification": [
        {
          "@type": "PriceSpecification",
          "description": "Pax 2",
          "minPrice": "70.00",
          "maxPrice": "70.00",
          "priceCurrency": "EUR"
        },
        {
          "@type": "PriceSpecification",
          "description": "Pax 3",
          "minPrice": "90.00",
          "maxPrice": "90.00",
          "priceCurrency": "EUR"
        },
        {
          "@type": "PriceSpecification",
          "description": "Pax 4",
          "minPrice": "90.00",
          "maxPrice": "90.00",
          "priceCurrency": "EUR"
        },
        {
          "@type": "PriceSpecification",
          "description": "Pax 5",
          "minPrice": "100.00",
          "maxPrice": "100.00",
          "priceCurrency": "EUR"
        }
      ]
    }
  ]
}