{
  "@context": "http://schema.org",
  "@type": "LodgingBusiness",
  "url": [
    "http://www.haus-schroll.at",
    "http://maps.best-of-zillertal.at/proxy/frontend/page/fuegen/de?foreignResource\u003d5AAE3214-5B28-4628-891B-A7A75086A23E"
  ],
  "address": {
    "@type": "PostalAddress",
    "streetAddress": "Talstraße 8",
    "addressCountry": "AT",
    "postalCode": "6273",
    "addressRegion": "Ried im Zillertal",
    "telephone": "(0043) 664 1156664",
    "email": "info@haus-schroll.at",
    "url": "http://www.haus-schroll.at"
  },
  "name": "Haus Schroll",
  "description": [
    {
      "@language": "de",
      "@value": "Herzlich Willkommen im Gästehaus Schroll in Ried im Zillertal!\n\nUnser Gästehaus Schroll liegt inmitten des wunderschönen Zillertals in Ried im Zillertal. Wir sind der ideale Ausgangspunkt für Aktivitäten aller Art im Zillertal. \n\nOb Wandern, Mountainbiken oder auch Golfen in den Zillertaler Alpen – es ist für jeden etwas dabei. Im Winter lassen das Skigebiet Hochfügen-Hochzillertal, sowie Spieljochbahn keine Wünsche für den begeisterten Wintersportler offen. Die nächste Skibushaltestelle ist nur ca. 50 m von uns entfernt. Die Langlaufloipe führt direkt an unserem Haus vorbei.\n\nUnser Gästehaus ist sehr zentral, jedoch ruhig gelegen. Wir legen großen Wert auf Qualität und wurden deshalb auch mit der größten Auszeichnung für Privatzimmervermieter bedacht – den 4 Edelweiß.\nWir verfügen über 2 Doppelzimmer und 3 Appartements die mit allem Komfort ausgestattet sind. In unserer luxuriös ausgestatteten Kaiserwohnung gibt es sogar einen Kachelofen und eine eigene Sauna.\nÜber einen baldigen Besuch in unserem familienfreundlichen Gästehaus Schroll in Ried im Zillertal würden wir uns sehr freuen\n\nHerzlichst\nFamilie Annemarie Schroll"
    },
    {
      "@language": "de",
      "@value": "Frühstück für Ferienwohnungen auf Anfrage möglich nur im Sommer\nEndreinigung Euro 50,-- bis 100,-- ist direkt beim Vermieter zu bezahlen;\n"
    },
    {
      "@language": "de",
      "@value": "Anreise ab 14.00 möglich"
    },
    {
      "@language": "de",
      "@value": "Wandern, Schifahren, Ferienwohnung, Appartement, Zimmer, Zillertal, Ried im Zillertal, Mountainbiken"
    },
    {
      "@language": "en",
      "@value": "Family friendly guest house situated very sunny and quiet, away from the traffic but near the village center; 3 very comfortable appartements for 2-10 persons and guest rooms with shower/toilet/Sat-TV and balcony; the stop of the ski bus is only 50 m away, ski room, car parking\n"
    },
    {
      "@language": "en",
      "@value": "bread roll service;\nfinal cleaning between € 50,-- and € 100,-- has to be paid directly at the apartment owner\n"
    },
    {
      "@language": "en",
      "@value": "Check in from 02.00pm"
    },
    {
      "@language": "en",
      "@value": "hiking, skiing, cross country skiing, family holiday, mountain biking, appartement, guest rooms"
    }
  ],
  "aggregateRating": {
    "@type": "AggregateRating",
    "ratingValue": "4.8",
    "reviewCount": "17"
  },
  "image": [
    {
      "@type": "ImageObject",
      "url": "http://resc.deskline.net/images/ZIL/1/9b149451-9afb-4c58-8cc6-6d6b4ca7843c/99/image.jpg",
      "caption": [
        {
          "@language": "de",
          "@value": "Gästehaus Schroll im Sommer"
        },
        {
          "@language": "en",
          "@value": "Gästehaus Schroll im Sommer"
        }
      ]
    },
    {
      "@type": "ImageObject",
      "url": "http://resc.deskline.net/images/ZIL/1/cd41ac93-9205-4e60-9133-aba128a7f103/99/image.jpg",
      "caption": [
        {
          "@language": "de",
          "@value": "Gästehaus Schroll Sommer"
        },
        {
          "@language": "en",
          "@value": "Gästehaus Schroll Sommer"
        }
      ]
    },
    {
      "@type": "ImageObject",
      "url": "http://resc.deskline.net/images/ZIL/1/fff0810b-7ef0-4dcb-afaf-517b750cb3f5/99/image.jpg",
      "caption": [
        {
          "@language": "de",
          "@value": "Gästehaus Schroll im Winter"
        },
        {
          "@language": "en",
          "@value": "Gästehaus Schroll im Winter"
        }
      ]
    },
    {
      "@type": "ImageObject",
      "url": "http://resc.deskline.net/images/ZIL/1/b3bc4b76-a1a7-4353-9423-5447411a108b/99/image.jpg",
      "caption": [
        {
          "@language": "de",
          "@value": "Aussicht vom Gästehaus Schroll"
        },
        {
          "@language": "en",
          "@value": "Aussicht vom Gästehaus Schroll"
        }
      ]
    },
    {
      "@type": "ImageObject",
      "url": "http://resc.deskline.net/images/ZIL/1/9f0cf052-d027-4171-8af4-71b07f556d9c/99/image.jpg",
      "caption": [
        {
          "@language": "de",
          "@value": "Aussicht Gästehaus Schroll"
        },
        {
          "@language": "en",
          "@value": "Aussicht Gästehaus Schroll"
        }
      ]
    },
    {
      "@type": "ImageObject",
      "url": "http://resc.deskline.net/images/ZIL/1/a395f686-1ba8-4bec-8e8f-53da857fbf12/99/image.jpg",
      "caption": [
        {
          "@language": "de",
          "@value": "Blick vom Gästehaus Schroll"
        },
        {
          "@language": "en",
          "@value": "Blick vom Gästehaus Schroll"
        }
      ]
    },
    {
      "@type": "ImageObject",
      "url": "http://resc.deskline.net/images/ZIL/1/c440bdaf-e451-4c6a-9b37-1ccbdccc20df/99/image.jpg",
      "caption": [
        {
          "@language": "de",
          "@value": "Auszeichnung Gästehaus Schroll"
        },
        {
          "@language": "en",
          "@value": "Auszeichnung Gästehaus Schroll"
        }
      ]
    },
    {
      "@type": "ImageObject",
      "url": "http://resc.deskline.net/images/ZIL/1/30fefa7d-2ba2-4efd-982f-092fae30f57d/99/image.jpg",
      "caption": [
        {
          "@language": "de",
          "@value": "Badezimmer Himmelbettzimmer"
        },
        {
          "@language": "en",
          "@value": "Badezimmer Himmelbettzimmer"
        }
      ]
    },
    {
      "@type": "ImageObject",
      "url": "http://resc.deskline.net/images/ZIL/1/4abd5b9e-fadf-45e7-abbd-23277bb3bdcd/99/image.jpg",
      "caption": [
        {
          "@language": "de",
          "@value": "Badezimmer Kaiserwohnung"
        },
        {
          "@language": "en",
          "@value": "Badezimmer Kaiserwohnung"
        }
      ]
    },
    {
      "@type": "ImageObject",
      "url": "http://resc.deskline.net/images/ZIL/1/001993d5-ed32-4efa-9843-9dd751497fcb/99/image.jpg",
      "caption": [
        {
          "@language": "de",
          "@value": "Badezimmer Zillertalblick Wohnung"
        },
        {
          "@language": "en",
          "@value": "Badezimmer Zillertalblick Wohnung"
        }
      ]
    },
    {
      "@type": "ImageObject",
      "url": "http://resc.deskline.net/images/ZIL/1/2a5e55c6-eb30-40d2-b81f-fb4962fad040/99/image.jpg",
      "caption": [
        {
          "@language": "de",
          "@value": "Badezimmer Familienwohnung"
        },
        {
          "@language": "en",
          "@value": "Badezimmer Familienwohnung"
        }
      ]
    },
    {
      "@type": "ImageObject",
      "url": "http://resc.deskline.net/images/ZIL/1/25ea3d21-66e9-43b0-ab8a-03cbb0200868/99/image.jpg",
      "caption": [
        {
          "@language": "de",
          "@value": "Frühstücksbuffet Gästehaus Schroll"
        },
        {
          "@language": "en",
          "@value": "Frühstücksbuffet Gästehaus Schroll"
        }
      ]
    },
    {
      "@type": "ImageObject",
      "url": "http://resc.deskline.net/images/ZIL/1/ad669daa-ed72-451a-9776-4bf092944a7b/99/image.jpg",
      "caption": [
        {
          "@language": "de",
          "@value": "Frühstücksraum Gästehaus Schroll"
        },
        {
          "@language": "en",
          "@value": "Frühstücksraum Gästehaus Schroll"
        }
      ]
    },
    {
      "@type": "ImageObject",
      "url": "http://resc.deskline.net/images/ZIL/1/5f4aac2d-8a92-4d53-8f7e-5307bf6dd895/99/image.jpg",
      "caption": [
        {
          "@language": "de",
          "@value": "Treppenhaus Gästehaus Schroll"
        },
        {
          "@language": "en",
          "@value": "Treppenhaus Gästehaus Schroll"
        }
      ]
    },
    {
      "@type": "ImageObject",
      "url": "http://resc.deskline.net/images/ZIL/1/54c38dd1-8032-4262-8971-bd2a5be5f6d0/99/image.jpg",
      "caption": [
        {
          "@language": "de",
          "@value": "Garten Gästehaus Schroll"
        },
        {
          "@language": "en",
          "@value": "Garten Gästehaus Schroll"
        }
      ]
    },
    {
      "@type": "ImageObject",
      "url": "http://resc.deskline.net/images/ZIL/1/c64e8188-e604-4c2a-9610-a23a2df471c4/99/image.jpg",
      "caption": [
        {
          "@language": "de",
          "@value": "Garten Gästehaus Schroll Ried im Zillertal"
        },
        {
          "@language": "en",
          "@value": "Garten Gästehaus Schroll Ried im Zillertal"
        }
      ]
    },
    {
      "@type": "ImageObject",
      "url": "http://resc.deskline.net/images/ZIL/1/112c3756-227c-430e-a868-f026ca00f994/99/image.jpg",
      "caption": [
        {
          "@language": "de",
          "@value": "Sauna Kaiserwohnung"
        },
        {
          "@language": "en",
          "@value": "Sauna Kaiserwohnung"
        }
      ]
    },
    {
      "@type": "ImageObject",
      "url": "http://resc.deskline.net/images/ZIL/1/e3ca0987-0132-48ac-8ee8-cdc654133080/99/image.jpg",
      "caption": [
        {
          "@language": "de",
          "@value": "Sauna Gästehaus Schroll"
        },
        {
          "@language": "en",
          "@value": "Sauna Gästehaus Schroll"
        }
      ]
    },
    {
      "@type": "ImageObject",
      "url": "http://resc.deskline.net/images/ZIL/1/42e1c8a7-8437-437f-9faf-3c653e77d570/99/image.jpg",
      "caption": [
        {
          "@language": "de",
          "@value": "Kaiserwohnung Sauna"
        },
        {
          "@language": "en",
          "@value": "Kaiserwohnung Sauna"
        }
      ]
    },
    {
      "@type": "ImageObject",
      "url": "http://resc.deskline.net/images/ZIL/1/1c19c931-293b-42dc-a062-16a69414fc56/99/image.jpg",
      "caption": [
        {
          "@language": "de",
          "@value": "Schlafzimmer Kaiserwohnung"
        },
        {
          "@language": "en",
          "@value": "Schlafzimmer Kaiserwohnung"
        }
      ]
    },
    {
      "@type": "ImageObject",
      "url": "http://resc.deskline.net/images/ZIL/1/6a5730c9-395d-4ffd-9b3d-e8e93eb6374f/99/image.jpg",
      "caption": [
        {
          "@language": "de",
          "@value": "Kaiserwohnung Schlafzimmer"
        },
        {
          "@language": "en",
          "@value": "Kaiserwohnung Schlafzimmer"
        }
      ]
    },
    {
      "@type": "ImageObject",
      "url": "http://resc.deskline.net/images/ZIL/1/0f0de80b-47b6-41e1-af29-908eaf2b742b/99/image.jpg",
      "caption": [
        {
          "@language": "de",
          "@value": "Schlafzimmer Zillertalblick"
        },
        {
          "@language": "en",
          "@value": "Schlafzimmer Zillertalblick"
        }
      ]
    },
    {
      "@type": "ImageObject",
      "url": "http://resc.deskline.net/images/ZIL/1/fbd6ecae-2643-461f-b781-90f030416714/99/image.jpg",
      "caption": [
        {
          "@language": "de",
          "@value": "Schlafzimmer Zillertalblick Wohnung"
        },
        {
          "@language": "en",
          "@value": "Schlafzimmer Zillertalblick Wohnung"
        }
      ]
    },
    {
      "@type": "ImageObject",
      "url": "http://resc.deskline.net/images/ZIL/1/74704d88-5ceb-4bdf-94cf-5eeb2fd80f6d/99/image.jpg",
      "caption": [
        {
          "@language": "de",
          "@value": "Familienzimmer"
        },
        {
          "@language": "en",
          "@value": "Familienzimmer"
        }
      ]
    },
    {
      "@type": "ImageObject",
      "url": "http://resc.deskline.net/images/ZIL/1/008f55e6-0603-49be-ad9e-10fbbfc00b81/99/image.jpg",
      "caption": [
        {
          "@language": "de",
          "@value": "Himmelbettzimmer"
        },
        {
          "@language": "en",
          "@value": "Himmelbettzimmer"
        }
      ]
    },
    {
      "@type": "ImageObject",
      "url": "http://resc.deskline.net/images/ZIL/1/5df2fbe9-1485-418b-9e03-2fad82eb47db/99/image.jpg",
      "caption": [
        {
          "@language": "de",
          "@value": "Wohnküche Familienwohnung"
        },
        {
          "@language": "en",
          "@value": "Wohnküche Familienwohnung"
        }
      ]
    },
    {
      "@type": "ImageObject",
      "url": "http://resc.deskline.net/images/ZIL/1/3c628d6a-f824-4158-8ffa-9ae849dd32d5/99/image.jpg",
      "caption": [
        {
          "@language": "de",
          "@value": "Schlafzimmer Familienwohnung"
        },
        {
          "@language": "en",
          "@value": "Schlafzimmer Familienwohnung"
        }
      ]
    },
    {
      "@type": "ImageObject",
      "url": "http://resc.deskline.net/images/ZIL/1/ea94de01-0143-47e0-a5c3-63e282590b34/99/image.jpg",
      "caption": [
        {
          "@language": "de",
          "@value": "Familienwohnung Schlafzimmer"
        },
        {
          "@language": "en",
          "@value": "Familienwohnung Schlafzimmer"
        }
      ]
    },
    {
      "@type": "ImageObject",
      "url": "http://resc.deskline.net/images/ZIL/1/e70d0067-c05d-4ddb-90db-8ab238c6626c/99/image.jpg",
      "caption": [
        {
          "@language": "de",
          "@value": "Zillertalblick Wohnung Schlafzimmer"
        },
        {
          "@language": "en",
          "@value": "Zillertalblick Wohnung Schlafzimmer"
        }
      ]
    },
    {
      "@type": "ImageObject",
      "url": "http://resc.deskline.net/images/ZIL/1/a810fdf7-3ca7-4e2c-83fb-29b9ff0f08e1/99/image.jpg",
      "caption": [
        {
          "@language": "de",
          "@value": "Terrasse Gästehaus Schroll"
        },
        {
          "@language": "en",
          "@value": "Terrasse Gästehaus Schroll"
        }
      ]
    },
    {
      "@type": "ImageObject",
      "url": "http://resc.deskline.net/images/ZIL/1/cefdb7ae-621d-4099-a721-7fb0c039bf30/99/image.jpg",
      "caption": [
        {
          "@language": "de",
          "@value": "Wohnküche Kaiserwohnung"
        },
        {
          "@language": "en",
          "@value": "Wohnküche Kaiserwohnung"
        }
      ]
    },
    {
      "@type": "ImageObject",
      "url": "http://resc.deskline.net/images/ZIL/1/82a3fa10-d284-4a69-935a-0b11c8a9b45d/99/image.jpg",
      "caption": [
        {
          "@language": "de",
          "@value": "Kaiserwohnung Wohnküche"
        },
        {
          "@language": "en",
          "@value": "Kaiserwohnung Wohnküche"
        }
      ]
    },
    {
      "@type": "ImageObject",
      "url": "http://resc.deskline.net/images/ZIL/1/147273ca-6e05-49bd-b335-edd20c90cd14/99/image.jpg",
      "caption": [
        {
          "@language": "de",
          "@value": "Wohnzimmer Kaiserwohnung"
        },
        {
          "@language": "en",
          "@value": "Wohnzimmer Kaiserwohnung"
        }
      ]
    },
    {
      "@type": "ImageObject",
      "url": "http://resc.deskline.net/images/ZIL/1/60c423c6-c590-4751-9763-a58822655898/99/image.jpg",
      "caption": [
        {
          "@language": "de",
          "@value": "Familienwohnung Wohnküche"
        },
        {
          "@language": "en",
          "@value": "Familienwohnung Wohnküche"
        }
      ]
    },
    {
      "@type": "ImageObject",
      "url": "http://resc.deskline.net/images/ZIL/1/ee55da59-8bcc-4dfe-ad1b-79f02ec161e5/99/image.jpg",
      "caption": [
        {
          "@language": "de",
          "@value": "Zillertalblick Wohnküche"
        },
        {
          "@language": "en",
          "@value": "Zillertalblick Wohnküche"
        }
      ]
    },
    {
      "@type": "ImageObject",
      "url": "http://resc.deskline.net/images/ZIL/1/d0a79552-1b29-4eb2-9c38-2405bbef0d05/99/image.jpg",
      "caption": [
        {
          "@language": "de",
          "@value": "Zillertalblick Küche"
        },
        {
          "@language": "en",
          "@value": "Zillertalblick Küche"
        }
      ]
    },
    {
      "@type": "ImageObject",
      "url": "http://resc.deskline.net/images/ZIL/1/ab6bedd1-1cc4-43f0-8e86-5a75bc893809/99/image.png",
      "caption": [
        {
          "@language": "de",
          "@value": "logo-schroll"
        },
        {
          "@language": "en",
          "@value": "logo-schroll"
        }
      ]
    }
  ],
  "geo": {
    "@type": "GeoCoordinates",
    "latitude": "47.302428479514539",
    "longitude": "11.870035529136658"
  },
  "currenciesAccepted": "EUR",
  "makesOffer": [
    {
      "@type": "Offer",
      "name": [
        {
          "@language": "de",
          "@value": "Appartement/Fewo, Dusche, WC, Nichtraucher"
        },
        {
          "@language": "en",
          "@value": "Apartment, shower, toilet, no smoker"
        }
      ],
      "description": [
        {
          "@language": "de",
          "@value": "Gemütliche, komfortable Ferienwohnung für 2-3 Personen, komplett eingerichtete Wohnküche mit Schlafgelegenheit für 1 Person (Kaffeemaschine, Herd mit Backrohr, Kühlschrank, Mikro, Geschirrspülmaschine, Wasserkocher, SAT-TV, Radio, Balkon), 1 großes Dreibettzimmer mit Balkon, DU/WC/SAT-TV, Vorraum, Handtücher und Bettwäsche vorhanden, Küche und Schlafzimmer mit Balkonen ausgestattet;\n1 Wohn-Küche mit SAT-TV,1 Vorraum,1 Dreibettzimmer,Bad mit Dusche und WC"
        },
        {
          "@language": "en",
          "@value": "Comfortable apartment fully equipped, combined kitchen and living room\n(coffee maker, oven, fridge with freezer compartment, satellite TV, radio) with sleeping space, 1 triple room, shower/WC, balcony; bed linen and hand towels provided. Fresh bakery service, \n\n"
        }
      ],
      "availability": "http://schema.org/InStock",
      "itemOffered": [
        {
          "@type": [
            "Apartment",
            "Product"
          ],
          "name": [
            {
              "@language": "de",
              "@value": "Familienwohnung für 2-3 Personen"
            },
            {
              "@language": "en",
              "@value": "Family appartment for 2 - 4 persons"
            }
          ],
          "numberOfRooms": "3.0",
          "occupancy": {
            "@type": "QuantitativeValue",
            "maxValue": "3",
            "minValue": "2"
          }
        }
      ],
      "priceSpecification": [
        {
          "@type": "PriceSpecification",
          "description": "Pax 2",
          "minPrice": "45.00",
          "maxPrice": "75.00",
          "priceCurrency": "EUR"
        },
        {
          "@type": "PriceSpecification",
          "description": "Pax 3",
          "minPrice": "63.00",
          "maxPrice": "103.00",
          "priceCurrency": "EUR"
        }
      ]
    },
    {
      "@type": "Offer",
      "name": [
        {
          "@language": "de",
          "@value": "Appartement/Fewo, Dusche, WC, Nichtraucher"
        },
        {
          "@language": "en",
          "@value": "Apartment, shower, toilet, no smoker"
        }
      ],
      "description": [
        {
          "@language": "de",
          "@value": "Harmonisch,gemütliche, komfortabel eingerichtete Ferienwohnung für 4-6 Personen,rustikale Möbel, mit komplett eingerichteter Wohnküche mit Schlafgelegenheit für 1 Person (Kaffeemaschine, Herd mit Backrohr, Kühlschrank, Mikro, Wasserkocher, Geschirrspülmaschine, SAT-TV, Radio und Balkon usw.), 1 Dreibettzimmer DU/WC/SAT-TV/Balkon mit Verbindungstür in ein Doppelzimmer DU/WC/SAT-TV/Balkon;\n(Tür kann aber auch geschlossen bleiben - es gibt auch noch einen anderen Eingang), große Diele, Handtücher und Bettwäsche vorhanden;\n1 Wohn-Küche mit Balkon und SAT-TV,Vorraum,2 DU/WC,2 SAT-TV"
        },
        {
          "@language": "en",
          "@value": "Comfortably furnished apartment for 4-6 persons with fully-equipped living and kitchen area with sleeping possibility for 1 person (coffee machine, stove with oven, fridge, microwave, kettle, dishwasher, satellite TV, radio, balcony), 1 triple room shower/WC/Sat-TV/balcony with connecting door into 1 double room shower/WC/sat-Tv/balcony; (it\u0027s possible to lock the door - there is also another door to the 2nd room), hall, towels and bed linen are provided;"
        }
      ],
      "availability": "http://schema.org/InStock",
      "itemOffered": [
        {
          "@type": [
            "Apartment",
            "Product"
          ],
          "name": [
            {
              "@language": "de",
              "@value": "Zillertalblickwohnung für 4-6 Personen"
            },
            {
              "@language": "en",
              "@value": "App. Zillertalblick for 4 - 6 persons"
            }
          ],
          "numberOfRooms": "3.0",
          "occupancy": {
            "@type": "QuantitativeValue",
            "maxValue": "6",
            "minValue": "4"
          }
        }
      ],
      "priceSpecification": [
        {
          "@type": "PriceSpecification",
          "description": "Pax 4",
          "minPrice": "60.00",
          "maxPrice": "160.00",
          "priceCurrency": "EUR"
        },
        {
          "@type": "PriceSpecification",
          "description": "Pax 5",
          "minPrice": "78.00",
          "maxPrice": "188.00",
          "priceCurrency": "EUR"
        },
        {
          "@type": "PriceSpecification",
          "description": "Pax 6",
          "minPrice": "95.00",
          "maxPrice": "216.00",
          "priceCurrency": "EUR"
        }
      ]
    },
    {
      "@type": "Offer",
      "name": [
        {
          "@language": "de",
          "@value": "Appartement/Fewo, Dusche, WC, 4 oder mehr Schlafräume"
        },
        {
          "@language": "en",
          "@value": "Apartment, shower, toilet, 4 or more bed rooms"
        }
      ],
      "description": [
        {
          "@language": "de",
          "@value": "4 - 5 Personen\nca. 95 Quadratmeter\nDie Kaiserwohnung ist das Schätzkästchen in unserem Angebot. Diese luxuriöse Ferienwohnung verfügt über 2 Doppelzimmer mit DU/WC,SAT-TV,\nBalkon, Holzboden, sowie für diese Wohnung eine eigene Sauna. Sauna ist im Preis nicht inbegriffen.\nJedes der 2 Doppelzimmer ist mit einen Balkon,DU/WC und SAT-TV ausgestattet. Ein besonderes Highlight dieser Ferienwohnung ist die\nWohnküche mit eigenen Balkon und Kachelofen."
        },
        {
          "@language": "en",
          "@value": "Kaiser apartment 1\n4 - 5 persons\nabout 95 m2\nThe luxurious apartment disposes of two double rooms with shower/toilet, Sat-TV, wooden floors as\nwell as an own sauna. The usage of the sauna has to be paid separatly.\nEach of the two rooms has a balcony, shower/toilet and Sat-TV. The flat disposes of a kitchen/living\nroom with own balcony and tild oven.\n"
        }
      ],
      "availability": "http://schema.org/InStock",
      "itemOffered": [
        {
          "@type": [
            "Apartment",
            "Product"
          ],
          "name": [
            {
              "@language": "de",
              "@value": "Kaiserwohnung 1 für 4-5 Personen"
            },
            {
              "@language": "en",
              "@value": "Apartment, shower, toilet, 4 or more bed rooms"
            }
          ],
          "numberOfRooms": "5.0",
          "occupancy": {
            "@type": "QuantitativeValue",
            "maxValue": "5",
            "minValue": "4"
          }
        }
      ],
      "priceSpecification": [
        {
          "@type": "PriceSpecification",
          "description": "Pax 4",
          "minPrice": "65.00",
          "maxPrice": "240.00",
          "priceCurrency": "EUR"
        },
        {
          "@type": "PriceSpecification",
          "description": "Pax 5",
          "minPrice": "80.00",
          "maxPrice": "240.00",
          "priceCurrency": "EUR"
        }
      ]
    },
    {
      "@type": "Offer",
      "name": [
        {
          "@language": "de",
          "@value": "Appartement/Fewo, Dusche, WC, 4 oder mehr Schlafräume"
        },
        {
          "@language": "en",
          "@value": "Apartment, shower, toilet, 4 or more bed rooms"
        }
      ],
      "description": [
        {
          "@language": "de",
          "@value": "Luxuriöse, komfortabel eingerichtete Ferienwohnung im 1. Stock für 7-10 Personen ,Kachelofen, komplett eingerichtete Wohnküche (Kaffeemaschine, Herd mit Backrohr, Kühlschrank mit Gefrierfach, Mikro, Wasserkocher,  Geschirrspülmaschine usw.) übergehend in einen gemütlichen Wohnraum mit Kachelofen, SAT-TV, Radio und Balkon, 2 Dreibettzimmer mit je DU/WC/SAT-TV/Balkon, 2 Doppelzimmer mit DU/WC,SAT-TV,Balkon, 4 Duschen/WCs, SAT-TV in allen Schlafzimmern; EIGENE SAUNA nur für diese Wohnung (Aufpreis)"
        },
        {
          "@language": "en",
          "@value": "Luxury, comfortable furnished apartment on the 1st floor for 7 - 10 persons with complete living kitchen (coffee maker, electric range with oven, fridge, micro wace, water boiler, dish washer), cosy living area with tyrolean stove (heated with wood) satelite TV, radio and balcony, 2 triple rooms with shower/toilet/satelite TV/balcony, 1 shower extra, foyer; own sauna only for this apartment.\ntowels and bed linen are provided.\nelectricity fee for the sauna is to pay extra and is not include"
        }
      ],
      "availability": "http://schema.org/InStock",
      "itemOffered": [
        {
          "@type": [
            "Apartment",
            "Product"
          ],
          "name": [
            {
              "@language": "de",
              "@value": "Kaiserwohnung 2 für 7-10 Personen"
            },
            {
              "@language": "en",
              "@value": "app. \"Kaiserwohnung\"  for 8 - 10 persons"
            }
          ],
          "numberOfRooms": "5.0",
          "occupancy": {
            "@type": "QuantitativeValue",
            "maxValue": "10",
            "minValue": "7"
          }
        }
      ],
      "priceSpecification": [
        {
          "@type": "PriceSpecification",
          "description": "Pax 4",
          "minPrice": "69.00",
          "maxPrice": "240.00",
          "priceCurrency": "EUR"
        },
        {
          "@type": "PriceSpecification",
          "description": "Pax 5",
          "minPrice": "86.25",
          "maxPrice": "240.00",
          "priceCurrency": "EUR"
        },
        {
          "@type": "PriceSpecification",
          "description": "Pax 6",
          "minPrice": "103.50",
          "maxPrice": "240.00",
          "priceCurrency": "EUR"
        },
        {
          "@type": "PriceSpecification",
          "description": "Pax 7",
          "minPrice": "120.75",
          "maxPrice": "270.00",
          "priceCurrency": "EUR"
        },
        {
          "@type": "PriceSpecification",
          "description": "Pax 8",
          "minPrice": "150.00",
          "maxPrice": "272.00",
          "priceCurrency": "EUR"
        },
        {
          "@type": "PriceSpecification",
          "description": "Pax 9",
          "minPrice": "168.75",
          "maxPrice": "300.00",
          "priceCurrency": "EUR"
        },
        {
          "@type": "PriceSpecification",
          "description": "Pax 10",
          "minPrice": "187.00",
          "maxPrice": "328.00",
          "priceCurrency": "EUR"
        }
      ]
    },
    {
      "@type": "Offer",
      "name": [
        {
          "@language": "de",
          "@value": "Familienzimmer, Dusche, WC, Nichtraucher"
        },
        {
          "@language": "en",
          "@value": "Family room, shower, toilet, no smoker"
        }
      ],
      "description": [
        {
          "@language": "de",
          "@value": "Geräumiges, gemütliches Familienzimmer mit DU/WC/SAT-TV, Balkon;Doppellcouch,Herrlicher Ausblick über das Zillertal,Sitzecke,\n"
        },
        {
          "@language": "en",
          "@value": "Cosy guest rooms with shower/WC, balcony, camp bed possible\n"
        }
      ],
      "availability": "http://schema.org/InStock",
      "itemOffered": [
        {
          "@type": [
            "HotelRoom",
            "Product"
          ],
          "name": [
            {
              "@language": "de",
              "@value": "Familienzimmer"
            },
            {
              "@language": "en",
              "@value": "family room with shower, WC"
            }
          ],
          "bed": {
            "@type": "BedDetails",
            "numberOfBeds": "1"
          },
          "occupancy": {
            "@type": "QuantitativeValue",
            "maxValue": "3",
            "minValue": "2"
          }
        }
      ],
      "priceSpecification": [
        {
          "@type": "PriceSpecification",
          "description": "Pax 1",
          "minPrice": "0.00",
          "maxPrice": "0.00",
          "priceCurrency": "EUR"
        },
        {
          "@type": "PriceSpecification",
          "description": "Pax 2",
          "minPrice": "26.00",
          "maxPrice": "52.00",
          "priceCurrency": "EUR"
        },
        {
          "@type": "PriceSpecification",
          "description": "Pax 3",
          "minPrice": "26.00",
          "maxPrice": "78.00",
          "priceCurrency": "EUR"
        }
      ]
    },
    {
      "@type": "Offer",
      "name": [
        {
          "@language": "de",
          "@value": "Dreibettzimmer, Dusche, WC, Nichtraucher"
        },
        {
          "@language": "en",
          "@value": "Triple room, shower, toilet, no smoker"
        }
      ],
      "description": [
        {
          "@language": "de",
          "@value": "Gemütliche Gästezimmer mit DU/WC/SAT-TV, eigener Balkon, besonders geeignet als Familienzimmer;Doppellcouch,Sitzecke,"
        },
        {
          "@language": "en",
          "@value": "Cosy guest rooms with shower/WC, balcony, special family-room;"
        }
      ],
      "availability": "http://schema.org/InStock",
      "itemOffered": [
        {
          "@type": [
            "HotelRoom",
            "Product"
          ],
          "name": [
            {
              "@language": "de",
              "@value": "Himmelbettzimmer"
            },
            {
              "@language": "en",
              "@value": "triple room with shower, WC"
            }
          ],
          "bed": {
            "@type": "BedDetails",
            "numberOfBeds": "1"
          },
          "occupancy": {
            "@type": "QuantitativeValue",
            "maxValue": "3",
            "minValue": "2"
          }
        }
      ],
      "priceSpecification": [
        {
          "@type": "PriceSpecification",
          "description": "Pax 1",
          "minPrice": "0.00",
          "maxPrice": "0.00",
          "priceCurrency": "EUR"
        },
        {
          "@type": "PriceSpecification",
          "description": "Pax 2",
          "minPrice": "26.00",
          "maxPrice": "52.00",
          "priceCurrency": "EUR"
        },
        {
          "@type": "PriceSpecification",
          "description": "Pax 3",
          "minPrice": "26.00",
          "maxPrice": "78.00",
          "priceCurrency": "EUR"
        }
      ]
    },
    {
      "@type": "Offer",
      "name": [
        {
          "@language": "de",
          "@value": "Familienzimmer, Dusche, WC, Nichtraucher"
        },
        {
          "@language": "en",
          "@value": "Family room, shower, toilet, no smoker"
        }
      ],
      "description": [
        {
          "@language": "de",
          "@value": "2 - 3 Personen\nca. 25 m2\nDas Zimmer ist mit rustikalen Möbeln ausgestattet und verfügt über einen wunderschönen Ausblick\nüber das Zillertal.\nAusstattung: DU/WC und SAT-TV, eigener Balkon"
        },
        {
          "@language": "en",
          "@value": "2 - 3 persons\nabout 25 m2\nThe room is equipped with typical tyrolean furniture and disposes of a wonderful view ofer the\nZillertal. It disposes of shower/toilet, Sat-TV, own balcony"
        }
      ],
      "availability": "http://schema.org/InStock",
      "itemOffered": [
        {
          "@type": [
            "HotelRoom",
            "Product"
          ],
          "name": [
            {
              "@language": "de",
              "@value": "Zillertalblickzimmer 3"
            },
            {
              "@language": "en",
              "@value": "Family room, shower, toilet"
            }
          ],
          "bed": {
            "@type": "BedDetails",
            "numberOfBeds": "1"
          },
          "occupancy": {
            "@type": "QuantitativeValue",
            "maxValue": "3",
            "minValue": "2"
          }
        }
      ],
      "priceSpecification": [
        {
          "@type": "PriceSpecification",
          "description": "Pax 1",
          "minPrice": "0.00",
          "maxPrice": "0.00",
          "priceCurrency": "EUR"
        },
        {
          "@type": "PriceSpecification",
          "description": "Pax 2",
          "minPrice": "26.00",
          "maxPrice": "52.00",
          "priceCurrency": "EUR"
        },
        {
          "@type": "PriceSpecification",
          "description": "Pax 3",
          "minPrice": "26.00",
          "maxPrice": "78.00",
          "priceCurrency": "EUR"
        }
      ]
    },
    {
      "@type": "Offer",
      "name": [
        {
          "@language": "de",
          "@value": "Familienzimmer, Dusche, WC, Nichtraucher"
        },
        {
          "@language": "en",
          "@value": "Family room, shower, toilet, no smoker"
        }
      ],
      "description": [
        {
          "@language": "de",
          "@value": "Das Zimmer ist mit rustikalen Möbeln ausgestattet und verfügt über einen wunderschönen Ausblick\nüber das Zillertal.\nAusstattung: DU/WC und SAT-TV, eigener Balkon\n"
        },
        {
          "@language": "en",
          "@value": "The room is equipped with typical tyrolean furniture and disposes of a wonderful view ofer the\nZillertal. It disposes of shower/toilet, Sat-TV, own balcony"
        }
      ],
      "availability": "http://schema.org/InStock",
      "itemOffered": [
        {
          "@type": [
            "HotelRoom",
            "Product"
          ],
          "name": [
            {
              "@language": "de",
              "@value": "Zillertalblickzimmer 4"
            },
            {
              "@language": "en",
              "@value": "Family room, shower, toilet"
            }
          ],
          "bed": {
            "@type": "BedDetails",
            "numberOfBeds": "1"
          },
          "occupancy": {
            "@type": "QuantitativeValue",
            "maxValue": "3",
            "minValue": "2"
          }
        }
      ],
      "priceSpecification": [
        {
          "@type": "PriceSpecification",
          "description": "Pax 1",
          "minPrice": "0.00",
          "maxPrice": "0.00",
          "priceCurrency": "EUR"
        },
        {
          "@type": "PriceSpecification",
          "description": "Pax 2",
          "minPrice": "26.00",
          "maxPrice": "52.00",
          "priceCurrency": "EUR"
        },
        {
          "@type": "PriceSpecification",
          "description": "Pax 3",
          "minPrice": "26.00",
          "maxPrice": "26.00",
          "priceCurrency": "EUR"
        }
      ]
    }
  ]
}