{
  "@context": "http://schema.org",
  "@type": "LodgingBusiness",
  "url": [
    "http://maps.best-of-zillertal.at/proxy/frontend/page/fuegen/de?foreignResource\u003d5C80EAC2-09F2-4BDD-86AC-AC032E0ABC3C"
  ],
  "address": {
    "@type": "PostalAddress",
    "name": "Dengghof",
    "streetAddress": "Hof 28",
    "addressCountry": "AT",
    "postalCode": "6261",
    "addressRegion": "Strass im Zillertal",
    "telephone": "(0043) 5244 62126"
  },
  "name": "Dengghof",
  "description": [
    {
      "@language": "de",
      "@value": "Ferienhäuschen im Grünen, Liegeweise, PKW-Abstellplatz, Tischtennis, versperrbarer Raum für Fahrräder, Bauernhof nebenan"
    },
    {
      "@language": "de",
      "@value": "€ 25,00 Endreinigung"
    },
    {
      "@language": "en",
      "@value": "Holiday cottage in the countryside, sunbathing lawn, car-park, table tennis, safe room for cycles, farmhouse nearby"
    },
    {
      "@language": "en",
      "@value": "€ 35,00 finale cleaning"
    }
  ],
  "geo": {
    "@type": "GeoCoordinates",
    "latitude": "47.401502",
    "longitude": "11.825623"
  },
  "currenciesAccepted": "EUR"
}