{
  "@context": "http://schema.org",
  "@type": "BedAndBreakfast",
  "url": [
    "http://www.christina-tirol.at",
    "http://maps.best-of-zillertal.at/proxy/frontend/page/fuegen/de?foreignResource\u003d2A12D9F1-6FEE-463F-9966-161ACD0A53B9",
    "https://www.piaunddirk.de/oesterreich/zillertal/fuegen/sportpension-christina/"
  ],
  "address": {
    "@type": "PostalAddress",
    "name": "Sportpension Christina ",
    "streetAddress": "Wiesengasse 8",
    "addressCountry": "AT",
    "postalCode": "6263",
    "addressRegion": "Fügen",
    "telephone": "(0043) 5285 62809",
    "faxNumber": "(0049) 61299041",
    "email": "dirk@piaunddirk.de",
    "url": "https://www.piaunddirk.de/oesterreich/zillertal/fuegen/sportpension-christina/"
  },
  "name": "Sportpension Christina",
  "description": [
    {
      "@language": "de",
      "@value": "Ein herzliches Grüß Gott aus dem Zillertal - wir freuen uns Sie in unserer kleinen aber feinen Sportpension Christina in Fügen in der Ersten Ferienregion Zillertal begrüßen zu dürfen! Genießen Sie die ruhige Lage unweit vom Ortszentrum und lassen Sie sich bei uns verwöhnen.\nAb Dezember 2016 steht die Sportpension Christina unter neuer Leitung. Familie Schiestl hat sich in den wohlverdienten Ruhestand verabschiedet.\nDie Sportpension Christina wird ab jetzt von Pia und Dirk Touristik GmbH und ihrem Team geführt.\n Pia und Dirk schon lange bekannt im Zillertal als deutscher Reiseveranstalter Reisen macht Spaß mit Pia und Dirk  (www.piaunddirk.de)\n\nWir, in der Pension Christina, bieten Ihnen 15 Doppel-,Drei- und Vierbettzimmer, Einzelzimmer auf Anfrage, welche sich auch für den Familienurlaub mit Kindern eignen. Eingerichtet mit Bad/WC/Bidet, TV und Balkon, bieten sie Komfort für Ihren Winter- sowie Sommerurlaub. \n\nUnsere Sportpension Christina ist mit viel Liebe zum Detail im Tiroler Stil eingerichtet. Ein gemütlicher Frühstücksraum und ein Aufenthaltsraum laden zum Verweilen ein. Im Haus steht kostenloses WLan  zur Verfügung. \nDer Tag beginnt mit einem reichhaltigen Frühstück von unserem Büffet. Frisch gemahlener Kaffee, Cappuchcino, Milchkaffe, leckere Schoko und vieles mehr. Gut gelaunt beginnt der Tag. Nach dem Skifahren können Sie auf unserer Sonnenterrasse die tollsten Erlebnisse des Tages Revue passieren lassen.\nZur Regenerierung der körperlichen Fitness steht unsere Sauna täglich außer Samstag von 16 - 20 Uhr gratis zur Verfügung,\nGenießen Sie im Sommer die herrliche Bergwelt der Ersten Ferienregion Zillertal mit ihren zahlreichen Wanderwegen und Moutainbikestrecken. Im Sommer können Sie mit der Spieljochbahn rauf auf die Bergspitzen und viele Wanderungen hoch oben genießen. Für Abkühlung und Entspannung sorgt die Therme Fügen mit Erlebnisbad und Wellness Bereich, welche Sie in nur 10 Gehminuten erreichen. Auch der Golfplatz Uderns ist bei unseren Gästen sehr beliebt und befindet sich nur 5 Fahrminuten von unserer Sportpension Christina entfernt. \n\nIm Winter bietet die Erste Ferienregion Zillertal 3 wunderbare Skigebiete: Spieljoch, Hochfügen und Hochzillertal. Die Talstation der Spieljochbahn ist nur 5 Gehminuten entfernt und genauso wie die Skigebiete Hochfügen und Hochzillertal bequem mit dem kostenlosen Skibus zu erreichen. Kein langes Anstehen an den Kassen! Als besonderen Service können Sie bei uns in der Pension Christina direkt Ihre Skipässe kaufen.\nDas Zillertal bietet ein ideales Freizeitangebot für Sportler, Erholungssuchende als auch für den Urlaub mit Kindern. \n\nWir freuen uns auf Ihr Kommen, \nDas Team von Pia und Dirk Touristik GmbH\n\n"
    },
    {
      "@language": "de",
      "@value": "Halbpension in einem benachbarten Hotel möglich\nMindestaufenthalt:\nWinter HS Samstag - Samstag 7 Nächte - NS auf Anfrage\nSommer HS 5 Nächte, NS 2 Nächte\nHunde erlaubt, 5 € / Tag \nSkipassverkauf\n\nZahlung/Stornierung:\nAnzahlung 25% des Reisepreises\nVorauszahlung des gesamten Reisepreises incl. OT und Zusatzleistungen\n\nStornierungen:\nbis zum 65. Tag vor Anreise 25% des Reisepreises\n64. - 35. Tag vor Anreise 50% des Reisepreises\n34. - 16. Tag vor Anreise 80% des Gesamtpreises\n15. - 8. Tag vor Reiseantritt 90% des Reisepreises\nab dem 7. Tag vor Reiseantritt 95% des Reisepreises"
    },
    {
      "@language": "de",
      "@value": "Anreise 16 - 21 Uhr\nAbreise bis 9 Uhr\n\nAus organisatorische Gründen ist eine Begleichung der Rechnung im Vorfeld per Überweisung oder per Kreditkarte notwendig.\n"
    },
    {
      "@language": "en",
      "@value": "Welcome at our bed and breakfast guesthouse\" Sportpension Christina\" in Fügen in Erste Ferienregion Zillertal! Enjoy the quiet situation not far from the centre and have yourself pampered here by us.\n\nHere at the Sportpension Christina we offer you 15 double and three-bed rooms, ideally suited for your family holidays with children. Furnished with tub/WC/bidet, TV and balcony, they provide all the comfort you expect in your winter as well as summer vacation. \n\nOur Sportpension Christina is lovingly furnished in Tyrolean style. A cosy breakfast area and a lounge invite you to stay. Free Wifi is at your disposal throughout house. The generous breakfast buffet with many home-made produce is much liked among our guests and already included in the price. \nIn our own sauna with relax area you can relax after a long day filled with experiences. Our sun terrace and the sunbathing lawn invite you to unwind as well. \n\nIn summer you can enjoy the wonderful mountains of Erste Ferienregion Zillertal with numerous hiking paths and mountain bike trails. You can also take the Spieljochbahn to reach the summits in summer and explore many hikes high above. Therme Fügen with its leisure pools and spa area provides refreshment and relaxation and is only 10 minutes away on foot. The golf course in Uderns is also highly popular among our guests and is only 5 minutes away from our Christina guesthouse by car. \n\nIn winter Erste Ferienregion Zillertal offers access to 3 fantastic skiing areas: Spieljoch, Hochfügen and Hochzillertal. The Spieljochbahn valley station can be reached within 5 minutes on foot only and, just like the skiing areas of Hochfügen and Hochzillertal, is comfortably accessible with the free ski bus. No queuing at the cashiers - as special service you can buy your ski passes directly here with us at the Christina guesthouse.\nThe Zillertal offers ideal leisure options both for sports enthusiasts, those looking for recovery and for your holidays with children. \n\nWe look forward to welcoming you, \nYour hosts, Pia und Dirk Touristik GmbH and staff\n"
    },
    {
      "@language": "en",
      "@value": "Half board in a Neigbourhotel possible\nMinimum stay:\nWinter HS Saturday - Saturday 7 nights - NS on request\nSummer HS 5 nights, NS 2 nights\nDogs allowed, 5 € / day\nSkipass sales"
    },
    {
      "@language": "en",
      "@value": "Check-in from 6 pm to 9 pm\ncheck-out  until 9am\n\nFor organizational reasons it is necessary to paye the invoice in advance by money transfer or by credit card."
    }
  ],
  "image": [
    {
      "@type": "ImageObject",
      "url": "http://resc.deskline.net/images/ZIL/1/657cbea7-0d4d-47b0-a3a2-d6309bd1f3f9/99/image.jpg",
      "caption": [
        {
          "@language": "de",
          "@value": "Pension Christina Fügen - Haus Sommer"
        },
        {
          "@language": "en",
          "@value": "Pension Christina Fügen - Haus Sommer"
        }
      ]
    },
    {
      "@type": "ImageObject",
      "url": "http://resc.deskline.net/images/ZIL/1/44aa9151-c7b1-4b62-8ef3-4854ec1bb9f6/99/image.tif",
      "caption": [
        {
          "@language": "de",
          "@value": "logo-mit-telefonnummer"
        },
        {
          "@language": "en",
          "@value": "logo-mit-telefonnummer"
        }
      ]
    },
    {
      "@type": "ImageObject",
      "url": "http://resc.deskline.net/images/ZIL/1/4b12a64d-dc08-4383-b90c-72c180e10f77/99/image.jpg",
      "caption": [
        {
          "@language": "de",
          "@value": "Pension Christina Fügen - Haus Winter"
        },
        {
          "@language": "en",
          "@value": "Pension Christina Fügen - Haus Winter"
        }
      ]
    },
    {
      "@type": "ImageObject",
      "url": "http://resc.deskline.net/images/ZIL/1/e9cb2327-1956-4c77-970d-d71cffbff65d/99/image.jpg",
      "caption": [
        {
          "@language": "de",
          "@value": "Pension Christina Fügen - Haus"
        },
        {
          "@language": "en",
          "@value": "Pension Christina Fügen - Haus"
        }
      ]
    },
    {
      "@type": "ImageObject",
      "url": "http://resc.deskline.net/images/ZIL/1/fdf5778c-3aa4-4e85-a9ff-cd743e4a7164/99/image.jpg",
      "caption": [
        {
          "@language": "de",
          "@value": "Pension Christina Fügen - Rezeption"
        },
        {
          "@language": "en",
          "@value": "Pension Christina Fügen - Rezeption"
        }
      ]
    },
    {
      "@type": "ImageObject",
      "url": "http://resc.deskline.net/images/ZIL/1/54ffcc4b-5169-44df-be4e-3500038a6603/99/image.jpg",
      "caption": [
        {
          "@language": "de",
          "@value": "Pension Christina Fügen - Frühstücksraum"
        },
        {
          "@language": "en",
          "@value": "Pension Christina Fügen - Frühstücksraum"
        }
      ]
    },
    {
      "@type": "ImageObject",
      "url": "http://resc.deskline.net/images/ZIL/1/33fa7b5c-aa94-441c-a462-5a44477d8f1c/99/image.jpg",
      "caption": [
        {
          "@language": "de",
          "@value": "Pension Christina Fügen - Frühstücksraum 2"
        },
        {
          "@language": "en",
          "@value": "Pension Christina Fügen - Frühstücksraum 2"
        }
      ]
    },
    {
      "@type": "ImageObject",
      "url": "http://resc.deskline.net/images/ZIL/1/422ecae0-6240-446c-8efe-1e8165ed2e4f/99/image.jpg",
      "caption": [
        {
          "@language": "de",
          "@value": "Pension Christina Fügen - Hausgang"
        },
        {
          "@language": "en",
          "@value": "Pension Christina Fügen - Hausgang"
        }
      ]
    },
    {
      "@type": "ImageObject",
      "url": "http://resc.deskline.net/images/ZIL/1/2abf8672-b1f4-43c3-a1bf-769f960ed3a3/99/image.jpg",
      "caption": [
        {
          "@language": "de",
          "@value": "Pension Christina Fügen - Aussicht"
        },
        {
          "@language": "en",
          "@value": "Pension Christina Fügen - Aussicht"
        }
      ]
    },
    {
      "@type": "ImageObject",
      "url": "http://resc.deskline.net/images/ZIL/1/22bfc5d2-bfa0-4e23-a2e1-23c4b468a9a6/99/image.jpg",
      "caption": [
        {
          "@language": "de",
          "@value": "detail1 - Kopie"
        },
        {
          "@language": "en",
          "@value": "detail1 - Kopie"
        }
      ]
    },
    {
      "@type": "ImageObject",
      "url": "http://resc.deskline.net/images/ZIL/1/617db231-f69b-4d26-a31b-6ea1823230f0/99/image.jpg",
      "caption": [
        {
          "@language": "de",
          "@value": "DSC_0026"
        },
        {
          "@language": "en",
          "@value": "DSC_0026"
        }
      ]
    },
    {
      "@type": "ImageObject",
      "url": "http://resc.deskline.net/images/ZIL/1/b3dc8709-d8ef-4112-8ca6-3a8b88189ec2/99/image.jpg",
      "caption": [
        {
          "@language": "de",
          "@value": "DSC_0016"
        },
        {
          "@language": "en",
          "@value": "DSC_0016"
        }
      ]
    },
    {
      "@type": "ImageObject",
      "url": "http://resc.deskline.net/images/ZIL/1/26bc8b05-4b4d-4593-8bf7-e86c8f67af52/99/image.jpg",
      "caption": [
        {
          "@language": "de",
          "@value": "DSC07259 - Kopie"
        },
        {
          "@language": "en",
          "@value": "DSC07259 - Kopie"
        }
      ]
    },
    {
      "@type": "ImageObject",
      "url": "http://resc.deskline.net/images/ZIL/1/e6572ae9-880d-4b62-8f70-66c938115b69/99/image.jpg",
      "caption": [
        {
          "@language": "de",
          "@value": "DSC07329 - Kopie"
        },
        {
          "@language": "en",
          "@value": "DSC07329 - Kopie"
        }
      ]
    },
    {
      "@type": "ImageObject",
      "url": "http://resc.deskline.net/images/ZIL/1/eda37270-b287-41e1-9c3c-10faa791ff36/99/image.jpg",
      "caption": [
        {
          "@language": "de",
          "@value": "DSC07345"
        },
        {
          "@language": "en",
          "@value": "DSC07345"
        }
      ]
    },
    {
      "@type": "ImageObject",
      "url": "http://resc.deskline.net/images/ZIL/1/cdd33ddf-b488-40ec-adee-b8b727c5480a/99/image.jpg",
      "caption": [
        {
          "@language": "de",
          "@value": "DSC07470 - Kopie"
        },
        {
          "@language": "en",
          "@value": "DSC07470 - Kopie"
        }
      ]
    },
    {
      "@type": "ImageObject",
      "url": "http://resc.deskline.net/images/ZIL/1/596f1e98-264f-4a60-a432-9860ea4aaa75/99/image.jpg",
      "caption": [
        {
          "@language": "de",
          "@value": "frühstück"
        },
        {
          "@language": "en",
          "@value": "frühstück"
        }
      ]
    },
    {
      "@type": "ImageObject",
      "url": "http://resc.deskline.net/images/ZIL/1/504bc781-ff6d-42af-8538-2bb4af7ccc75/99/image.jpg",
      "caption": [
        {
          "@language": "de",
          "@value": "Unbenannt-1.klein"
        },
        {
          "@language": "en",
          "@value": "Unbenannt-1.klein"
        }
      ]
    },
    {
      "@type": "ImageObject",
      "url": "http://resc.deskline.net/images/ZIL/1/8a5391c4-9335-455b-9c1f-b0767ba16e47/99/image.jpg",
      "caption": [
        {
          "@language": "de",
          "@value": "wandern 075"
        },
        {
          "@language": "en",
          "@value": "wandern 075"
        }
      ]
    },
    {
      "@type": "ImageObject",
      "url": "http://resc.deskline.net/images/ZIL/1/5b73ae69-d0c8-40ff-aabb-c8af9904152d/99/image.jpg",
      "caption": [
        {
          "@language": "de",
          "@value": "vorraum"
        },
        {
          "@language": "en",
          "@value": "vorraum"
        }
      ]
    },
    {
      "@type": "ImageObject",
      "url": "http://resc.deskline.net/images/ZIL/1/d49389f4-ca49-42f8-8afe-d8ddc9cbe7fd/99/image.jpg",
      "caption": [
        {
          "@language": "de",
          "@value": "web-Frühstücksraum-1klein"
        },
        {
          "@language": "en",
          "@value": "web-Frühstücksraum-1klein"
        }
      ]
    },
    {
      "@type": "ImageObject",
      "url": "http://resc.deskline.net/images/ZIL/1/6ac96ca2-ac81-4959-905a-518d74de1440/99/image.jpg",
      "caption": [
        {
          "@language": "de",
          "@value": "zimmer"
        },
        {
          "@language": "en",
          "@value": "zimmer"
        }
      ]
    },
    {
      "@type": "ImageObject",
      "url": "http://resc.deskline.net/images/ZIL/1/6ad47fd5-800f-43db-b253-a728a59a98dd/99/image.jpg",
      "caption": [
        {
          "@language": "de",
          "@value": "DSC_0046hp"
        },
        {
          "@language": "en",
          "@value": "DSC_0046hp"
        }
      ]
    },
    {
      "@type": "ImageObject",
      "url": "http://resc.deskline.net/images/ZIL/1/901ca25a-a23a-44b5-8f4a-b815bf6cc6c1/99/image.jpg",
      "caption": [
        {
          "@language": "de",
          "@value": "DSC_0043"
        },
        {
          "@language": "en",
          "@value": "DSC_0043"
        }
      ]
    },
    {
      "@type": "ImageObject",
      "url": "http://resc.deskline.net/images/ZIL/1/b33bb8a1-4416-4416-9cbb-a6f5d98008d1/99/image.jpg",
      "caption": [
        {
          "@language": "de",
          "@value": "DSC_0069"
        },
        {
          "@language": "en",
          "@value": "DSC_0069"
        }
      ]
    },
    {
      "@type": "ImageObject",
      "url": "http://resc.deskline.net/images/ZIL/1/4fbe85da-befd-4fff-b329-dc15d84a1742/99/image.jpg",
      "caption": [
        {
          "@language": "de",
          "@value": "2012_06_18 Panorama Hochzillertal"
        },
        {
          "@language": "en",
          "@value": "2012_06_18 Panorama Hochzillertal"
        }
      ]
    },
    {
      "@type": "ImageObject",
      "url": "http://resc.deskline.net/images/ZIL/1/3dfa9ccc-f774-4bd5-b1ed-39bb26a5ff32/99/image.jpg",
      "caption": [
        {
          "@language": "de",
          "@value": "BergschreiberIMG_0586k_Hüttendorf"
        },
        {
          "@language": "en",
          "@value": "BergschreiberIMG_0586k_Hüttendorf"
        }
      ]
    },
    {
      "@type": "ImageObject",
      "url": "http://resc.deskline.net/images/ZIL/1/7f6708d9-c185-4374-a930-f201c0115b96/99/image.jpg",
      "caption": [
        {
          "@language": "de",
          "@value": "BergschreiberIMG_0614_Schlepplift"
        },
        {
          "@language": "en",
          "@value": "BergschreiberIMG_0614_Schlepplift"
        }
      ]
    },
    {
      "@type": "ImageObject",
      "url": "http://resc.deskline.net/images/ZIL/1/6caf9bb0-7e0e-4136-ad18-bf9b41a4b2a8/99/image.jpg",
      "caption": [
        {
          "@language": "de",
          "@value": "bilder wierer stefan m+ñrz2010 030"
        },
        {
          "@language": "en",
          "@value": "bilder wierer stefan m+ñrz2010 030"
        }
      ]
    },
    {
      "@type": "ImageObject",
      "url": "http://resc.deskline.net/images/ZIL/1/fdf3bb09-ea80-4e5c-b6cf-1581d1b982c7/99/image.jpg",
      "caption": [
        {
          "@language": "de",
          "@value": "almabtriebhoch_zillertaltourismusgmbh_berndritsche"
        },
        {
          "@language": "en",
          "@value": "almabtriebhoch_zillertaltourismusgmbh_berndritsche"
        }
      ]
    },
    {
      "@type": "ImageObject",
      "url": "http://resc.deskline.net/images/ZIL/1/a5629650-b370-42bb-9108-2ecd8118f653/99/image.jpg",
      "caption": [
        {
          "@language": "de",
          "@value": "basisversion_sommerpano_logokl"
        },
        {
          "@language": "en",
          "@value": "basisversion_sommerpano_logokl"
        }
      ]
    },
    {
      "@type": "ImageObject",
      "url": "http://resc.deskline.net/images/ZIL/1/13aa401a-9ed5-41de-9858-1b26ecfa42db/99/image.jpg",
      "caption": [
        {
          "@language": "de",
          "@value": "ebike_wedelhtte_zillertaltourismus_danielgeiger3"
        },
        {
          "@language": "en",
          "@value": "ebike_wedelhtte_zillertaltourismus_danielgeiger3"
        }
      ]
    },
    {
      "@type": "ImageObject",
      "url": "http://resc.deskline.net/images/ZIL/1/b010724a-ca77-4c43-857a-cb5a63b59d9b/99/image.jpg",
      "caption": [
        {
          "@language": "de",
          "@value": "wandernzurolpererhuettehoch_zillertaltourismusgmbh"
        },
        {
          "@language": "en",
          "@value": "wandernzurolpererhuettehoch_zillertaltourismusgmbh"
        }
      ]
    },
    {
      "@type": "ImageObject",
      "url": "http://resc.deskline.net/images/ZIL/1/a541041d-055c-4a00-bd8e-ecb683904d8c/99/image.jpg",
      "caption": [
        {
          "@language": "de",
          "@value": "sonnengenuss_ritschel"
        },
        {
          "@language": "en",
          "@value": "sonnengenuss_ritschel"
        }
      ]
    },
    {
      "@type": "ImageObject",
      "url": "http://resc.deskline.net/images/ZIL/1/010b2926-42d1-4fad-bcda-dadf8fa4e59b/99/image.jpg",
      "caption": [
        {
          "@language": "de",
          "@value": "zMag_SO14_Golf_0148"
        },
        {
          "@language": "en",
          "@value": "zMag_SO14_Golf_0148"
        }
      ]
    },
    {
      "@type": "ImageObject",
      "url": "http://resc.deskline.net/images/ZIL/1/232c205a-eaa7-4574-ad1b-d82eabb2dd6c/99/image.jpg",
      "caption": [
        {
          "@language": "de",
          "@value": "_MG_0041"
        },
        {
          "@language": "en",
          "@value": "_MG_0041"
        }
      ]
    },
    {
      "@type": "ImageObject",
      "url": "http://resc.deskline.net/images/ZIL/1/a278c992-b6cb-4ed2-8771-ccbf8d5be252/99/image.jpg",
      "caption": [
        {
          "@language": "de",
          "@value": "Sommersport_105"
        },
        {
          "@language": "en",
          "@value": "Sommersport_105"
        }
      ]
    },
    {
      "@type": "ImageObject",
      "url": "http://resc.deskline.net/images/ZIL/1/14a24cfa-444b-44db-b15b-e113bbac0fd2/99/image.jpg",
      "caption": [
        {
          "@language": "de",
          "@value": "bike_innerertensausserertens_zillertaltourismus_da"
        },
        {
          "@language": "en",
          "@value": "bike_innerertensausserertens_zillertaltourismus_da"
        }
      ]
    }
  ],
  "geo": {
    "@type": "GeoCoordinates",
    "latitude": "47.342517",
    "longitude": "11.8450656"
  },
  "currenciesAccepted": "EUR",
  "makesOffer": [
    {
      "@type": "Offer",
      "name": [
        {
          "@language": "de",
          "@value": "Zweibettzimmer, Bad, WC"
        },
        {
          "@language": "en",
          "@value": "Twin room, bath, toilet"
        }
      ],
      "availability": "http://schema.org/InStock",
      "itemOffered": [
        {
          "@type": [
            "HotelRoom",
            "Product"
          ],
          "name": [
            {
              "@language": "de",
              "@value": "Winterpauschale 7 Nächte"
            },
            {
              "@language": "en",
              "@value": "winter package 7 nights"
            }
          ],
          "bed": {
            "@type": "BedDetails",
            "numberOfBeds": "1"
          },
          "occupancy": {
            "@type": "QuantitativeValue",
            "maxValue": "4",
            "minValue": "2"
          }
        }
      ],
      "priceSpecification": [
        {
          "@type": "PriceSpecification",
          "description": "Pax 2",
          "minPrice": "27.00",
          "maxPrice": "50.00",
          "priceCurrency": "EUR"
        },
        {
          "@type": "PriceSpecification",
          "description": "Pax 3",
          "minPrice": "27.00",
          "maxPrice": "50.00",
          "priceCurrency": "EUR"
        },
        {
          "@type": "PriceSpecification",
          "description": "Pax 4",
          "minPrice": "27.00",
          "maxPrice": "50.00",
          "priceCurrency": "EUR"
        }
      ]
    },
    {
      "@type": "Offer",
      "name": [
        {
          "@language": "de",
          "@value": "Vierbettzimmer, Bad, WC, Balkon"
        },
        {
          "@language": "en",
          "@value": "4-bed room, bath, toilet, balcony"
        }
      ],
      "description": [
        {
          "@language": "de",
          "@value": "Heimelige geräumige Zimmer im Landhausstil mit Bad/WC, Radio, Telefon, Kabel-TV und Balkon laden zum Verweilen ein!"
        },
        {
          "@language": "en",
          "@value": "Cosy and spacious rooms in county house style with shower, toilet, radio, telephone, cable-TV, balcony"
        }
      ],
      "availability": "http://schema.org/InStock",
      "itemOffered": [
        {
          "@type": [
            "HotelRoom",
            "Product"
          ],
          "name": [
            {
              "@language": "de",
              "@value": "Vierbettzimmer mit Bad, WC"
            },
            {
              "@language": "en",
              "@value": "room with 4 beds with bath tube, WC"
            }
          ],
          "bed": {
            "@type": "BedDetails",
            "numberOfBeds": "1"
          },
          "occupancy": {
            "@type": "QuantitativeValue",
            "maxValue": "4",
            "minValue": "4"
          }
        }
      ],
      "priceSpecification": [
        {
          "@type": "PriceSpecification",
          "description": "Pax 1",
          "minPrice": "60.00",
          "maxPrice": "75.00",
          "priceCurrency": "EUR"
        },
        {
          "@type": "PriceSpecification",
          "description": "Pax 2",
          "minPrice": "37.00",
          "maxPrice": "50.00",
          "priceCurrency": "EUR"
        }
      ]
    },
    {
      "@type": "Offer",
      "name": [
        {
          "@language": "de",
          "@value": "Dreibettzimmer, Bad, WC, Balkon"
        },
        {
          "@language": "en",
          "@value": "Triple room, bath, toilet, balcony"
        }
      ],
      "description": [
        {
          "@language": "de",
          "@value": "Heimelige geräumige Zimmer im Landhausstil mit Bad/WC, Radio, Telefon, Kabel-TV und Balkon laden zum Verweilen ein!"
        },
        {
          "@language": "en",
          "@value": "Cosy and spacious rooms in county house style with shower, toilet, radio, telephone, cable-TV, balcony"
        }
      ],
      "availability": "http://schema.org/InStock",
      "itemOffered": [
        {
          "@type": [
            "HotelRoom",
            "Product"
          ],
          "name": [
            {
              "@language": "de",
              "@value": "Dreibettzimmer mit Bad, WC"
            },
            {
              "@language": "en",
              "@value": "triple room with bath tube, WC"
            }
          ],
          "bed": {
            "@type": "BedDetails",
            "numberOfBeds": "1"
          },
          "occupancy": {
            "@type": "QuantitativeValue",
            "maxValue": "3",
            "minValue": "2"
          }
        }
      ],
      "priceSpecification": [
        {
          "@type": "PriceSpecification",
          "description": "Pax 2",
          "minPrice": "27.00",
          "maxPrice": "30.00",
          "priceCurrency": "EUR"
        },
        {
          "@type": "PriceSpecification",
          "description": "Pax 3",
          "minPrice": "25.00",
          "maxPrice": "50.00",
          "priceCurrency": "EUR"
        }
      ]
    },
    {
      "@type": "Offer",
      "name": [
        {
          "@language": "de",
          "@value": "Doppelzimmer, Bad, WC, Balkon"
        },
        {
          "@language": "en",
          "@value": "Double room, bath, toilet, balcony"
        }
      ],
      "description": [
        {
          "@language": "de",
          "@value": "Heimelige geräumige Zimmer im Landhausstil mit Bad/WC, Radio, Telefon, Kabel-TV und Balkon laden zum Verweilen ein!\n"
        },
        {
          "@language": "en",
          "@value": "Cosy and spacious rooms in county house style with shower, toilet, radio, telephone, cable-TV, balcony"
        }
      ],
      "availability": "http://schema.org/InStock",
      "itemOffered": [
        {
          "@type": [
            "HotelRoom",
            "Product"
          ],
          "name": [
            {
              "@language": "de",
              "@value": "Doppelzimmer mit Bad, WC"
            },
            {
              "@language": "en",
              "@value": "double room with bath tube, WC"
            }
          ],
          "bed": {
            "@type": "BedDetails",
            "numberOfBeds": "1"
          },
          "occupancy": {
            "@type": "QuantitativeValue",
            "maxValue": "3",
            "minValue": "1"
          }
        }
      ],
      "priceSpecification": [
        {
          "@type": "PriceSpecification",
          "description": "Pax 1",
          "minPrice": "37.00",
          "maxPrice": "90.00",
          "priceCurrency": "EUR"
        },
        {
          "@type": "PriceSpecification",
          "description": "Pax 2",
          "minPrice": "27.00",
          "maxPrice": "50.00",
          "priceCurrency": "EUR"
        },
        {
          "@type": "PriceSpecification",
          "description": "Pax 3",
          "minPrice": "27.00",
          "maxPrice": "50.00",
          "priceCurrency": "EUR"
        }
      ]
    },
    {
      "@type": "Offer",
      "name": [
        {
          "@language": "de",
          "@value": "Zweibettzimmer, Etagendusche/Etagen-WC, Bergseite"
        },
        {
          "@language": "en",
          "@value": "Twin room, shared shower/shared toilet, facing the mountains"
        }
      ],
      "description": [
        {
          "@language": "de",
          "@value": "Kleines Zweibettzimmer mit Etagenbett, Bad/WC auf der Etage\u003cbr\u003e\nkein TV"
        }
      ],
      "availability": "http://schema.org/InStock",
      "itemOffered": [
        {
          "@type": [
            "HotelRoom",
            "Product"
          ],
          "name": [
            {
              "@language": "de",
              "@value": "Zweibettzimmer, Etagendusche/Etagen-WC, Bergseite"
            },
            {
              "@language": "en",
              "@value": "Twin room, shared shower/shared toilet, facing the mountains"
            }
          ],
          "bed": {
            "@type": "BedDetails",
            "numberOfBeds": "1"
          },
          "occupancy": {
            "@type": "QuantitativeValue",
            "maxValue": "2",
            "minValue": "1"
          }
        }
      ],
      "priceSpecification": [
        {
          "@type": "PriceSpecification",
          "description": "Pax 1",
          "minPrice": "40.00",
          "maxPrice": "40.00",
          "priceCurrency": "EUR"
        },
        {
          "@type": "PriceSpecification",
          "description": "Pax 2",
          "minPrice": "60.00",
          "maxPrice": "60.00",
          "priceCurrency": "EUR"
        }
      ]
    }
  ]
}