{
  "@context": "http://schema.org",
  "@type": "LodgingBusiness",
  "url": [
    "http://www.mountainview-hochzillertal.at",
    "http://maps.best-of-zillertal.at/proxy/frontend/page/fuegen/de?foreignResource\u003d6011CF40-39C8-4433-83A7-E6F7C756C38C"
  ],
  "address": {
    "@type": "PostalAddress",
    "streetAddress": "Kleinriedstraße 29",
    "addressCountry": "AT",
    "postalCode": "6273",
    "addressRegion": "Ried im Zillertal",
    "telephone": "(0043) 5283 2147",
    "faxNumber": "(0043) 05283 2147",
    "email": "gerda.braunegger@gmx.at",
    "url": "http://www.mountainview-hochzillertal.at"
  },
  "name": "Mountainview Hochzillertal",
  "description": [
    {
      "@language": "de",
      "@value": "Herzlich Willkommen in Ihrem Traumurlaub in den Ferienwohnungen des Mountainview Hochzillertal im idyllischen Ried im Zillertal! \n \nLassen Sie sich von der Umgebung der Ersten Ferienregion Fügen-Kaltenbach verzaubern, bezwingen Sie die Tiroler Alpen beim Wandern oder meistern Sie die Pisten der Skigebiete Hochfügen-Hochzillertal und Spieljoch.  \n \nFür Ihren Erholungsurlaub mit der ganzen Familie erwarten Sie im Mountainview Hochzillertal 3 Ferienwohnungen auf absolutem top Niveau, die sich besonders gut für Gruppenreisen eignen. \nIm Parterre sowie im 1. Stock bietet Ihnen jeweils eine Ferienwohnung Platz für 8-10 Personen auf 150 m2 mit 3 Doppelzimmern, ausgestattet mit feinstem Zirbenholz, und einem Familienzimmer mit Doppel- und Hochbett. Jedes Zimmer verfügt über ein eigenes, modernes Badezimmer, das Familienzimmer bietet sogar eine Badewanne. Der großzügig geschnittene, lichtdurchflutete Wohn-Essbereich ist mit einer komplett eingerichteten Küchenzeile ausgestattet und die Sitzecke bietet viel Platz für gemeinsame Spielabende mit Familie und in der Gruppe. Im großen Wohnbereich mit Couch genießen Sie eine komplette DVD- und Audio-Ausstattung und natürlich W-Lan im ganzen Mountainview Hochzillertal. \nDie Ferienwohnung im Dachgeschoss ist auf 140 m2 identisch aufgebaut, die 4 edel und liebevoll eingerichteten Zirbenholz-Doppelzimmer bieten Ihnen auch hier vollsten Komfort. \nAuf Wunsch nutzen Sie den morgendlichen Brötchenservice, um gestärkt in den Tag zu starten. \n \nIn jeder Ferienwohnung erwartet Sie ein sonnengefluteter Süd-Balkon bzw. eine große Terrasse mit Blick auf das majestätische Bergpanorama. Den Garten im Mountainview Hochzillertal nutzen Sie als Liegewiese und für gemeinsame Grillabende mit der Gruppe und Familie. Der Spielplatz mit Schaukel und Tischtennis lädt Ihre Kinder zum Toben und Spielen ein. Ihre Sportausrüstung stellen Sie im Skidepot mit Ski-, Snowboardständer und Schuhtrockner unter. \n \nIm Winter glänzt das Mountainview Hochzillertal durch seine perfekte Lage. Mit dem kostenlosen Skibus 50 Meter vor dem Haus, erreichen Sie in nur 5 Minuten das Skigebiet Hochfügen-Hochzillertal und auch das familienfreundliche Skigebiet Spieljoch ist in Kürze zu erreichen. Entspannte Stunden erwarten Sie in der Erlebnis-Therme Zillertal oder Sie erkunden bei einer romantischen Winterwanderung die verschneite Winterlandschaft im Zillertal. \n \nIm Sommer beginnen Sie direkt von Ihrer Ferienwohnung aus eine aktive Wanderung oder starten auf Touren mit dem Mountainbike. Für Tagesausflüge empfiehlt sich die Zillertaler Höhenstraße mit ihren zahlreichen Naturschauspielen. An heißen Sommertagen ist für Badespaß mit der ganzen Familie in der Badewelt Stumm gesorgt, die Sie in nur 5 Fahrminuten erreichen. \n \nFamilie Braunegger begrüßt Sie in Ihrem Familienurlaub im Mountainview Hochzillertal in Ried! "
    },
    {
      "@language": "de",
      "@value": "Brötchenservice möglich;\nEndreinigung Euro 130-- pro Wohnung\n\nAnzahlung erforderlich lt. Vereinbarung;"
    },
    {
      "@language": "en",
      "@value": "Welcome to your dream holiday at the holiday apartments of the Mountain View Hochzillertal guesthouse in the idyllic Ried in the Zillertal!\n\nYou will be enchanted by the beauty of Erste Ferienregion Fügen-Kaltenbach, when discovering the hiking trails of the Tyrolean Alps or skiing the slopes of the Hochfügen-Hochzillertal and Spieljoch skiing resorts.\n\nFor a relaxing holiday with the whole family the Mountain View Hochzillertal awaits you with 3 absolute top level apartments, which are particularly suitable for groups.\nThe apartments on the ground and the first floor each accommodate 8-10 people across 150 m2 with 3 double rooms of finest pine wood, and a family room with double and a bunk bed. Each room has a private, modern bathroom; the family room even comes with a tub. The spacious, light-filled living-dining area comes with a fully equipped kitchenette and a sitting area that offers plenty of space for game nights together with family and friends. The large living area with couch offers DVD and audio equipment and the Wi-Fi is, of course, available throughout the entire Mountain View Hochzillertal guesthouse.\n\nAcross 140 m2, the apartment on the top floor has an identical structure, the 4 luxurious and lovingly furnished pine wood double rooms offer maximum comfort too. On request, you can even book the fresh roll service in the morning to properly start your day.\n\nWith every apartment you can enjoy a sun-flooded south-facing balcony and a large terrace with views of the majestic mountains. The garden of the Mountain View Hochzillertal guesthouse has a lawn where you can spend sociable barbecue nights with family and friends. The playground with swings and table tennis invites your children to unwind and play. Your sports equipment can be stored in our depot with ski and snowboard rack and boot dryer.\n\nIn winter, the Mountain View Hochzillertal guesthouse is characterised by its perfect location. The free ski bus stops only 50 metres away, so you can reach the Hochfügen-Zillertal skiing resort and the family-friendly Spieljoch skiing area within 5 minutes only. Relaxing hours await you at Erlebnis-Therme Zillertal or when exploring the snowy winter landscape in the Zillertal on a romantic winter walk.\n\nIn summer, you can start an active hike or a mountain bike tour right from your apartment. Thanks to its many natural wonders Zillertaler Höhenstraße is highly recommended for day trips. On hot summer days Badewelt Stumm, which can be reached in just 5 minutes by car, offers bathing fun for the whole family.\n\nThe Braunegger family looks forward to welcoming you to your family vacation in the Mountain View Hochzillertal guesthouse in Ried!"
    },
    {
      "@language": "en",
      "@value": "Fresh bread service;\nTail end euro 80,-- to 100,-- per apartment;\nPrice for rental carhouse on request;\nAdvance payment essential as agreed;\n"
    }
  ],
  "image": [
    {
      "@type": "ImageObject",
      "url": "http://resc.deskline.net/images/ZIL/1/5e1c361a-b405-4ab6-ab1d-64ba7d9ce37e/99/image.jpg",
      "caption": [
        {
          "@language": "de",
          "@value": "Haus Sommer"
        },
        {
          "@language": "en",
          "@value": "Haus Sommer"
        }
      ]
    },
    {
      "@type": "ImageObject",
      "url": "http://resc.deskline.net/images/ZIL/1/01695362-3607-46d6-8c93-bad6e4bde3e7/99/image.jpg",
      "caption": [
        {
          "@language": "de",
          "@value": "AT62722303__01"
        },
        {
          "@language": "en",
          "@value": "AT62722303__01"
        }
      ]
    }
  ],
  "geo": {
    "@type": "GeoCoordinates",
    "latitude": "47.300802373614921",
    "longitude": "11.871408820152283"
  },
  "currenciesAccepted": "EUR",
  "makesOffer": [
    {
      "@type": "Offer",
      "name": [
        {
          "@language": "de",
          "@value": "Appartement/Fewo, Dusche oder Bad, WC, 4 oder mehr Schlafräume"
        },
        {
          "@language": "en",
          "@value": "Apartment, shower or bath, toilet, 4 or more bed rooms"
        }
      ],
      "description": [
        {
          "@language": "de",
          "@value": "Im edelsten Tiroler Stil eingerichtete Appartements im Parterre und im 1. Stock für jeweils 8-11 Personen (150m2);\nkomplett eingerichtete Küche (4-Platten Herd mit Backrohr, Kühlschrank mit Gefrierfach, Kaffeemaschine, Geschirrspülmaschine, Toaster, Mikro, Wasserkocher etc.) mit angrenzendem, großzügigem Wohnbereich mit gemütlicher Eßecke und große Sonnenterrasse, SAT-TV und DVD-Player, W-LAN, 3 Zirbenschlafzimmer für je 2 Personen und mit jeweils DU/WC, 1 Zirbenschlafzimmer für 2 Erwachsene un"
        }
      ],
      "availability": "http://schema.org/InStock",
      "itemOffered": [
        {
          "@type": [
            "Apartment",
            "Product"
          ],
          "name": [
            {
              "@language": "de",
              "@value": "Ap. Parterre"
            },
            {
              "@language": "en",
              "@value": "ap./4 + more bedrooms/shower or bath, WC"
            }
          ],
          "numberOfRooms": "6.0",
          "occupancy": {
            "@type": "QuantitativeValue",
            "maxValue": "11",
            "minValue": "6"
          }
        }
      ],
      "priceSpecification": [
        {
          "@type": "PriceSpecification",
          "description": "Pax 6",
          "minPrice": "280.00",
          "maxPrice": "280.00",
          "priceCurrency": "EUR"
        },
        {
          "@type": "PriceSpecification",
          "description": "Pax 7",
          "minPrice": "280.00",
          "maxPrice": "280.00",
          "priceCurrency": "EUR"
        },
        {
          "@type": "PriceSpecification",
          "description": "Pax 8",
          "minPrice": "280.00",
          "maxPrice": "280.00",
          "priceCurrency": "EUR"
        },
        {
          "@type": "PriceSpecification",
          "description": "Pax 9",
          "minPrice": "280.00",
          "maxPrice": "280.00",
          "priceCurrency": "EUR"
        },
        {
          "@type": "PriceSpecification",
          "description": "Pax 10",
          "minPrice": "280.00",
          "maxPrice": "280.00",
          "priceCurrency": "EUR"
        },
        {
          "@type": "PriceSpecification",
          "description": "Pax 11",
          "minPrice": "295.00",
          "maxPrice": "295.00",
          "priceCurrency": "EUR"
        }
      ]
    },
    {
      "@type": "Offer",
      "name": [
        {
          "@language": "de",
          "@value": "Appartement/Fewo, Dusche oder Bad, WC, 4 oder mehr Schlafräume"
        },
        {
          "@language": "en",
          "@value": "Apartment, shower or bath, toilet, 4 or more bed rooms"
        }
      ],
      "description": [
        {
          "@language": "de",
          "@value": "Im edelsten Tiroler Stil eingerichtete Appartements im Parterre und im 1. Stock für jeweils 8-11 Personen (150m2);\nkomplett eingerichtete Küche (4-Platten Herd mit Backrohr, Kühlschrank mit Gefrierfach, Kaffeemaschine, Geschirrspülmaschine, Toaster, Mikro, Wasserkocher etc.) mit angrenzendem, großzügigem Wohnbereich mit gemütlicher Eßecke und große Sonnenterrasse, SAT-TV und DVD-Player, Internetanschluss im Appartement, 2 Zirbenschlafzimmer für je 2 Personen und mit jeweils DU/WC, 1 Zirbenschlafzimmer für 3 Personen,   1 Familienschlafzimmer mit Verbindungstür\n(1 Doppelbett und 1 Hochbett für 2 Kinder) mit Badewanne/WC, Bettwäsche und Handtücher vorhanden;"
        }
      ],
      "availability": "http://schema.org/InStock",
      "itemOffered": [
        {
          "@type": [
            "Apartment",
            "Product"
          ],
          "name": [
            {
              "@language": "de",
              "@value": "Ap. 1. Stock"
            },
            {
              "@language": "en",
              "@value": "Apartment, shower or bath, toilet, 4 or more bed rooms"
            }
          ],
          "numberOfRooms": "6.0",
          "occupancy": {
            "@type": "QuantitativeValue",
            "maxValue": "11",
            "minValue": "6"
          }
        }
      ],
      "priceSpecification": [
        {
          "@type": "PriceSpecification",
          "description": "Pax 6",
          "minPrice": "0.00",
          "maxPrice": "0.00",
          "priceCurrency": "EUR"
        },
        {
          "@type": "PriceSpecification",
          "description": "Pax 7",
          "minPrice": "0.00",
          "maxPrice": "0.00",
          "priceCurrency": "EUR"
        },
        {
          "@type": "PriceSpecification",
          "description": "Pax 8",
          "minPrice": "280.00",
          "maxPrice": "280.00",
          "priceCurrency": "EUR"
        },
        {
          "@type": "PriceSpecification",
          "description": "Pax 9",
          "minPrice": "0.00",
          "maxPrice": "0.00",
          "priceCurrency": "EUR"
        },
        {
          "@type": "PriceSpecification",
          "description": "Pax 10",
          "minPrice": "280.00",
          "maxPrice": "280.00",
          "priceCurrency": "EUR"
        },
        {
          "@type": "PriceSpecification",
          "description": "Pax 11",
          "minPrice": "0.00",
          "maxPrice": "0.00",
          "priceCurrency": "EUR"
        }
      ]
    },
    {
      "@type": "Offer",
      "name": [
        {
          "@language": "de",
          "@value": "Appartement/Fewo, Dusche oder Bad, WC, 4 oder mehr Schlafräume"
        },
        {
          "@language": "en",
          "@value": "Apartment, shower or bath, toilet, 4 or more bed rooms"
        }
      ],
      "description": [
        {
          "@language": "de",
          "@value": "Im feinsten Tiroler Stil eingerichtete Dachgeschoßwohnung für 6-8 Personen\nmit komplett ausgestatteter Küche (4-Platten Herd mit Backrohr, Kühlschrank mit Gefrierfach, Geschirrspülmaschine, Mikro, Toaster, Kaffeemaschine,\nWasserkocher etc.) mit großzügigem, angeschlossenem Wohnbereich mit\ngemütlicher Eßecke, Sat-TV, DVD-Player, Internetanschluss im Appartement, große Sonnenterrasse, 4 Zirbenschlafzimmer für je 2 Personen und 3 Zimmer mit jeweils DU/WC und  Zimmer mit Badewanne/\nWC, Bettwäsche und Handtücher vorhanden;"
        }
      ],
      "availability": "http://schema.org/InStock",
      "itemOffered": [
        {
          "@type": [
            "Apartment",
            "Product"
          ],
          "name": [
            {
              "@language": "de",
              "@value": "Ap. Dachgeschoss"
            },
            {
              "@language": "en",
              "@value": "ap./4 + more bedrooms/shower or bath, WC"
            }
          ],
          "numberOfRooms": "6.0",
          "occupancy": {
            "@type": "QuantitativeValue",
            "maxValue": "8",
            "minValue": "6"
          }
        }
      ],
      "priceSpecification": [
        {
          "@type": "PriceSpecification",
          "description": "Pax 6",
          "minPrice": "0.00",
          "maxPrice": "0.00",
          "priceCurrency": "EUR"
        },
        {
          "@type": "PriceSpecification",
          "description": "Pax 7",
          "minPrice": "0.00",
          "maxPrice": "0.00",
          "priceCurrency": "EUR"
        },
        {
          "@type": "PriceSpecification",
          "description": "Pax 8",
          "minPrice": "280.00",
          "maxPrice": "280.00",
          "priceCurrency": "EUR"
        }
      ]
    }
  ]
}