{
  "@context": "http://schema.org",
  "@type": "LodgingBusiness",
  "url": [
    "http://www.best-of-zillertal.at",
    "http://maps.best-of-zillertal.at/proxy/frontend/page/fuegen/de?foreignResource\u003d6466feb5-9148-4b40-8676-247b2b3bae3a"
  ],
  "address": {
    "@type": "PostalAddress",
    "streetAddress": "Hochfügenerstraße 53",
    "addressCountry": "AT",
    "postalCode": "6263",
    "addressRegion": "Fügen",
    "telephone": "(0043) 0676 5540658",
    "email": "berndt.schwemb@gmail.com"
  },
  "name": "Appartement Schwemberger",
  "description": [
    {
      "@language": "de",
      "@value": "NEU: Ferienwohnung 65m² in Fügen!\n\nWollen Sie Ruhe genießen und trotzdem zentral wohnen?\nLage: ca. 200m unterhalb der Talstation Spieljochbahn, direkt an der beschneiten Übungswiese der Spieljochbahn.\n\n"
    },
    {
      "@language": "de",
      "@value": "Endreinigung EUR 40,00\nHaustier: EUR 5,00 pro Tag\nBabybett im Mietpreis inbegriffen."
    },
    {
      "@language": "en",
      "@value": "NEW! Apartment 65m² in Fügen!\n\nLocation: 200m below Spieljoch valley station, directly at the rope tow Spieljoch."
    },
    {
      "@language": "en",
      "@value": "final cleaning EUR 40,00\npet: EUR 5,00 per day\nbed for babies incl."
    }
  ],
  "image": [
    {
      "@type": "ImageObject",
      "url": "http://resc.deskline.net/images/ZIL/1/f07c3da8-a8ee-46c7-b0d7-95e51247ba4d/99/image.jpg",
      "caption": [
        {
          "@language": "de",
          "@value": "Ausblick"
        },
        {
          "@language": "en",
          "@value": "Ausblick"
        }
      ]
    },
    {
      "@type": "ImageObject",
      "url": "http://resc.deskline.net/images/ZIL/1/4713dae1-c961-4b12-afde-1fdff6f91a4a/99/image.jpg",
      "caption": [
        {
          "@language": "de",
          "@value": "Hausansicht Winter"
        },
        {
          "@language": "en",
          "@value": "Hausansicht Winter"
        }
      ]
    }
  ],
  "geo": {
    "@type": "GeoCoordinates",
    "latitude": "47.340945643878996",
    "longitude": "11.846330165863037"
  },
  "currenciesAccepted": "EUR",
  "makesOffer": [
    {
      "@type": "Offer",
      "name": [
        {
          "@language": "de",
          "@value": "Appartement/Fewo, Dusche, WC"
        },
        {
          "@language": "en",
          "@value": "Apartment, shower, toilet"
        }
      ],
      "description": [
        {
          "@language": "de",
          "@value": "Eigener Eingangsbereich, komfortable Küche, Wohnzimmer mit Eßbereich (28m²), Sat-TV, große Sonnenterrasse, DU/WC, überdachter Abstellplatz für 2 PKW."
        },
        {
          "@language": "en",
          "@value": "separate entrance area, comfortable kitchen, living room with dining table, satellite TV, shower, toilet, big sun terrace, carport."
        }
      ],
      "availability": "http://schema.org/InStock",
      "itemOffered": [
        {
          "@type": [
            "Apartment",
            "Product"
          ],
          "name": [
            {
              "@language": "de",
              "@value": "Ap./Wohn-Schlafraum/1 Schlafraum/Du,WC"
            },
            {
              "@language": "en",
              "@value": "ap/comb.living-bedr./1 bedroom/shower,wc"
            }
          ],
          "numberOfRooms": "2.0",
          "occupancy": {
            "@type": "QuantitativeValue",
            "maxValue": "5",
            "minValue": "2"
          }
        }
      ]
    }
  ]
}