{
  "@context": "http://schema.org",
  "@type": "LodgingBusiness",
  "url": [
    "www.unterfloeber.at",
    "http://maps.best-of-zillertal.at/proxy/frontend/page/fuegen/de?foreignResource\u003d655EC222-277F-48B5-BA1A-C4FB9DEA7BD0"
  ],
  "address": {
    "@type": "PostalAddress",
    "streetAddress": "Waldstraße 2",
    "addressCountry": "AT",
    "postalCode": "6265",
    "addressRegion": "Hart",
    "telephone": "(0043) 5288 64966",
    "faxNumber": "(0043) 5288 64966"
  },
  "name": "Schiestl, Michael",
  "description": [
    {
      "@language": "de",
      "@value": "Gemütliches Privathaus in sonniger und ruhiger Lage auf 1.100m. Wunderbare Aussicht auf die Zillertaler Bergwelt und bis zum Achensee."
    },
    {
      "@language": "de",
      "@value": "Inklusive: Heizung, Garage, Wasser, Bett- und Tischwäsche\nExklusive: Endreinigung € 25,00, Ortstaxe, Strom"
    },
    {
      "@language": "en",
      "@value": "Cosy guesthouse in sunny and quiet location on sea-level of 1.100m. Wonderful view over the Zillertaler alps till the Achensee."
    },
    {
      "@language": "en",
      "@value": "Inclusive: central heating, garage, water, bed-linen\nExclusive: cleaning after stay € 25,00, tax, electric current"
    }
  ],
  "image": [
    {
      "@type": "ImageObject",
      "url": "http://resc.deskline.net/images/ZIL/1/26557a36-8bce-4af3-9f42-863baf7d396a/99/image.jpg",
      "caption": [
        {
          "@language": "de",
          "@value": "Hausansicht"
        },
        {
          "@language": "en",
          "@value": "Hausansicht"
        }
      ]
    }
  ],
  "geo": {
    "@type": "GeoCoordinates",
    "latitude": "47.368405",
    "longitude": "11.883463"
  },
  "currenciesAccepted": "EUR",
  "makesOffer": [
    {
      "@type": "Offer",
      "name": [
        {
          "@language": "de",
          "@value": "Appartement/Fewo, Dusche, WC, 2 Schlafräume"
        },
        {
          "@language": "en",
          "@value": "Apartment, shower, toilet, 2 bed rooms"
        }
      ],
      "description": [
        {
          "@language": "de",
          "@value": "Große, gemütliche Ferienwohnng mit DU/WC, 1 Küche, 1 Wohnzimmer, 4 Schlafzimmern und Balkon."
        },
        {
          "@language": "en",
          "@value": "Large and comfortable appartment with shower/WC, 1 kitchen, 1 living-room, 4 bedrooms and balcony."
        }
      ],
      "availability": "http://schema.org/InStock",
      "itemOffered": [
        {
          "@type": [
            "Apartment",
            "Product"
          ],
          "name": [
            {
              "@language": "de",
              "@value": "Appartement 2 Schlafzimmer, Dusche, WC"
            },
            {
              "@language": "en",
              "@value": "Apartment, shower, toilet, 2 bed rooms"
            }
          ],
          "numberOfRooms": "4.0",
          "occupancy": {
            "@type": "QuantitativeValue",
            "maxValue": "6",
            "minValue": "4"
          }
        }
      ],
      "priceSpecification": [
        {
          "@type": "PriceSpecification",
          "description": "Pax 4",
          "minPrice": "40.00",
          "maxPrice": "40.00",
          "priceCurrency": "EUR"
        },
        {
          "@type": "PriceSpecification",
          "description": "Pax 5",
          "minPrice": "50.00",
          "maxPrice": "50.00",
          "priceCurrency": "EUR"
        },
        {
          "@type": "PriceSpecification",
          "description": "Pax 6",
          "minPrice": "60.00",
          "maxPrice": "60.00",
          "priceCurrency": "EUR"
        }
      ]
    }
  ]
}