{
  "@context": "http://schema.org",
  "@type": "LodgingBusiness",
  "url": [
    "http://www.maerzenklamm.at",
    "http://maps.best-of-zillertal.at/proxy/frontend/page/fuegen/de?foreignResource\u003d674C1E1D-D707-4A7B-B8F6-C189BF5F3906"
  ],
  "address": {
    "@type": "PostalAddress",
    "name": "Gasthof Märzenklamm",
    "streetAddress": "Obere März 46",
    "addressCountry": "AT",
    "postalCode": "6275",
    "addressRegion": "Stumm",
    "telephone": "(0043) 5283 2750",
    "faxNumber": "(0043) 5283 27504",
    "email": "info@maerzenklamm.at",
    "url": "http://www.maerzenklamm.at"
  },
  "name": "Gasthof Märzenklamm***",
  "description": [
    {
      "@language": "de",
      "@value": "Lassen Sie die Seele baumeln und genießen Sie Ihren Erholungs- oder Aktiv-Urlaub im Gasthof Märzenklamm in Stumm im Zillertal, wo persönlicher Service und Sinn für Tradition an oberster Stelle stehen.\n\nGetreu dem Motto „Im Urlaub zuhause sein“ erwarten Sie 23 gemütliche Zimmer in ruhiger Lage in Stumm im Herzen des Zillertals mit Blick auf den Märzenbach. Nur 10 Gehminuten vom Ortszentrum Stumm entfernt können Sie Ihren Tag bei einem Frühstück mit heimischen Produkten beginnen und bei einem 3-Gänge Menü mit Salat-Vital-Ecke ausklingen lassen. Bekocht werden Sie von den Gastgebern selbst, die Sie im Sommer auch wöchentlich zum Grillabend mit ausgewählten Köstlichkeiten begrüßen. Genehmigen Sie sich Ihren Kaffee und Kuchen nachmittags auf unserer sonnigen Terrasse mit Blick auf die Ortschaft Ried im Zillertal - ganz egal ob nach dem Wandern oder einem Ausflug mit dem Fahrrad.\nDie Zimmer sind mit Dusche, WC, Föhn und Flachbild-TV ausgestattet und bieten mit den traditionellen aber modernen Holzmöbeln eine heimelige Atmosphäre zum Wohlfühlen. Die Zimmer mit Balkon bieten traumhafte Blicke über den Märzenbach, das Hochzillertal oder Ried im Zillertal.\n\nDer Gasthof Märzenklamm ist idealer Ausgangspunkt für zahlreiche Aktivitäten – egal ob im Urlaub mit Familie oder im Urlaub mit Partner oder Freunden, es erwarten Sie jede Menge Action und Erholung in unmittelbarer Umgebung.\n\nIm Sommer können Sie direkt ab dem Gasthof auf einem der markierten Wanderwege z.B. entlang dem Märzengrund wandern. Gerne leihen wir Ihnen auch Stöcke für Ihre Bergtour oder organisieren Ihnen ein E-Bike für Radtouren am Ziller Uferweg.\nAn heißen Sommertagen können Sie sich in der nur 1 km entfernten Badewelt Stumm nach dem Wandern abkühlen, den nahe gelegenen Kinderspielplatz mit ihrer Familie besuchen oder Ihre Ausdauer auf dem Tennisplatz in unmittelbarer Umgebung beweisen.\n\nIm Winter können Sie im Skigebiet Hochzillertal-Hochfügen Pistenspaß pur erleben. Das Skigebiet ist in nur 5 Minuten mit dem kostenlosen Skibus und Haltestelle direkt vor dem Gasthof bequem und schnell zu erreichen. Für Erholungssuchende gibt es 400 km geräumte Winterwanderwege, die in die verschneiten Winterlandschaft einladen und im Winterurlaub mit Familie können 14 Rodelbahnen im Zillertal ausgiebig getestet werden. Lassen Sie sich die Chance nicht entgehen und spielen Sie eine Runde auf unserer Natureisstockbahn, die wir bei geeigneter Wetterlage in unserem Hof präparieren!\n\nIhre Gastgeber, die Familie Pfister, heißt Sie im Gasthof Märzenklamm in Stumm herzlich willkommen und freut sich auf Ihren Besuch im Zillertal!\n\n\n"
    },
    {
      "@language": "de",
      "@value": "Kinderermäßigung im Elternzimmer:\n0-4 J. frei\n5-10 J. -50%\n11-15 J. -20%\nKinder im eigenen Zimmer bis 15 Jahre -20%\nDoppelzimmer zur Einzelbenutzung: auf Anfrage\nGruppenpreise auf Anfrage"
    },
    {
      "@language": "de",
      "@value": "Check-In \u003d täglich ab 14.00 Uhr\nCheck-Out \u003d täglich bis 10.00 Uhr"
    },
    {
      "@language": "de",
      "@value": "Märzenklamm Zillertal Stumm Urlaub Zimmer Preise Restaurant"
    },
    {
      "@language": "en",
      "@value": "Let your soul soar free and enjoy relaxing or active holidays at the Gasthof Märzenklamm guesthouse in Stumm in the Zillertal, where personal service and a sense of tradition are paramount.\n\nTrue to the motto \"Feeling like home on vacation\" the Gasthof Märzenklamm guesthouse offers 23 cosy rooms in a quiet location in Stumm, in the heart of the Zillertal. Just 10 minutes from the centre of Stumm, you can start your day with a breakfast with local products and end it with a 3-course menu with salad vitality buffet. Catering is guaranteed by the hosts themselves, who during summer also welcome you to barbecues with selected delicacies on a weekly basis. Enjoy your coffee and cake in the afternoon on our sunny terrace with views of the village of Ried in the Zillertal – whether when returning from a hiking or a bicycle tour.\nOur rooms are equipped with shower, toilet, hairdryer and flat screen TVs and thanks to the traditional, but modern wooden furniture provide a homely relax atmosphere. The rooms also come with balconies offering fantastic views of the Märzenbach creek, the Hochzillertal or Ried in the Zillertal.\n\nThe Gasthof Märzenklamm guesthouse is an ideal starting point for many activities – whether when spending family holidays or on vacation with your partner or friends, plenty of action and relaxation are on offer in the immediate vicinity.\n\nIn summer you can start your hike on one of the marked trails along the Märzengrund valley right from the guesthouse. We are also happy to lend you hiking poles or organise an e-bike for your cycling tour along the Ziller cycling trail.\nOn hot summer days, you can cool off at Badewelt Stumm that is only 1 km away, visit the nearby playground with your family or put your stamina to the test on the nearby tennis court.\n\nIn winter, you can enjoy pure skiing fun at the Hochzillertal-Hochfügen skiing resort. The skiing area can be conveniently and quickly reached in just 5 minutes when taking the free ski bus that stops right outside the Gasthof Märzenklamm guesthouse. For those seeking relaxation 400 km of groomed winter hiking trails inviting you to explore the snowy winter landscape await you, while families on winter vacation can thoroughly test no less than 14 toboggan runs in the Zillertal. Do not miss out on a curling match game on our natural ice rink that we have on offer right outside the house in suitable weather conditions!\n\nYour hosts, the Pfister family, welcome you to the Gasthof Märzenklamm guesthouse in Stumm and are looking forward to your visit in the Zillertal!\n\n\n\n"
    },
    {
      "@language": "en",
      "@value": "Single person in a double room + EUR 10,- per day\nReduction for children in parents\u0027 room:\n0-4 years free\n4-10 years -50%\n11-15 years -20%\nChildren in own room up to 15 years -20%\nGroup rates on request"
    },
    {
      "@language": "en",
      "@value": "Check-In \u003d daily from 14.00 a.m.\nCheck-Out \u003d daily till 10.00 p.m."
    }
  ],
  "aggregateRating": {
    "@type": "AggregateRating",
    "ratingValue": "4.8",
    "reviewCount": "31"
  },
  "image": [
    {
      "@type": "ImageObject",
      "url": "http://resc.deskline.net/images/ZIL/1/2b50cdad-7df9-4ca2-8b4b-96a4c95b5c31/99/image.jpg",
      "caption": [
        {
          "@language": "de",
          "@value": "_MG_8044"
        },
        {
          "@language": "en",
          "@value": "_MG_8044"
        }
      ]
    },
    {
      "@type": "ImageObject",
      "url": "http://resc.deskline.net/images/ZIL/1/bac7684c-eabb-4ab8-98d3-251e57e70c58/99/image.jpg",
      "caption": [
        {
          "@language": "de",
          "@value": "Logo ohne Adresse"
        },
        {
          "@language": "en",
          "@value": "Logo ohne Adresse"
        }
      ]
    },
    {
      "@type": "ImageObject",
      "url": "http://resc.deskline.net/images/ZIL/1/ac77d8e7-27c0-4ea2-a0b8-31eae2cd8e5b/99/image.jpg",
      "caption": [
        {
          "@language": "de",
          "@value": "DSC_1295"
        },
        {
          "@language": "en",
          "@value": "DSC_1295"
        }
      ]
    },
    {
      "@type": "ImageObject",
      "url": "http://resc.deskline.net/images/ZIL/1/70ce30b1-e81a-4bae-8add-c606a37b6ad7/99/image.jpg",
      "caption": [
        {
          "@language": "de",
          "@value": "DSC_1301"
        },
        {
          "@language": "en",
          "@value": "DSC_1301"
        }
      ]
    },
    {
      "@type": "ImageObject",
      "url": "http://resc.deskline.net/images/ZIL/1/33bf9cf3-7f7c-4769-82ac-7c25c86af42f/99/image.jpg",
      "caption": [
        {
          "@language": "de",
          "@value": "DSC_1282"
        },
        {
          "@language": "en",
          "@value": "DSC_1282"
        }
      ]
    },
    {
      "@type": "ImageObject",
      "url": "http://resc.deskline.net/images/ZIL/1/7db03f0e-4101-4673-98d5-e812d585b091/99/image.jpg",
      "caption": [
        {
          "@language": "de",
          "@value": "DSC_1307"
        },
        {
          "@language": "en",
          "@value": "DSC_1307"
        }
      ]
    },
    {
      "@type": "ImageObject",
      "url": "http://resc.deskline.net/images/ZIL/1/a234063b-1eb9-4684-a0ea-30c3b40096e0/99/image.jpg",
      "caption": [
        {
          "@language": "de",
          "@value": "DSC_1314"
        },
        {
          "@language": "en",
          "@value": "DSC_1314"
        }
      ]
    },
    {
      "@type": "ImageObject",
      "url": "http://resc.deskline.net/images/ZIL/1/7bb7b9d6-0e0e-4738-927a-fa3a29b73c8c/99/image.jpg",
      "caption": [
        {
          "@language": "de",
          "@value": "DSC_1306"
        },
        {
          "@language": "en",
          "@value": "DSC_1306"
        }
      ]
    },
    {
      "@type": "ImageObject",
      "url": "http://resc.deskline.net/images/ZIL/1/538bdd1c-4677-429a-97de-d6f80ac564b2/99/image.jpg",
      "caption": [
        {
          "@language": "de",
          "@value": "Badezimmer"
        },
        {
          "@language": "en",
          "@value": "Badezimmer"
        }
      ]
    },
    {
      "@type": "ImageObject",
      "url": "http://resc.deskline.net/images/ZIL/1/33ddda7d-3fc1-4c1d-8be2-26de034d9553/99/image.jpg",
      "caption": [
        {
          "@language": "de",
          "@value": "Grillhütte - Terrasse"
        },
        {
          "@language": "en",
          "@value": "Grillhütte - Terrasse"
        }
      ]
    },
    {
      "@type": "ImageObject",
      "url": "http://resc.deskline.net/images/ZIL/1/908ad1a9-e4e3-483a-b5a6-e079ac1b2963/99/image.jpg",
      "caption": [
        {
          "@language": "de",
          "@value": "IMG_2934"
        },
        {
          "@language": "en",
          "@value": "IMG_2934"
        }
      ]
    }
  ],
  "geo": {
    "@type": "GeoCoordinates",
    "latitude": "47.298123456038",
    "longitude": "11.887344670337"
  },
  "paymentAccepted": [
    "MasterCard",
    "VISA"
  ],
  "currenciesAccepted": "EUR",
  "makesOffer": [
    {
      "@type": "Offer",
      "name": [
        {
          "@language": "de",
          "@value": "Einzelzimmer, Dusche, WC, Balkon"
        },
        {
          "@language": "en",
          "@value": "Single room, shower, toilet, balcony"
        }
      ],
      "description": [
        {
          "@language": "de",
          "@value": "/ Zimmergröße: ca. 15m²\n/ Badezimmer mit WC, Dusche und Föhn\n/ Ausstattung: Flachbild-TV, Teppichboden, Balkon\n/ gratis W-LAN und Telefon\n/ Stockwerk: 2. Stock\n/ mit Ausblick zur Ortschaft Ried im Zillertal\n"
        },
        {
          "@language": "en",
          "@value": "Comfortable single room with shower/WC, satellite TV, balcony"
        }
      ],
      "availability": "http://schema.org/InStock",
      "itemOffered": [
        {
          "@type": [
            "HotelRoom",
            "Product"
          ],
          "name": [
            {
              "@language": "de",
              "@value": "Einzelzimmer"
            },
            {
              "@language": "en",
              "@value": "single room with balcony"
            }
          ],
          "bed": {
            "@type": "BedDetails",
            "numberOfBeds": "1"
          },
          "occupancy": {
            "@type": "QuantitativeValue",
            "maxValue": "1",
            "minValue": "1"
          }
        }
      ],
      "priceSpecification": [
        {
          "@type": "PriceSpecification",
          "description": "Pax 1",
          "minPrice": "59.00",
          "maxPrice": "59.00",
          "priceCurrency": "EUR"
        }
      ]
    },
    {
      "@type": "Offer",
      "name": [
        {
          "@language": "de",
          "@value": "Doppelzimmer, Dusche, WC, Balkon"
        },
        {
          "@language": "en",
          "@value": "Double room, shower, toilet, balcony"
        }
      ],
      "description": [
        {
          "@language": "de",
          "@value": "/ Zimmergröße: ca. 23m²\n/ Nutzbar für 1 - 2 Personen\n/ Badezimmer mit WC, Dusche und Föhn\n/ Ausstattung: Flachbild-TV, Holz- oder Teppichboden, Balkon\n/ gratis W-LAN und teilw. Telefon\n/ Stockwerk: 1. Stock, 2. Stock und 3. Stock\n/ Blick in Richtung Märzenbach - Hochzillertal - oder in Richtung Ried, sehr ruhige Zimmer im 3. Stockwerk\n\n"
        },
        {
          "@language": "en",
          "@value": "Refurbished rooms with shower/WC, satellite TV, balcony, camp bed possible"
        }
      ],
      "availability": "http://schema.org/InStock",
      "itemOffered": [
        {
          "@type": [
            "HotelRoom",
            "Product"
          ],
          "name": [
            {
              "@language": "de",
              "@value": "Doppelzimmer Standard"
            },
            {
              "@language": "en",
              "@value": "double room with balcony"
            }
          ],
          "bed": {
            "@type": "BedDetails",
            "numberOfBeds": "1"
          },
          "occupancy": {
            "@type": "QuantitativeValue",
            "maxValue": "2",
            "minValue": "1"
          }
        }
      ],
      "priceSpecification": [
        {
          "@type": "PriceSpecification",
          "description": "Pax 1",
          "minPrice": "45.70",
          "maxPrice": "67.00",
          "priceCurrency": "EUR"
        },
        {
          "@type": "PriceSpecification",
          "description": "Pax 2",
          "minPrice": "35.70",
          "maxPrice": "55.00",
          "priceCurrency": "EUR"
        }
      ]
    },
    {
      "@type": "Offer",
      "name": [
        {
          "@language": "de",
          "@value": "Dreibettzimmer, Dusche, WC, Balkon"
        },
        {
          "@language": "en",
          "@value": "Triple room, shower, toilet, balcony"
        }
      ],
      "description": [
        {
          "@language": "de",
          "@value": "/ Zimmergröße: ca. 23m²\n/ Nutzbar für 2 - 3 Personen\n/ Badezimmer mit WC, Dusche und Föhn\n/ Ausstattung: Flachbild-TV, Holz- oder Teppichboden, Balkon\n/ gratis W-LAN und teilw. Telefon\n/ Stockwerk: 1. Stock und 2. Stock\n/ Zustellbett als Couch oder Einzelbett\n\n"
        },
        {
          "@language": "en",
          "@value": "Refurbished rooms with shower/WC, satellite TV, radio, balcony"
        }
      ],
      "availability": "http://schema.org/InStock",
      "itemOffered": [
        {
          "@type": [
            "HotelRoom",
            "Product"
          ],
          "name": [
            {
              "@language": "de",
              "@value": "Dreibettzimmer"
            },
            {
              "@language": "en",
              "@value": "triple room with balcony"
            }
          ],
          "bed": {
            "@type": "BedDetails",
            "numberOfBeds": "1"
          },
          "occupancy": {
            "@type": "QuantitativeValue",
            "maxValue": "3",
            "minValue": "2"
          }
        }
      ],
      "priceSpecification": [
        {
          "@type": "PriceSpecification",
          "description": "Pax 2",
          "minPrice": "54.00",
          "maxPrice": "54.00",
          "priceCurrency": "EUR"
        },
        {
          "@type": "PriceSpecification",
          "description": "Pax 3",
          "minPrice": "54.00",
          "maxPrice": "54.00",
          "priceCurrency": "EUR"
        }
      ]
    },
    {
      "@type": "Offer",
      "name": [
        {
          "@language": "de",
          "@value": "Familienzimmer, Dusche, WC, Balkon"
        },
        {
          "@language": "en",
          "@value": "Family room, shower, toilet, balcony"
        }
      ],
      "description": [
        {
          "@language": "de",
          "@value": "/ Zimmergröße: ca. 30m² (1 Zimmer)\n/ Nutzbar für 2 - 5 Personen\n/ Badezimmer mit WC, Dusche und Föhn\n/ Ausstattung: Flachbild-TV, Holzboden, Balkon\n/ gratis W-LAN\n/ Stockwerk: 2. Stock und 3. Stock\n/ Blick in Richtung Märzenbach, Morgen- und Mittagssonne\n"
        },
        {
          "@language": "en",
          "@value": "Comfortable room with shower/WC, balcony, sat-tv, 2nd floor or 3rd floor\n\n"
        }
      ],
      "availability": "http://schema.org/InStock",
      "itemOffered": [
        {
          "@type": [
            "HotelRoom",
            "Product"
          ],
          "name": [
            {
              "@language": "de",
              "@value": "Komfort-Familienzimmer"
            },
            {
              "@language": "en",
              "@value": "double room with shower, WC"
            }
          ],
          "bed": {
            "@type": "BedDetails",
            "numberOfBeds": "1"
          },
          "occupancy": {
            "@type": "QuantitativeValue",
            "maxValue": "4",
            "minValue": "2"
          }
        }
      ],
      "priceSpecification": [
        {
          "@type": "PriceSpecification",
          "description": "Pax 2",
          "minPrice": "50.50",
          "maxPrice": "60.00",
          "priceCurrency": "EUR"
        },
        {
          "@type": "PriceSpecification",
          "description": "Pax 3",
          "minPrice": "50.50",
          "maxPrice": "59.00",
          "priceCurrency": "EUR"
        },
        {
          "@type": "PriceSpecification",
          "description": "Pax 4",
          "minPrice": "50.50",
          "maxPrice": "59.00",
          "priceCurrency": "EUR"
        }
      ]
    }
  ]
}