{
  "@context": "http://schema.org",
  "@type": "LodgingBusiness",
  "url": [
    "http://www.ferienwohnung-gredler.at",
    "http://maps.best-of-zillertal.at/proxy/frontend/page/fuegen/de?foreignResource\u003d6BA3A6D2-A002-48C1-8CE7-DF8EB9170ABC"
  ],
  "address": {
    "@type": "PostalAddress",
    "streetAddress": "Kapellstraße 16",
    "addressCountry": "AT",
    "postalCode": "6265",
    "addressRegion": "Hart",
    "telephone": "(0043) 5288 64713",
    "faxNumber": "(0043) 5288 64713",
    "email": "bgredler@hotmail.com",
    "url": "http://www.ferienwohnung-gredler.at"
  },
  "name": "Ferienhaus Gredler",
  "description": [
    {
      "@language": "de",
      "@value": "Das Gefühl von Urlaub am Bauernhof auf 850m Seehöhe und der Sonneseite des Zillertals erwartet Sie bei uns im Ferienhaus Gredler in Hart! \n\nUnser Ferienhaus Gredler im Ort Hart ist der ideale Ort um sich zu entspannen und neue Energie zu tanken. Genießen Sie das herrliche Bergpanorama der Zillertaler Alpen von Ihrem Balkon oder unserem großzügigen Garten aus!\nHier wohnen Sie nur 10 Fahrminuten zum Ort Hart bzw. Fügen entfernt wo Sie Einkaufsmöglichkeiten und Restaurants finden. \n\nWir bieten Ihnen 4 Ferienwohnungen für bis zu 4 - 7 Personen. Die Ferienwohnung Bauernhof befindet sich bei uns am Hof und die Appartements Zillertal, Tirol und Talblick befinden sich in unserem Ferienhaus. Alle Ferienwohnungen verfügen über Doppel- und Dreibettzimmer, voll ausgestattete Wohnküche mit Spülmaschine, DU/WC, Radio, TV, Internet sowie einen großzügigen Balkon. Zudem genießen Sie im Ferienhaus in jeder Wohnung eine herrliche Terrasse und Skikeller mit Skischuhtrockner sind weitere Annehmlichkeiten im Haus. \n\nSpeziell für Kinder befindet sich in unserem Ferienhaus ein Spielraum mit Tischtennistisch, Dartscheibe und Kletterwand. Die Häuser verbindet ein schöner Obstgarten mit großem Kinderspielplatz mit Trampolin, Rutsche, Sandkasten, Wippe und Kletterkarussell. Dieser sorgt garantiert für Unterhaltung im Urlaub mit Kindern! Ein eigener Grill sowie Gartenmöbel und Liegestühle zum Entspannen stehen Ihnen ebenso zur Verfügung. \n\nPassend zum Urlaub am Bauernhof können Sie selbstverständlich unsere hofeigenen Produkte erwerben.\nDirekt von uns aus können Sie leichte Wanderungen oder ausgedehnte Bergtouren auf die umliegenden Almen und Berggipfel unternehmen. Für Unterhaltung der ganzen Familie sorgt auch die Therme Fügen mit Erlebnisfreibad. Die Therme Fügen erreichen Sie in 10 Fahrminuten und bietet sich mit Ihren zahlreichen Rutschen und Erlebnisbecken ideal für den Urlaub mit Kindern!\n\nIm Winter bieten die Skigebiete Hochfügen - Hochzillertal sowie die Spieljochbahn Skigenuss auf höchster Ebene. Das Skigebiet Hochzillertal - Hochfügen in nur 18 Fahrminuten und die Spieljochbahn in nur 12 Fahrminuten entfernt. \n\nWir freuen uns auf Ihren Besuch!\nHerzlichst, Ihre Familie Gredler\n"
    },
    {
      "@language": "de",
      "@value": "Endreinigung EUR 40,00"
    },
    {
      "@language": "de",
      "@value": "Anreise ab 15 Uhr\nAbreise bis 9 Uhr"
    },
    {
      "@language": "de",
      "@value": "Urlaub am Bauernhof,Ferienhaus mit mehreren Wohnungen, kinderfreundlich, Spielplatz,\nRuhe, "
    },
    {
      "@language": "en",
      "@value": "Experience pure farm holiday feeling at 850m above sea level and the sunny side of the Zillertal here you with us at the Gredler holiday apartment in Hart! \n\nOur Gredler guesthouse in the village of Hart is the ideal place to relax and regain your energy. Enjoy the wonderful mountain panorama of the Zillertaler alps from your balcony or our generous garden!\nHere you are accommodated only 10 minutes away from the village of Hart and/or Fügen where you find both shopping facilities and restaurants. \n\nWe offer 4 holiday apartments for up to 4 - 7 people. The “Bauernhof” holiday apartment is right at the farm and the “Zillertal, Tirol and Talblick” apartments are integrated in our guesthouse. All apartments come with double and three-bed rooms, a fully equipped eat-in kitchen with dishwasher, shower/WC, radio, TV, internet as well as a generous balcony. At the guesthouse, you can furthermore enjoy the pleasures of a wonderful terrace and a ski cellar with ski boot dryer. \n\nWe also have a room particularly for children with table tennis, darts and a climbing wall. A beautiful garden with a large playground including trampoline, slide, sand box, seesaw and a climbing frame connects the houses and guarantees entertainment for your children! Your own barbeque area as well as garden furniture and relax chairs are also at your disposal. In line with the farm holiday experience you can, of course, also acquire our own, home-made produce.\n\nDirectly from us you can set out to easy hikes or extensive mountain tours across the surrounding alps and mountain summits. Entertainment for the whole family is also ensured by the nearby Therme Fügen with its leisure pools. You can reach the Therme within 10 minutes and with the your numerous slides and leisure pools it is ideal for your vacation with children!\n\nIn winter, the skiing areas of Hochfügen - Hochzillertal, as well as the Spieljochbahn offer incomparable skiing pleasures. The skiing area Hochfügen - Hochzillertal is only 18 minutes and the Spieljochbahn only 12 minutes away by car. \n\nWe look forward to your visit!\nYour hosts, the Gredler family\n"
    },
    {
      "@language": "en",
      "@value": "Charge for final cleaning € 40,00"
    },
    {
      "@language": "en",
      "@value": "Check in 15h\nCheck out 9h"
    }
  ],
  "image": [
    {
      "@type": "ImageObject",
      "url": "http://resc.deskline.net/images/ZIL/1/4e6fb554-6eba-41f5-8ed8-c08a34229a82/99/image.jpg",
      "caption": [
        {
          "@language": "de",
          "@value": "Hausansicht"
        },
        {
          "@language": "en",
          "@value": "Hausansicht"
        }
      ]
    },
    {
      "@type": "ImageObject",
      "url": "http://resc.deskline.net/images/ZIL/1/1ab824cb-fdab-46bb-8a87-9df013848b03/99/image.jpg",
      "caption": [
        {
          "@language": "de",
          "@value": "Ferienhaus"
        },
        {
          "@language": "en",
          "@value": "Ferienhaus"
        }
      ]
    },
    {
      "@type": "ImageObject",
      "url": "http://resc.deskline.net/images/ZIL/1/442e6c0f-17dd-4801-9c1c-dc21ca898e3b/99/image.jpg",
      "caption": [
        {
          "@language": "de",
          "@value": "Bauernhaus-Winter"
        },
        {
          "@language": "en",
          "@value": "Bauernhaus-Winter"
        }
      ]
    },
    {
      "@type": "ImageObject",
      "url": "http://resc.deskline.net/images/ZIL/1/28cd3b3a-2ffd-4c19-8da3-91c9711bfdeb/99/image.jpg",
      "caption": [
        {
          "@language": "de",
          "@value": "Ferienhaus- Winter"
        },
        {
          "@language": "en",
          "@value": "Ferienhaus- Winter"
        }
      ]
    },
    {
      "@type": "ImageObject",
      "url": "http://resc.deskline.net/images/ZIL/1/07e4f8f5-b90c-4305-a7a5-7e649be8bef6/99/image.jpg",
      "caption": [
        {
          "@language": "de",
          "@value": "verschneites Zillertal"
        },
        {
          "@language": "en",
          "@value": "verschneites Zillertal"
        }
      ]
    },
    {
      "@type": "ImageObject",
      "url": "http://resc.deskline.net/images/ZIL/1/037c4cba-c982-4df2-8ac6-3a003762d5ad/99/image.jpg",
      "caption": [
        {
          "@language": "de",
          "@value": "winterlicher Sonnenaufgang"
        },
        {
          "@language": "en",
          "@value": "winterlicher Sonnenaufgang"
        }
      ]
    },
    {
      "@type": "ImageObject",
      "url": "http://resc.deskline.net/images/ZIL/1/657d3ecb-56c3-4cb2-aa62-b20075b3a9f4/99/image.jpg",
      "caption": [
        {
          "@language": "de",
          "@value": "Blick zum Schigebiet Hochfügen"
        },
        {
          "@language": "en",
          "@value": "Blick zum Schigebiet Hochfügen"
        }
      ]
    },
    {
      "@type": "ImageObject",
      "url": "http://resc.deskline.net/images/ZIL/1/dbf168af-b90f-4210-b033-68044f7f24c9/99/image.jpg",
      "caption": [
        {
          "@language": "de",
          "@value": "Blick nach Fuegen und zum Spieloch"
        },
        {
          "@language": "en",
          "@value": "Blick nach Fuegen und zum Spieloch"
        }
      ]
    },
    {
      "@type": "ImageObject",
      "url": "http://resc.deskline.net/images/ZIL/1/ece56937-b043-412c-809c-265bd29777be/99/image.jpg",
      "caption": [
        {
          "@language": "de",
          "@value": "Ausblick vom Balkon neu"
        },
        {
          "@language": "en",
          "@value": "Ausblick vom Balkon neu"
        }
      ]
    },
    {
      "@type": "ImageObject",
      "url": "http://resc.deskline.net/images/ZIL/1/ce740812-0cf5-4025-b5af-12e4d3c0f755/99/image.jpg",
      "caption": [
        {
          "@language": "de",
          "@value": "Spielplatz"
        },
        {
          "@language": "en",
          "@value": "Spielplatz"
        }
      ]
    },
    {
      "@type": "ImageObject",
      "url": "http://resc.deskline.net/images/ZIL/1/0173dfce-fef4-4e33-b90e-dfb6a8348b06/99/image.jpg",
      "caption": [
        {
          "@language": "de",
          "@value": "Regenbogen nach einem Gewitter"
        },
        {
          "@language": "en",
          "@value": "Regenbogen nach einem Gewitter"
        }
      ]
    },
    {
      "@type": "ImageObject",
      "url": "http://resc.deskline.net/images/ZIL/1/b9115779-5aa9-41b7-b8ff-6e77acd480f6/99/image.jpg",
      "caption": [
        {
          "@language": "de",
          "@value": "Gebirgsbach"
        },
        {
          "@language": "en",
          "@value": "Gebirgsbach"
        }
      ]
    },
    {
      "@type": "ImageObject",
      "url": "http://resc.deskline.net/images/ZIL/1/a98679f2-4b3f-4234-87f0-5a6968537678/99/image.jpg",
      "caption": [
        {
          "@language": "de",
          "@value": "Feldstall"
        },
        {
          "@language": "en",
          "@value": "Feldstall"
        }
      ]
    },
    {
      "@type": "ImageObject",
      "url": "http://resc.deskline.net/images/ZIL/1/68a58d43-c8bc-4f30-b504-bd476e76e864/99/image.jpg",
      "caption": [
        {
          "@language": "de",
          "@value": "Ausflug mit der Dampflock"
        },
        {
          "@language": "en",
          "@value": "Ausflug mit der Dampflock"
        }
      ]
    },
    {
      "@type": "ImageObject",
      "url": "http://resc.deskline.net/images/ZIL/1/ea2ed1b9-820a-4643-823e-537d78c17312/99/image.jpg",
      "caption": [
        {
          "@language": "de",
          "@value": "Spielzimmer"
        },
        {
          "@language": "en",
          "@value": "Spielzimmer"
        }
      ]
    },
    {
      "@type": "ImageObject",
      "url": "http://resc.deskline.net/images/ZIL/1/3be734b1-6372-42ab-8e9b-a2352d501adf/99/image.jpg",
      "caption": [
        {
          "@language": "de",
          "@value": "Ausblick2"
        },
        {
          "@language": "en",
          "@value": "Ausblick2"
        }
      ]
    },
    {
      "@type": "ImageObject",
      "url": "http://resc.deskline.net/images/ZIL/1/e31ccd5f-85d9-42eb-9046-2e37dadae44e/99/image.jpg",
      "caption": [
        {
          "@language": "de",
          "@value": "Wippe"
        },
        {
          "@language": "en",
          "@value": "Wippe"
        }
      ]
    },
    {
      "@type": "ImageObject",
      "url": "http://resc.deskline.net/images/ZIL/1/38d8a716-e8d8-485a-93f9-1cd97076bef3/99/image.jpg",
      "caption": [
        {
          "@language": "de",
          "@value": "Terrasse Tirol2"
        },
        {
          "@language": "en",
          "@value": "Terrasse Tirol2"
        }
      ]
    },
    {
      "@type": "ImageObject",
      "url": "http://resc.deskline.net/images/ZIL/1/d6c38a84-cdc1-4258-8923-338c28d42099/99/image.jpg",
      "caption": [
        {
          "@language": "de",
          "@value": "spielen im Heu"
        },
        {
          "@language": "en",
          "@value": "spielen im Heu"
        }
      ]
    }
  ],
  "geo": {
    "@type": "GeoCoordinates",
    "latitude": "47.360388609922",
    "longitude": "11.878126401956"
  },
  "currenciesAccepted": "EUR",
  "makesOffer": [
    {
      "@type": "Offer",
      "name": [
        {
          "@language": "de",
          "@value": "Appartement/Fewo, Dusche, WC, 3 Schlafräume"
        },
        {
          "@language": "en",
          "@value": "Apartment, shower, toilet, 3 bed rooms"
        }
      ],
      "description": [
        {
          "@language": "de",
          "@value": "Die Wohnung Zillertal befindet sich im Ferienhaus und ist eine abgeschlossene 120m² Wohnung mit drei Doppelzimmern. Zwei Zimmer sind mit Dusche und WC ausgestattet und für das dritte Zimmer ist die Dusche und das WC seperat.Eine Einbauküche mit Spülmaschine, Mikro, E-Herd mit Ceranfeld und Backofen, Toaster befindet sich auch in der Wohnung. Vom Esszimmer und zwei Schlafzimmern gelangt man auf den den südseitig gelegenen Balkon. Internetanschluß und Schischuhtrockner ist auch vorhanden."
        },
        {
          "@language": "en",
          "@value": "130 m² appartement with seperate entrance, large living-kitchen, 3 double rooms (2 with shower/toilet), 1 shower/toilet seperate, quiet and sunny location. Dish washer, microwave, lift for luggage. The appartement is in the house beside the farm house."
        }
      ],
      "availability": "http://schema.org/InStock",
      "itemOffered": [
        {
          "@type": [
            "Apartment",
            "Product"
          ],
          "name": [
            {
              "@language": "de",
              "@value": "Apartment Zillertal"
            },
            {
              "@language": "en",
              "@value": "apartment/3 bedrooms/shower, WC"
            }
          ],
          "description": [
            {
              "@language": "de",
              "@value": "Die Wohnung Tirol befindet sich im Ferienhaus und wurde im Sommer 2012 neu renoviert. Es ist eine abgeschlossene Etage.Sie hat eine moderne Küche mit Spülmaschine, Kühlschrank mit Gefrierfach, E-Herd mit Ceranfeld und Backofen, Mikrowelle, Toaster, und sämtliche Kochutensillien. Es sind 3 Doppelzimmer mit Balkon zwei davon mit Dusche und WC für das dritte Zimmer ist die Dusche und das WC seperat. Ein Lesezimmer mit einer Couch für gemütliche Stunden ist auch in der Wohnung.Internetanschluß"
            }
          ],
          "numberOfRooms": "5.0",
          "occupancy": {
            "@type": "QuantitativeValue",
            "maxValue": "7",
            "minValue": "2"
          }
        }
      ],
      "priceSpecification": [
        {
          "@type": "PriceSpecification",
          "description": "Pax 2",
          "minPrice": "80.00",
          "maxPrice": "108.00",
          "priceCurrency": "EUR"
        },
        {
          "@type": "PriceSpecification",
          "description": "Pax 3",
          "minPrice": "80.00",
          "maxPrice": "108.00",
          "priceCurrency": "EUR"
        },
        {
          "@type": "PriceSpecification",
          "description": "Pax 4",
          "minPrice": "80.00",
          "maxPrice": "108.00",
          "priceCurrency": "EUR"
        },
        {
          "@type": "PriceSpecification",
          "description": "Pax 5",
          "minPrice": "92.00",
          "maxPrice": "108.00",
          "priceCurrency": "EUR"
        },
        {
          "@type": "PriceSpecification",
          "description": "Pax 6",
          "minPrice": "92.00",
          "maxPrice": "108.00",
          "priceCurrency": "EUR"
        },
        {
          "@type": "PriceSpecification",
          "description": "Pax 7",
          "minPrice": "104.00",
          "maxPrice": "122.00",
          "priceCurrency": "EUR"
        }
      ]
    },
    {
      "@type": "Offer",
      "name": [
        {
          "@language": "de",
          "@value": "Appartement/Fewo, Dusche, WC, 3 Schlafräume"
        },
        {
          "@language": "en",
          "@value": "Apartment, shower, toilet, 3 bed rooms"
        }
      ],
      "description": [
        {
          "@language": "de",
          "@value": "Die Wohnung Tirol befindet sich auch in unserem Ferienhaus. Es ist eine abgeschlossene Etage.3 Doppelzimmer mit Balkon zwei davon mit Dusche und WC für das 3 Zimmer ist die Dusche und das WC extra.Eine moderne Küche mit Geschirrspüller, Mikro. Ein großer Tisch mit dazugehöriger Echbank schaft freien Blick auf den Flachbildschirm an der Wand. Ein Lesezimmer mit Ausziehcouch das bei Bedarf als Schlafzimmer verwendet werden kann .Internetanschluß ist auch vorhanden."
        },
        {
          "@language": "en",
          "@value": "The apartment Tirol is in our Holidayhous. It is a closed Etage.3 double room with balcony two with shower and toilet for 3 rooms is the shower and the toilet extra.Eine modern kitchen with dishwashers, micro. A large table with associated Echbank . A reading room with sofa bed which can be used as needed as a bedroom .Wfi is also available."
        }
      ],
      "availability": "http://schema.org/InStock",
      "itemOffered": [
        {
          "@type": [
            "Apartment",
            "Product"
          ],
          "name": [
            {
              "@language": "de",
              "@value": "Appartement Tirol"
            },
            {
              "@language": "en",
              "@value": "Apartment, shower, toilet, 3 bed rooms"
            }
          ],
          "numberOfRooms": "5.0",
          "occupancy": {
            "@type": "QuantitativeValue",
            "maxValue": "7",
            "minValue": "2"
          }
        }
      ],
      "priceSpecification": [
        {
          "@type": "PriceSpecification",
          "description": "Pax 2",
          "minPrice": "80.00",
          "maxPrice": "108.00",
          "priceCurrency": "EUR"
        },
        {
          "@type": "PriceSpecification",
          "description": "Pax 3",
          "minPrice": "80.00",
          "maxPrice": "108.00",
          "priceCurrency": "EUR"
        },
        {
          "@type": "PriceSpecification",
          "description": "Pax 4",
          "minPrice": "80.00",
          "maxPrice": "108.00",
          "priceCurrency": "EUR"
        },
        {
          "@type": "PriceSpecification",
          "description": "Pax 5",
          "minPrice": "92.00",
          "maxPrice": "108.00",
          "priceCurrency": "EUR"
        },
        {
          "@type": "PriceSpecification",
          "description": "Pax 6",
          "minPrice": "92.00",
          "maxPrice": "108.00",
          "priceCurrency": "EUR"
        },
        {
          "@type": "PriceSpecification",
          "description": "Pax 7",
          "minPrice": "104.00",
          "maxPrice": "122.00",
          "priceCurrency": "EUR"
        }
      ]
    },
    {
      "@type": "Offer",
      "name": [
        {
          "@language": "de",
          "@value": "Appartement/Fewo, Dusche, WC, 3 Schlafräume"
        },
        {
          "@language": "en",
          "@value": "Apartment, shower, toilet, 3 bed rooms"
        }
      ],
      "description": [
        {
          "@language": "de",
          "@value": "Die Wohnung Zillertal befindet sich im Ferienhaus und ist eine abgeschlossene 120m² Wohnung mit drei Doppelzimmern. Zwei Zimmer sind mit Dusche und WC ausgestattet und für das dritte Zimmer ist die Dusche und das WC seperat.Eine Einbauküche mit Spülmaschine, Mikro, E-Herd mit Ceranfeld und Backofen, Toaster befindet sich auch in der Wohnung. Vom Esszimmer und zwei Schlafzimmern gelangt man auf den den südseitig gelegenen Balkon. Internetanschluß und Schischuhtrockner ist auch vorhanden."
        },
        {
          "@language": "en",
          "@value": "130 m² appartement with seperate entrance, large living-kitchen, 3 double rooms (2 with shower/toilet), 1 shower/toilet seperate, quiet and sunny location. Dish washer, microwave, lift for luggage. The appartement is in the house beside the farm house."
        }
      ],
      "availability": "http://schema.org/InStock",
      "itemOffered": [
        {
          "@type": [
            "Apartment",
            "Product"
          ],
          "name": [
            {
              "@language": "de",
              "@value": "Apartment Talblick"
            },
            {
              "@language": "en",
              "@value": "Apartment, shower, toilet, 3 bed rooms"
            }
          ],
          "numberOfRooms": "5.0",
          "occupancy": {
            "@type": "QuantitativeValue",
            "maxValue": "7",
            "minValue": "2"
          }
        }
      ],
      "priceSpecification": [
        {
          "@type": "PriceSpecification",
          "description": "Pax 2",
          "minPrice": "80.00",
          "maxPrice": "108.00",
          "priceCurrency": "EUR"
        },
        {
          "@type": "PriceSpecification",
          "description": "Pax 3",
          "minPrice": "80.00",
          "maxPrice": "108.00",
          "priceCurrency": "EUR"
        },
        {
          "@type": "PriceSpecification",
          "description": "Pax 4",
          "minPrice": "80.00",
          "maxPrice": "108.00",
          "priceCurrency": "EUR"
        },
        {
          "@type": "PriceSpecification",
          "description": "Pax 5",
          "minPrice": "92.00",
          "maxPrice": "108.00",
          "priceCurrency": "EUR"
        },
        {
          "@type": "PriceSpecification",
          "description": "Pax 6",
          "minPrice": "92.00",
          "maxPrice": "108.00",
          "priceCurrency": "EUR"
        },
        {
          "@type": "PriceSpecification",
          "description": "Pax 7",
          "minPrice": "104.00",
          "maxPrice": "122.00",
          "priceCurrency": "EUR"
        }
      ]
    },
    {
      "@type": "Offer",
      "name": [
        {
          "@language": "de",
          "@value": "Appartement/Fewo, Dusche oder Bad, WC, 4 oder mehr Schlafräume"
        },
        {
          "@language": "en",
          "@value": "Apartment, shower or bath, toilet, 4 or more bed rooms"
        }
      ],
      "description": [
        {
          "@language": "de",
          "@value": "Ferienwohnung 130 m² (ganze Etage) für 4-9 Personen, 3 Doppelzimmer,1 Dreibettzimmer, 1 Dusche und 2 WC, Aufenthaltsraum mit 2 Sofas, Küche komplett ausgestattet mit Kühlschrank, Kaffeemaschine, Spülmaschine, Radio und Sat-TV; Balkon, Bettwäsche und Handtücher sind vorhanden."
        },
        {
          "@language": "en",
          "@value": "Appartment 100 m² (whole floor) for 4-9 persons, 3 double rooms, 1 triple room, shower/ 2 toilet, living room with 2 sofas, kitchen complete with fridge, coffeemaker, dish washer, radio, satelite TV, balcony, bed linen and towels provided!"
        }
      ],
      "availability": "http://schema.org/InStock",
      "itemOffered": [
        {
          "@type": [
            "Apartment",
            "Product"
          ],
          "name": [
            {
              "@language": "de",
              "@value": "Apartement Bauernhof"
            },
            {
              "@language": "en",
              "@value": "ap./4 + more bedrooms/shower or bath, WC"
            }
          ],
          "description": [
            {
              "@language": "de",
              "@value": "Die Wohnung Bauernhof befindet sich bei uns am Hof und hat 120m². Sie hat 3 Doppelzimmer und ein Dreibettzimmer. Die Dusche und die zwei WC verbindet ein großer Flur mit Couch. Von dort gelangt man auf den süd-westseitig gelegenen Balkon von wo aus man die herrlichen Wander-und Schigebiete betrachten kann. Internetanschluß ist auch vorhanden. Im Keller ist ein Schiraum, zum trockenhalten von Schikleidung. Hauseigene Produkte werden auch zum Verkauf angeboten."
            }
          ],
          "numberOfRooms": "6.0",
          "occupancy": {
            "@type": "QuantitativeValue",
            "maxValue": "9",
            "minValue": "4"
          }
        }
      ],
      "priceSpecification": [
        {
          "@type": "PriceSpecification",
          "description": "Pax 4",
          "minPrice": "66.00",
          "maxPrice": "114.00",
          "priceCurrency": "EUR"
        },
        {
          "@type": "PriceSpecification",
          "description": "Pax 5",
          "minPrice": "78.00",
          "maxPrice": "114.00",
          "priceCurrency": "EUR"
        },
        {
          "@type": "PriceSpecification",
          "description": "Pax 6",
          "minPrice": "90.00",
          "maxPrice": "114.00",
          "priceCurrency": "EUR"
        },
        {
          "@type": "PriceSpecification",
          "description": "Pax 7",
          "minPrice": "102.00",
          "maxPrice": "114.00",
          "priceCurrency": "EUR"
        },
        {
          "@type": "PriceSpecification",
          "description": "Pax 8",
          "minPrice": "104.00",
          "maxPrice": "114.00",
          "priceCurrency": "EUR"
        },
        {
          "@type": "PriceSpecification",
          "description": "Pax 9",
          "minPrice": "114.00",
          "maxPrice": "126.00",
          "priceCurrency": "EUR"
        }
      ]
    }
  ]
}