{
  "@context": "http://schema.org",
  "@type": "LodgingBusiness",
  "url": [
    "www.fewo-klocker.at",
    "http://maps.best-of-zillertal.at/proxy/frontend/page/fuegen/de?foreignResource\u003d6C594BDA-7674-47C5-BCD8-67ED0088DCA2"
  ],
  "address": {
    "@type": "PostalAddress",
    "streetAddress": "Ascherweg 13",
    "addressCountry": "AT",
    "postalCode": "6274",
    "addressRegion": "Aschau im Zillertal",
    "telephone": "(0043) 05283 29116",
    "faxNumber": "(0043) 05283 29116",
    "email": "thomas@fewo-klocker.at",
    "url": "http://www.fewo-klocker.at"
  },
  "name": "Familie Klocker",
  "description": [
    {
      "@language": "de",
      "@value": "Ruhige, zentrale Lage; Terrasse, Liegewiese, Garage; Skibushaltestelle und Langlaufloipe in unmittelbarer Nähe; 5 Min. mit dem PKW zu den Skigebieten \"Hochzillertal\" und \"Zillertal Arena\"."
    },
    {
      "@language": "de",
      "@value": "Endreinigung € 10,00 pro Person"
    },
    {
      "@language": "en",
      "@value": "Quiet, central location; terrace, sunbathing lawn, garage; skibusstop and cross-country ski run nearby; 5 minutes by car to the skiareas \"Hochzillertal\" and \"Zillertal Arena\"."
    },
    {
      "@language": "en",
      "@value": "Final cleaning € 10,00 per person"
    }
  ],
  "image": [
    {
      "@type": "ImageObject",
      "url": "http://resc.deskline.net/images/ZIL/1/44c51bfb-5ade-45cd-8de9-e41d62cc3825/99/image.jpg",
      "caption": [
        {
          "@language": "de",
          "@value": "Sommer"
        },
        {
          "@language": "en",
          "@value": "Sommer"
        }
      ]
    }
  ],
  "geo": {
    "@type": "GeoCoordinates",
    "latitude": "47.262649116568753",
    "longitude": "11.893279552459717"
  },
  "currenciesAccepted": "EUR",
  "makesOffer": [
    {
      "@type": "Offer",
      "name": [
        {
          "@language": "de",
          "@value": "Appartement/Fewo, Dusche oder Bad, WC, 3 Schlafräume"
        },
        {
          "@language": "en",
          "@value": "Apartment, shower or bath, toilet, 3 bed rooms"
        }
      ],
      "description": [
        {
          "@language": "de",
          "@value": "Neu möblierte 110 m² große EG-Wohnung, komplett eingerichtete Wohnküche (E-Herd mit Backrohr, Geschirrspüler, Mikrowelle, Kaffeemaschine, Kühlschrank mit Gefrierfach); 3 Schlafzimmer, Sat-TV, Bad - Dusche, seperates WC, Geschirrtücher, Handtücher und Bettwäsche vorhanden, Kinderbett und Hochstuhl auf Bestellung möglich. Skiraum und Skischuhtrockner. In der Wohnung ist das Rauchen nicht gestattet! Keine Haustiere erlaubt!"
        },
        {
          "@language": "en",
          "@value": "Newly furnished 110 m² apartement on the ground floor, completly equipped combined living kitchen (stove with oven, dish washer, microwave, coffee maker, refrigerator with freezing compartment); 3 bedrooms, satelite tv, bath - shower, toilet separate, tea towels, towels and bed linen are available, a bed and a chair for children on order possible. Smoking is not allowed in the apartement! No pets allowed!"
        }
      ],
      "availability": "http://schema.org/InStock",
      "itemOffered": [
        {
          "@type": [
            "Apartment",
            "Product"
          ],
          "name": [
            {
              "@language": "de",
              "@value": "Apartment/3 Schlafräume/Du od. Bad, WC"
            },
            {
              "@language": "en",
              "@value": "ap./3 bedrooms/shower or bath tube, WC"
            }
          ],
          "numberOfRooms": "4.0",
          "occupancy": {
            "@type": "QuantitativeValue",
            "maxValue": "6",
            "minValue": "4"
          }
        }
      ],
      "priceSpecification": [
        {
          "@type": "PriceSpecification",
          "description": "Pax 4",
          "minPrice": "120.00",
          "maxPrice": "120.00",
          "priceCurrency": "EUR"
        },
        {
          "@type": "PriceSpecification",
          "description": "Pax 5",
          "minPrice": "120.00",
          "maxPrice": "120.00",
          "priceCurrency": "EUR"
        },
        {
          "@type": "PriceSpecification",
          "description": "Pax 6",
          "minPrice": "120.00",
          "maxPrice": "120.00",
          "priceCurrency": "EUR"
        }
      ]
    }
  ]
}