{
  "@context": "http://schema.org",
  "@type": "Hotel",
  "url": [
    "http://www.diepost.info",
    "http://maps.best-of-zillertal.at/proxy/frontend/page/fuegen/de?foreignResource\u003d6C66FA6C-C593-439D-9417-BEEC6C51CF7F"
  ],
  "address": {
    "@type": "PostalAddress",
    "name": "Höllwarth KG",
    "streetAddress": "Dorfplatz 4",
    "addressCountry": "AT",
    "postalCode": "6272",
    "addressRegion": "Kaltenbach",
    "telephone": "(0043) 5283 2411",
    "faxNumber": "(0043) 5283 2411 51",
    "email": "hotel@diepost.info",
    "url": "http://www.diepost.info"
  },
  "name": "Hotel Post",
  "description": [
    {
      "@language": "de",
      "@value": "Familienbetrieb in sonniger Lage im Zentrum von Kaltenbach; 60 Zimmer/120 Betten; 2 Personenlifte, Sauna, Dampfbad, Solarium, Hausbar, Terrasse, PKW- und Busparkplatz. Frühstücksbuffet, mehrgängiges Abendmenü mit erweitertem Salatbuffet, Diätküche. Nur 300m von der Talstation Bergbahn Hochzillertal entfernt."
    },
    {
      "@language": "de",
      "@value": "Doppelzimmer als Einbettzimmer Zuschlag Euro 50,00\nHaustiere sind nicht erlaubt!\n\nKinderermäßigung Winter:\n0-3 Jahre 100%\n4-6 Jahre 50%\n7-14 Jahre im Zimmer Zillertal: 35%\n7-14 Jahre im Zimmer Hochz"
    },
    {
      "@language": "en",
      "@value": "Family-run establishment situated in a sunny location in the centre of Kaltenbach; 60 rooms/120 beds; 2 lifts, sauna, steam bath, solarium, house bar, terrace, car and van parking available. Breakfast buffet, multiple-course evening meal with extensive salad buffet, diet cuisine. Only 300 m from the valley station of the Hochzillertal cable car.\n"
    },
    {
      "@language": "en",
      "@value": "Double romm as single room + Euro 50,00\nNo animals in our house!\n\nChildrens reduction winter:\n0-3 years 100 %\n4-6 years 50%\n7-14 years in category \"Zillertal\": 35 %\n7-14 years in category \"Ho"
    }
  ],
  "aggregateRating": {
    "@type": "AggregateRating",
    "ratingValue": "4.9",
    "reviewCount": "96"
  },
  "image": [
    {
      "@type": "ImageObject",
      "url": "http://resc.deskline.net/images/ZIL/1/e6fd51dc-2f1b-4abb-b700-e79324066b4a/99/image.jpg",
      "caption": [
        {
          "@language": "de",
          "@value": "_DSC7604"
        },
        {
          "@language": "en",
          "@value": "_DSC7604"
        }
      ]
    },
    {
      "@type": "ImageObject",
      "url": "http://resc.deskline.net/images/ZIL/1/a65d4ba7-2d22-4424-b7fd-033bad334ec4/99/image.jpg",
      "caption": [
        {
          "@language": "de",
          "@value": "_DSC7203"
        },
        {
          "@language": "en",
          "@value": "_DSC7203"
        }
      ]
    },
    {
      "@type": "ImageObject",
      "url": "http://resc.deskline.net/images/ZIL/1/03d67c24-7756-4db0-8f75-81ff80f78599/99/image.jpg",
      "caption": [
        {
          "@language": "de",
          "@value": "_DSC7464"
        },
        {
          "@language": "en",
          "@value": "_DSC7464"
        }
      ]
    },
    {
      "@type": "ImageObject",
      "url": "http://resc.deskline.net/images/ZIL/1/8505080a-1d94-4cb2-ab39-9df35429f949/99/image.jpg",
      "caption": [
        {
          "@language": "de",
          "@value": "Restaurant 7"
        },
        {
          "@language": "en",
          "@value": "Restaurant 7"
        }
      ]
    },
    {
      "@type": "ImageObject",
      "url": "http://resc.deskline.net/images/ZIL/1/64438525-6995-41fc-ba48-c6095085b02b/99/image.jpg",
      "caption": [
        {
          "@language": "de",
          "@value": "_DSC4319"
        },
        {
          "@language": "en",
          "@value": "_DSC4319"
        }
      ]
    },
    {
      "@type": "ImageObject",
      "url": "http://resc.deskline.net/images/ZIL/1/c1e7e302-2e71-4c2f-aebc-73316722f9ef/99/image.jpg",
      "caption": [
        {
          "@language": "de",
          "@value": "_DSC4276"
        },
        {
          "@language": "en",
          "@value": "_DSC4276"
        }
      ]
    },
    {
      "@type": "ImageObject",
      "url": "http://resc.deskline.net/images/ZIL/1/dcf6f8ff-fa98-4af3-8f5f-a076730a94bb/99/image.jpg",
      "caption": [
        {
          "@language": "de",
          "@value": "Beautyraum 1"
        },
        {
          "@language": "en",
          "@value": "Beautyraum 1"
        }
      ]
    },
    {
      "@type": "ImageObject",
      "url": "http://resc.deskline.net/images/ZIL/1/6c72e710-09b4-4334-869b-fb5ef26cf932/99/image.jpg",
      "caption": [
        {
          "@language": "de",
          "@value": "Wellness 3"
        },
        {
          "@language": "en",
          "@value": "Wellness 3"
        }
      ]
    },
    {
      "@type": "ImageObject",
      "url": "http://resc.deskline.net/images/ZIL/1/347d3246-f333-4856-a84f-d0fdfa09f6d1/99/image.jpg",
      "caption": [
        {
          "@language": "de",
          "@value": "Wellness 1"
        },
        {
          "@language": "en",
          "@value": "Wellness 1"
        }
      ]
    }
  ],
  "geo": {
    "@type": "GeoCoordinates",
    "latitude": "47.292194859646",
    "longitude": "11.875483718966"
  },
  "paymentAccepted": [
    "MasterCard",
    "VISA"
  ],
  "currenciesAccepted": "EUR",
  "makesOffer": [
    {
      "@type": "Offer",
      "name": [
        {
          "@language": "de",
          "@value": "Einzelzimmer, Dusche, WC"
        },
        {
          "@language": "en",
          "@value": "Single room, shower, toilet"
        }
      ],
      "description": [
        {
          "@language": "de",
          "@value": "Eine geschmackvolle Einrichtung erwartet Sie in unseren größtenteils neu eingerichteten Einbettzimmern Zillertal. Hier finden Sie Raum, Ruhe\nund Geborgenheit, damit Sie sich bei uns von der ersten bis zur letzten Minute wohlfühlen.\nAusstattung: Dusche, WC, Fön, Flat-TV, Telefon, Safe, teilweise Balkon, Nichtraucherzimmer."
        },
        {
          "@language": "en",
          "@value": "Singlerooms with shower/WC, hair-dryer, satellite TV, telephone, safe, balcony."
        }
      ],
      "availability": "http://schema.org/InStock",
      "itemOffered": [
        {
          "@type": [
            "HotelRoom",
            "Product"
          ],
          "name": [
            {
              "@language": "de",
              "@value": "Einzelzimmer ZILLERTAL lang"
            },
            {
              "@language": "en",
              "@value": "single room with shower, WC"
            }
          ],
          "image": [
            {
              "@type": "ImageObject",
              "url": "http://resc.deskline.net/images/ZIL/1/a459726d-f30a-4b35-8a76-e4437a1539a4/99/image.jpg",
              "caption": [
                {
                  "@language": "de",
                  "@value": "_DSC4484"
                },
                {
                  "@language": "en",
                  "@value": "_DSC4484"
                }
              ]
            }
          ],
          "bed": {
            "@type": "BedDetails",
            "numberOfBeds": "1"
          },
          "occupancy": {
            "@type": "QuantitativeValue",
            "maxValue": "1",
            "minValue": "1"
          }
        },
        {
          "@type": [
            "HotelRoom",
            "Product"
          ],
          "name": [
            {
              "@language": "de",
              "@value": "Einzelzimmer ZILLERTAL Winter kurz"
            },
            {
              "@language": "en",
              "@value": "Single room, shower, toilet"
            }
          ],
          "bed": {
            "@type": "BedDetails",
            "numberOfBeds": "1"
          },
          "occupancy": {
            "@type": "QuantitativeValue",
            "maxValue": "1",
            "minValue": "1"
          }
        },
        {
          "@type": [
            "HotelRoom",
            "Product"
          ],
          "name": [
            {
              "@language": "de",
              "@value": "Einzelzimmer ZILLERTAL Sommer kurz"
            },
            {
              "@language": "en",
              "@value": "Single room, shower, toilet"
            }
          ],
          "bed": {
            "@type": "BedDetails",
            "numberOfBeds": "1"
          },
          "occupancy": {
            "@type": "QuantitativeValue",
            "maxValue": "1",
            "minValue": "1"
          }
        },
        {
          "@type": [
            "HotelRoom",
            "Product"
          ],
          "name": [
            {
              "@language": "de",
              "@value": "Einzelzimmer ZILLERTAL Sommer kurz HP"
            },
            {
              "@language": "en",
              "@value": "Single room, shower, toilet"
            }
          ],
          "bed": {
            "@type": "BedDetails",
            "numberOfBeds": "1"
          },
          "occupancy": {
            "@type": "QuantitativeValue",
            "maxValue": "1",
            "minValue": "1"
          }
        }
      ],
      "priceSpecification": [
        {
          "@type": "PriceSpecification",
          "description": "Pax 1",
          "minPrice": "84.00",
          "maxPrice": "9999.00",
          "priceCurrency": "EUR"
        },
        {
          "@type": "PriceSpecification",
          "description": "Pax 1",
          "minPrice": "141.00",
          "maxPrice": "9999.00",
          "priceCurrency": "EUR"
        },
        {
          "@type": "PriceSpecification",
          "description": "Pax 1",
          "minPrice": "88.00",
          "maxPrice": "9999.00",
          "priceCurrency": "EUR"
        }
      ]
    },
    {
      "@type": "Offer",
      "name": [
        {
          "@language": "de",
          "@value": "Doppelzimmer, Dusche, WC"
        },
        {
          "@language": "en",
          "@value": "Double room, shower, toilet"
        }
      ],
      "description": [
        {
          "@language": "de",
          "@value": "Unsere großzügigen Zimmer mit Blick auf das Hochzillertal bezaubern durch echten Tiroler Charme. Die hellen Zimmer verfügen über einen\neigenen Balkon und jede Menge Platz für gemütliche Stunden. Die behagliche Sitzecke lädt zu Lesenachmittagen und zum Plaudern ein.\nAusstattung: Dusche, WC (teilweise separat), Fön, Flat-TV, Telefon, Safe, Balkon, Nichtraucherzimmer, teilweise mit Zustellbett."
        },
        {
          "@language": "en",
          "@value": "Doubleroom with extra bed, shower, wc (partly separate), hair-dryer, satelite tv, telephone, safe, balcony, nonsmoking room."
        }
      ],
      "availability": "http://schema.org/InStock",
      "itemOffered": [
        {
          "@type": [
            "HotelRoom",
            "Product"
          ],
          "name": [
            {
              "@language": "de",
              "@value": "Doppelzimmer HOCHZILLERTAL lang"
            },
            {
              "@language": "en",
              "@value": "double room with shower, WC"
            }
          ],
          "bed": {
            "@type": "BedDetails",
            "numberOfBeds": "1"
          },
          "occupancy": {
            "@type": "QuantitativeValue",
            "maxValue": "3",
            "minValue": "2"
          }
        },
        {
          "@type": [
            "HotelRoom",
            "Product"
          ],
          "name": [
            {
              "@language": "de",
              "@value": "Doppelzimmer HOCHZILLERTAL Winter kurz"
            },
            {
              "@language": "en",
              "@value": "Double room, shower, toilet"
            }
          ],
          "bed": {
            "@type": "BedDetails",
            "numberOfBeds": "1"
          },
          "occupancy": {
            "@type": "QuantitativeValue",
            "maxValue": "3",
            "minValue": "2"
          }
        },
        {
          "@type": [
            "HotelRoom",
            "Product"
          ],
          "name": [
            {
              "@language": "de",
              "@value": "Doppelzimmer HOCHZILLERTAL Sommer kurz"
            },
            {
              "@language": "en",
              "@value": "Double room, shower, toilet"
            }
          ],
          "bed": {
            "@type": "BedDetails",
            "numberOfBeds": "1"
          },
          "occupancy": {
            "@type": "QuantitativeValue",
            "maxValue": "3",
            "minValue": "2"
          }
        }
      ],
      "priceSpecification": [
        {
          "@type": "PriceSpecification",
          "description": "Pax 2",
          "minPrice": "78.00",
          "maxPrice": "145.00",
          "priceCurrency": "EUR"
        },
        {
          "@type": "PriceSpecification",
          "description": "Pax 3",
          "minPrice": "75.17",
          "maxPrice": "139.93",
          "priceCurrency": "EUR"
        },
        {
          "@type": "PriceSpecification",
          "description": "Pax 2",
          "minPrice": "79.00",
          "maxPrice": "79.00",
          "priceCurrency": "EUR"
        },
        {
          "@type": "PriceSpecification",
          "description": "Pax 3",
          "minPrice": "79.00",
          "maxPrice": "79.00",
          "priceCurrency": "EUR"
        }
      ]
    },
    {
      "@type": "Offer",
      "name": [
        {
          "@language": "de",
          "@value": "Doppelzimmer, Bad, WC"
        },
        {
          "@language": "en",
          "@value": "Double room, bath, toilet"
        }
      ],
      "description": [
        {
          "@language": "de",
          "@value": "Die gemütlichen Doppelzimmer sind im Tiroler Landhausstil eingerichtet und bieten viel Komfort für Ihren Urlaub im Zillertal.\nAusstattung: Dusche, WC, Fön, Flat-TV, Safe, Nichtraucherzimmer, Balkon, W-LAN Zugang, teilweise mit Zusatzbett."
        }
      ],
      "availability": "http://schema.org/InStock",
      "itemOffered": [
        {
          "@type": [
            "HotelRoom",
            "Product"
          ],
          "name": [
            {
              "@language": "de",
              "@value": "Doppelzimmer HAMBERG lang"
            },
            {
              "@language": "en",
              "@value": "Double room, bath, toilet"
            }
          ],
          "bed": {
            "@type": "BedDetails",
            "numberOfBeds": "1"
          },
          "occupancy": {
            "@type": "QuantitativeValue",
            "maxValue": "2",
            "minValue": "2"
          }
        },
        {
          "@type": [
            "HotelRoom",
            "Product"
          ],
          "name": [
            {
              "@language": "de",
              "@value": "Doppelzimmer HAMBERG Winter kurz"
            },
            {
              "@language": "en",
              "@value": "Double room, bath, toilet"
            }
          ],
          "bed": {
            "@type": "BedDetails",
            "numberOfBeds": "1"
          },
          "occupancy": {
            "@type": "QuantitativeValue",
            "maxValue": "2",
            "minValue": "2"
          }
        },
        {
          "@type": [
            "HotelRoom",
            "Product"
          ],
          "name": [
            {
              "@language": "de",
              "@value": "Doppelzimmer HAMBERG Sommer kurz"
            },
            {
              "@language": "en",
              "@value": "Double room, bath, toilet"
            }
          ],
          "bed": {
            "@type": "BedDetails",
            "numberOfBeds": "1"
          },
          "occupancy": {
            "@type": "QuantitativeValue",
            "maxValue": "2",
            "minValue": "2"
          }
        }
      ],
      "priceSpecification": [
        {
          "@type": "PriceSpecification",
          "description": "Pax 2",
          "minPrice": "63.00",
          "maxPrice": "122.00",
          "priceCurrency": "EUR"
        }
      ]
    },
    {
      "@type": "Offer",
      "name": [
        {
          "@language": "de",
          "@value": "Doppelzimmer, Bad, WC"
        },
        {
          "@language": "en",
          "@value": "Double room, bath, toilet"
        }
      ],
      "description": [
        {
          "@language": "de",
          "@value": "Die Doppelzimmer sind mit vielen Naturmaterialien in hellen freundlichen Farben eingerichtet. Die Verwendung des Holzes der heimischen\nZirbe verleiht dem Raum eine ganz besondere Atmosphäre, die beruhigend auf Körper und Geist wirkt. Gemütliche Betten und weiche Kissen\ngarantieren im Nichtraucherzimmer einen besonders erholsamen Schlaf. Ausstattung: Dusche, WC separat, Fön, Flat-TV, Telefon, Safe,\nBalkon, Nichtraucherzimmer."
        }
      ],
      "availability": "http://schema.org/InStock",
      "itemOffered": [
        {
          "@type": [
            "HotelRoom",
            "Product"
          ],
          "name": [
            {
              "@language": "de",
              "@value": "Doppelzimmer ZIRBE I lang"
            },
            {
              "@language": "en",
              "@value": "Double room, bath, toilet"
            }
          ],
          "bed": {
            "@type": "BedDetails",
            "numberOfBeds": "1"
          },
          "occupancy": {
            "@type": "QuantitativeValue",
            "maxValue": "2",
            "minValue": "2"
          }
        },
        {
          "@type": [
            "HotelRoom",
            "Product"
          ],
          "name": [
            {
              "@language": "de",
              "@value": "Doppelzimmer ZIRBE I Winter kurz"
            },
            {
              "@language": "en",
              "@value": "Double room, bath, toilet"
            }
          ],
          "bed": {
            "@type": "BedDetails",
            "numberOfBeds": "1"
          },
          "occupancy": {
            "@type": "QuantitativeValue",
            "maxValue": "2",
            "minValue": "2"
          }
        },
        {
          "@type": [
            "HotelRoom",
            "Product"
          ],
          "name": [
            {
              "@language": "de",
              "@value": "Doppelzimmer ZIRBE I Sommer kurz"
            },
            {
              "@language": "en",
              "@value": "Double room, bath, toilet"
            }
          ],
          "bed": {
            "@type": "BedDetails",
            "numberOfBeds": "1"
          },
          "occupancy": {
            "@type": "QuantitativeValue",
            "maxValue": "2",
            "minValue": "2"
          }
        }
      ],
      "priceSpecification": [
        {
          "@type": "PriceSpecification",
          "description": "Pax 2",
          "minPrice": "78.00",
          "maxPrice": "145.00",
          "priceCurrency": "EUR"
        }
      ]
    },
    {
      "@type": "Offer",
      "name": [
        {
          "@language": "de",
          "@value": "Doppelzimmer, Bad, WC"
        },
        {
          "@language": "en",
          "@value": "Double room, bath, toilet"
        }
      ],
      "description": [
        {
          "@language": "de",
          "@value": "Das großzügige Doppelzimmer ist mit vielen Naturmaterialien in hellen freundlichen Farben eingerichtet. Auf 35 m2 finden auch Familien mit\nKindern ausreichend Platz, eine Aufbettung für bis zu 2 Kinder ist möglich. Durch die Verwendung von Naturmaterialien haben die Zimmer ein\nbesonderes Raumklima, die ätherischen Öle der heimischen Zirbe sorgen für einen erholsamen Schlaf. Ausstattung: Badezimmer mit Badewanne,\nDusche, WC separat, Fön, Flat-TV, Telefon, Safe, Balkon, Nichtraucherzimmer."
        }
      ],
      "availability": "http://schema.org/InStock",
      "itemOffered": [
        {
          "@type": [
            "HotelRoom",
            "Product"
          ],
          "name": [
            {
              "@language": "de",
              "@value": "Doppelzimmer ZIRBE II lang"
            },
            {
              "@language": "en",
              "@value": "Double room, bath, toilet"
            }
          ],
          "bed": {
            "@type": "BedDetails",
            "numberOfBeds": "1"
          },
          "occupancy": {
            "@type": "QuantitativeValue",
            "maxValue": "4",
            "minValue": "2"
          }
        },
        {
          "@type": [
            "HotelRoom",
            "Product"
          ],
          "name": [
            {
              "@language": "de",
              "@value": "Doppelzimmer ZIRBE II Winter kurz"
            },
            {
              "@language": "en",
              "@value": "Double room, bath, toilet"
            }
          ],
          "bed": {
            "@type": "BedDetails",
            "numberOfBeds": "1"
          },
          "occupancy": {
            "@type": "QuantitativeValue",
            "maxValue": "4",
            "minValue": "2"
          }
        },
        {
          "@type": [
            "HotelRoom",
            "Product"
          ],
          "name": [
            {
              "@language": "de",
              "@value": "Doppelzimmer ZIRBE II Sommer kurz"
            },
            {
              "@language": "en",
              "@value": "Double room, bath, toilet"
            }
          ],
          "bed": {
            "@type": "BedDetails",
            "numberOfBeds": "1"
          },
          "occupancy": {
            "@type": "QuantitativeValue",
            "maxValue": "4",
            "minValue": "2"
          }
        }
      ],
      "priceSpecification": [
        {
          "@type": "PriceSpecification",
          "description": "Pax 2",
          "minPrice": "87.00",
          "maxPrice": "151.00",
          "priceCurrency": "EUR"
        },
        {
          "@type": "PriceSpecification",
          "description": "Pax 2",
          "minPrice": "83.00",
          "maxPrice": "83.00",
          "priceCurrency": "EUR"
        }
      ]
    },
    {
      "@type": "Offer",
      "name": [
        {
          "@language": "de",
          "@value": "Doppelzimmer, Dusche, WC"
        },
        {
          "@language": "en",
          "@value": "Double room, shower, toilet"
        }
      ],
      "description": [
        {
          "@language": "de",
          "@value": "Unsere hellen und großzügigen Doppelzimmer sind mit viel Liebe zum Detail im Tiroler Stil eingerichtet. Zum größten Teil\nneu ausgestattet, bieten die Zimmer viel Platz für gemeinsame Stunden und einen erholsamen Schlaf. Ob vom Fenster\noder Balkon, das Zillertal begrüßt Sie stets mit viel frischer Luft und einem herrlichen Blick auf die Berge.\nAusstattung: Dusche, WC, Fön, Flat-TV, Telefon, Safe, Balkon, Nichtraucherzimmer, teilweise mit Zustellbett."
        },
        {
          "@language": "en",
          "@value": "Doubleroom with extra bed, shower, wc, hair-dryer, satelite tv, telephone, safe, balcony."
        }
      ],
      "availability": "http://schema.org/InStock",
      "itemOffered": [
        {
          "@type": [
            "HotelRoom",
            "Product"
          ],
          "name": [
            {
              "@language": "de",
              "@value": "Doppelzimmer ZILLERTAL lang"
            },
            {
              "@language": "en",
              "@value": "double room with shower, WC"
            }
          ],
          "bed": {
            "@type": "BedDetails",
            "numberOfBeds": "1"
          },
          "occupancy": {
            "@type": "QuantitativeValue",
            "maxValue": "3",
            "minValue": "2"
          }
        },
        {
          "@type": [
            "HotelRoom",
            "Product"
          ],
          "name": [
            {
              "@language": "de",
              "@value": "Doppelzimmer ZILLERTAL Winter kurz"
            },
            {
              "@language": "en",
              "@value": "Double room, shower, toilet"
            }
          ],
          "bed": {
            "@type": "BedDetails",
            "numberOfBeds": "1"
          },
          "occupancy": {
            "@type": "QuantitativeValue",
            "maxValue": "3",
            "minValue": "2"
          }
        },
        {
          "@type": [
            "HotelRoom",
            "Product"
          ],
          "name": [
            {
              "@language": "de",
              "@value": "Doppelzimmer ZILLERTAL Sommer kurz"
            },
            {
              "@language": "en",
              "@value": "Double room, shower, toilet"
            }
          ],
          "bed": {
            "@type": "BedDetails",
            "numberOfBeds": "1"
          },
          "occupancy": {
            "@type": "QuantitativeValue",
            "maxValue": "3",
            "minValue": "2"
          }
        },
        {
          "@type": [
            "HotelRoom",
            "Product"
          ],
          "name": [
            {
              "@language": "de",
              "@value": "Doppelzimmer ZILLERTAL HP"
            },
            {
              "@language": "en",
              "@value": "Double room, shower, toilet"
            }
          ],
          "bed": {
            "@type": "BedDetails",
            "numberOfBeds": "1"
          },
          "occupancy": {
            "@type": "QuantitativeValue",
            "maxValue": "3",
            "minValue": "2"
          }
        },
        {
          "@type": [
            "HotelRoom",
            "Product"
          ],
          "name": [
            {
              "@language": "de",
              "@value": "Doppelzimmer ZILLERTAL Winter kurz HP"
            },
            {
              "@language": "en",
              "@value": "Double room, shower, toilet"
            }
          ],
          "bed": {
            "@type": "BedDetails",
            "numberOfBeds": "1"
          },
          "occupancy": {
            "@type": "QuantitativeValue",
            "maxValue": "3",
            "minValue": "2"
          }
        },
        {
          "@type": [
            "HotelRoom",
            "Product"
          ],
          "name": [
            {
              "@language": "de",
              "@value": "Doppelzimmer ZILLERTAL Sommer kurz HP"
            },
            {
              "@language": "en",
              "@value": "Double room, shower, toilet"
            }
          ],
          "bed": {
            "@type": "BedDetails",
            "numberOfBeds": "1"
          },
          "occupancy": {
            "@type": "QuantitativeValue",
            "maxValue": "3",
            "minValue": "2"
          }
        }
      ],
      "priceSpecification": [
        {
          "@type": "PriceSpecification",
          "description": "Pax 2",
          "minPrice": "72.00",
          "maxPrice": "135.00",
          "priceCurrency": "EUR"
        },
        {
          "@type": "PriceSpecification",
          "description": "Pax 3",
          "minPrice": "69.37",
          "maxPrice": "130.27",
          "priceCurrency": "EUR"
        },
        {
          "@type": "PriceSpecification",
          "description": "Pax 2",
          "minPrice": "76.00",
          "maxPrice": "76.00",
          "priceCurrency": "EUR"
        },
        {
          "@type": "PriceSpecification",
          "description": "Pax 3",
          "minPrice": "76.00",
          "maxPrice": "76.00",
          "priceCurrency": "EUR"
        }
      ]
    },
    {
      "@type": "Offer",
      "name": [
        {
          "@language": "de",
          "@value": "Vierbettzimmer, Dusche, WC"
        },
        {
          "@language": "en",
          "@value": "4-bed room, shower, toilet"
        }
      ],
      "description": [
        {
          "@language": "de",
          "@value": "In unseren großzügigen Familienzimmern ist ausreichend Platz für die ganze Familie. Für einen erholsamen Schlaf verfügen die komfortablen Zimmer über einen offenen und\nteilweise separatem Schlafzimmer für die Kinder. Ausstattung: Dusche, WC, Fön, Flat-TV, Telefon, Safe, teilweise Balkon, Nichtraucherzimmer,\nteilweise 2 getrennte Schlafzimmer mit Verbindungstür und extra Badezimmer für die Kinder."
        },
        {
          "@language": "en",
          "@value": "Room with four beds, shower, toilet, hair-dryer, satelite tv, telephone, safe, balcony."
        }
      ],
      "availability": "http://schema.org/InStock",
      "itemOffered": [
        {
          "@type": [
            "HotelRoom",
            "Product"
          ],
          "name": [
            {
              "@language": "de",
              "@value": "Familienzimmer ZILLERTAL lang"
            },
            {
              "@language": "en",
              "@value": "room with 4 beds with shower, WC"
            }
          ],
          "bed": {
            "@type": "BedDetails",
            "numberOfBeds": "1"
          },
          "occupancy": {
            "@type": "QuantitativeValue",
            "maxValue": "4",
            "minValue": "2"
          }
        },
        {
          "@type": [
            "HotelRoom",
            "Product"
          ],
          "name": [
            {
              "@language": "de",
              "@value": "Familienzimmer ZILLERTAL Winter kurz"
            },
            {
              "@language": "en",
              "@value": "4-bed room, shower, toilet"
            }
          ],
          "bed": {
            "@type": "BedDetails",
            "numberOfBeds": "1"
          },
          "occupancy": {
            "@type": "QuantitativeValue",
            "maxValue": "4",
            "minValue": "2"
          }
        },
        {
          "@type": [
            "HotelRoom",
            "Product"
          ],
          "name": [
            {
              "@language": "de",
              "@value": "Familienzimmer ZILLERTAL Sommer kurz"
            },
            {
              "@language": "en",
              "@value": "4-bed room, shower, toilet"
            }
          ],
          "bed": {
            "@type": "BedDetails",
            "numberOfBeds": "1"
          },
          "occupancy": {
            "@type": "QuantitativeValue",
            "maxValue": "4",
            "minValue": "2"
          }
        }
      ],
      "priceSpecification": [
        {
          "@type": "PriceSpecification",
          "description": "Pax 2",
          "minPrice": "119.00",
          "maxPrice": "119.00",
          "priceCurrency": "EUR"
        },
        {
          "@type": "PriceSpecification",
          "description": "Pax 3",
          "minPrice": "72.00",
          "maxPrice": "135.00",
          "priceCurrency": "EUR"
        },
        {
          "@type": "PriceSpecification",
          "description": "Pax 4",
          "minPrice": "70.02",
          "maxPrice": "127.90",
          "priceCurrency": "EUR"
        },
        {
          "@type": "PriceSpecification",
          "description": "Pax 2",
          "minPrice": "129.00",
          "maxPrice": "129.00",
          "priceCurrency": "EUR"
        },
        {
          "@type": "PriceSpecification",
          "description": "Pax 3",
          "minPrice": "129.00",
          "maxPrice": "129.00",
          "priceCurrency": "EUR"
        },
        {
          "@type": "PriceSpecification",
          "description": "Pax 2",
          "minPrice": "76.00",
          "maxPrice": "76.00",
          "priceCurrency": "EUR"
        },
        {
          "@type": "PriceSpecification",
          "description": "Pax 3",
          "minPrice": "76.00",
          "maxPrice": "76.00",
          "priceCurrency": "EUR"
        }
      ]
    },
    {
      "@type": "Offer",
      "name": [
        {
          "@language": "de",
          "@value": "Familienzimmer, Bad, WC"
        },
        {
          "@language": "en",
          "@value": "Family room, bath, toilet"
        }
      ],
      "description": [
        {
          "@language": "de",
          "@value": "Ideal für Familien mit kleinen Kindern!\nIn unseren großzügigen Familienzimmern finden Familien genügend Platz für Entspannung und Geselligkeit.\nAusstattung: Dusche, WC, Fön, Flat-TV, Telefon, Safe, Balkon, Nichtraucherzimmer, abgetrennter Schlafbereich."
        }
      ],
      "availability": "http://schema.org/InStock",
      "itemOffered": [
        {
          "@type": [
            "HotelRoom",
            "Product"
          ],
          "name": [
            {
              "@language": "de",
              "@value": "Familienzimmer HAMBERG lang"
            },
            {
              "@language": "en",
              "@value": "Family room, bath, toilet"
            }
          ],
          "bed": {
            "@type": "BedDetails",
            "numberOfBeds": "2"
          },
          "occupancy": {
            "@type": "QuantitativeValue",
            "maxValue": "4",
            "minValue": "2"
          }
        },
        {
          "@type": [
            "HotelRoom",
            "Product"
          ],
          "name": [
            {
              "@language": "de",
              "@value": "Familienzimmer HAMBERG Winter kurz"
            },
            {
              "@language": "en",
              "@value": "Family room, bath, toilet"
            }
          ],
          "bed": {
            "@type": "BedDetails",
            "numberOfBeds": "2"
          },
          "occupancy": {
            "@type": "QuantitativeValue",
            "maxValue": "4",
            "minValue": "2"
          }
        },
        {
          "@type": [
            "HotelRoom",
            "Product"
          ],
          "name": [
            {
              "@language": "de",
              "@value": "Familienzimmer HAMBERG Sommer kurz"
            },
            {
              "@language": "en",
              "@value": "Family room, bath, toilet"
            }
          ],
          "bed": {
            "@type": "BedDetails",
            "numberOfBeds": "2"
          },
          "occupancy": {
            "@type": "QuantitativeValue",
            "maxValue": "4",
            "minValue": "2"
          }
        }
      ],
      "priceSpecification": [
        {
          "@type": "PriceSpecification",
          "description": "Pax 3",
          "minPrice": "39.67",
          "maxPrice": "122.00",
          "priceCurrency": "EUR"
        },
        {
          "@type": "PriceSpecification",
          "description": "Pax 4",
          "minPrice": "45.50",
          "maxPrice": "115.55",
          "priceCurrency": "EUR"
        },
        {
          "@type": "PriceSpecification",
          "description": "Pax 2",
          "minPrice": "70.00",
          "maxPrice": "70.00",
          "priceCurrency": "EUR"
        },
        {
          "@type": "PriceSpecification",
          "description": "Pax 3",
          "minPrice": "70.00",
          "maxPrice": "70.00",
          "priceCurrency": "EUR"
        },
        {
          "@type": "PriceSpecification",
          "description": "Pax 4",
          "minPrice": "70.00",
          "maxPrice": "70.00",
          "priceCurrency": "EUR"
        }
      ]
    },
    {
      "@type": "Offer",
      "name": [
        {
          "@language": "de",
          "@value": "Familienzimmer, Bad, WC"
        },
        {
          "@language": "en",
          "@value": "Family room, bath, toilet"
        }
      ],
      "description": [
        {
          "@language": "de",
          "@value": "Besonders Familien fühlen sich in unserem gemütlichen Mehrbettzimmer wohl. Die getrennten Schlafzimmer für Kinder und Eltern verfügen\nüber eine Verbindungstür sowie ein eigenes Badezimmer mit Dusche und WC. Auf dem Balkon begrüßt Sie die Sonne und wünscht Ihnen\neinen unvergesslichen Urlaubstag im Zillertal. Ausstattung: 2 Badezimmer mit Dusche, WC, Fön, Flat-TV, Telefon, Safe, Balkon, Nichtraucherzimmer,\n2 getrennte Schlafzimmer mit Verbindungstür."
        }
      ],
      "availability": "http://schema.org/InStock",
      "itemOffered": [
        {
          "@type": [
            "HotelRoom",
            "Product"
          ],
          "name": [
            {
              "@language": "de",
              "@value": "Familienzimmer HOCHZILLERTAL lang"
            },
            {
              "@language": "en",
              "@value": "Family room, bath, toilet"
            }
          ],
          "bed": {
            "@type": "BedDetails",
            "numberOfBeds": "2"
          },
          "occupancy": {
            "@type": "QuantitativeValue",
            "maxValue": "4",
            "minValue": "2"
          }
        },
        {
          "@type": [
            "HotelRoom",
            "Product"
          ],
          "name": [
            {
              "@language": "de",
              "@value": "Familienzimmer HOCHZILLERTAL Winter kurz"
            },
            {
              "@language": "en",
              "@value": "Family room, bath, toilet"
            }
          ],
          "bed": {
            "@type": "BedDetails",
            "numberOfBeds": "2"
          },
          "occupancy": {
            "@type": "QuantitativeValue",
            "maxValue": "4",
            "minValue": "2"
          }
        },
        {
          "@type": [
            "HotelRoom",
            "Product"
          ],
          "name": [
            {
              "@language": "de",
              "@value": "Familienzimmer HOCHZILLERTAL Sommer kurz"
            },
            {
              "@language": "en",
              "@value": "Family room, bath, toilet"
            }
          ],
          "bed": {
            "@type": "BedDetails",
            "numberOfBeds": "2"
          },
          "occupancy": {
            "@type": "QuantitativeValue",
            "maxValue": "4",
            "minValue": "2"
          }
        }
      ],
      "priceSpecification": [
        {
          "@type": "PriceSpecification",
          "description": "Pax 2",
          "minPrice": "129.00",
          "maxPrice": "129.00",
          "priceCurrency": "EUR"
        },
        {
          "@type": "PriceSpecification",
          "description": "Pax 3",
          "minPrice": "78.00",
          "maxPrice": "145.00",
          "priceCurrency": "EUR"
        },
        {
          "@type": "PriceSpecification",
          "description": "Pax 4",
          "minPrice": "75.88",
          "maxPrice": "137.40",
          "priceCurrency": "EUR"
        },
        {
          "@type": "PriceSpecification",
          "description": "Pax 2",
          "minPrice": "139.00",
          "maxPrice": "139.00",
          "priceCurrency": "EUR"
        },
        {
          "@type": "PriceSpecification",
          "description": "Pax 3",
          "minPrice": "139.00",
          "maxPrice": "139.00",
          "priceCurrency": "EUR"
        },
        {
          "@type": "PriceSpecification",
          "description": "Pax 4",
          "minPrice": "139.00",
          "maxPrice": "139.00",
          "priceCurrency": "EUR"
        },
        {
          "@type": "PriceSpecification",
          "description": "Pax 2",
          "minPrice": "79.00",
          "maxPrice": "79.00",
          "priceCurrency": "EUR"
        },
        {
          "@type": "PriceSpecification",
          "description": "Pax 3",
          "minPrice": "79.00",
          "maxPrice": "79.00",
          "priceCurrency": "EUR"
        },
        {
          "@type": "PriceSpecification",
          "description": "Pax 4",
          "minPrice": "79.00",
          "maxPrice": "79.00",
          "priceCurrency": "EUR"
        }
      ]
    },
    {
      "@type": "Offer",
      "name": [
        {
          "@language": "de",
          "@value": "Familienzimmer, Bad, WC"
        },
        {
          "@language": "en",
          "@value": "Family room, bath, toilet"
        }
      ],
      "description": [
        {
          "@language": "de",
          "@value": "Das großzügige Zirben-Familienzimmer bietet auf 40 m2 alles, was für einen gelungenen Urlaub nötig ist. In der gemütlichen Sitzecke im Tiroler\nStil trifft sich die ganze Familie, geschlafen wird in zwei getrennten Schlafzimmern mit eigenem Bad. Ausstattung: 2 getrennte Schlafzimmer, gemütliche Sitzecke, 2 Badezimmer mit Dusche, WC\nseparat, Fön, Flat-TV, begehbarer Kleiderschrank, Telefon, Safe, Balkon, Nichtraucherzimmer."
        }
      ],
      "availability": "http://schema.org/InStock",
      "itemOffered": [
        {
          "@type": [
            "HotelRoom",
            "Product"
          ],
          "name": [
            {
              "@language": "de",
              "@value": "Familienzimmer ZIRBE III lang"
            },
            {
              "@language": "en",
              "@value": "Family room, bath, toilet"
            }
          ],
          "bed": {
            "@type": "BedDetails",
            "numberOfBeds": "2"
          },
          "occupancy": {
            "@type": "QuantitativeValue",
            "maxValue": "4",
            "minValue": "2"
          }
        },
        {
          "@type": [
            "HotelRoom",
            "Product"
          ],
          "name": [
            {
              "@language": "de",
              "@value": "Familienzimmer ZIRBE III Winter kurz"
            },
            {
              "@language": "en",
              "@value": "Family room, bath, toilet"
            }
          ],
          "bed": {
            "@type": "BedDetails",
            "numberOfBeds": "2"
          },
          "occupancy": {
            "@type": "QuantitativeValue",
            "maxValue": "4",
            "minValue": "2"
          }
        },
        {
          "@type": [
            "HotelRoom",
            "Product"
          ],
          "name": [
            {
              "@language": "de",
              "@value": "Familienzimmer ZIRBE III Sommer kurz"
            },
            {
              "@language": "en",
              "@value": "Family room, bath, toilet"
            }
          ],
          "bed": {
            "@type": "BedDetails",
            "numberOfBeds": "2"
          },
          "occupancy": {
            "@type": "QuantitativeValue",
            "maxValue": "4",
            "minValue": "2"
          }
        }
      ],
      "priceSpecification": [
        {
          "@type": "PriceSpecification",
          "description": "Pax 2",
          "minPrice": "134.00",
          "maxPrice": "134.00",
          "priceCurrency": "EUR"
        },
        {
          "@type": "PriceSpecification",
          "description": "Pax 3",
          "minPrice": "82.00",
          "maxPrice": "151.00",
          "priceCurrency": "EUR"
        },
        {
          "@type": "PriceSpecification",
          "description": "Pax 4",
          "minPrice": "79.78",
          "maxPrice": "147.05",
          "priceCurrency": "EUR"
        },
        {
          "@type": "PriceSpecification",
          "description": "Pax 2",
          "minPrice": "144.00",
          "maxPrice": "144.00",
          "priceCurrency": "EUR"
        },
        {
          "@type": "PriceSpecification",
          "description": "Pax 3",
          "minPrice": "144.00",
          "maxPrice": "144.00",
          "priceCurrency": "EUR"
        },
        {
          "@type": "PriceSpecification",
          "description": "Pax 4",
          "minPrice": "144.00",
          "maxPrice": "144.00",
          "priceCurrency": "EUR"
        },
        {
          "@type": "PriceSpecification",
          "description": "Pax 2",
          "minPrice": "83.00",
          "maxPrice": "83.00",
          "priceCurrency": "EUR"
        },
        {
          "@type": "PriceSpecification",
          "description": "Pax 3",
          "minPrice": "83.00",
          "maxPrice": "83.00",
          "priceCurrency": "EUR"
        },
        {
          "@type": "PriceSpecification",
          "description": "Pax 4",
          "minPrice": "83.00",
          "maxPrice": "83.00",
          "priceCurrency": "EUR"
        }
      ]
    },
    {
      "@type": "Offer",
      "name": [
        {
          "@language": "de",
          "@value": "Suite, Dusche und Bad, WC"
        },
        {
          "@language": "en",
          "@value": "Suite, shower and bath, toilet"
        }
      ],
      "description": [
        {
          "@language": "de",
          "@value": "Die gemütliche Familiensuite Supreme ist ideal auch für größere Familien geeignet. . 2 getrennte Schlafzimmer mit Verbindungstüre sorgen für einen ungestörten und erholsamen Schlaf. Die\ngroßzügigen Räume mit Doppelbetten und Doppelcouch bieten Familien mit bis zu 4 Kindern ausreichend Platz. Ausstattung: 2 getrennte\nSchlafzimmer, gemütliche Sitzecke mit Kachelofen, 2 Badezimmer mit Badewanne, Dusche, WC, Fön, Flat-TV, Radio, begehbarer Kleiderschrank,\nTelefon, Safe, Balkon, Nichtraucherzimmer"
        },
        {
          "@language": "en",
          "@value": "2 separate bedrooms connected with a door, 2 bathrooms, bath, shower, toilet, hair-dryer, cosmetic mirror, cupboard passable on food, satelite tv, telephone, safe, balcony, tiled stove, nonsmoking room (60m²)."
        }
      ],
      "availability": "http://schema.org/InStock",
      "itemOffered": [
        {
          "@type": [
            "HotelRoom",
            "Product"
          ],
          "name": [
            {
              "@language": "de",
              "@value": "Familiensuite SUPREME lang"
            },
            {
              "@language": "en",
              "@value": "Suite, shower and bath, toilet"
            }
          ],
          "bed": {
            "@type": "BedDetails",
            "numberOfBeds": "1"
          },
          "occupancy": {
            "@type": "QuantitativeValue",
            "maxValue": "6",
            "minValue": "2"
          }
        },
        {
          "@type": [
            "HotelRoom",
            "Product"
          ],
          "name": [
            {
              "@language": "de",
              "@value": "Familiensuite SUPREME Winter kurz"
            },
            {
              "@language": "en",
              "@value": "Suite, shower and bath, toilet"
            }
          ],
          "bed": {
            "@type": "BedDetails",
            "numberOfBeds": "1"
          },
          "occupancy": {
            "@type": "QuantitativeValue",
            "maxValue": "6",
            "minValue": "2"
          }
        },
        {
          "@type": [
            "HotelRoom",
            "Product"
          ],
          "name": [
            {
              "@language": "de",
              "@value": "Familiensuite SUPREME Sommer kurz"
            },
            {
              "@language": "en",
              "@value": "Suite, shower and bath, toilet"
            }
          ],
          "bed": {
            "@type": "BedDetails",
            "numberOfBeds": "1"
          },
          "occupancy": {
            "@type": "QuantitativeValue",
            "maxValue": "6",
            "minValue": "2"
          }
        }
      ],
      "priceSpecification": [
        {
          "@type": "PriceSpecification",
          "description": "Pax 2",
          "minPrice": "132.00",
          "maxPrice": "132.00",
          "priceCurrency": "EUR"
        },
        {
          "@type": "PriceSpecification",
          "description": "Pax 3",
          "minPrice": "132.00",
          "maxPrice": "132.00",
          "priceCurrency": "EUR"
        },
        {
          "@type": "PriceSpecification",
          "description": "Pax 4",
          "minPrice": "87.00",
          "maxPrice": "136.00",
          "priceCurrency": "EUR"
        },
        {
          "@type": "PriceSpecification",
          "description": "Pax 5",
          "minPrice": "85.12",
          "maxPrice": "133.14",
          "priceCurrency": "EUR"
        },
        {
          "@type": "PriceSpecification",
          "description": "Pax 6",
          "minPrice": "83.87",
          "maxPrice": "132.00",
          "priceCurrency": "EUR"
        },
        {
          "@type": "PriceSpecification",
          "description": "Pax 4",
          "minPrice": "152.00",
          "maxPrice": "152.00",
          "priceCurrency": "EUR"
        },
        {
          "@type": "PriceSpecification",
          "description": "Pax 5",
          "minPrice": "152.00",
          "maxPrice": "152.00",
          "priceCurrency": "EUR"
        },
        {
          "@type": "PriceSpecification",
          "description": "Pax 6",
          "minPrice": "152.00",
          "maxPrice": "152.00",
          "priceCurrency": "EUR"
        },
        {
          "@type": "PriceSpecification",
          "description": "Pax 4",
          "minPrice": "88.00",
          "maxPrice": "88.00",
          "priceCurrency": "EUR"
        },
        {
          "@type": "PriceSpecification",
          "description": "Pax 5",
          "minPrice": "88.00",
          "maxPrice": "88.00",
          "priceCurrency": "EUR"
        },
        {
          "@type": "PriceSpecification",
          "description": "Pax 6",
          "minPrice": "88.00",
          "maxPrice": "88.00",
          "priceCurrency": "EUR"
        }
      ]
    },
    {
      "@type": "Offer",
      "name": [
        {
          "@language": "de",
          "@value": "Appartement/Fewo, Dusche und Badewanne"
        },
        {
          "@language": "en",
          "@value": "Apartment, shower and bath tub"
        }
      ],
      "description": [
        {
          "@language": "de",
          "@value": "Unsere Familienwohnung verwöhnt Sie mit echter Zillertaler Gemütlichkeit. Mit einer Fläche von 95 m2 bietet die geräumige Familienwohnung ausreichend\nPlatz für bis zu 7 Personen. Ausstattung: 1 Wohnzimmer mit Kachelofen, TV \u0026 Sitzecke, 3 Schlafzimmer, Flat-TV, Badezimmer mit\nBadewanne, Dusche, WC separat, Fön, Telefon, Safe, Kühlschrank, keine Küche!, Balkon, Nichtraucherzimmer.\n \n\n\n"
        },
        {
          "@language": "en",
          "@value": "Our “Post” family apartment is excellent value for money, offering 95 m² of floor space for up to 7 people. Equipped with: 3 bedrooms, all with a flat-screen TV and some with a balcony, a living-room featuring a tiled stove and TV, a bathroom with a bathtub, shower, double sink, hairdryer and underfloor heating, a separate WC, a fridge, an in-room safe and a telephone, NO KITCHEN! Full child discount available.\n\n \n\n"
        }
      ],
      "availability": "http://schema.org/InStock",
      "itemOffered": [
        {
          "@type": [
            "Apartment",
            "Product"
          ],
          "name": [
            {
              "@language": "de",
              "@value": "Familienwohnung POST lang"
            },
            {
              "@language": "en",
              "@value": "Family apartment POST"
            }
          ],
          "numberOfRooms": "1.0",
          "occupancy": {
            "@type": "QuantitativeValue",
            "maxValue": "7",
            "minValue": "4"
          }
        },
        {
          "@type": [
            "Apartment",
            "Product"
          ],
          "name": [
            {
              "@language": "de",
              "@value": "Familienwohnung POST Winter kurz"
            },
            {
              "@language": "en",
              "@value": "Apartment, shower and bath tub"
            }
          ],
          "numberOfRooms": "1.0",
          "occupancy": {
            "@type": "QuantitativeValue",
            "maxValue": "7",
            "minValue": "4"
          }
        },
        {
          "@type": [
            "Apartment",
            "Product"
          ],
          "name": [
            {
              "@language": "de",
              "@value": "Familienwohnung POST Sommer kurz"
            },
            {
              "@language": "en",
              "@value": "Apartment, shower and bath tub"
            }
          ],
          "numberOfRooms": "1.0",
          "occupancy": {
            "@type": "QuantitativeValue",
            "maxValue": "7",
            "minValue": "4"
          }
        },
        {
          "@type": [
            "Apartment",
            "Product"
          ],
          "name": [
            {
              "@language": "de",
              "@value": "Familienwohnung POST Sommer kurz HP"
            },
            {
              "@language": "en",
              "@value": "Apartment, shower and bath tub"
            }
          ],
          "numberOfRooms": "1.0",
          "occupancy": {
            "@type": "QuantitativeValue",
            "maxValue": "7",
            "minValue": "4"
          }
        }
      ],
      "priceSpecification": [
        {
          "@type": "PriceSpecification",
          "description": "Pax 4",
          "minPrice": "119.00",
          "maxPrice": "119.00",
          "priceCurrency": "EUR"
        },
        {
          "@type": "PriceSpecification",
          "description": "Pax 5",
          "minPrice": "72.00",
          "maxPrice": "119.00",
          "priceCurrency": "EUR"
        },
        {
          "@type": "PriceSpecification",
          "description": "Pax 6",
          "minPrice": "64.10",
          "maxPrice": "119.00",
          "priceCurrency": "EUR"
        },
        {
          "@type": "PriceSpecification",
          "description": "Pax 7",
          "minPrice": "64.10",
          "maxPrice": "119.00",
          "priceCurrency": "EUR"
        },
        {
          "@type": "PriceSpecification",
          "description": "Pax 4",
          "minPrice": "129.00",
          "maxPrice": "129.00",
          "priceCurrency": "EUR"
        },
        {
          "@type": "PriceSpecification",
          "description": "Pax 5",
          "minPrice": "129.00",
          "maxPrice": "129.00",
          "priceCurrency": "EUR"
        },
        {
          "@type": "PriceSpecification",
          "description": "Pax 6",
          "minPrice": "129.00",
          "maxPrice": "129.00",
          "priceCurrency": "EUR"
        },
        {
          "@type": "PriceSpecification",
          "description": "Pax 7",
          "minPrice": "129.00",
          "maxPrice": "129.00",
          "priceCurrency": "EUR"
        },
        {
          "@type": "PriceSpecification",
          "description": "Pax 4",
          "minPrice": "76.00",
          "maxPrice": "76.00",
          "priceCurrency": "EUR"
        },
        {
          "@type": "PriceSpecification",
          "description": "Pax 5",
          "minPrice": "76.00",
          "maxPrice": "76.00",
          "priceCurrency": "EUR"
        },
        {
          "@type": "PriceSpecification",
          "description": "Pax 6",
          "minPrice": "76.00",
          "maxPrice": "76.00",
          "priceCurrency": "EUR"
        },
        {
          "@type": "PriceSpecification",
          "description": "Pax 7",
          "minPrice": "76.00",
          "maxPrice": "76.00",
          "priceCurrency": "EUR"
        },
        {
          "@type": "PriceSpecification",
          "description": "Pax 4",
          "minPrice": "0.00",
          "maxPrice": "0.00",
          "priceCurrency": "EUR"
        },
        {
          "@type": "PriceSpecification",
          "description": "Pax 5",
          "minPrice": "0.00",
          "maxPrice": "0.00",
          "priceCurrency": "EUR"
        },
        {
          "@type": "PriceSpecification",
          "description": "Pax 6",
          "minPrice": "0.00",
          "maxPrice": "0.00",
          "priceCurrency": "EUR"
        },
        {
          "@type": "PriceSpecification",
          "description": "Pax 7",
          "minPrice": "0.00",
          "maxPrice": "0.00",
          "priceCurrency": "EUR"
        }
      ]
    }
  ]
}