{
  "@context": "http://schema.org",
  "@type": "LodgingBusiness",
  "url": [
    "http://www.opbacher.at/appartement",
    "https://www.panorama3d.at/widgets/pano.php?key\u003d01J484U01A211l09Pr339769a84j62\u0026fullscreen\u003dtrue\u0026autoplay\u003d1\u0026speed\u003d3",
    "http://maps.best-of-zillertal.at/proxy/frontend/page/fuegen/de?foreignResource\u003d6D7007D1-D5F6-40CC-A953-37ADCAF172C0"
  ],
  "address": {
    "@type": "PostalAddress",
    "name": "Appartements Opbacher",
    "streetAddress": "Sängerweg 27",
    "addressCountry": "AT",
    "postalCode": "6263",
    "addressRegion": "Fügen",
    "telephone": "(0043) 5288 63300 8007",
    "faxNumber": "(0043) 5288 63300 8850",
    "email": "appartement@opbacher.at",
    "url": "http://appartements-opbacher.at/"
  },
  "name": "Appartements Opbacher",
  "description": [
    {
      "@language": "de",
      "@value": "Machen Sie sich auf die Reise - weg von Stress \u0026 Alltag - und kehren Sie im Zillertal zurück zur Natur. Damit Sie Ihren Urlaub so richtig genießen können, sorgen wir in unserem Appartements Opbacher persönlich für Ihr Wohlbefinden. Entspannen Sie in unseren komfortablen Ferienwohnungen, die mit viel Liebe zum Detail und Tiroler Tradition gestaltet sind. \n\nUnser Appartements Opbacher liegt in unmittelbarer Nähe des Supermarkts, nur 5 Gehminuten vom Zentrum von Fügen mit zahlreichen Restaurants, der Erlebnis-Therme Fügen und 10 Gehminuten von der Spieljoch-Seilbahn entfernt. Der kostenlose Skibus in die Skigebiete Spieljoch und Hochzillertal-Hochfügen hält nur 1 Minute zu Fuß vom Appartements Opbacher entfernt.\n \nUnser Appartements Opbacher bietet in jeder der 14 Ferienwohnungen viel Platz für bis zu 6 Personen. Jede Ferienwohnung verfügt über einladende Schlafzimmer, ein gemütliches Wohnzimmer und eine voll ausgestattete Küche. Freuen Sie sich auf Ihre eigene Sonnenterrasse oder den Balkon mit herrlichem Blick auf das Bergpanorama im Zillertal.    \n\nJede Ferienwohnung im Appartements Opbacher bietet Ihnen große 1-2 Schlafzimmer, ein Wohnzimmer mit Flachbild-TV, eine große und moderne Küche und ein geräumiges Badezimmer. Auf Wunsch bringen wir Ihnen jeden Morgen frische Backwaren vom örtlichen Bäcker in Ihre Ferienwohnung. Kostenfreies WLAN im gesamten Haus Opbacher, einen beheizten Skiraum mit Schuhtrockner und ausreichend Parkmöglichkeiten stellen wir Ihnen gerne bereit. \n\nIn unserem Appartements Opbacher bieten wir Ihnen eine sehr geräumige und familienfreundliche Ferienwohnung, die mit 100 m2 ausreichend Raum für bis zu 9 Personen bietet. Hier finden Sie ein heimeliges Wohnzimmer, Dreibettzimmer und Doppelzimmer wie auch eine voll ausgestattete Küche mit gemütlicher Sitzecke. Während Sie auf der Sonnenterrasse nach einem aktiven Ski- oder Wandertag entspannen toben Ihre Kinder im Garten, vergnügen sich beim Schneemann bauen oder Tischtennis spielen. Auch unsere kleinsten Gäste kommen im Sommer voll auf ihre Kosten. Der neu gebaute Kinderspielplatz begeistert Groß und Klein. Der nur 5 Gehminuten entfernte beschneite Übungshang bietet für Kinder auch die Möglichkeit zum Rodeln. \n\nIn unserem Wohlfühlbereich können Sie sich nach einer Wanderung, einem aktiven Skitag, oder einem gemütlichen Spaziergang erholen. Entspannen Sie im Wellnessbereich mit Finnischer Sauna, Dampfbad, Erlebnisdusche und Ruheraum mit 2 Infrarot-Liegen, um neue Kraft und Energie für den nächsten erlebnisreichen Urlaubstag zu sammeln. Auch eine kleine Fitness-Ecke steht Ihnen für Konditionstraining zur Verfügung.\nDieser Service steht Ihnen kostenlos an den Tagen Sonntag, Dienstag und Donnerstag zur Verfügung. \n\nAuch bieten wir Ihnen kostenlos Fahrräder zum Ausleihen an.\n \nVerbringen Sie eine unvergessliche Zeit im Zillertal und lassen Sie sich von der Landschaft und der Tiroler Tradition inspirieren. \n\nWir freuen uns darauf, Sie bald in unserer Ferienwohnung im Appartements Opbacher in Fügen im Zillertal zu begrüßen! \n"
    },
    {
      "@language": "de",
      "@value": "Nebenkosten vor Ort zahlbar: Endreinigung und Ortstaxe."
    },
    {
      "@language": "de",
      "@value": "Check-in: ab 14.00 Uhr\nCheck-out: bis 10.00 Uhr"
    },
    {
      "@language": "en",
      "@value": "Embark on a journey – away from stress and the troubles of everyday life – and return to nature in the Zillertal. At our Opbacher guesthouse we personally look after your well-being so that you can fully enjoy your holidays. Relax in our comfortable apartments that are held in traditional Tyrolean style and were designed with great attention to detail. \n\nOur Opbacher guesthouse is just a 5-minute walk away from Fügen with its many restaurants, the supermarket, as well as from Erlebnis-Therme Fügen and is only 10 minutes away from the Spieljoch cable car station. The free ski bus that takes you to the Spieljoch and the Hochzillertal-Hochfügen skiing resort stops only 1 minute away from the Opbacher guesthouse on foot. \n\nAll of the 14 apartments at our Opbacher guesthouse accommodate up to 6 people. Every apartment features charming bedrooms, a cosy living room and a fully equipped kitchen. Look forward to your own sun terrace or balcony with stunning views of the mountain panorama in the Zillertal. \n\nThe apartments of the Opbacher guesthouse come with 1-2 large bedroom(s), a living room with flat-screen TV, a large modern kitchen and a spacious bathroom. On request, we will have fresh pastries from the local bakery delivered to your apartment every morning. Free Wi-Fi throughout the Opbacher guesthouse, a heated ski room with boot dryer and plenty of parking spaces are available to you as well. \n\nAt our Opbacher guesthouse we also offer you a very spacious and family-friendly 100 m2 apartment with enough room to accommodate up to 9 people. Here you will find a cosy living room, triple and double rooms, as well as a fully equipped kitchen with a cosy sitting area. While you relax on the sun terrace after an eventful day of skiing or hiking, your children can unwind in the garden, build a snowman or play table tennis. A training hill groomed with artificial snow is only a 5-minute walk away and also offers sledding opportunities for children. \n\nIn our spa area you can relax after a sportive day, a hike or a leisurely stroll. Unwind in the spa with Finnish sauna, steam bath, experience shower as well as with relaxation area with infrarot-chairs and gather new strengths and energy for the next eventful day. Our fitness area features modern equipment and offers ideal opportunities for building strength and endurance training. This service is available free of charge on the following days: Sunday, Tuesday, Thursday.\n\nYou can rent a bike for free at the accomodation.\n\nSpend an unforgettable time in the Zillertal and be inspired by the unique scenery and Tyrolean traditions. \n\nWe look forward to soon welcoming you in one of our apartments at the Opbacher guesthouse in the Zillertal! \n"
    },
    {
      "@language": "en",
      "@value": "final cleaning EUR 50,00 - 90,00"
    },
    {
      "@language": "en",
      "@value": "Check-in: from 02.00 p.m.\nCheck-out: until 10.00 a.m."
    }
  ],
  "image": [
    {
      "@type": "ImageObject",
      "url": "http://resc.deskline.net/images/ZIL/1/8d524d66-1db7-4cd4-ac8b-56a4ca753b10/99/image.jpg",
      "caption": [
        {
          "@language": "de",
          "@value": "Opbacher-Haus-Sommer"
        },
        {
          "@language": "en",
          "@value": "Opbacher-Haus-Sommer"
        }
      ]
    },
    {
      "@type": "ImageObject",
      "url": "http://resc.deskline.net/images/ZIL/1/9e6485a9-a1aa-43de-b850-1fad58780b80/99/image.jpg",
      "caption": [
        {
          "@language": "de",
          "@value": "Südansicht"
        },
        {
          "@language": "en",
          "@value": "Südansicht"
        }
      ]
    },
    {
      "@type": "ImageObject",
      "url": "http://resc.deskline.net/images/ZIL/1/c16b297c-5c6e-4ac8-be9c-abb2d39dfb8d/99/image.jpg",
      "caption": [
        {
          "@language": "de",
          "@value": "Garten "
        },
        {
          "@language": "en",
          "@value": "Garten "
        }
      ]
    },
    {
      "@type": "ImageObject",
      "url": "http://resc.deskline.net/images/ZIL/1/633a4d81-d37e-4a24-b854-95678418e1d8/99/image.jpg",
      "caption": [
        {
          "@language": "de",
          "@value": "Winteransicht"
        },
        {
          "@language": "en",
          "@value": "Winteransicht"
        }
      ]
    },
    {
      "@type": "ImageObject",
      "url": "http://resc.deskline.net/images/ZIL/1/da550a7e-009b-40ed-8ff4-8060c2b4d354/99/image.jpg",
      "caption": [
        {
          "@language": "de",
          "@value": "Hausgang"
        },
        {
          "@language": "en",
          "@value": "Hausgang"
        }
      ]
    },
    {
      "@type": "ImageObject",
      "url": "http://resc.deskline.net/images/ZIL/1/9e3e2b02-7419-4724-acb9-a75dcbed234f/99/image.jpg",
      "caption": [
        {
          "@language": "de",
          "@value": "Hausgang2"
        },
        {
          "@language": "en",
          "@value": "Hausgang2"
        }
      ]
    },
    {
      "@type": "ImageObject",
      "url": "http://resc.deskline.net/images/ZIL/1/2c06cdad-eaae-463c-b63b-ee90ab4961bf/99/image.jpg",
      "caption": [
        {
          "@language": "de",
          "@value": "Schiraum"
        },
        {
          "@language": "en",
          "@value": "Schiraum"
        }
      ]
    },
    {
      "@type": "ImageObject",
      "url": "http://resc.deskline.net/images/ZIL/1/7932c883-d6ba-4af3-bb19-f8a95ccb1a0c/99/image.jpg",
      "caption": [
        {
          "@language": "de",
          "@value": "Wellnesscenter"
        },
        {
          "@language": "en",
          "@value": "Wellnesscenter"
        }
      ]
    },
    {
      "@type": "ImageObject",
      "url": "http://resc.deskline.net/images/ZIL/1/352f18c7-54a0-4cfb-810a-e6781023c304/99/image.jpg",
      "caption": [
        {
          "@language": "de",
          "@value": "Sauna"
        },
        {
          "@language": "en",
          "@value": "Sauna"
        }
      ]
    },
    {
      "@type": "ImageObject",
      "url": "http://resc.deskline.net/images/ZIL/1/4b555c38-3c78-4215-9252-4337f6524646/99/image.jpg",
      "caption": [
        {
          "@language": "de",
          "@value": "Dampfbad"
        },
        {
          "@language": "en",
          "@value": "Dampfbad"
        }
      ]
    },
    {
      "@type": "ImageObject",
      "url": "http://resc.deskline.net/images/ZIL/1/8631d902-0b0e-4230-a4a6-65804296e754/99/image.jpg",
      "caption": [
        {
          "@language": "de",
          "@value": "Erlebnisdusche"
        },
        {
          "@language": "en",
          "@value": "Erlebnisdusche"
        }
      ]
    },
    {
      "@type": "ImageObject",
      "url": "http://resc.deskline.net/images/ZIL/1/d3d30e6e-a69a-43ac-959a-4e705052897e/99/image.jpg",
      "caption": [
        {
          "@language": "de",
          "@value": "Solarium"
        },
        {
          "@language": "en",
          "@value": "Solarium"
        }
      ]
    },
    {
      "@type": "ImageObject",
      "url": "http://resc.deskline.net/images/ZIL/1/63b3e5f2-14ac-4f19-9938-5e064b15ee4b/99/image.jpg",
      "caption": [
        {
          "@language": "de",
          "@value": "Ruheraum mit Fitnessecke"
        },
        {
          "@language": "en",
          "@value": "Ruheraum mit Fitnessecke"
        }
      ]
    },
    {
      "@type": "ImageObject",
      "url": "http://resc.deskline.net/images/ZIL/1/48ad5866-b571-4572-92a4-6ee785b8ea0f/99/image.jpg",
      "caption": [
        {
          "@language": "de",
          "@value": "Spielplatz NEU Sommer 2015"
        },
        {
          "@language": "en",
          "@value": "Spielplatz NEU Sommer 2015"
        }
      ]
    },
    {
      "@type": "ImageObject",
      "url": "http://resc.deskline.net/images/ZIL/1/e71ead98-8f19-4f09-9577-0f3f38c5a736/99/image.jpg",
      "caption": [
        {
          "@language": "de",
          "@value": "Balkon Aussicht"
        },
        {
          "@language": "en",
          "@value": "Balkon Aussicht"
        }
      ]
    },
    {
      "@type": "ImageObject",
      "url": "http://resc.deskline.net/images/ZIL/1/7312e13a-5b19-45b3-9a40-43230e87228a/99/image.jpg",
      "caption": [
        {
          "@language": "de",
          "@value": "Balkon Aussicht1"
        },
        {
          "@language": "en",
          "@value": "Balkon Aussicht1"
        }
      ]
    },
    {
      "@type": "ImageObject",
      "url": "http://resc.deskline.net/images/ZIL/1/8340f044-0cd9-43fb-83c1-d300774d0fd6/99/image.jpg",
      "caption": [
        {
          "@language": "de",
          "@value": "Garten neu"
        },
        {
          "@language": "en",
          "@value": "Garten neu"
        }
      ]
    },
    {
      "@type": "ImageObject",
      "url": "http://resc.deskline.net/images/ZIL/1/b3a955f2-e564-49c5-99ce-73c312ccbfb4/99/image.jpg",
      "caption": [
        {
          "@language": "de",
          "@value": "Garten neu1"
        },
        {
          "@language": "en",
          "@value": "Garten neu1"
        }
      ]
    },
    {
      "@type": "ImageObject",
      "url": "http://resc.deskline.net/images/ZIL/1/062fa764-afef-47bd-8782-1ecd279db05e/99/image.jpg",
      "caption": [
        {
          "@language": "de",
          "@value": "Haus Sommer"
        },
        {
          "@language": "en",
          "@value": "Haus Sommer"
        }
      ]
    },
    {
      "@type": "ImageObject",
      "url": "http://resc.deskline.net/images/ZIL/1/617c5823-b448-4f06-b07b-7eb0f0c1c273/99/image.jpg",
      "caption": [
        {
          "@language": "de",
          "@value": "Haus Sommer1"
        },
        {
          "@language": "en",
          "@value": "Haus Sommer1"
        }
      ]
    },
    {
      "@type": "ImageObject",
      "url": "http://resc.deskline.net/images/ZIL/1/3dc17445-3f73-41db-aefc-e891ec51056b/99/image.jpg",
      "caption": [
        {
          "@language": "de",
          "@value": "Haus Sommer2"
        },
        {
          "@language": "en",
          "@value": "Haus Sommer2"
        }
      ]
    },
    {
      "@type": "ImageObject",
      "url": "http://resc.deskline.net/images/ZIL/1/896fb32e-d38e-4504-8dcc-ccbadd623c9b/99/image.jpg",
      "caption": [
        {
          "@language": "de",
          "@value": "Haus Sommer3"
        },
        {
          "@language": "en",
          "@value": "Haus Sommer3"
        }
      ]
    },
    {
      "@type": "ImageObject",
      "url": "http://resc.deskline.net/images/ZIL/1/bb235703-f674-4013-a951-fd51301609d8/99/image.jpg",
      "caption": [
        {
          "@language": "de",
          "@value": "Spielplatz"
        },
        {
          "@language": "en",
          "@value": "Spielplatz"
        }
      ]
    },
    {
      "@type": "ImageObject",
      "url": "http://resc.deskline.net/images/ZIL/1/6f7a1dd6-a692-41b0-8028-bcb48ff29f95/99/image.jpg",
      "caption": [
        {
          "@language": "de",
          "@value": "Terrasse"
        },
        {
          "@language": "en",
          "@value": "Terrasse"
        }
      ]
    },
    {
      "@type": "ImageObject",
      "url": "http://resc.deskline.net/images/ZIL/1/c78cd481-cea0-402b-87d2-62e8a9e99f23/99/image.jpg",
      "caption": [
        {
          "@language": "de",
          "@value": "Terrasse1"
        },
        {
          "@language": "en",
          "@value": "Terrasse1"
        }
      ]
    }
  ],
  "geo": {
    "@type": "GeoCoordinates",
    "latitude": "47.341127399249011",
    "longitude": "11.849430799484253"
  },
  "currenciesAccepted": "EUR",
  "makesOffer": [
    {
      "@type": "Offer",
      "name": [
        {
          "@language": "de",
          "@value": "Appartement/Fewo, Dusche und Bad, WC, 2 Schlafräume"
        },
        {
          "@language": "en",
          "@value": "Apartment, shower and bath, toilet, 2 bed rooms"
        }
      ],
      "description": [
        {
          "@language": "de",
          "@value": "Appartement im Erdgeschoss mit eigener Terrasse, ca. 100m2, Vorraum mit Garderobe, Badezimmer mit Badewanne, Dusche, Doppelwaschtisch, WC separat, voll ausgestattete Küche, großzügigen Wohnschlafbereich, gemütliche Sitzecke, Flat-TV, Radio, Föhn, Safe, Telefon, W-Lan kostenlos."
        },
        {
          "@language": "en",
          "@value": "Wardrobe, bath room with bath tub, shower, wash basin, toilet extra, fully equiped kitchen, large living- and sleeping room, comfortable lounge, own terrace, flat-tv, radio, hair dryer, safe, telephone, internet."
        }
      ],
      "availability": "http://schema.org/InStock",
      "itemOffered": [
        {
          "@type": [
            "Apartment",
            "Product"
          ],
          "name": [
            {
              "@language": "de",
              "@value": "Top 3- große Wohnung"
            },
            {
              "@language": "en",
              "@value": "apartment/2 bedrooms/shower,bath tube,WC"
            }
          ],
          "numberOfRooms": "2.0",
          "occupancy": {
            "@type": "QuantitativeValue",
            "maxValue": "9",
            "minValue": "4"
          }
        }
      ],
      "priceSpecification": [
        {
          "@type": "PriceSpecification",
          "description": "Pax 4",
          "minPrice": "115.00",
          "maxPrice": "125.00",
          "priceCurrency": "EUR"
        },
        {
          "@type": "PriceSpecification",
          "description": "Pax 5",
          "minPrice": "133.00",
          "maxPrice": "143.00",
          "priceCurrency": "EUR"
        },
        {
          "@type": "PriceSpecification",
          "description": "Pax 6",
          "minPrice": "147.00",
          "maxPrice": "157.00",
          "priceCurrency": "EUR"
        },
        {
          "@type": "PriceSpecification",
          "description": "Pax 7",
          "minPrice": "162.00",
          "maxPrice": "172.00",
          "priceCurrency": "EUR"
        },
        {
          "@type": "PriceSpecification",
          "description": "Pax 8",
          "minPrice": "176.00",
          "maxPrice": "186.00",
          "priceCurrency": "EUR"
        },
        {
          "@type": "PriceSpecification",
          "description": "Pax 9",
          "minPrice": "190.00",
          "maxPrice": "200.00",
          "priceCurrency": "EUR"
        }
      ]
    },
    {
      "@type": "Offer",
      "name": [
        {
          "@language": "de",
          "@value": "Appartement/Fewo, Dusche oder Bad"
        },
        {
          "@language": "en",
          "@value": "Apartment, shower or bathtub"
        }
      ],
      "description": [
        {
          "@language": "de",
          "@value": "Es stehen Ihnen insgesamt 11 Appartements in dieser Größe zur Wahl. Diese sind mit gemütlicher Eßecke, komplett eingerichteter Kochnische mit Elektroherd, Backofen, Mikrowelle, Wasserkocher und Geschirrspülmaschine, komfortablem Badezimmer mit getrenntem WC, Föhn, Fernseher (SAT), Radio und Telefon ausgestattet. Die Tops 1, 2 und 4 liegen im Erdgeschoß mit eigener Terrasse. Die restlichen Tops verfügen über einen eigenen Balkon und einen Tiefgaragenstellplatz. Safe, Internet kostenlos, Kinderbett und Hochstuhl auf Anfrage. Schischuhtrockner.\n"
        },
        {
          "@language": "en",
          "@value": "11 apartments in this size, all with cosy dining corner, complete furnished kitchenette with elektric kitschen stove, oven, microwave, kettle and dish washer, comfortable bathroom with separate toilet, hair dryer, satelite TV, radio, telephone. Tops 1, 2 and 4 are situated on the ground-floor with own terrace. All the other apartments offer balcony and own parking space in the garage. Safe, internet (against charge), bed for children and high chair on request. Ski shoe dryer."
        }
      ],
      "availability": "http://schema.org/InStock",
      "itemOffered": [
        {
          "@type": [
            "Apartment",
            "Product"
          ],
          "name": [
            {
              "@language": "de",
              "@value": "Top 1, 2, 4, 5, 6, 7, 8, 10, 11, 12, 13"
            },
            {
              "@language": "en",
              "@value": "ap/comb.living-bedr./1 bedr./shower o.ba"
            }
          ],
          "numberOfRooms": "2.0",
          "occupancy": {
            "@type": "QuantitativeValue",
            "maxValue": "4",
            "minValue": "2"
          }
        }
      ],
      "priceSpecification": [
        {
          "@type": "PriceSpecification",
          "description": "Pax 2",
          "minPrice": "54.00",
          "maxPrice": "64.00",
          "priceCurrency": "EUR"
        },
        {
          "@type": "PriceSpecification",
          "description": "Pax 3",
          "minPrice": "69.00",
          "maxPrice": "79.00",
          "priceCurrency": "EUR"
        },
        {
          "@type": "PriceSpecification",
          "description": "Pax 4",
          "minPrice": "86.00",
          "maxPrice": "96.00",
          "priceCurrency": "EUR"
        }
      ]
    },
    {
      "@type": "Offer",
      "name": [
        {
          "@language": "de",
          "@value": "Appartement/Fewo, Dusche, WC"
        },
        {
          "@language": "en",
          "@value": "Apartment, shower, toilet"
        }
      ],
      "description": [
        {
          "@language": "de",
          "@value": "Es stehen Ihnen insgesamt 2 Appartements in dieser Größe zur Wahl. Diese sind mit gemütlicher Eßecke, komplett eingerichteter Kochnische mit Elektroherd, Mikrowelle, Wasserkocher und Geschirrspülmaschine, komfortablem Badezimmer mit getrenntem WC, Föhn, Fernseher (SAT), Safe, Radio und Telefon ausgestattet. Jede Wohnung verfügt über einen eigenen Balkon und einen Tiefgaragenstellplatz. Internet kostenlos, Kinderbett und Hochstuhl auf Anfrage. Schischuhtrockner.\n"
        },
        {
          "@language": "en",
          "@value": "2 appartment in this size, all with cosy dining corner, complete furnished kitchenette with elektric kitschen stove, microwave, kettle and dish washer, comfortable bathroom with separate toilet, hair dryer, satelite TV, safe, radio, telephone, \neach appartment offers balcony and own parking space in the garage. Internet (against charge), bed for children and high chair on request. Ski shoe dryer.\n\n"
        }
      ],
      "availability": "http://schema.org/InStock",
      "itemOffered": [
        {
          "@type": [
            "Apartment",
            "Product"
          ],
          "name": [
            {
              "@language": "de",
              "@value": "Top 9 \u0026 Top 14"
            },
            {
              "@language": "en",
              "@value": "ap/comb.living-bedr./2 bedr./shower, wc"
            }
          ],
          "numberOfRooms": "3.0",
          "occupancy": {
            "@type": "QuantitativeValue",
            "maxValue": "6",
            "minValue": "4"
          }
        }
      ],
      "priceSpecification": [
        {
          "@type": "PriceSpecification",
          "description": "Pax 4",
          "minPrice": "98.00",
          "maxPrice": "108.00",
          "priceCurrency": "EUR"
        },
        {
          "@type": "PriceSpecification",
          "description": "Pax 5",
          "minPrice": "112.00",
          "maxPrice": "122.00",
          "priceCurrency": "EUR"
        },
        {
          "@type": "PriceSpecification",
          "description": "Pax 6",
          "minPrice": "125.00",
          "maxPrice": "135.00",
          "priceCurrency": "EUR"
        }
      ]
    }
  ]
}