{
  "@context": "http://schema.org",
  "@type": "LodgingBusiness",
  "url": [
    "http://www.ferienwohnungfiechtl.ag.vu",
    "http://maps.best-of-zillertal.at/proxy/frontend/page/fuegen/de?foreignResource\u003d6FD89352-9C7D-4768-8E45-BB76395BC00E"
  ],
  "address": {
    "@type": "PostalAddress",
    "streetAddress": "Ahrnbachstraße 47",
    "addressCountry": "AT",
    "postalCode": "6275",
    "addressRegion": "Stumm",
    "telephone": "(0043) 5283 3272",
    "email": "fiechtl.kathi@aon.at",
    "url": "http://www.ferienwohnungfiechtl.at"
  },
  "name": "Ferienwohnung Fiechtl Kathi",
  "description": [
    {
      "@language": "de",
      "@value": "Ein herzliches Grüß Gott bei uns Daheim!\nUnser Haus liegt in Stumm an der Sonnenseite, in der Mitte vom Zillertal. Gegenüber dem Skigebiet Hochzillertal-Hochfügen. \nDie Ferienwohnung ist 90m² groß, und sehr liebevoll und gemütlich eingerichtet. \nEs gibt 3große Schlafzimmer(1x mit Du/WC), zusätzlich ist noch Bad , und 1 WC extra vorhanden. \nDie Wohnküche ist natürlich komplett ausgestattet. \nMit dabei ist auch ein Balkon, wo Sie den Sonnenuntergang genießen können.\nSie werden sich wie zu Hause fühlen! \nWir freuen uns auf Ihre Anfrage. \n"
    },
    {
      "@language": "de",
      "@value": "Endreinigung ab 50 Euro.\nBettwäsche und Handtücher sind im Preis inbegriffen. \nHaustiere nicht erlaubt."
    },
    {
      "@language": "de",
      "@value": "Anreisen können Sie ab 14Uhr.\nAbreise bis 10Uhr. "
    },
    {
      "@language": "de",
      "@value": "Ferienwohnung Zillertal,Hochzillertal-Hochfügen"
    },
    {
      "@language": "en",
      "@value": "House in tirolean style in sunny position in Ahrnbach, car-park. Skibus stop, restaurant and pizzeria nearby."
    }
  ],
  "image": [
    {
      "@type": "ImageObject",
      "url": "http://resc.deskline.net/images/ZIL/1/7f4ea1cb-ef80-425b-a0dc-050dfe76a3bc/99/image.jpg",
      "caption": [
        {
          "@language": "de",
          "@value": "Scannen0003"
        },
        {
          "@language": "en",
          "@value": "Scannen0003"
        }
      ]
    },
    {
      "@type": "ImageObject",
      "url": "http://resc.deskline.net/images/ZIL/1/fbc64b73-eb17-4fd0-af2e-91be444e3358/99/image.jpg",
      "caption": [
        {
          "@language": "de",
          "@value": "Haus"
        },
        {
          "@language": "en",
          "@value": "Haus"
        }
      ]
    },
    {
      "@type": "ImageObject",
      "url": "http://resc.deskline.net/images/ZIL/1/f468bcc5-b4e9-4f07-919d-2a71ae70eaf5/99/image.jpg",
      "caption": [
        {
          "@language": "de",
          "@value": "DSC_0930"
        },
        {
          "@language": "en",
          "@value": "DSC_0930"
        }
      ]
    },
    {
      "@type": "ImageObject",
      "url": "http://resc.deskline.net/images/ZIL/1/a14f1e07-08ad-4505-9cc8-adfe3a83cd97/99/image.jpg",
      "caption": [
        {
          "@language": "de",
          "@value": "DSC_0937"
        },
        {
          "@language": "en",
          "@value": "DSC_0937"
        }
      ]
    },
    {
      "@type": "ImageObject",
      "url": "http://resc.deskline.net/images/ZIL/1/86b0bf03-e5a7-4789-8a3f-add48427fd64/99/image.jpg",
      "caption": [
        {
          "@language": "de",
          "@value": "DSC_0941"
        },
        {
          "@language": "en",
          "@value": "DSC_0941"
        }
      ]
    },
    {
      "@type": "ImageObject",
      "url": "http://resc.deskline.net/images/ZIL/1/958aaf03-d92b-42a1-82e7-63c390131f8e/99/image.jpg",
      "caption": [
        {
          "@language": "de",
          "@value": "zimmer 1"
        },
        {
          "@language": "en",
          "@value": "zimmer 1"
        }
      ]
    },
    {
      "@type": "ImageObject",
      "url": "http://resc.deskline.net/images/ZIL/1/21a430f3-fe8d-410a-bb3f-7d9a1eef7752/99/image.jpg",
      "caption": [
        {
          "@language": "de",
          "@value": "zimmer2"
        },
        {
          "@language": "en",
          "@value": "zimmer2"
        }
      ]
    },
    {
      "@type": "ImageObject",
      "url": "http://resc.deskline.net/images/ZIL/1/d465a714-bf4c-483d-a385-cab3ff5766ed/99/image.jpg",
      "caption": [
        {
          "@language": "de",
          "@value": "impressionen"
        },
        {
          "@language": "en",
          "@value": "impressionen"
        }
      ]
    },
    {
      "@type": "ImageObject",
      "url": "http://resc.deskline.net/images/ZIL/1/c80fb114-9f52-42a2-974c-fda227341d98/99/image.jpg",
      "caption": [
        {
          "@language": "de",
          "@value": "herbsfotos grantnen! 053"
        },
        {
          "@language": "en",
          "@value": "herbsfotos grantnen! 053"
        }
      ]
    },
    {
      "@type": "ImageObject",
      "url": "http://resc.deskline.net/images/ZIL/1/91c2feae-a15f-4b37-8774-667925270f32/99/image.jpg",
      "caption": [
        {
          "@language": "de",
          "@value": "herbsfotos grantnen! 028"
        },
        {
          "@language": "en",
          "@value": "herbsfotos grantnen! 028"
        }
      ]
    },
    {
      "@type": "ImageObject",
      "url": "http://resc.deskline.net/images/ZIL/1/b9701491-52e8-4970-a6bb-fec90165c322/99/image.jpg",
      "caption": [
        {
          "@language": "de",
          "@value": "020"
        },
        {
          "@language": "en",
          "@value": "020"
        }
      ]
    },
    {
      "@type": "ImageObject",
      "url": "http://resc.deskline.net/images/ZIL/1/b9385575-b869-4623-adb8-6293cc26cf59/99/image.jpg",
      "caption": [
        {
          "@language": "de",
          "@value": "BILD0123"
        },
        {
          "@language": "en",
          "@value": "BILD0123"
        }
      ]
    },
    {
      "@type": "ImageObject",
      "url": "http://resc.deskline.net/images/ZIL/1/9c779467-2595-4fc0-8ca8-b0cf94d82a92/99/image.jpg",
      "caption": [
        {
          "@language": "de",
          "@value": "BILD0020"
        },
        {
          "@language": "en",
          "@value": "BILD0020"
        }
      ]
    },
    {
      "@type": "ImageObject",
      "url": "http://resc.deskline.net/images/ZIL/1/31b3d666-6048-49e8-95c4-4b7169b17b56/99/image.jpg",
      "caption": [
        {
          "@language": "de",
          "@value": "P1080513"
        },
        {
          "@language": "en",
          "@value": "P1080513"
        }
      ]
    },
    {
      "@type": "ImageObject",
      "url": "http://resc.deskline.net/images/ZIL/1/ba9d8361-6785-4f8a-a65f-bfa52a4633fb/99/image.jpg",
      "caption": [
        {
          "@language": "de",
          "@value": "winterfoto2012 44 stumm 016-001"
        },
        {
          "@language": "en",
          "@value": "winterfoto2012 44 stumm 016-001"
        }
      ]
    },
    {
      "@type": "ImageObject",
      "url": "http://resc.deskline.net/images/ZIL/1/ae14fcb7-fd4c-47fe-b9b3-7b7781ab6071/99/image.jpg",
      "caption": [
        {
          "@language": "de",
          "@value": "fotos 2011 fiechtl 033"
        },
        {
          "@language": "en",
          "@value": "fotos 2011 fiechtl 033"
        }
      ]
    },
    {
      "@type": "ImageObject",
      "url": "http://resc.deskline.net/images/ZIL/1/38f15e7a-d918-43d9-ad63-8f4a194c5e47/99/image.jpg",
      "caption": [
        {
          "@language": "de",
          "@value": "winterfoto2012 017"
        },
        {
          "@language": "en",
          "@value": "winterfoto2012 017"
        }
      ]
    },
    {
      "@type": "ImageObject",
      "url": "http://resc.deskline.net/images/ZIL/1/68a9b092-f71b-4f02-b73d-b0164a944124/99/image.jpg",
      "caption": [
        {
          "@language": "de",
          "@value": "IMG_20150328_115549"
        },
        {
          "@language": "en",
          "@value": "IMG_20150328_115549"
        }
      ]
    },
    {
      "@type": "ImageObject",
      "url": "http://resc.deskline.net/images/ZIL/1/34d23c3c-f7ef-47bf-bc93-7d304872cdbe/99/image.jpg",
      "caption": [
        {
          "@language": "de",
          "@value": "IMG_20150328_112958"
        },
        {
          "@language": "en",
          "@value": "IMG_20150328_112958"
        }
      ]
    }
  ],
  "geo": {
    "@type": "GeoCoordinates",
    "latitude": "47.277671690937",
    "longitude": "11.894728368872"
  },
  "currenciesAccepted": "EUR",
  "makesOffer": [
    {
      "@type": "Offer",
      "name": [
        {
          "@language": "de",
          "@value": "Appartement/Fewo, Bad, WC, 2 Schlafräume"
        },
        {
          "@language": "en",
          "@value": "Apartment, bath, toilet, 2 bed rooms"
        }
      ],
      "description": [
        {
          "@language": "de",
          "@value": "Gemütlich eingerichtete Ferienwohnung für 2 - 7 Personen (72m2)  mit 2 großen Schlafzimmern; Bad, WC; Wohnküche (E-Herd, Kaffemaschine, Geschirrspüler, SAT-TV) mit Sofabett; großer Balkon. SIE WERDEN SICH WOHLFÜHLEN."
        },
        {
          "@language": "en",
          "@value": "Holiday apartment for 2-7 persons with fully equipped kitchen (coffee maker, cooker, oven, microwave) with eating corner and sofa bed, satellite TV, large balcony, 2 bedrooms, bath, WC."
        }
      ],
      "availability": "http://schema.org/InStock",
      "itemOffered": [
        {
          "@type": [
            "Apartment",
            "Product"
          ],
          "name": [
            {
              "@language": "de",
              "@value": "Apartment/3 Schlafräume/Bad, WC"
            },
            {
              "@language": "en",
              "@value": "apartment/2 bedrooms/bath tube, WC"
            }
          ],
          "numberOfRooms": "3.0",
          "occupancy": {
            "@type": "QuantitativeValue",
            "maxValue": "8",
            "minValue": "2"
          }
        }
      ],
      "priceSpecification": [
        {
          "@type": "PriceSpecification",
          "description": "Pax 2",
          "minPrice": "56.00",
          "maxPrice": "56.00",
          "priceCurrency": "EUR"
        },
        {
          "@type": "PriceSpecification",
          "description": "Pax 3",
          "minPrice": "84.00",
          "maxPrice": "84.00",
          "priceCurrency": "EUR"
        },
        {
          "@type": "PriceSpecification",
          "description": "Pax 4",
          "minPrice": "112.00",
          "maxPrice": "112.00",
          "priceCurrency": "EUR"
        },
        {
          "@type": "PriceSpecification",
          "description": "Pax 5",
          "minPrice": "140.00",
          "maxPrice": "140.00",
          "priceCurrency": "EUR"
        },
        {
          "@type": "PriceSpecification",
          "description": "Pax 6",
          "minPrice": "150.00",
          "maxPrice": "150.00",
          "priceCurrency": "EUR"
        },
        {
          "@type": "PriceSpecification",
          "description": "Pax 7",
          "minPrice": "170.00",
          "maxPrice": "170.00",
          "priceCurrency": "EUR"
        },
        {
          "@type": "PriceSpecification",
          "description": "Pax 8",
          "minPrice": "180.00",
          "maxPrice": "180.00",
          "priceCurrency": "EUR"
        }
      ]
    }
  ]
}