{
  "@context": "http://schema.org",
  "@type": "LodgingBusiness",
  "url": [
    "http://www.apart-fucona.at",
    "http://maps.best-of-zillertal.at/proxy/frontend/page/fuegen/de?foreignResource\u003d7014502b-91ee-4cdf-98f8-980913d22fff"
  ],
  "address": {
    "@type": "PostalAddress",
    "streetAddress": "St. Pankraz-Weg 120",
    "addressCountry": "AT",
    "postalCode": "6264",
    "addressRegion": "Fügenberg",
    "telephone": "(0049) 171 6830 467",
    "email": "info@apart-fucona.at",
    "url": "http://www.apart-fucona.at"
  },
  "name": "Apart Fucona",
  "description": [
    {
      "@language": "de",
      "@value": "Unser Landhaus Apart Fucona mit den beiden großen Apartments Tirol und Zillertal liegt oberhalb von Fügen auf ca. 620 m Seehöhe (Fügenberg) - umgeben von den Zillertaler Alpen mit zahlreichen urigen Berghütten, Jausenstationen und Almen zum Wandern, Berg-Wandern, Radfahren, Mountain-Biken, Sommer-Rodeln oder im Winter zum Skifahren, Boarden, Ski-Langlaufen in den in der Nähe gelegenen Top Skigebieten Hoch-Zillertal - Hochfügen/Kaltenbach, Spieljoch, Zillertal Arena - Gerlos und Mayrhofen sowie Hintertuxer Gletscher (Fahrzeit hier etwa 1 Stunde).\n\nUnser Landhaus Apart Fucona befindet sich in Fügenberg zwischen den beiden Orten Fügen und Uderns. Diese erreichen Sie in nur 5 Fahrminuten und bieten umfangreiche Einkaufsmöglichkeiten sowie den Bahnhof.\n\nWir bieten unseren Gästen 2 komfortable, großzügige, gemütliche Apartments (Ferienwohnungen), jeweils mit separaten Eingängen. \n\nUnser Apartment Tirol (EG) hat 3 Zimmer mit 70 qm, 1 DZ mit Bad/Wanne/Dusche en-suite, 1 DZ mit getrennten Betten, einen großen hellen Wohn-/ Essbereich mit offener Küche, sep. WC, einen großen sonnigen Garten (direkter Zugang, nur zu eigenen Nutzung) mit freier Sicht über die gesamte Berg- und Tallandschaft, eine  komplett ausgestattete Küche, SAT-TV (Full HD), Internet/W-LAN, Nichtraucher. Hunde sind nur nach vorheriger Absprache möglich.\n\nUnser Apartment Zillertal (EG) hat 3 Zimmer mit 80 qm, 2 DZ, einen großen hellen Wohn-/Essbereich mit offener Küche, sep. WC, eine große sonnige Terrasse (etwa 28 qm - Südlage) mit freier Sicht über die gesamte Berg- und Tallandschaft, eine  komplett ausgestattete Küche, SAT-TV (Full HD), Internet/W-LAN, Nichtraucher.\n\nZahlreiche Wander- oder Radtouren lassen sich direkt von unserem Landhaus Apart Fucona aus starten und bieten ein ideales Bergerlebnis für ambitionierte Sportler, aber auch für gemütliche Wanderungen oder andere sportliche Aktivitäten, wie etwa Reiten, Tennis, Schwimmen (Badeseen und Erlebnisschwimmbäder) oder Golfspielen. Der neu errichtete 18-Loch Golfplatz befindet sich ganz in der Nähe (Uderns). Auch die Therme Fügen mit Erlebnisschwimmbad und großzügigem Wellness Bereich erreichen Sie in nur 5 Fahrminuten. \n\nDer kostenlose Skibus nach Hochfügen hält unmittelbar vor dem Haus - Abfahrt morgens kurz nach 8:00 Uhr. \n\nDie Vermietung der Ferienwohnungen erfolgt in den Haupt-Buchungszeiten (ab Mitte Dezember bis Ende März und für Juli bis Ende September) wochenweise mit 7 Übernachtungen. Eine Buchungswoche beginnt und endet jeweils samstags (Anreise ab 16:00 Uhr / Abreise bis 10:00 Uhr).\n\nWir würden uns freuen, Sie als unsere Gäste begrüßen zu können.\n\nMarlen \u0026 Horst Ludwig"
    },
    {
      "@language": "de",
      "@value": "Endreinigung: 4 Pers. € 60,00 / 6 Pers. € 80,00\nInternet: W-Lan kostenfrei\nZusatzbetten (ZB): Ap Zillertal: max. 2 ZB / Ap Tirol: 1 ZB (haupts. für Kinder): zwischen 105,00 bis € 140,00 pro Kind/Woche je nach Saison\nHund: € 40 pro Woche\nNichtraucher"
    },
    {
      "@language": "de",
      "@value": "Unser Landhaus Apart Fucona liegt auf halber Strecke zwischen Kufstein und Innsbruck. Von der Inntal-Autobahn - Ausfahrt Zillertal – taleinwärts bis nach Fügenberg - Richtung Mayrhofen (etwa 8 km)\nAnreise samstags ab 16:00 Uhr / Abreise bis 10:00 Uhr\n"
    },
    {
      "@language": "en",
      "@value": "Our rural holiday home Apart Fucona with the Apartments Tirol and Zillertal lies above Fügen in the Zillertal, approximately 620 metres above sea level.  It is surrounded by the Zillertal Alps where there are many mountain lodges and huts nestled in Alpine pastures.  The area is ideal for all sorts of sport activities. In summer - mountain hiking, cycling tours, mountain biking, leisurely strolls in beautiful surroundings and summer-sledging. In Winter – skiing, boarding or cross-country skiing in the top ski resorts Hoch-Zillertal - Hochfügen/ Kaltenbach, Spieljoch, Zillertal Arena (Gerlos), Mayrhofen and  Hintertuxer Gletscher (approx. 1 hour by car).\n\nOur rural home Apart Fucona is located in Fügenberg which is very close to Fügen and Uderns. Just a few minutes from the railway station Fügen. There are various shopping facilities and Super Markets.\n\nWe offer two comfortable, spacious and cosy Apartments. Each apartment has its own separate entrance. \n\nApartment Tirol (4*) is located on the ground floor and comprised of 3 rooms (70 sqm), can accommodate up to 4 people with the option of adding an extra child\u0027s bed making it 5 (extra charge). If requested, we can also offer a baby cot and child’s/baby seat (free of charge).\n\nOur Apartment Tirol is very cozy and comfortable, friendly, spacious and endowed with every comfort:  a fully equipped open-plan kitchen (incl. dishwasher, fridge with freezer compartment, 4 hob electric oven, kettle, filter coffee machine, toaster). The apartment has under floor heating, a large, bright living/dining area, 1 double bedroom (bath/shower en-suite), 1 double bedroom (twin beds); separate WC; storage room; direct access to the large garden/terrace with garden furniture/sun beds (for your own use only during your stay), beautiful views across the valley/mountain range, Barbecue, table tennis, child\u0027s sandbox, SAT-TV (Full-HD), free WiFi, non-smoking apartment. Dogs allowed only on request prior to booking.\n\nOur Apartment Zillertal (4*) is located on the first floor and comprised of 3 rooms and a small mezzanine (80 sq. meters), for up to 4 people, 2 extra child beds possible (extra charge). If requested, we can also offer a baby cot and child’s/baby seat (free of charge).\n\nOur Apartment Zillertal very cozy and comfortable, friendly, spacious and endowed with every comfort: a fully equipped open-plan kitchen (incl. dishwasher, fridge with freezer compartment, 4 hob electric oven, kettle, filter coffee machine, toaster etc.), has under floor heating, a large and bright living/dining area, 2 double bedrooms, small mezzanine, bathroom with sep. WC, large sunny South-facing balcony (28 sqm) garden/ terrace with garden furniture and sun beds (which is for your own use only), beautiful views across the valley and mountain range, SAT-TV (Full HD), free Internet / W-LAN, non-smoking apartment.\n\nNumerous walking or bike tours can be started directly from our rural holiday home. Sporty ambitious will find their unique mountain experience - but also relaxing walks or other gentle activities are possible at any time, such as horseback riding, tennis, swimming  (swimming lakes or Thermal Spa) or golf.  The newest local attraction in the Zillertal is the Golf club in Uderns nearby which has an 18 hole champion’s course, driving range and golf academy. The Thermal Spa in Fügen  (“Erlebnistherme Zillertal”) is just a few minutes away with open-air pools, long water slides and wellness and sauna area for relaxtion.\n\nThe free ski bus to Hochfügen stops in front of our house – daily departure at approx. 08:00 a.m.\n\nIn the peakseason from mid of December until end of March and from July until end of September we mainly rent the apartments from Saturday to Saturday (Arrival from 16:00 / Depature by 10.00).\n\nWe very much look forward to welcome you as our guest.\nMarlen \u0026 Horst Ludwig\n"
    },
    {
      "@language": "en",
      "@value": "extra charge for cleaning: 4 pers. € 60,00 / 6 pers. € 80,00\nfree Internet / W-LAN\nextra charge for extra child\u0027 bed € 105,00 to € 140,00 per week depending on season (+ 1 Ap Tirol/+2 Ap Ziller\nextra charge for a dog: € 40/week (Ap Tirol)\nNon-smoking"
    },
    {
      "@language": "en",
      "@value": "Our rural holiday home Apart Fucona is situated about halfway between Innsbruck and Kufstein. From the Zillertal motorway exit Fügen/Fügenberg lies approx. 8km away in the direction of Mayrhofen. \nArrival saturdays from 16:00 / Depature by 10:00."
    }
  ],
  "image": [
    {
      "@type": "ImageObject",
      "url": "http://resc.deskline.net/images/ZIL/1/4fa61fcf-3d0f-481a-97d5-7b9bd55272d4/99/image.jpg",
      "caption": [
        {
          "@language": "de",
          "@value": "Hausansicht 1"
        },
        {
          "@language": "en",
          "@value": "Hausansicht 1"
        }
      ]
    },
    {
      "@type": "ImageObject",
      "url": "http://resc.deskline.net/images/ZIL/1/07447c29-4697-411b-a679-1a842b7cb6bb/99/image.jpg",
      "caption": [
        {
          "@language": "de",
          "@value": "Hausansicht"
        },
        {
          "@language": "en",
          "@value": "Hausansicht"
        }
      ]
    },
    {
      "@type": "ImageObject",
      "url": "http://resc.deskline.net/images/ZIL/1/406c392b-8270-4184-b129-c4a81caf4d41/99/image.jpg",
      "caption": [
        {
          "@language": "de",
          "@value": "Hausansicht 3"
        },
        {
          "@language": "en",
          "@value": "Hausansicht 3"
        }
      ]
    },
    {
      "@type": "ImageObject",
      "url": "http://resc.deskline.net/images/ZIL/1/04131b81-b0de-4704-8322-2ef939bac19c/99/image.jpg",
      "caption": [
        {
          "@language": "de",
          "@value": "Hausansicht 4"
        },
        {
          "@language": "en",
          "@value": "Hausansicht 4"
        }
      ]
    },
    {
      "@type": "ImageObject",
      "url": "http://resc.deskline.net/images/ZIL/1/9a37d9f9-6e34-4d71-879b-4487bf84da1a/99/image.jpg",
      "caption": [
        {
          "@language": "de",
          "@value": "Hausansicht 5"
        },
        {
          "@language": "en",
          "@value": "Hausansicht 5"
        }
      ]
    },
    {
      "@type": "ImageObject",
      "url": "http://resc.deskline.net/images/ZIL/1/90d39743-7dae-4658-abb3-8f4f7f74ce43/99/image.jpg",
      "caption": [
        {
          "@language": "de",
          "@value": "Hausansicht 6"
        },
        {
          "@language": "en",
          "@value": "Hausansicht 6"
        }
      ]
    },
    {
      "@type": "ImageObject",
      "url": "http://resc.deskline.net/images/ZIL/1/e9bd8158-910f-4ba9-a35e-bf8a7df26bdb/99/image.jpg",
      "caption": [
        {
          "@language": "de",
          "@value": "Hausansicht 7"
        },
        {
          "@language": "en",
          "@value": "Hausansicht 7"
        }
      ]
    },
    {
      "@type": "ImageObject",
      "url": "http://resc.deskline.net/images/ZIL/1/266902eb-877b-41e1-a88f-8b03d73ef21d/99/image.jpg",
      "caption": [
        {
          "@language": "de",
          "@value": "Hausansicht 8"
        },
        {
          "@language": "en",
          "@value": "Hausansicht 8"
        }
      ]
    },
    {
      "@type": "ImageObject",
      "url": "http://resc.deskline.net/images/ZIL/1/652188f4-bb13-47c4-ab19-4950bbcca29b/99/image.jpg",
      "caption": [
        {
          "@language": "de",
          "@value": "Haisansicht 11"
        },
        {
          "@language": "en",
          "@value": "Haisansicht 11"
        }
      ]
    },
    {
      "@type": "ImageObject",
      "url": "http://resc.deskline.net/images/ZIL/1/3186e82b-94f8-4282-b395-5c57d380e8e9/99/image.jpg",
      "caption": [
        {
          "@language": "de",
          "@value": "Hausansicht 9"
        },
        {
          "@language": "en",
          "@value": "Hausansicht 9"
        }
      ]
    },
    {
      "@type": "ImageObject",
      "url": "http://resc.deskline.net/images/ZIL/1/52ab9fbe-dc96-41c1-8ac0-75152c0cd5a8/99/image.jpg",
      "caption": [
        {
          "@language": "de",
          "@value": "Hausansicht 9"
        },
        {
          "@language": "en",
          "@value": "Hausansicht 9"
        }
      ]
    },
    {
      "@type": "ImageObject",
      "url": "http://resc.deskline.net/images/ZIL/1/b00f9f03-cb6f-4c36-b888-a911bcbf5956/99/image.jpg",
      "caption": [
        {
          "@language": "de",
          "@value": "Hausansicht 11"
        },
        {
          "@language": "en",
          "@value": "Hausansicht 11"
        }
      ]
    },
    {
      "@type": "ImageObject",
      "url": "http://resc.deskline.net/images/ZIL/1/bf50daae-623c-4377-9aed-b1b27d54559e/99/image.jpg",
      "caption": [
        {
          "@language": "de",
          "@value": "Appartement Tirol Badezimmer"
        },
        {
          "@language": "en",
          "@value": "Appartement Tirol Badezimmer"
        }
      ]
    },
    {
      "@type": "ImageObject",
      "url": "http://resc.deskline.net/images/ZIL/1/4313d0e8-171b-40a2-964d-bc923833b7e2/99/image.jpg",
      "caption": [
        {
          "@language": "de",
          "@value": "Appartement Tirol Schlafzimmer"
        },
        {
          "@language": "en",
          "@value": "Appartement Tirol Schlafzimmer"
        }
      ]
    },
    {
      "@type": "ImageObject",
      "url": "http://resc.deskline.net/images/ZIL/1/24c8f08b-d9df-4e9c-982c-d17bafc5e110/99/image.jpg",
      "caption": [
        {
          "@language": "de",
          "@value": "Appartement Tirol Schlafzimmer1"
        },
        {
          "@language": "en",
          "@value": "Appartement Tirol Schlafzimmer1"
        }
      ]
    },
    {
      "@type": "ImageObject",
      "url": "http://resc.deskline.net/images/ZIL/1/14e67f42-7903-443f-b3f5-1a22a4a5b290/99/image.jpg",
      "caption": [
        {
          "@language": "de",
          "@value": "Appartement Tirol Terrasse"
        },
        {
          "@language": "en",
          "@value": "Appartement Tirol Terrasse"
        }
      ]
    },
    {
      "@type": "ImageObject",
      "url": "http://resc.deskline.net/images/ZIL/1/004b282b-fd17-4df9-b1b5-ff0ed57a2f94/99/image.jpg",
      "caption": [
        {
          "@language": "de",
          "@value": "Appartement Tirol Wohnküche"
        },
        {
          "@language": "en",
          "@value": "Appartement Tirol Wohnküche"
        }
      ]
    },
    {
      "@type": "ImageObject",
      "url": "http://resc.deskline.net/images/ZIL/1/0d488d77-1b72-4388-92d5-1563efb9f2bd/99/image.jpg",
      "caption": [
        {
          "@language": "de",
          "@value": "Appartement Tirol Wohnküche1"
        },
        {
          "@language": "en",
          "@value": "Appartement Tirol Wohnküche1"
        }
      ]
    },
    {
      "@type": "ImageObject",
      "url": "http://resc.deskline.net/images/ZIL/1/56a9e407-791b-4aa9-afbb-433e53b59182/99/image.jpg",
      "caption": [
        {
          "@language": "de",
          "@value": "Appartement Zillertal Badezimmer"
        },
        {
          "@language": "en",
          "@value": "Appartement Zillertal Badezimmer"
        }
      ]
    },
    {
      "@type": "ImageObject",
      "url": "http://resc.deskline.net/images/ZIL/1/c0e79c53-b12c-4072-81e6-d8c34f900eac/99/image.jpg",
      "caption": [
        {
          "@language": "de",
          "@value": "Appartement Zillertal Schlafzimmer"
        },
        {
          "@language": "en",
          "@value": "Appartement Zillertal Schlafzimmer"
        }
      ]
    },
    {
      "@type": "ImageObject",
      "url": "http://resc.deskline.net/images/ZIL/1/f9b64423-a762-402b-80d8-ce3b742c558f/99/image.jpg",
      "caption": [
        {
          "@language": "de",
          "@value": "Appartement Zillertal Schlafzimmer1"
        },
        {
          "@language": "en",
          "@value": "Appartement Zillertal Schlafzimmer1"
        }
      ]
    },
    {
      "@type": "ImageObject",
      "url": "http://resc.deskline.net/images/ZIL/1/f992ba9f-1bfb-43b0-bdce-24ed49f7d201/99/image.jpg",
      "caption": [
        {
          "@language": "de",
          "@value": "Appartement Zillertal Terrasse"
        },
        {
          "@language": "en",
          "@value": "Appartement Zillertal Terrasse"
        }
      ]
    },
    {
      "@type": "ImageObject",
      "url": "http://resc.deskline.net/images/ZIL/1/2df17b9e-d5ed-454b-96cb-47f6f589280d/99/image.jpg",
      "caption": [
        {
          "@language": "de",
          "@value": "Appartement Zillertal Terrasse1"
        },
        {
          "@language": "en",
          "@value": "Appartement Zillertal Terrasse1"
        }
      ]
    },
    {
      "@type": "ImageObject",
      "url": "http://resc.deskline.net/images/ZIL/1/7cade646-0d35-4e18-9dc5-6723f0398db3/99/image.jpg",
      "caption": [
        {
          "@language": "de",
          "@value": "Appartement Zillertal Wohnküche"
        },
        {
          "@language": "en",
          "@value": "Appartement Zillertal Wohnküche"
        }
      ]
    },
    {
      "@type": "ImageObject",
      "url": "http://resc.deskline.net/images/ZIL/1/3474bdd1-a2fb-4725-805e-6cd69bb50453/99/image.jpg",
      "caption": [
        {
          "@language": "de",
          "@value": "Appartement Zillertal Wohnküche1"
        },
        {
          "@language": "en",
          "@value": "Appartement Zillertal Wohnküche1"
        }
      ]
    },
    {
      "@type": "ImageObject",
      "url": "http://resc.deskline.net/images/ZIL/1/067f45af-fc78-41af-a678-8a720524d6d6/99/image.jpg",
      "caption": [
        {
          "@language": "de",
          "@value": "Haus Sommer"
        },
        {
          "@language": "en",
          "@value": "Haus Sommer"
        }
      ]
    },
    {
      "@type": "ImageObject",
      "url": "http://resc.deskline.net/images/ZIL/1/3accb77a-c917-4e27-a13b-a8108b3b0342/99/image.jpg",
      "caption": [
        {
          "@language": "de",
          "@value": "Aussicht"
        },
        {
          "@language": "en",
          "@value": "Aussicht"
        }
      ]
    },
    {
      "@type": "ImageObject",
      "url": "http://resc.deskline.net/images/ZIL/1/7991910e-53a2-47f9-9cef-2c0aa78bba62/99/image.jpg",
      "caption": [
        {
          "@language": "de",
          "@value": "Aussicht Terrasse"
        },
        {
          "@language": "en",
          "@value": "Aussicht Terrasse"
        }
      ]
    },
    {
      "@type": "ImageObject",
      "url": "http://resc.deskline.net/images/ZIL/1/8dabfafd-491e-4230-84b1-efcd762d1d94/99/image.jpg",
      "caption": [
        {
          "@language": "de",
          "@value": "Wohnzimmer1"
        },
        {
          "@language": "en",
          "@value": "Wohnzimmer1"
        }
      ]
    },
    {
      "@type": "ImageObject",
      "url": "http://resc.deskline.net/images/ZIL/1/4695742a-ee51-424d-8e86-fe6f280e1ac9/99/image.jpg",
      "caption": [
        {
          "@language": "de",
          "@value": "Wohnzimmer"
        },
        {
          "@language": "en",
          "@value": "Wohnzimmer"
        }
      ]
    },
    {
      "@type": "ImageObject",
      "url": "http://resc.deskline.net/images/ZIL/1/8bc67460-6e6c-4df9-91fe-7d7470734e40/99/image.jpg",
      "caption": [
        {
          "@language": "de",
          "@value": "Haus Winter"
        },
        {
          "@language": "en",
          "@value": "Haus Winter"
        }
      ]
    }
  ],
  "geo": {
    "@type": "GeoCoordinates",
    "latitude": "47.330508523725",
    "longitude": "11.845819558156"
  },
  "currenciesAccepted": "EUR",
  "makesOffer": [
    {
      "@type": "Offer",
      "name": [
        {
          "@language": "de",
          "@value": "Appartement/Fewo, Dusche und Bad, WC, 2 Schlafräume"
        },
        {
          "@language": "en",
          "@value": "Apartment, shower and bath, toilet, 2 bed rooms"
        }
      ],
      "description": [
        {
          "@language": "de",
          "@value": "3-Zimmer-EG-Wohnung (ca.70m²), eigener Eingang für 2-4 Pers.(ggf. Zusatzbett für 1 Kind oder Babybett), FB-Heizung, sehr komfortabel, geschmackvoll eingerichtet; komplette Küche (Geschirrspüler, 4-PlattenCerankochfeld,Backofen) gr. Wohn-/Essbereich,offene Küche; 1 DZ (on-Suite Bad/Dusche); 1 DZ mit 2 getr. Betten; sep.WC; Vorraum mit Garderobe, Abstellkammer; direkter Zugang zum eigenen Garten; Sat-TV (FullHD); W-LAN; freie Sicht auf Berge/Tallandschaft; Haustiere(Hund) auf Anfrage, Nichtraucher"
        },
        {
          "@language": "en",
          "@value": " Ap. Tirol (3 rooms/ 70 sqm) is cosy, comfortable, nicely furnished, fully equipped open-plan kitchen (incl. dishwasher, fridge/freezer compartment, a 4 hob electric oven, kettle, filter coffee machine, toaster etc.), under floor heating, a large/bright living/dining area, 1 double bedroom with bath/shower en-suite, 1 double bedroom with two single beds; sep. WC; storage room, direct access to the large garden (for your own use only), amazing panoramic view, SAT-TV (Full HD), W-LAN, non-smoking"
        }
      ],
      "availability": "http://schema.org/InStock",
      "itemOffered": [
        {
          "@type": [
            "Apartment",
            "Product"
          ],
          "name": [
            {
              "@language": "de",
              "@value": "Apart Tirol/2-5 Pers."
            },
            {
              "@language": "en",
              "@value": "apartment/2 bedrooms/shower,bath tube,WC"
            }
          ],
          "numberOfRooms": "3.0",
          "occupancy": {
            "@type": "QuantitativeValue",
            "maxValue": "5",
            "minValue": "2"
          }
        }
      ],
      "priceSpecification": [
        {
          "@type": "PriceSpecification",
          "description": "Pax 2",
          "minPrice": "800.00",
          "maxPrice": "955.00",
          "priceCurrency": "EUR"
        },
        {
          "@type": "PriceSpecification",
          "description": "Pax 3",
          "minPrice": "800.00",
          "maxPrice": "955.00",
          "priceCurrency": "EUR"
        },
        {
          "@type": "PriceSpecification",
          "description": "Pax 4",
          "minPrice": "800.00",
          "maxPrice": "955.00",
          "priceCurrency": "EUR"
        }
      ]
    },
    {
      "@type": "Offer",
      "name": [
        {
          "@language": "de",
          "@value": "Appartement/Fewo, Dusche, WC"
        },
        {
          "@language": "en",
          "@value": "Apartment, shower, toilet"
        }
      ],
      "description": [
        {
          "@language": "de",
          "@value": "3-Zimmer-OG-Wohnung (80 m²)ür 2-6 Personen, sehr komfortabel, geschmackvoll eingerichtet; FB-Heizung, komplette Küche (Geschirrspüler,4-Platten-Cerankochfeld, Backofen) Wohn-/Esszimmer mit offener Küche; 2 DZ + Galerie mit 2 ZusatzBetten (extra)-abgeschrägt-Höhe 1,40-1,80 m über dem Wohnzimmer; Bad/Dusche; sep. WC; Treppenraum als Vorraum mit Garderobe + Skiständer; große Terrasse 20 m2 (Südlage) mit freier Sicht auf Berge/Tallandschaft; Sat-TV (FullHD; W-LAN; keine Haustiere"
        },
        {
          "@language": "en",
          "@value": "Apart Zillertal (80  qm) for  2 - 6 persons, completly furnished kitchen with dish washer, cosy living room with gallerie and cosy seating corner, 2 separate sleeping rooms; bath with bathtube, shower, toilet separate, satelite TV, balcony to the south side,  foyer with ward robe"
        }
      ],
      "availability": "http://schema.org/InStock",
      "itemOffered": [
        {
          "@type": [
            "Apartment",
            "Product"
          ],
          "name": [
            {
              "@language": "de",
              "@value": "Apart Zillertal/2-4 Pers. + 2 Kinder"
            },
            {
              "@language": "en",
              "@value": "ap/comb.living-bedr./2 bedr./shower, wc"
            }
          ],
          "numberOfRooms": "4.0",
          "occupancy": {
            "@type": "QuantitativeValue",
            "maxValue": "6",
            "minValue": "2"
          }
        }
      ],
      "priceSpecification": [
        {
          "@type": "PriceSpecification",
          "description": "Pax 2",
          "minPrice": "800.00",
          "maxPrice": "955.00",
          "priceCurrency": "EUR"
        },
        {
          "@type": "PriceSpecification",
          "description": "Pax 3",
          "minPrice": "800.00",
          "maxPrice": "955.00",
          "priceCurrency": "EUR"
        },
        {
          "@type": "PriceSpecification",
          "description": "Pax 4",
          "minPrice": "800.00",
          "maxPrice": "955.00",
          "priceCurrency": "EUR"
        },
        {
          "@type": "PriceSpecification",
          "description": "Pax 5",
          "minPrice": "105.00",
          "maxPrice": "105.00",
          "priceCurrency": "EUR"
        },
        {
          "@type": "PriceSpecification",
          "description": "Pax 6",
          "minPrice": "105.00",
          "maxPrice": "105.00",
          "priceCurrency": "EUR"
        }
      ]
    }
  ]
}