{
  "@context": "http://schema.org",
  "@type": "LodgingBusiness",
  "url": [
    "http://www.best-of-zillertal.at",
    "http://maps.best-of-zillertal.at/proxy/frontend/page/fuegen/de?foreignResource\u003d7405edae-0ec6-422f-b972-80ce36bd8e08"
  ],
  "address": {
    "@type": "PostalAddress",
    "streetAddress": "Furterweg 1",
    "addressCountry": "AT",
    "postalCode": "6274",
    "addressRegion": "Aschau",
    "telephone": "(0043) 650 3265167",
    "email": "furtherhof@gmx.at"
  },
  "name": "Wildauer, Martin",
  "description": [
    {
      "@language": "de",
      "@value": "Urlaub am Bauernhof, ca. 1km vom Ortszentrum Zell sowie vom Skigebiet Zillertal-Arena entfernt. Kinderplanschbecken, Trampolin-Schaukel und Rutsche. Sonnenterrasse mit Spielplatz,, Grillmöglichkeit, , Langlaufloipe am Haus. Frühstücksbuffet möglich. Ponnies, Hasen und Eier von glücklichen Hühnern."
    },
    {
      "@language": "de",
      "@value": "Endreinigung € 30,00 bis € 50,00 einmalig"
    },
    {
      "@language": "de",
      "@value": "Check-in ab 15.00 Uhr"
    },
    {
      "@language": "en",
      "@value": "New and pretty farm house in  quiet location, near railway station (stops only on request)\nplay ground, bikes, barbecuing possible!"
    },
    {
      "@language": "en",
      "@value": "final cleaning € 30,00 bis € 50,00 per stay"
    }
  ],
  "image": [
    {
      "@type": "ImageObject",
      "url": "http://resc.deskline.net/images/ZIL/1/f5c378b8-dcc6-4373-863f-bf2e80f4bac3/99/image.jpg",
      "caption": [
        {
          "@language": "de",
          "@value": "IMG_0248"
        },
        {
          "@language": "en",
          "@value": "IMG_0248"
        }
      ]
    },
    {
      "@type": "ImageObject",
      "url": "http://resc.deskline.net/images/ZIL/1/4d3ab1f8-7645-4e23-a5f5-47ae25675bd7/99/image.jpg",
      "caption": [
        {
          "@language": "de",
          "@value": "IMG_0124"
        },
        {
          "@language": "en",
          "@value": "IMG_0124"
        }
      ]
    }
  ],
  "geo": {
    "@type": "GeoCoordinates",
    "latitude": "47.241992524707889",
    "longitude": "11.893472671508789"
  },
  "currenciesAccepted": "EUR",
  "makesOffer": [
    {
      "@type": "Offer",
      "name": [
        {
          "@language": "de",
          "@value": "Appartement/Fewo, Dusche, WC, 2 Schlafräume"
        },
        {
          "@language": "en",
          "@value": "Apartment, shower, toilet, 2 bed rooms"
        }
      ],
      "description": [
        {
          "@language": "de",
          "@value": "Appartment mit 2 Schlafräumen, Herd mit Backrohr, Mikrowelle, Kaffeemaschine, SAT-TV, Handtücher, Geschirrtücher und Bettwäsche vorhanden, Brötchenservice möglich."
        },
        {
          "@language": "en",
          "@value": "Apartment with 2 bedrooms, stove with oven, microwave, coffee machine, satellite TV, hand towels, tea towels and bed linen available, bread roll service."
        }
      ],
      "availability": "http://schema.org/InStock",
      "itemOffered": [
        {
          "@type": [
            "Apartment",
            "Product"
          ],
          "name": [
            {
              "@language": "de",
              "@value": "Apartment/2 Schlafräume/Dusche, WC"
            },
            {
              "@language": "en",
              "@value": "apartment/2 bedrooms/shower, WC"
            }
          ],
          "numberOfRooms": "4.0",
          "occupancy": {
            "@type": "QuantitativeValue",
            "maxValue": "4",
            "minValue": "2"
          }
        }
      ]
    }
  ]
}