{
  "@context": "http://schema.org",
  "@type": "LodgingBusiness",
  "url": [
    "http://members.aon.at/fewo.peter",
    "http://maps.best-of-zillertal.at/proxy/frontend/page/fuegen/de?foreignResource\u003d7741E1E4-C70C-4387-B3CC-FC563A4CF42E"
  ],
  "address": {
    "@type": "PostalAddress",
    "streetAddress": "Wasserfallstraße 27",
    "addressCountry": "AT",
    "postalCode": "6265",
    "addressRegion": "Hart im Zillertal",
    "telephone": "(0043) 664 5044191 ",
    "faxNumber": "(0043) 5288 62825",
    "email": "fewo.peter@aon.at",
    "url": "http://members.aon.at/fewo.peter"
  },
  "name": "Appartement Peter",
  "description": [
    {
      "@language": "de",
      "@value": "Ob im Aktivurlaub mit der Familie im Sommer oder im Skiurlaub mit Freunden– im Appartement Peter in Hart im Zillertal fühlen Sie sich von der ersten Minute an wie zuhause!\n\nDas mit vier Edelweiß ausgezeichnete Appartement Peter liegt am Ortsrand von Hart auf der Sonnenseite der Ersten Ferienregion im Zillertal. Abgeschieden und doch zentral gelegen, ist unsere Unterkunft ideal, um die Region Fügen-Kaltenbach im Urlaub mit Familie oder Freunden zu erkunden. Nur 200m vom Appartement Peter entfernt hält der kostenlose Skibus, der Sie in das Skigebiet Spieljoch und in das Skigebiet Hochfügen-Hochzillertal bringt. Tiroler Gaumenfreuden erwarten Sie im Restaurant Almdiele, das in nur 5 Gehminuten von unserem Haus aus zu erreichen ist. Ein Supermarkt sowie eine Bäckerei liegen in nur 5-10 Gehminuten zu unserem Appartement Peter entfernt. \n\nHell durchflutete Zimmer sowie großzügige Wohnräume sorgen dafür, dass Sie sich im Appartement Peter sofort wohlfühlen. Drei große Doppelzimmer, sowie ein Stockbettzimmer bieten Ihnen im Urlaub mit Kindern oder mit Freunden ausreichend Platz zur Erholung. Die Wohnküche ist komplett ausgestattet mit Backrohr, Geschirrspüler, Ausziehcouch und Flat-TV, sodass es Ihnen auch im Urlaub an nichts fehlt. Nach Wandertouren oder aufregendem Skifahren mit Kindern auf den Zillertaler Pisten lädt der Balkon mit Blick auf das Skigebiet Hochzillertal ein die letzten Sonnenstrahlen einzufangen. Genießen Sie laue Sommerabende in Ihren Ferien mit Kindern beim Spielen im Garten auf dem Trampolin, oder im Urlaub mit Freunden bei einem Grillabend auf der Terrasse. Urlaub mit Hund ist auf Anfrage gestattet. \n\nVielfältig, spannend und aktiv – der Sommer in Hart im Zillertal hält für jeden das Passende bereit. Direkt vom Haus aus startet der Zillerradweg der Sie durch das ganze Zillertal führt. Ihr Rad können Sie in unserer Garage unterstellen, und auf Anfrage vor Ort reinigen. Beim Wandern mit Familie auf dem Vogellehrpfad oder dem Naturerlebnisweg in Hart erhalten Sie Einblicke in die heimische Vogelwelt und lernen die Besonderheiten des Zillertals auf spielerische Weise kennen. Entdecken Sie auch den nur 15 Gehminuten entfernte Erlebniswasserfall.\n\nIm Winter erleben Sie das Zillertal beim Skifahren mit Kindern im Familienskigebiet Spieljoch oder bei rasanten Talabfahrten im Skigebiet Hochfügen-Hochzillertal von einer völlig neuen Seite. Für Ihre nasse Ausrüstung steht ein Skiraum mit Skischuhtrockner bereit. Bei Schlechtwetter gönnen Sie sich einen Kräfte schöpfenden Besuch in der nur 5 Minuten entfernten Erlebnistherme in Fügen. \n\n\nAuf ein baldiges Grüß Gott im Appartement Peter in Hart im Zillertal,\nIhre Gastgeber Familie Marianne und Josef Peter\t\n"
    },
    {
      "@language": "de",
      "@value": "Endreinigung Euro 40,00"
    },
    {
      "@language": "de",
      "@value": "Check-in: ab 14.00 Uhr\nCheck-out: bis 10.00 Uhr"
    },
    {
      "@language": "en",
      "@value": "When spending active family holidays in summer or skiing holidays with friends – the Peter Apartment guesthouse in Hart in the Zillertal will make you feel like home from the first instance!\n\nThe Apartment Peter guesthouse that comes with a four Edelweiss rating is situated on the outskirts of Hart on the sunny side of the First Holiday Region in the Zillertal. Secluded, yet centrally located, our guesthouse is ideal to explore the Fügen-Kaltenbach holiday region together with family or friends. The free ski bus that takes you to the Spieljoch skiing area and to the Hochfügen-Hochzillertal resort stops only 200m away from the Apartment Peter guesthouse. Tyrolean delights await you at the Almdiele restaurant, which can be reached within 5 minutes. \nA supermarket and a bakery are only a 5-10 minute walk away from our Apartment Peter guesthouse.\n\nLight-flooded rooms and generous living spaces ensure that you will feel like home at the Apartment Peter guesthouse right away. Three large double bedrooms and a room with bunk beds offer enough space for recreation when spending holidays with children or friends. The kitchen is fully equipped with an oven, a dishwasher, an extendable couch bed and a flat screen TV, so that you will not miss anything, even during your vacation. After an exciting hiking or skiing day with kids on the slopes of the Zillertal, the balcony invites you to catch the last rays of sun and to take in the view of the Hochzillertal skiing area. Enjoy mild summer evenings on holiday together with your children when playing on the trampoline in the garden, or on vacation with friends having at a barbecue on the terrace. Pets are welcome on request.\n\nDiverse, exciting and active – the summer in Hart in the Zillertal has something on offer for everyone. Directly from the house, you can access the Ziller cycle trail that takes you through the entire Zillertal. You can, of course, also leave your bicycle in our garage and even clean it on-site on request. When hiking the educational bird trail or the nature experience trail in Hart together with your family, you will gain insight into local bird life and learn about the Zillertal’s characteristics in a fun way. Do not miss out on the experience waterfall that is only 15 minutes away on foot.\n\nIn winter, you can experience the Zillertal from a completely different angle when skiing the Spieljoch family skiing resort together with your children or exploring the fast descents in the Hochfügen-Hochzillertal area. A ski room with boot dryer is available for your wet gear. In bad weather, a visit of the Erlebnistherme in Fügen, which is just 5 minutes away, is a great, recreating alternative.\n\nWe look forward to soon welcoming you at the Apartment Peter guesthouse in Hart in the Zillertal,\nYour hosts, Marianne and Josef Peter"
    },
    {
      "@language": "en",
      "@value": "final cleaning EUR 40,00"
    },
    {
      "@language": "en",
      "@value": "check-in: from 2.00 pm\ncheck-out: until 10.00 am"
    }
  ],
  "aggregateRating": {
    "@type": "AggregateRating",
    "ratingValue": "4.5",
    "reviewCount": "16"
  },
  "image": [
    {
      "@type": "ImageObject",
      "url": "http://resc.deskline.net/images/ZIL/1/84b70aaa-7d3e-4de4-85d6-6081d4063ece/99/image.jpg",
      "caption": [
        {
          "@language": "de",
          "@value": "Ferienwohnung-Peter-Hart im Zillertal-Haus Winter"
        },
        {
          "@language": "en",
          "@value": "Ferienwohnung-Peter-Hart im Zillertal-Haus Winter"
        }
      ]
    },
    {
      "@type": "ImageObject",
      "url": "http://resc.deskline.net/images/ZIL/1/14dd2f84-c9dc-4e67-a8ea-83da4fc9e770/99/image.jpg",
      "caption": [
        {
          "@language": "de",
          "@value": "Ferienwohnung-Peter-Hart im Zillertal-Doppelzimmer"
        },
        {
          "@language": "en",
          "@value": "Ferienwohnung-Peter-Hart im Zillertal-Doppelzimmer"
        }
      ]
    },
    {
      "@type": "ImageObject",
      "url": "http://resc.deskline.net/images/ZIL/1/b4bbacb0-10d9-4992-a0d9-92ca2ab022c6/99/image.jpg",
      "caption": [
        {
          "@language": "de",
          "@value": "Ferienwohnung-Peter-Hart im Zillertal-Stockbett"
        },
        {
          "@language": "en",
          "@value": "Ferienwohnung-Peter-Hart im Zillertal-Stockbett"
        }
      ]
    },
    {
      "@type": "ImageObject",
      "url": "http://resc.deskline.net/images/ZIL/1/20185a5d-c5df-4468-b2d4-3e014475bde5/99/image.jpg",
      "caption": [
        {
          "@language": "de",
          "@value": "ferienwohnung peter hart im zillertal badezimmer"
        },
        {
          "@language": "en",
          "@value": "ferienwohnung peter hart im zillertal badezimmer"
        }
      ]
    },
    {
      "@type": "ImageObject",
      "url": "http://resc.deskline.net/images/ZIL/1/0d70b67a-4d34-4737-b34f-a6b1c1a61354/99/image.jpg",
      "caption": [
        {
          "@language": "de",
          "@value": "ferienwohnung peter hart im zillertal wc"
        },
        {
          "@language": "en",
          "@value": "ferienwohnung peter hart im zillertal wc"
        }
      ]
    },
    {
      "@type": "ImageObject",
      "url": "http://resc.deskline.net/images/ZIL/1/aadfd679-7562-4bea-a76a-8075accebf93/99/image.jpg",
      "caption": [
        {
          "@language": "de",
          "@value": "ferienwohnung peter hart im zillertal zimmer"
        },
        {
          "@language": "en",
          "@value": "ferienwohnung peter hart im zillertal zimmer"
        }
      ]
    },
    {
      "@type": "ImageObject",
      "url": "http://resc.deskline.net/images/ZIL/1/929c5f91-2da7-4cc5-9e96-9f2d2404017b/99/image.jpg",
      "caption": [
        {
          "@language": "de",
          "@value": "ferienwohnung peter hart im zillertal essecke"
        },
        {
          "@language": "en",
          "@value": "ferienwohnung peter hart im zillertal essecke"
        }
      ]
    },
    {
      "@type": "ImageObject",
      "url": "http://resc.deskline.net/images/ZIL/1/ef2e9671-5e0a-40e2-8a2f-16084b0c880d/99/image.jpg",
      "caption": [
        {
          "@language": "de",
          "@value": "ferienwohnung peter hart im zillertal küche"
        },
        {
          "@language": "en",
          "@value": "ferienwohnung peter hart im zillertal küche"
        }
      ]
    },
    {
      "@type": "ImageObject",
      "url": "http://resc.deskline.net/images/ZIL/1/43d456d5-f441-4352-aa3d-c67a0bd00aec/99/image.jpg",
      "caption": [
        {
          "@language": "de",
          "@value": "ferienwohnung peter hart im zillertal sofa mit tv"
        },
        {
          "@language": "en",
          "@value": "ferienwohnung peter hart im zillertal sofa mit tv"
        }
      ]
    },
    {
      "@type": "ImageObject",
      "url": "http://resc.deskline.net/images/ZIL/1/6eaf698d-5f06-499c-93e9-35eb1d8e18e4/99/image.jpg",
      "caption": [
        {
          "@language": "de",
          "@value": "ferienwohnung peter hart im zillertal diele"
        },
        {
          "@language": "en",
          "@value": "ferienwohnung peter hart im zillertal diele"
        }
      ]
    },
    {
      "@type": "ImageObject",
      "url": "http://resc.deskline.net/images/ZIL/1/2e3c0bb2-8b02-48cc-9a12-af7438dfaa57/99/image.jpg",
      "caption": [
        {
          "@language": "de",
          "@value": "ferienwohnung peter hart im zillertal zimmer mit w"
        },
        {
          "@language": "en",
          "@value": "ferienwohnung peter hart im zillertal zimmer mit w"
        }
      ]
    },
    {
      "@type": "ImageObject",
      "url": "http://resc.deskline.net/images/ZIL/1/0f4e6d56-efc6-44b4-beb3-499ea9ca43d6/99/image.jpg",
      "caption": [
        {
          "@language": "de",
          "@value": "ferienwohnung peter hart im zillertal einang"
        },
        {
          "@language": "en",
          "@value": "ferienwohnung peter hart im zillertal einang"
        }
      ]
    },
    {
      "@type": "ImageObject",
      "url": "http://resc.deskline.net/images/ZIL/1/7845c33e-4689-41c4-8d59-6ff58c50340d/99/image.jpg",
      "caption": [
        {
          "@language": "de",
          "@value": "ferienwohnung peter hart im zillertal eingang"
        },
        {
          "@language": "en",
          "@value": "ferienwohnung peter hart im zillertal eingang"
        }
      ]
    },
    {
      "@type": "ImageObject",
      "url": "http://resc.deskline.net/images/ZIL/1/404bd360-f42c-446f-b98f-3450f69aa448/99/image.jpg",
      "caption": [
        {
          "@language": "de",
          "@value": "ferienwohnung peter hart im zillertal zimmer"
        },
        {
          "@language": "en",
          "@value": "ferienwohnung peter hart im zillertal zimmer"
        }
      ]
    }
  ],
  "geo": {
    "@type": "GeoCoordinates",
    "latitude": "47.330526380198059",
    "longitude": "11.867841482162476"
  },
  "currenciesAccepted": "EUR",
  "makesOffer": [
    {
      "@type": "Offer",
      "name": [
        {
          "@language": "de",
          "@value": "Appartement/Fewo, Dusche und Bad, WC, 4 oder mehr Schlafräume"
        },
        {
          "@language": "en",
          "@value": "Apartment, shower and bath, toilet, 4 or more bed rooms"
        }
      ],
      "description": [
        {
          "@language": "de",
          "@value": "In unserer Wohnung befindet sich eine große Wohnküche mit Küchenblock, Eckbank, Ausziehcouch, Sat-TV und Balkon. 1 Doppelzimmer mit Balkon, 1 Doppelzimmer, das zu einem Dreibettzimmer erweitert werden kann, 1 Zimmer mit Stockbett, DU/Bad/WC und ein WC extra, große Diele.\nBettwäsche, Handtücher, Geschirrtücher und Duschtücher sind in der Wohnung. Safe. Endreinigung Euro 40,00"
        },
        {
          "@language": "en",
          "@value": "Our appartment offers large living kitchen with kitchenette, seating corner, pull out sofa bed, satelite TV, and balcony, 1 double room with balcony, 1 double room (expasion to triple room possible) 1 room with bunk bed, shower/bath/toilet, and separate toilet, large hall,\nbed linen, towels, kitchen linen are provided. Safe.\ncharge for final cleaning € 40,00"
        }
      ],
      "availability": "http://schema.org/InStock",
      "itemOffered": [
        {
          "@type": [
            "Apartment",
            "Product"
          ],
          "name": [
            {
              "@language": "de",
              "@value": "Apartment/4 Schlafräume/Dusche, Bad, WC"
            },
            {
              "@language": "en",
              "@value": "Apartment, shower and bath, toilet, 4 or more bed rooms"
            }
          ],
          "numberOfRooms": "4.0",
          "occupancy": {
            "@type": "QuantitativeValue",
            "maxValue": "10",
            "minValue": "2"
          }
        }
      ],
      "priceSpecification": [
        {
          "@type": "PriceSpecification",
          "description": "Pax 2",
          "minPrice": "60.00",
          "maxPrice": "60.00",
          "priceCurrency": "EUR"
        },
        {
          "@type": "PriceSpecification",
          "description": "Pax 3",
          "minPrice": "90.00",
          "maxPrice": "90.00",
          "priceCurrency": "EUR"
        },
        {
          "@type": "PriceSpecification",
          "description": "Pax 4",
          "minPrice": "120.00",
          "maxPrice": "120.00",
          "priceCurrency": "EUR"
        },
        {
          "@type": "PriceSpecification",
          "description": "Pax 5",
          "minPrice": "150.00",
          "maxPrice": "150.00",
          "priceCurrency": "EUR"
        },
        {
          "@type": "PriceSpecification",
          "description": "Pax 6",
          "minPrice": "180.00",
          "maxPrice": "180.00",
          "priceCurrency": "EUR"
        },
        {
          "@type": "PriceSpecification",
          "description": "Pax 7",
          "minPrice": "210.00",
          "maxPrice": "210.00",
          "priceCurrency": "EUR"
        },
        {
          "@type": "PriceSpecification",
          "description": "Pax 8",
          "minPrice": "240.00",
          "maxPrice": "240.00",
          "priceCurrency": "EUR"
        },
        {
          "@type": "PriceSpecification",
          "description": "Pax 9",
          "minPrice": "270.00",
          "maxPrice": "270.00",
          "priceCurrency": "EUR"
        },
        {
          "@type": "PriceSpecification",
          "description": "Pax 10",
          "minPrice": "300.00",
          "maxPrice": "300.00",
          "priceCurrency": "EUR"
        }
      ]
    }
  ]
}