{
  "@context": "http://schema.org",
  "@type": "LodgingBusiness",
  "url": [
    "www.ferienhaus-enzian.at",
    "http://maps.best-of-zillertal.at/proxy/frontend/page/fuegen/de?foreignResource\u003d77B87AAE-7EEB-47FF-902C-813E5285C78F"
  ],
  "address": {
    "@type": "PostalAddress",
    "streetAddress": "Tiefenbachweg 14",
    "addressCountry": "AT",
    "postalCode": "6274",
    "addressRegion": "Aschau im Zillertal",
    "telephone": "(0043) 681 10884106",
    "faxNumber": "(0049) 32 121238121",
    "email": "info@ferienhaus-enzian.at",
    "url": "http://www.ferienhaus-enzian.at"
  },
  "name": "Haus Enzian",
  "description": [
    {
      "@language": "de",
      "@value": "Unser 2008 neu erbautes Holz-Blockhaus liegt auf 850m Höhe in sonniger und ruhiger Lage über der Stadt Aschau in Mitten des schönen Zillertals, neben der Talabfahrt des Skigebietes Hochzillertal / Hochfügen. Verwöhnen Sie Ihre Augen mit einem bezaubernden Ausblick über das mittlere Zillertal bis hin zur Gerlossteinwand wenn Sie auf unserer großen Terrasse sitzen. Die urige und rustikale Einrichtung aus massivem Holz, knisternde Holzscheite im Kamin und das tägliche Almleben versetzen Sie in die gute alte Zeit zurück. Hier können Sie die schönsten Wochen des Jahres, ob im Sommer oder im Winter ausspannen oder aber aktiv werden. Mehr auf unserer Homepage http://www.ferienhaus-enzian.at/"
    },
    {
      "@language": "de",
      "@value": "Endreinigung 49 EUR"
    },
    {
      "@language": "en",
      "@value": "Our house was built in 2008 and is situated at a sunny and quiet location in Aschau im Zillertal (831 m sea level). You´ve got a wonderful view over the Zillervalley mountains. The house is made out of climate wood with a cellar and a rustic furniture. Reachable by car in summer and winter. Shopping possibilities in Aschau and the next village Zell am Ziller. The skiing areas Hochfügen-Hochzillertal and Zillertal Arena are reachable in 10 minutes by car."
    },
    {
      "@language": "en",
      "@value": "Final cleaning: EUR 49,00"
    }
  ],
  "image": [
    {
      "@type": "ImageObject",
      "url": "http://resc.deskline.net/images/ZIL/1/bcb1bbe7-3c9c-44ea-9d2a-d1fc06d3d873/99/image.jpg",
      "caption": [
        {
          "@language": "de",
          "@value": "Haus im Sommer"
        },
        {
          "@language": "en",
          "@value": "Haus im Sommer"
        }
      ]
    },
    {
      "@type": "ImageObject",
      "url": "http://resc.deskline.net/images/ZIL/1/4e3d6c38-2f94-4535-9fb0-4041b0d60aa1/99/image.jpg",
      "caption": [
        {
          "@language": "de",
          "@value": "Haus im Winter"
        },
        {
          "@language": "en",
          "@value": "Haus im Winter"
        }
      ]
    },
    {
      "@type": "ImageObject",
      "url": "http://resc.deskline.net/images/ZIL/1/f1a0381b-b1ad-4c27-86e5-c717ea5a3c1a/99/image.jpg",
      "caption": [
        {
          "@language": "de",
          "@value": "Wohnzimmer"
        },
        {
          "@language": "en",
          "@value": "Wohnzimmer"
        }
      ]
    },
    {
      "@type": "ImageObject",
      "url": "http://resc.deskline.net/images/ZIL/1/96f8b1e1-f2ef-4ec8-94f6-94fdcea10cbc/99/image.jpg",
      "caption": [
        {
          "@language": "de",
          "@value": "Kamin"
        },
        {
          "@language": "en",
          "@value": "Kamin"
        }
      ]
    },
    {
      "@type": "ImageObject",
      "url": "http://resc.deskline.net/images/ZIL/1/f9422250-1aab-4520-9ee7-71c723059bd9/99/image.jpg",
      "caption": [
        {
          "@language": "de",
          "@value": "Wintergarten"
        },
        {
          "@language": "en",
          "@value": "Wintergarten"
        }
      ]
    },
    {
      "@type": "ImageObject",
      "url": "http://resc.deskline.net/images/ZIL/1/b39fd58f-def9-4e11-aefe-cc85d91f58c9/99/image.jpg",
      "caption": [
        {
          "@language": "de",
          "@value": "Terrasse"
        },
        {
          "@language": "en",
          "@value": "Terrasse"
        }
      ]
    },
    {
      "@type": "ImageObject",
      "url": "http://resc.deskline.net/images/ZIL/1/2c5b13b6-5dc1-4c2b-abe9-0d3f746ad388/99/image.jpg",
      "caption": [
        {
          "@language": "de",
          "@value": "Esszimmer"
        },
        {
          "@language": "en",
          "@value": "Esszimmer"
        }
      ]
    },
    {
      "@type": "ImageObject",
      "url": "http://resc.deskline.net/images/ZIL/1/fac91b3d-1184-4106-8cca-42babb248d39/99/image.jpg",
      "caption": [
        {
          "@language": "de",
          "@value": "Kueche"
        },
        {
          "@language": "en",
          "@value": "Kueche"
        }
      ]
    },
    {
      "@type": "ImageObject",
      "url": "http://resc.deskline.net/images/ZIL/1/cabba50f-fe3e-4c9a-b994-67760de03c1f/99/image.jpg",
      "caption": [
        {
          "@language": "de",
          "@value": "Grill"
        },
        {
          "@language": "en",
          "@value": "Grill"
        }
      ]
    },
    {
      "@type": "ImageObject",
      "url": "http://resc.deskline.net/images/ZIL/1/3882d719-0d97-40e9-a493-649ab760003a/99/image.jpg",
      "caption": [
        {
          "@language": "de",
          "@value": "Terrasse Liegen"
        },
        {
          "@language": "en",
          "@value": "Terrasse Liegen"
        }
      ]
    },
    {
      "@type": "ImageObject",
      "url": "http://resc.deskline.net/images/ZIL/1/508e9c93-c1fb-4280-ba74-988e0bb1502b/99/image.jpg",
      "caption": [
        {
          "@language": "de",
          "@value": "Balkonzimmer (1)"
        },
        {
          "@language": "en",
          "@value": "Balkonzimmer (1)"
        }
      ]
    },
    {
      "@type": "ImageObject",
      "url": "http://resc.deskline.net/images/ZIL/1/268dfbb7-75cf-4f63-800d-cc4fc605e637/99/image.jpg",
      "caption": [
        {
          "@language": "de",
          "@value": "Balkonzimmer (2)"
        },
        {
          "@language": "en",
          "@value": "Balkonzimmer (2)"
        }
      ]
    },
    {
      "@type": "ImageObject",
      "url": "http://resc.deskline.net/images/ZIL/1/4ef5e4a7-f1ab-49db-a93e-32035f703f81/99/image.jpg",
      "caption": [
        {
          "@language": "de",
          "@value": "Balkon"
        },
        {
          "@language": "en",
          "@value": "Balkon"
        }
      ]
    },
    {
      "@type": "ImageObject",
      "url": "http://resc.deskline.net/images/ZIL/1/36141cbb-8e33-4715-bb61-3ae41dce6055/99/image.jpg",
      "caption": [
        {
          "@language": "de",
          "@value": "Bad"
        },
        {
          "@language": "en",
          "@value": "Bad"
        }
      ]
    },
    {
      "@type": "ImageObject",
      "url": "http://resc.deskline.net/images/ZIL/1/feb0ca9a-8da4-4ba5-82a3-e45fd575c831/99/image.jpg",
      "caption": [
        {
          "@language": "de",
          "@value": "Waschmaschine"
        },
        {
          "@language": "en",
          "@value": "Waschmaschine"
        }
      ]
    },
    {
      "@type": "ImageObject",
      "url": "http://resc.deskline.net/images/ZIL/1/e0d93b58-9356-4780-9d42-6eab561d2bc3/99/image.jpg",
      "caption": [
        {
          "@language": "de",
          "@value": "Schlafzimmer (1)"
        },
        {
          "@language": "en",
          "@value": "Schlafzimmer (1)"
        }
      ]
    },
    {
      "@type": "ImageObject",
      "url": "http://resc.deskline.net/images/ZIL/1/e397eb63-89aa-476a-83ef-f0e1f1545c91/99/image.jpg",
      "caption": [
        {
          "@language": "de",
          "@value": "Schlafzimmer (2)"
        },
        {
          "@language": "en",
          "@value": "Schlafzimmer (2)"
        }
      ]
    },
    {
      "@type": "ImageObject",
      "url": "http://resc.deskline.net/images/ZIL/1/3cc7a3fe-0263-4a20-a525-cfd7cd167c7d/99/image.jpg",
      "caption": [
        {
          "@language": "de",
          "@value": "Vierbettzimmer (1)"
        },
        {
          "@language": "en",
          "@value": "Vierbettzimmer (1)"
        }
      ]
    },
    {
      "@type": "ImageObject",
      "url": "http://resc.deskline.net/images/ZIL/1/222495a1-3b12-4c50-95fd-2ffda349e4cd/99/image.jpg",
      "caption": [
        {
          "@language": "de",
          "@value": "Vierbettzimmer (2)"
        },
        {
          "@language": "en",
          "@value": "Vierbettzimmer (2)"
        }
      ]
    }
  ],
  "geo": {
    "@type": "GeoCoordinates",
    "latitude": "47.263956040372413",
    "longitude": "11.881231069564819"
  },
  "currenciesAccepted": "EUR",
  "makesOffer": [
    {
      "@type": "Offer",
      "name": [
        {
          "@language": "de",
          "@value": "Ferienhaus, Bad, WC, 2 Schlafräume"
        },
        {
          "@language": "en",
          "@value": "Holiday home, bath, toilet, 2 bed rooms"
        }
      ],
      "description": [
        {
          "@language": "de",
          "@value": "Im Erdgeschoss:\nKüche (4 Kochplatten, Backofen mit Umluft, Mikrowelle mit Grill, Toaster, Kaffeemaschine, Wasserkocher, Geschirrspüler, Kühlschrank mit Gefrierfach); Esszimmer (Tisch mit 8 Sitzgelegenheiten); Wohnzimmer (großzügige Wohnlandschaft, Sat-TV, DVD-Player, CD/MP3-Player mit Radio, Holzofen); Wintergarten; WC; Garderobe; Flur; Terrasse;\nIm Obergeschoss:\nBad (Dusche, WC, Fön, Waschmaschine, Wäschetrockner); Schlafzimmer für 2 Personen (Doppelbett, CD/MC-Player mit Radio); Schlafzimmer für 2 Personen (Doppelbett, Safe); Schlafzimmer für 4 Personen (Ausziehbett, Etagenbett); Balkon;\nSonstiges:\nAbstellraum für Ski im Keller; Nichtraucherhaus; Keine Haustiere erlaubt;"
        },
        {
          "@language": "en",
          "@value": "At the ground floor:\nKitchen (oven, microwave, electric kettle, dish washer, fridge with freezer); dining room (table with 8 sitting possibilities); living room (satellite tv, dvd-player, cd-player with radio, wood stove); winter garden; toilet; wardrobe; terrace;\nAt the upper floor: \nbath room (shower, toilet, hair dryer, washing machine and dryer); bed room for 2 persons (double bed, safe); bed room for 2 persons (double bed, radio); bed room for 4 persons (couch with sleeping possibility and bunk bed);\nMiscellaneous:\nNon-smoker-house; room for skies in the cellar;"
        }
      ],
      "availability": "http://schema.org/InStock",
      "itemOffered": [
        {
          "@type": [
            "Apartment",
            "Product"
          ],
          "name": [
            {
              "@language": "de",
              "@value": "Ferienhaus/3 Schlafräume/Bad, WC"
            },
            {
              "@language": "en",
              "@value": "holiday house/3 bedrooms/bath tube, WC"
            }
          ],
          "image": [
            {
              "@type": "ImageObject",
              "url": "http://resc.deskline.net/images/ZIL/1/e7474583-f467-435e-988c-fbd75f457b87/99/image.jpg",
              "caption": [
                {
                  "@language": "de",
                  "@value": "Haus im Winter"
                },
                {
                  "@language": "en",
                  "@value": "Haus im Winter"
                }
              ]
            }
          ],
          "numberOfRooms": "5.0",
          "occupancy": {
            "@type": "QuantitativeValue",
            "maxValue": "8",
            "minValue": "2"
          }
        }
      ]
    }
  ]
}