{
  "@context": "http://schema.org",
  "@type": "LodgingBusiness",
  "url": [
    "http://deintirol.com/de/erste-ferienregion-im-zillertal/fuegen/ferienwohnungen/gaestehaus-franz-und-greti--haun/74066/index.html",
    "http://maps.best-of-zillertal.at/proxy/frontend/page/fuegen/de?foreignResource\u003d7BA33A01-7964-4803-BE50-E3D083FFD1AC",
    "http://www.tip24.at/clients/201003/"
  ],
  "address": {
    "@type": "PostalAddress",
    "name": "Gästehaus Haun",
    "streetAddress": "Haidach 6",
    "addressCountry": "AT",
    "postalCode": "6263",
    "addressRegion": "Fügen",
    "telephone": "(0043) 5288 62790",
    "faxNumber": "(0043) 5288 62790",
    "email": "franz.haun@aon.at",
    "url": "http://members.aon.at/fhaun/index.html"
  },
  "name": "Gästehaus Haun",
  "description": [
    {
      "@language": "de",
      "@value": "Gemütliches Gästehaus in ruhiger Lage im Ortsteil Haidach in Fügen im Zillertal. \nAppartement mit 1 Ferienwohnung im 2. Stock. Unser Haus ist 200 Meter von der Talstation der Spieljochbahn, dem Ausgangspunkt für alle Wintersportler und Bergwanderer, entfernt. \nDie Bushaltestelle nach Hochfügen, einem weiteren Ski- und Wanderparadies, ist ebenfalls neben der Spieljochbahn. \n\n"
    },
    {
      "@language": "de",
      "@value": "Endreinigung: EUR 25,00, Gratisparkplatz überdacht direkt beim Haus, Haustiere 5.- €uro pro Tag ohne Futter"
    },
    {
      "@language": "de",
      "@value": "Die Ferienwohnung ist am Anreisetag ab 13.00 Uhr verfügbar. Ab Tag Ihrer Abreise ersuchen wir Sie, das Appartement bis 10.00 Uhr zu verlassen. Individuelle Vereinbarungen jederzeit möglich."
    },
    {
      "@language": "en",
      "@value": "Cosy guesthouse in quiet location in district Haidach in Fügen in Zillertal.\nAppartment on the 2nd floor. Our house is 200 meter far from the Spieljoch station at the bottom end, the starting point for all winter and summer sportsmen.\nThe ski bus stop to Hochfügen is nearby"
    },
    {
      "@language": "en",
      "@value": "final cleaning: EUR 25,00"
    },
    {
      "@language": "en",
      "@value": "The apartment is available on arrival from 13.00. From the day of departure we ask you to leave the apartment until 10.00 am. Individual agreements at any time."
    }
  ],
  "image": [
    {
      "@type": "ImageObject",
      "url": "http://resc.deskline.net/images/ZIL/1/6ea60a27-e65d-474a-af46-699511af4f38/99/image.jpg",
      "caption": [
        {
          "@language": "de",
          "@value": "Haun Sommer"
        },
        {
          "@language": "en",
          "@value": "Haun Sommer"
        }
      ]
    },
    {
      "@type": "ImageObject",
      "url": "http://resc.deskline.net/images/ZIL/1/3c0aa2ad-c66a-424f-9f30-25a3a45e1b62/99/image.jpg",
      "caption": [
        {
          "@language": "de",
          "@value": "Winter"
        },
        {
          "@language": "en",
          "@value": "Winter"
        }
      ]
    },
    {
      "@type": "ImageObject",
      "url": "http://resc.deskline.net/images/ZIL/1/d4c6711c-0d52-4b24-9930-3ef00c7b47a3/99/image.jpg",
      "caption": [
        {
          "@language": "de",
          "@value": "DSC_0008"
        },
        {
          "@language": "en",
          "@value": "DSC_0008"
        }
      ]
    },
    {
      "@type": "ImageObject",
      "url": "http://resc.deskline.net/images/ZIL/1/14e19963-446a-4148-99b6-c0c0c15b0123/99/image.jpg",
      "caption": [
        {
          "@language": "de",
          "@value": "Rosen für die Gäste_3"
        },
        {
          "@language": "en",
          "@value": "Rosen für die Gäste_3"
        }
      ]
    },
    {
      "@type": "ImageObject",
      "url": "http://resc.deskline.net/images/ZIL/1/82ebdfb7-b8b4-4ed6-a86b-e983002b0f7a/99/image.jpg",
      "caption": [
        {
          "@language": "de",
          "@value": "Hohenaualm Zillergrund August 2014_04"
        },
        {
          "@language": "en",
          "@value": "Hohenaualm Zillergrund August 2014_04"
        }
      ]
    },
    {
      "@type": "ImageObject",
      "url": "http://resc.deskline.net/images/ZIL/1/da039c31-16e9-4b0b-887a-04cafb8d2e69/99/image.jpg",
      "caption": [
        {
          "@language": "de",
          "@value": "Winter in Fügen 2012_1"
        },
        {
          "@language": "en",
          "@value": "Winter in Fügen 2012_1"
        }
      ]
    },
    {
      "@type": "ImageObject",
      "url": "http://resc.deskline.net/images/ZIL/1/eeb20272-be46-4cfc-a45d-d6709e087a51/99/image.jpg",
      "caption": [
        {
          "@language": "de",
          "@value": "Hausfotos zuzr Ferienwohnung_7"
        },
        {
          "@language": "en",
          "@value": "Hausfotos zuzr Ferienwohnung_7"
        }
      ]
    },
    {
      "@type": "ImageObject",
      "url": "http://resc.deskline.net/images/ZIL/1/79e1f55f-06ad-4c35-8250-237a939ea1c1/99/image.jpg",
      "caption": [
        {
          "@language": "de",
          "@value": "Hausfotos zuzr Ferienwohnung_4"
        },
        {
          "@language": "en",
          "@value": "Hausfotos zuzr Ferienwohnung_4"
        }
      ]
    },
    {
      "@type": "ImageObject",
      "url": "http://resc.deskline.net/images/ZIL/1/44f4648d-f296-49d5-9d9b-1d6d5fbfb708/99/image.jpg",
      "caption": [
        {
          "@language": "de",
          "@value": "Hausfotos zuzr Ferienwohnung_1"
        },
        {
          "@language": "en",
          "@value": "Hausfotos zuzr Ferienwohnung_1"
        }
      ]
    },
    {
      "@type": "ImageObject",
      "url": "http://resc.deskline.net/images/ZIL/1/daf7c490-10fa-4ef2-9a6e-ba9d686e02be/99/image.jpg",
      "caption": [
        {
          "@language": "de",
          "@value": "Spieljoch Garage_4"
        },
        {
          "@language": "en",
          "@value": "Spieljoch Garage_4"
        }
      ]
    }
  ],
  "geo": {
    "@type": "GeoCoordinates",
    "latitude": "47.340823649584",
    "longitude": "11.842523114666"
  },
  "currenciesAccepted": "EUR",
  "makesOffer": [
    {
      "@type": "Offer",
      "name": [
        {
          "@language": "de",
          "@value": "Appartement/Fewo, Dusche, WC, 2 Schlafräume"
        },
        {
          "@language": "en",
          "@value": "Apartment, shower, toilet, 2 bed rooms"
        }
      ],
      "description": [
        {
          "@language": "de",
          "@value": "Appartement mit 1 Ferienwohnung im 2. Stock. ca. 70 m2, für 2 bis 4 Personen;\n2 Doppelschlafzimmer, 1 komplett ausgestattete Wohnküche mit Sat-Tv W-Lan u. Telefon,\nBalkon Ri Süden, Dusche und WC, Bettwäsche, Handtücher und Geschirr vorhanden."
        },
        {
          "@language": "en",
          "@value": "Appartment on the 2 nd floor, approx 70 qm, 2 - 4 persons, 2 double rooms, 1 complete furnished living kitchen with satelite TV, telephone, balcony, shower, and toilet, bed linen provided"
        }
      ],
      "availability": "http://schema.org/InStock",
      "itemOffered": [
        {
          "@type": [
            "Apartment",
            "Product"
          ],
          "name": [
            {
              "@language": "de",
              "@value": "Apartment/2 Schlafräume/Dusche, WC"
            },
            {
              "@language": "en",
              "@value": "apartment/2 bedrooms/shower, WC"
            }
          ],
          "numberOfRooms": "3.0",
          "occupancy": {
            "@type": "QuantitativeValue",
            "maxValue": "4",
            "minValue": "2"
          }
        }
      ]
    }
  ]
}