{
  "@context": "http://schema.org",
  "@type": "LodgingBusiness",
  "url": [
    "http://maps.best-of-zillertal.at/proxy/frontend/page/fuegen/de?foreignResource\u003d7BF3D865-901F-48E3-9BFB-2C7BA5CBAD34"
  ],
  "address": {
    "@type": "PostalAddress",
    "streetAddress": "Hambergstraße 114",
    "addressCountry": "AT",
    "postalCode": "6265",
    "addressRegion": "Hart im Zillertal"
  },
  "name": "Widner, Nicole",
  "geo": {
    "@type": "GeoCoordinates",
    "latitude": "47.336305",
    "longitude": "11.885604"
  },
  "currenciesAccepted": "EUR"
}