{
  "@context": "http://schema.org",
  "@type": "LodgingBusiness",
  "address": {
    "@type": "PostalAddress",
    "streetAddress": "Seerosenweg 23",
    "addressCountry": "AT",
    "postalCode": "6274",
    "addressRegion": "Aschau im Zillertal",
    "telephone": "(0049) 176 51463212",
    "email": "seerosenweg23_aschau@hotmail.de"
  },
  "name": "Fabricius, Dieter",
  "description": [
    {
      "@language": "de",
      "@value": "Herzlich Willkommen im Ferienbungalow der Fam. Fabricius in Aschau im Zillertal für 2 bis 6 Personen. Unser neu renovierter Ferienbungalow ist am Ortsrand von Aschau gelegen und ist 65 m2 groß. Aschau i.Z. liegt in der Mitte zwischen den Ski-Gebieten Zillertal-Arena und Kaltenbach / Hochfügen (je ca. 10 min mit dem Auto). Der Skibus fährt ca. 200 Meter vom Haus entfernt ab. Zu dem Ferienbungalow gehört ein eigener Garten und eine überdachte süd-west Terasse mit Gartenmöbeln. Hunde sind leider nicht erwünscht. Der Ferienbungalow ist ein Nichtraucherdomizil und das Rauchen ist nur auf der Terrasse erlaubt. "
    },
    {
      "@language": "de",
      "@value": "Angebotener Gesamtpreis inkl. aller Nebenkosten (u.a. Endreinigung und Ortstaxe 1,00 Euro pro Tag und Person)"
    },
    {
      "@language": "de",
      "@value": "Weitere Fotos unter http://www.best-of-zillertal.at/de/booking/dieter-fabricius\n"
    },
    {
      "@language": "de",
      "@value": "Ferienhaus, Ferienbungalow, Bungalow, Appartement Haus"
    }
  ],
  "image": [
    {
      "@type": "ImageObject",
      "url": "http://resc.deskline.net/images/ZIL/1/501df2c8-d95a-4e16-a11c-dbc210ae237a/99/image.jpg",
      "caption": [
        {
          "@language": "de",
          "@value": "Terrasse"
        },
        {
          "@language": "en",
          "@value": "Terrasse"
        }
      ]
    },
    {
      "@type": "ImageObject",
      "url": "http://resc.deskline.net/images/ZIL/1/de262669-d36a-44da-bef0-cb31174faa89/99/image.jpg",
      "caption": [
        {
          "@language": "de",
          "@value": "Terrasse"
        },
        {
          "@language": "en",
          "@value": "Terrasse"
        }
      ]
    },
    {
      "@type": "ImageObject",
      "url": "http://resc.deskline.net/images/ZIL/1/c54caeb2-bac3-4818-afd1-6e08b0cb7586/99/image.jpg",
      "caption": [
        {
          "@language": "de",
          "@value": "Außenansicht_Osten"
        },
        {
          "@language": "en",
          "@value": "Außenansicht_Osten"
        }
      ]
    },
    {
      "@type": "ImageObject",
      "url": "http://resc.deskline.net/images/ZIL/1/b11a4099-cf40-4d21-93cb-40577860a5f3/99/image.jpg",
      "caption": [
        {
          "@language": "de",
          "@value": "Wohnzimmer"
        },
        {
          "@language": "en",
          "@value": "Wohnzimmer"
        }
      ]
    },
    {
      "@type": "ImageObject",
      "url": "http://resc.deskline.net/images/ZIL/1/970a60a9-f3ad-4847-ba1f-616a44cb5207/99/image.jpg",
      "caption": [
        {
          "@language": "de",
          "@value": "131026_Wohnzimmer_02"
        },
        {
          "@language": "en",
          "@value": "131026_Wohnzimmer_02"
        }
      ]
    },
    {
      "@type": "ImageObject",
      "url": "http://resc.deskline.net/images/ZIL/1/44f6b3d0-7174-402f-b0f6-16e197da0beb/99/image.jpg",
      "caption": [
        {
          "@language": "de",
          "@value": "Schlafzimmer"
        },
        {
          "@language": "en",
          "@value": "Schlafzimmer"
        }
      ]
    },
    {
      "@type": "ImageObject",
      "url": "http://resc.deskline.net/images/ZIL/1/75519f30-600f-47ab-92d8-45abcdc4f01f/99/image.jpg",
      "caption": [
        {
          "@language": "de",
          "@value": "4 Bett-Zimmer"
        },
        {
          "@language": "en",
          "@value": "4 Bett-Zimmer"
        }
      ]
    },
    {
      "@type": "ImageObject",
      "url": "http://resc.deskline.net/images/ZIL/1/15332faa-7127-4a7f-8c1d-290170a7c396/99/image.jpg",
      "caption": [
        {
          "@language": "de",
          "@value": "Küche"
        },
        {
          "@language": "en",
          "@value": "Küche"
        }
      ]
    },
    {
      "@type": "ImageObject",
      "url": "http://resc.deskline.net/images/ZIL/1/2dc5c004-6c3e-4d09-84e1-65b1ffcafe9a/99/image.jpg",
      "caption": [
        {
          "@language": "de",
          "@value": "Außenansicht_Winter"
        },
        {
          "@language": "en",
          "@value": "Außenansicht_Winter"
        }
      ]
    },
    {
      "@type": "ImageObject",
      "url": "http://resc.deskline.net/images/ZIL/1/7b6802d4-ce13-482e-97db-7590b73619ea/99/image.jpg",
      "caption": [
        {
          "@language": "de",
          "@value": "Blick ins Skigebiet"
        },
        {
          "@language": "en",
          "@value": "Blick ins Skigebiet"
        }
      ]
    }
  ],
  "geo": {
    "@type": "GeoCoordinates",
    "latitude": "47.259526",
    "longitude": "11.892122"
  },
  "currenciesAccepted": "EUR",
  "makesOffer": [
    {
      "@type": "Offer",
      "name": [
        {
          "@language": "de",
          "@value": "Ferienhaus, Bad, WC, 2 Schlafräume"
        },
        {
          "@language": "en",
          "@value": "Holiday home, bath, toilet, 2 bed rooms"
        }
      ],
      "description": [
        {
          "@language": "de",
          "@value": "Der Ferienbungalow hat 2 Schlafräume für bis zu 6 Personen, Vorraum mit Garderobe, einen Wohnraum mit Eckbank und Sofabereich, eine voll ausgestattete Küche und ein Bad mit Dusche u. WC. Bettwäsche, Handtücher, Geschirrtücher werden von uns zur Verfügung gestellt. Die Küche ist mit Backofen, Dunstabzug, Kühlschrank mit Gefrierfach, Wasserkocher, Kaffeemaschine, Toaster und einer Mikrowelle ausgestattet. Nötiges Besteck, Geschirr, Gläser und Töpfe werden ebenfalls von uns zur Verfügung gestellt. In unserem gemütlichen Wohnraum mit Essecke für 6 Personen haben wir auch eine Couch und Sessel, TV und ein Radio um zu relaxen. "
        }
      ],
      "availability": "http://schema.org/InStock",
      "itemOffered": [
        {
          "@type": [
            "Apartment",
            "Product"
          ],
          "name": [
            {
              "@language": "de",
              "@value": "Ferienhaus, Bad, WC, 2 Schlafräume"
            },
            {
              "@language": "en",
              "@value": "Holiday home, bath, toilet, 2 bed rooms"
            }
          ],
          "numberOfRooms": "3.0",
          "occupancy": {
            "@type": "QuantitativeValue",
            "maxValue": "6",
            "minValue": "2"
          }
        }
      ]
    }
  ]
}