{
  "@context": "http://schema.org",
  "@type": "LodgingBusiness",
  "url": [
    "http://"
  ],
  "address": {
    "@type": "PostalAddress",
    "name": "Ferienwohnung Garber",
    "streetAddress": "Franz-Wildauer-Weg 8",
    "addressCountry": "AT",
    "postalCode": "6271",
    "addressRegion": "Uderns",
    "telephone": "(0043) 664 750 69590",
    "email": "info@ferienwohnung-garber.at",
    "url": "http://www.ferienwohnung-garber.at"
  },
  "name": "Ferienwohnung Garber",
  "description": [
    {
      "@language": "de",
      "@value": "Neu renovierte Ferienwohnung für max. 10 Personen in direkter Lage am Golfplatz Zillertal. Sehr ruhige Lage. Schibushaltestelle und Supermarkt ca. 100 Meter entfernt. Schigebiete Ski-optimal-Hochzillertal und Spieljoch-Fügen, Erlebnistherme Fügen in nur wenigen Autominuten erreichbar."
    },
    {
      "@language": "de",
      "@value": "Endreinigung für 4 Personen: 70 Euro. Endreinigung ab 6 Personen 95 Euro.\n"
    }
  ],
  "aggregateRating": {
    "@type": "AggregateRating",
    "ratingValue": "4.8",
    "reviewCount": "10"
  },
  "image": [
    {
      "@type": "ImageObject",
      "url": "http://resc.deskline.net/images/ZIL/1/dcc134ec-9043-482f-8fda-91014da66131/99/image.jpg",
      "caption": [
        {
          "@language": "de",
          "@value": "Ferienwohnung Garber"
        },
        {
          "@language": "en",
          "@value": "Ferienwohnung Garber"
        }
      ]
    },
    {
      "@type": "ImageObject",
      "url": "http://resc.deskline.net/images/ZIL/1/d660b28e-4e3c-41fe-b040-82dfaf186529/99/image.jpg",
      "caption": [
        {
          "@language": "de",
          "@value": "Grundrissplan"
        },
        {
          "@language": "en",
          "@value": "Grundrissplan"
        }
      ]
    },
    {
      "@type": "ImageObject",
      "url": "http://resc.deskline.net/images/ZIL/1/7fec5ac3-3710-46a7-9b6a-30d79dea8592/99/image.jpg",
      "caption": [
        {
          "@language": "de",
          "@value": "Zimmer 1"
        },
        {
          "@language": "en",
          "@value": "Zimmer 1"
        }
      ]
    },
    {
      "@type": "ImageObject",
      "url": "http://resc.deskline.net/images/ZIL/1/4dfbe995-2fff-43b9-a7b5-cc9abaff2628/99/image.jpg",
      "caption": [
        {
          "@language": "de",
          "@value": "Zimmer Nr 1"
        },
        {
          "@language": "en",
          "@value": "Zimmer Nr 1"
        }
      ]
    },
    {
      "@type": "ImageObject",
      "url": "http://resc.deskline.net/images/ZIL/1/35308b95-814c-4347-872d-594dce033174/99/image.jpg",
      "caption": [
        {
          "@language": "de",
          "@value": "Bad 1"
        },
        {
          "@language": "en",
          "@value": "Bad 1"
        }
      ]
    },
    {
      "@type": "ImageObject",
      "url": "http://resc.deskline.net/images/ZIL/1/fc02c9d5-0385-4f85-918c-fd1049cf3f7d/99/image.jpg",
      "caption": [
        {
          "@language": "de",
          "@value": "Badezimmer "
        },
        {
          "@language": "en",
          "@value": "Badezimmer "
        }
      ]
    },
    {
      "@type": "ImageObject",
      "url": "http://resc.deskline.net/images/ZIL/1/3161f519-06b9-49e8-bc26-98dd928b4875/99/image.jpg",
      "caption": [
        {
          "@language": "de",
          "@value": "Föhn,Kosmetikspiegel"
        },
        {
          "@language": "en",
          "@value": "Föhn,Kosmetikspiegel"
        }
      ]
    },
    {
      "@type": "ImageObject",
      "url": "http://resc.deskline.net/images/ZIL/1/f912a45e-804d-419b-933c-1306ca869293/99/image.jpg",
      "caption": [
        {
          "@language": "de",
          "@value": "Haus Uderns"
        },
        {
          "@language": "en",
          "@value": "Haus Uderns"
        }
      ]
    },
    {
      "@type": "ImageObject",
      "url": "http://resc.deskline.net/images/ZIL/1/e95d351e-3e76-4c78-9c45-148b46221282/99/image.jpg",
      "caption": [
        {
          "@language": "de",
          "@value": "Kühl-/Gefrierschrank"
        },
        {
          "@language": "en",
          "@value": "Kühl-/Gefrierschrank"
        }
      ]
    },
    {
      "@type": "ImageObject",
      "url": "http://resc.deskline.net/images/ZIL/1/9aa35763-f050-4578-b343-c66243aa1de8/99/image.jpg",
      "caption": [
        {
          "@language": "de",
          "@value": "Küche"
        },
        {
          "@language": "en",
          "@value": "Küche"
        }
      ]
    },
    {
      "@type": "ImageObject",
      "url": "http://resc.deskline.net/images/ZIL/1/6c152a33-f128-44ef-9b78-2af3daee01b2/99/image.jpg",
      "caption": [
        {
          "@language": "de",
          "@value": "Kochen"
        },
        {
          "@language": "en",
          "@value": "Kochen"
        }
      ]
    },
    {
      "@type": "ImageObject",
      "url": "http://resc.deskline.net/images/ZIL/1/bea90ce5-95af-4ee2-891c-faacde1863a4/99/image.jpg",
      "caption": [
        {
          "@language": "de",
          "@value": "Wohnküche"
        },
        {
          "@language": "en",
          "@value": "Wohnküche"
        }
      ]
    },
    {
      "@type": "ImageObject",
      "url": "http://resc.deskline.net/images/ZIL/1/8fdf2cb5-1728-4725-b5fe-f29997ce97cc/99/image.jpg",
      "caption": [
        {
          "@language": "de",
          "@value": "Aussicht vom Balkon"
        },
        {
          "@language": "en",
          "@value": "Aussicht vom Balkon"
        }
      ]
    },
    {
      "@type": "ImageObject",
      "url": "http://resc.deskline.net/images/ZIL/1/2e7f04b5-1bcb-40d6-b123-1c03076cd095/99/image.jpg",
      "caption": [
        {
          "@language": "de",
          "@value": "Zimmer 3"
        },
        {
          "@language": "en",
          "@value": "Zimmer 3"
        }
      ]
    },
    {
      "@type": "ImageObject",
      "url": "http://resc.deskline.net/images/ZIL/1/93f540ec-fb45-4fc0-8e81-513215004ab2/99/image.jpg",
      "caption": [
        {
          "@language": "de",
          "@value": "Zimmer Nr 3"
        },
        {
          "@language": "en",
          "@value": "Zimmer Nr 3"
        }
      ]
    },
    {
      "@type": "ImageObject",
      "url": "http://resc.deskline.net/images/ZIL/1/124ea8ce-645d-4b96-8830-6a113caa1df8/99/image.jpg",
      "caption": [
        {
          "@language": "de",
          "@value": "Bad 3"
        },
        {
          "@language": "en",
          "@value": "Bad 3"
        }
      ]
    },
    {
      "@type": "ImageObject",
      "url": "http://resc.deskline.net/images/ZIL/1/e4106745-8d21-4dcc-bc66-43d3d76fb656/99/image.jpg",
      "caption": [
        {
          "@language": "de",
          "@value": "Zirbenzimmer"
        },
        {
          "@language": "en",
          "@value": "Zirbenzimmer"
        }
      ]
    },
    {
      "@type": "ImageObject",
      "url": "http://resc.deskline.net/images/ZIL/1/ee9cffb8-a263-424a-868b-28541e9c81b6/99/image.jpg",
      "caption": [
        {
          "@language": "de",
          "@value": "4 WC separat am Gang"
        },
        {
          "@language": "en",
          "@value": "4 WC separat am Gang"
        }
      ]
    },
    {
      "@type": "ImageObject",
      "url": "http://resc.deskline.net/images/ZIL/1/a0734f4d-9219-4481-a6e4-6d01d93e5b99/99/image.jpg",
      "caption": [
        {
          "@language": "de",
          "@value": "Dusche Zi 4 und 5"
        },
        {
          "@language": "en",
          "@value": "Dusche Zi 4 und 5"
        }
      ]
    },
    {
      "@type": "ImageObject",
      "url": "http://resc.deskline.net/images/ZIL/1/5f7232b5-9822-4a81-8167-34edb1a56787/99/image.jpg",
      "caption": [
        {
          "@language": "de",
          "@value": "Bad Zi 4,5"
        },
        {
          "@language": "en",
          "@value": "Bad Zi 4,5"
        }
      ]
    },
    {
      "@type": "ImageObject",
      "url": "http://resc.deskline.net/images/ZIL/1/c428ac00-d15a-4c5e-9738-bf8ef6f03656/99/image.jpg",
      "caption": [
        {
          "@language": "de",
          "@value": "Dusche"
        },
        {
          "@language": "en",
          "@value": "Dusche"
        }
      ]
    },
    {
      "@type": "ImageObject",
      "url": "http://resc.deskline.net/images/ZIL/1/e31395f0-2045-4417-ad4a-1eb85d062086/99/image.jpg",
      "caption": [
        {
          "@language": "de",
          "@value": "Zi 4 und 5 "
        },
        {
          "@language": "en",
          "@value": "Zi 4 und 5 "
        }
      ]
    },
    {
      "@type": "ImageObject",
      "url": "http://resc.deskline.net/images/ZIL/1/ac10e9ca-758e-4547-ba10-9353e7ade3b2/99/image.jpg",
      "caption": [
        {
          "@language": "de",
          "@value": "Etagenbett"
        },
        {
          "@language": "en",
          "@value": "Etagenbett"
        }
      ]
    }
  ],
  "geo": {
    "@type": "GeoCoordinates",
    "latitude": "47.3190414",
    "longitude": "11.8626771"
  },
  "currenciesAccepted": "EUR",
  "makesOffer": [
    {
      "@type": "Offer",
      "name": [
        {
          "@language": "de",
          "@value": "Appartement/Fewo, Dusche, WC, 4 oder mehr Schlafräume"
        },
        {
          "@language": "en",
          "@value": "Apartment, shower, toilet, 4 or more bed rooms"
        }
      ],
      "availability": "http://schema.org/InStock",
      "itemOffered": [
        {
          "@type": [
            "Apartment",
            "Product"
          ],
          "name": [
            {
              "@language": "de",
              "@value": "Appartement, 4 Schlafzimmer, 3 Badezimmer (DUWC)"
            },
            {
              "@language": "en",
              "@value": "Apartment, shower, toilet, 4 or more bed rooms"
            }
          ],
          "description": [
            {
              "@language": "de",
              "@value": "Großes neu renoviertes App. im 1. Stock mit eigenem Eingang und Schiraum. Ein Doppelzimmer, ein Vierbettzimmer (Doppelbett und ausziehbares Bett), ein Familienzimmer mit Verbindungstür ( Doppelzimmer + Zimmer mit Etagenbett). Jedes Zimmer verfügt über einen Flachbild-SAT-TV und ein eigenes Bad mit Dusche und WC. Große komplett ausgestattete Küche mit Sat-TV. Bettwäsche, Handtücher, Strom und Wasser inklusive. WC am Gang separat.Schiraum"
            }
          ],
          "image": [
            {
              "@type": "ImageObject",
              "url": "http://resc.deskline.net/images/ZIL/1/90297b19-1a23-4368-8317-74c893bb97c1/99/image.jpg",
              "caption": [
                {
                  "@language": "de",
                  "@value": "Haus Uderns"
                },
                {
                  "@language": "en",
                  "@value": "Haus Uderns"
                }
              ]
            },
            {
              "@type": "ImageObject",
              "url": "http://resc.deskline.net/images/ZIL/1/ea60063b-94d3-42c3-9679-b3d5b66e7e8b/99/image.jpg",
              "caption": [
                {
                  "@language": "de",
                  "@value": "Grundrissplan"
                },
                {
                  "@language": "en",
                  "@value": "Grundrissplan"
                }
              ]
            }
          ],
          "numberOfRooms": "5.0",
          "occupancy": {
            "@type": "QuantitativeValue",
            "maxValue": "10",
            "minValue": "4"
          }
        }
      ]
    }
  ]
}