{
  "@context": "http://schema.org",
  "@type": "LodgingBusiness",
  "url": [
    "http://www.roemerhof.or.at",
    "http://maps.best-of-zillertal.at/proxy/frontend/page/fuegen/de?foreignResource\u003d82D8F92D-6D8D-4033-89E4-45DDF818E935"
  ],
  "address": {
    "@type": "PostalAddress",
    "streetAddress": "Römerweg 6",
    "addressCountry": "AT",
    "postalCode": "6263",
    "addressRegion": "Fügen",
    "telephone": "(0043) 5288 62388",
    "faxNumber": "(0043) 5288 62351",
    "email": "ferien.roemerhof@tirol.com",
    "url": "www.roemerhof.or.at"
  },
  "name": "Appartements Römerhof",
  "description": [
    {
      "@language": "de",
      "@value": "Inmitten von herrlichen Wiesen liegt das im typischen Tiroler Stil erbaute Ferienwohnhaus \"Römerhof\", alleinstehend, 2 Kilometer außerhalb des Ortes im Ortsteil Kapfing, an einer Nebenstraße, in ruhiger, sonniger Lage, mit schönem Panoramablick auf die Gebirgswelt der Zillertaler Alpen. Eine Bushaltestelle, ein Lebensmittelgeschäft und der Bahnhof sind in unmittelbarer Nähe.  Diverse Wintersporteinrichtungen sind nur zwischen 500 m und 2000 m entfernt. das Freibad liegt nur 200 m entfernt und für Pferdefreunde gibt es eine neue Reitsportanlage in nächster Nähe. Wir können Ihnen als Extra Solarium, Sauna und einen Waschautomaten anbieten. NEU! W-LAN"
    },
    {
      "@language": "de",
      "@value": "Endreinigung von EUR 37,-- bis EUR 43,--"
    },
    {
      "@language": "de",
      "@value": "Check-in: ab 15.00 Uhr\nCheck-out: bis 10.00 Uhr"
    },
    {
      "@language": "en",
      "@value": "Amidst wonderful meadows there\u0027s the holiday residence \"Römerhof\", built in tyrolean style; individual layer, 2 km off the centre in district Kapfing, side street, quiet and sunny position, with nice panoramic view over the Ziller valley alps. Bus stop, grocery and station at close quarters. Diverse winter sports facilities only 500 to 2000 m away. Open air swimming bath 200 m away, for horse lovers recently built riding facilities close-by. In addition we can offer you solarium, sauna and a washing machine. NEW! W-LAN"
    },
    {
      "@language": "en",
      "@value": "final cleaning EUR 37,-- to EUR 43,--"
    },
    {
      "@language": "en",
      "@value": "Check-in: from 3.00 pm\nCheck-out: until 10.00 am"
    }
  ],
  "image": [
    {
      "@type": "ImageObject",
      "url": "http://resc.deskline.net/images/ZIL/1/aad54d9f-044e-4542-a0bd-fafbcfc74098/99/image.jpg",
      "caption": [
        {
          "@language": "de",
          "@value": "Römerhof 3"
        },
        {
          "@language": "en",
          "@value": "Römerhof 3"
        }
      ]
    },
    {
      "@type": "ImageObject",
      "url": "http://resc.deskline.net/images/ZIL/1/7d914462-34c5-4c14-8c0e-b40241e912d0/99/image.jpg",
      "caption": [
        {
          "@language": "de",
          "@value": "Römerhof 1"
        },
        {
          "@language": "en",
          "@value": "Römerhof 1"
        }
      ]
    },
    {
      "@type": "ImageObject",
      "url": "http://resc.deskline.net/images/ZIL/1/ee197e4f-993d-463d-81b2-1d7c0b70da6e/99/image.jpg",
      "caption": [
        {
          "@language": "de",
          "@value": "Römerhof 1R"
        },
        {
          "@language": "en",
          "@value": "Römerhof 1R"
        }
      ]
    },
    {
      "@type": "ImageObject",
      "url": "http://resc.deskline.net/images/ZIL/1/650a1ebe-e898-4c83-868b-0f7ca8d5a0f0/99/image.jpg",
      "caption": [
        {
          "@language": "de",
          "@value": "Römerhof 2"
        },
        {
          "@language": "en",
          "@value": "Römerhof 2"
        }
      ]
    },
    {
      "@type": "ImageObject",
      "url": "http://resc.deskline.net/images/ZIL/1/25cad60f-e814-4a64-ac5b-51a8597d2e21/99/image.jpg",
      "caption": [
        {
          "@language": "de",
          "@value": "IMG_1094"
        },
        {
          "@language": "en",
          "@value": "IMG_1094"
        }
      ]
    },
    {
      "@type": "ImageObject",
      "url": "http://resc.deskline.net/images/ZIL/1/fd39201e-35e6-4948-a9a2-a1c141e6c9da/99/image.jpg",
      "caption": [
        {
          "@language": "de",
          "@value": "Römerhof im Winter 2R"
        },
        {
          "@language": "en",
          "@value": "Römerhof im Winter 2R"
        }
      ]
    },
    {
      "@type": "ImageObject",
      "url": "http://resc.deskline.net/images/ZIL/1/62085a9a-3967-49f9-be52-5aca3fe1c85e/99/image.jpg",
      "caption": [
        {
          "@language": "de",
          "@value": "Römerhof im Winter 4"
        },
        {
          "@language": "en",
          "@value": "Römerhof im Winter 4"
        }
      ]
    },
    {
      "@type": "ImageObject",
      "url": "http://resc.deskline.net/images/ZIL/1/e7d6ad1a-f362-446b-b5a7-4160cf218516/99/image.jpg",
      "caption": [
        {
          "@language": "de",
          "@value": "Römerhof im Winter 1R"
        },
        {
          "@language": "en",
          "@value": "Römerhof im Winter 1R"
        }
      ]
    },
    {
      "@type": "ImageObject",
      "url": "http://resc.deskline.net/images/ZIL/1/974303cc-fcba-4720-8069-1ce9ab03669d/99/image.jpg",
      "caption": [
        {
          "@language": "de",
          "@value": "Römerhof im Winter 1"
        },
        {
          "@language": "en",
          "@value": "Römerhof im Winter 1"
        }
      ]
    },
    {
      "@type": "ImageObject",
      "url": "http://resc.deskline.net/images/ZIL/1/921f4904-b587-4caf-a317-8be302e725ee/99/image.jpg",
      "caption": [
        {
          "@language": "de",
          "@value": "App_Roemerhof_Fuegen_Appartement_1"
        },
        {
          "@language": "en",
          "@value": "App_Roemerhof_Fuegen_Appartement_1"
        }
      ]
    },
    {
      "@type": "ImageObject",
      "url": "http://resc.deskline.net/images/ZIL/1/44c5e40b-e069-4ea9-b2eb-0626d6074e61/99/image.jpg",
      "caption": [
        {
          "@language": "de",
          "@value": "App_Roemerhof_Fuegen_Appartement_1_1"
        },
        {
          "@language": "en",
          "@value": "App_Roemerhof_Fuegen_Appartement_1_1"
        }
      ]
    },
    {
      "@type": "ImageObject",
      "url": "http://resc.deskline.net/images/ZIL/1/7a906b7b-3577-45a6-9803-cf4a3e7a3fdc/99/image.jpg",
      "caption": [
        {
          "@language": "de",
          "@value": "App_Roemerhof_Fuegen_Appartement_1_2"
        },
        {
          "@language": "en",
          "@value": "App_Roemerhof_Fuegen_Appartement_1_2"
        }
      ]
    },
    {
      "@type": "ImageObject",
      "url": "http://resc.deskline.net/images/ZIL/1/35d7db42-0322-4395-afc3-2d0ab09038df/99/image.jpg",
      "caption": [
        {
          "@language": "de",
          "@value": "App_Roemerhof_Fuegen_Appartement_2_2"
        },
        {
          "@language": "en",
          "@value": "App_Roemerhof_Fuegen_Appartement_2_2"
        }
      ]
    },
    {
      "@type": "ImageObject",
      "url": "http://resc.deskline.net/images/ZIL/1/e3530d9d-b568-4cd8-8465-40d6cf35cb4c/99/image.jpg",
      "caption": [
        {
          "@language": "de",
          "@value": "App_Roemerhof_Fuegen_Appartement_8"
        },
        {
          "@language": "en",
          "@value": "App_Roemerhof_Fuegen_Appartement_8"
        }
      ]
    },
    {
      "@type": "ImageObject",
      "url": "http://resc.deskline.net/images/ZIL/1/0d1e9219-f96c-4121-b122-8c545c394ff4/99/image.jpg",
      "caption": [
        {
          "@language": "de",
          "@value": "App_Roemerhof_Fuegen_Appartement_8_1"
        },
        {
          "@language": "en",
          "@value": "App_Roemerhof_Fuegen_Appartement_8_1"
        }
      ]
    },
    {
      "@type": "ImageObject",
      "url": "http://resc.deskline.net/images/ZIL/1/18234e61-c564-426c-9ab8-53e3ec2ad818/99/image.jpg",
      "caption": [
        {
          "@language": "de",
          "@value": "App_Roemerhof_Fuegen_Appartement_9"
        },
        {
          "@language": "en",
          "@value": "App_Roemerhof_Fuegen_Appartement_9"
        }
      ]
    },
    {
      "@type": "ImageObject",
      "url": "http://resc.deskline.net/images/ZIL/1/fa2813b0-bcd6-4418-a922-26c0d60d91b1/99/image.jpg",
      "caption": [
        {
          "@language": "de",
          "@value": "App_Roemerhof_Fuegen_Appartement_9_1"
        },
        {
          "@language": "en",
          "@value": "App_Roemerhof_Fuegen_Appartement_9_1"
        }
      ]
    },
    {
      "@type": "ImageObject",
      "url": "http://resc.deskline.net/images/ZIL/1/8f2762ae-8cf8-47ca-970a-a8e93d5a398c/99/image.jpg",
      "caption": [
        {
          "@language": "de",
          "@value": "App_Roemerhof_Fuegen_Appartement_9_2"
        },
        {
          "@language": "en",
          "@value": "App_Roemerhof_Fuegen_Appartement_9_2"
        }
      ]
    },
    {
      "@type": "ImageObject",
      "url": "http://resc.deskline.net/images/ZIL/1/e287174c-dabf-4ed4-ac0e-6b19432df45f/99/image.jpg",
      "caption": [
        {
          "@language": "de",
          "@value": "App_Roemerhof_Fuegen_Appartement_10"
        },
        {
          "@language": "en",
          "@value": "App_Roemerhof_Fuegen_Appartement_10"
        }
      ]
    },
    {
      "@type": "ImageObject",
      "url": "http://resc.deskline.net/images/ZIL/1/6246c9ca-b3bd-44a6-9767-3e180078eea5/99/image.jpg",
      "caption": [
        {
          "@language": "de",
          "@value": "App_Roemerhof_Fuegen_Appartement_9_3"
        },
        {
          "@language": "en",
          "@value": "App_Roemerhof_Fuegen_Appartement_9_3"
        }
      ]
    },
    {
      "@type": "ImageObject",
      "url": "http://resc.deskline.net/images/ZIL/1/87e1264c-64d6-44ae-808b-6bc29edbb060/99/image.jpg",
      "caption": [
        {
          "@language": "de",
          "@value": "App_Roemerhof_Fuegen_Appartement_10_1"
        },
        {
          "@language": "en",
          "@value": "App_Roemerhof_Fuegen_Appartement_10_1"
        }
      ]
    },
    {
      "@type": "ImageObject",
      "url": "http://resc.deskline.net/images/ZIL/1/aa1f89ee-e4a6-450a-aa08-0995650da3cd/99/image.jpg",
      "caption": [
        {
          "@language": "de",
          "@value": "App_Roemerhof_Fuegen_Appartement_10_2"
        },
        {
          "@language": "en",
          "@value": "App_Roemerhof_Fuegen_Appartement_10_2"
        }
      ]
    },
    {
      "@type": "ImageObject",
      "url": "http://resc.deskline.net/images/ZIL/1/40818c0c-1782-40d7-8b1d-6abb47176bc8/99/image.jpg",
      "caption": [
        {
          "@language": "de",
          "@value": "App_Roemerhof_Fuegen_Appartement_11_1"
        },
        {
          "@language": "en",
          "@value": "App_Roemerhof_Fuegen_Appartement_11_1"
        }
      ]
    },
    {
      "@type": "ImageObject",
      "url": "http://resc.deskline.net/images/ZIL/1/5ad8d7f4-80c5-4f8e-ae2a-f77d85ddc0d4/99/image.jpg",
      "caption": [
        {
          "@language": "de",
          "@value": "App_Roemerhof_Fuegen_Appartement_11"
        },
        {
          "@language": "en",
          "@value": "App_Roemerhof_Fuegen_Appartement_11"
        }
      ]
    },
    {
      "@type": "ImageObject",
      "url": "http://resc.deskline.net/images/ZIL/1/4b503ad2-704f-4ba0-a248-adf043d83f83/99/image.jpg",
      "caption": [
        {
          "@language": "de",
          "@value": "App_Roemerhof_Fuegen_Appartement_11_3"
        },
        {
          "@language": "en",
          "@value": "App_Roemerhof_Fuegen_Appartement_11_3"
        }
      ]
    },
    {
      "@type": "ImageObject",
      "url": "http://resc.deskline.net/images/ZIL/1/2d27e1d7-0ae1-455e-b6b0-c6685f8da3ce/99/image.jpg",
      "caption": [
        {
          "@language": "de",
          "@value": "App_Roemerhof_Fuegen_Eingangsbereich"
        },
        {
          "@language": "en",
          "@value": "App_Roemerhof_Fuegen_Eingangsbereich"
        }
      ]
    },
    {
      "@type": "ImageObject",
      "url": "http://resc.deskline.net/images/ZIL/1/6c3fd89a-8cbf-49d3-8066-382842b21a13/99/image.jpg",
      "caption": [
        {
          "@language": "de",
          "@value": "App_Roemerhof_Fuegen_Haus_aussen"
        },
        {
          "@language": "en",
          "@value": "App_Roemerhof_Fuegen_Haus_aussen"
        }
      ]
    },
    {
      "@type": "ImageObject",
      "url": "http://resc.deskline.net/images/ZIL/1/487cc962-7ef2-4bea-ab97-da72e51a5fbd/99/image.jpg",
      "caption": [
        {
          "@language": "de",
          "@value": "App_Roemerhof_Fuegen_Haus_aussen_1"
        },
        {
          "@language": "en",
          "@value": "App_Roemerhof_Fuegen_Haus_aussen_1"
        }
      ]
    },
    {
      "@type": "ImageObject",
      "url": "http://resc.deskline.net/images/ZIL/1/94e63080-2dd9-4d6a-bd4b-44bed3f6a1ab/99/image.jpg",
      "caption": [
        {
          "@language": "de",
          "@value": "App_Roemerhof_Fuegen_Appartement_11_2"
        },
        {
          "@language": "en",
          "@value": "App_Roemerhof_Fuegen_Appartement_11_2"
        }
      ]
    },
    {
      "@type": "ImageObject",
      "url": "http://resc.deskline.net/images/ZIL/1/980e4183-8edf-46c2-88c6-dd6ae525d05e/99/image.jpg",
      "caption": [
        {
          "@language": "de",
          "@value": "App_Roemerhof_Fuegen_Stiegenhaus"
        },
        {
          "@language": "en",
          "@value": "App_Roemerhof_Fuegen_Stiegenhaus"
        }
      ]
    }
  ],
  "geo": {
    "@type": "GeoCoordinates",
    "latitude": "47.334503829525254",
    "longitude": "11.857616901397705"
  },
  "currenciesAccepted": "EUR",
  "makesOffer": [
    {
      "@type": "Offer",
      "name": [
        {
          "@language": "de",
          "@value": "Appartement/Fewo, Dusche oder Bad, WC, 1 Schlafraum"
        },
        {
          "@language": "en",
          "@value": "Apartment, shower or bath, toilet, 1 bed room"
        }
      ],
      "description": [
        {
          "@language": "de",
          "@value": "Einraumappartement für 2 Personen mit Kochnische und Essecke, WC, Bad oder Dusche, ca. 40 m²."
        },
        {
          "@language": "en",
          "@value": "1 room appartment for 2 persone with kitchenette and dining corner, toilet, bath or shower, approx 40 qm"
        }
      ],
      "availability": "http://schema.org/InStock",
      "itemOffered": [
        {
          "@type": [
            "Apartment",
            "Product"
          ],
          "name": [
            {
              "@language": "de",
              "@value": "Ferienwohnung für 2 Personen"
            },
            {
              "@language": "en",
              "@value": "Apartment, shower or bath, toilet, 1 bed room"
            }
          ],
          "numberOfRooms": "2.0",
          "occupancy": {
            "@type": "QuantitativeValue",
            "maxValue": "2",
            "minValue": "1"
          }
        }
      ],
      "priceSpecification": [
        {
          "@type": "PriceSpecification",
          "description": "Pax 2",
          "minPrice": "347.00",
          "maxPrice": "347.00",
          "priceCurrency": "EUR"
        }
      ]
    },
    {
      "@type": "Offer",
      "name": [
        {
          "@language": "de",
          "@value": "Appartement/Fewo, Bad, WC, 1 Schlafraum"
        },
        {
          "@language": "en",
          "@value": "Apartment, bath, toilet, 1 bed room"
        }
      ],
      "description": [
        {
          "@language": "de",
          "@value": "Zweizimmerwohnung für 2-5 Personen,  Wohn- und Eßzimmer mit Doppeldiwan und Polstersessel, 1 Zweibettzimmer, im Vorraum Kochnische mit E-Herd, Backofen, Kühlschrank, Bad oder Dusche, WC, Balkon; ca. 65 m²."
        },
        {
          "@language": "en",
          "@value": "2 room appartment for 2 - 5 persons,  living - dining room with double sofa bed and couch, 1 twin room, hall with kitchenette with electric range, oven, fridge; bath or shower, toilet, balcony, approx 65 qm"
        }
      ],
      "availability": "http://schema.org/InStock",
      "itemOffered": [
        {
          "@type": [
            "Apartment",
            "Product"
          ],
          "name": [
            {
              "@language": "de",
              "@value": "Ferienwohnung für 2 - 4 Personen"
            },
            {
              "@language": "en",
              "@value": "Apartment, bath, toilet, 1 bed room"
            }
          ],
          "numberOfRooms": "2.0",
          "occupancy": {
            "@type": "QuantitativeValue",
            "maxValue": "4",
            "minValue": "1"
          }
        }
      ],
      "priceSpecification": [
        {
          "@type": "PriceSpecification",
          "description": "Pax 2",
          "minPrice": "570.00",
          "maxPrice": "570.00",
          "priceCurrency": "EUR"
        },
        {
          "@type": "PriceSpecification",
          "description": "Pax 3",
          "minPrice": "570.00",
          "maxPrice": "570.00",
          "priceCurrency": "EUR"
        },
        {
          "@type": "PriceSpecification",
          "description": "Pax 4",
          "minPrice": "570.00",
          "maxPrice": "570.00",
          "priceCurrency": "EUR"
        }
      ]
    },
    {
      "@type": "Offer",
      "name": [
        {
          "@language": "de",
          "@value": "Appartement/Fewo, Toilette und Bad/Dusche getrennt, 2 Schlafräume"
        },
        {
          "@language": "en",
          "@value": "Apartment, separate toilet and shower/bathtub, 2 bed rooms"
        }
      ],
      "description": [
        {
          "@language": "de",
          "@value": "Ferienwohnung für 4-7 Personen mit einem Wohnschlafzimmer mit Erker, Doppeldiwan, 2 Schlafzimmer, Bad, WC, große Küche, Terrasse, ca. 85 m²."
        },
        {
          "@language": "en",
          "@value": "Appartment for 4 - 7 persons with living-sleeping room with bay, double sofa bed, 2 sleeping rooms, bath, toilet, large kitchen, terrace, approx 85 qm"
        }
      ],
      "availability": "http://schema.org/InStock",
      "itemOffered": [
        {
          "@type": [
            "Apartment",
            "Product"
          ],
          "name": [
            {
              "@language": "de",
              "@value": "Ferienwohnung für 4 - 6 Personen"
            },
            {
              "@language": "en",
              "@value": "Apartment, separate toilet and shower/bathtub, 2 bed rooms"
            }
          ],
          "numberOfRooms": "4.0",
          "occupancy": {
            "@type": "QuantitativeValue",
            "maxValue": "6",
            "minValue": "1"
          }
        }
      ],
      "priceSpecification": [
        {
          "@type": "PriceSpecification",
          "description": "Pax 4",
          "minPrice": "770.00",
          "maxPrice": "770.00",
          "priceCurrency": "EUR"
        },
        {
          "@type": "PriceSpecification",
          "description": "Pax 5",
          "minPrice": "770.00",
          "maxPrice": "770.00",
          "priceCurrency": "EUR"
        },
        {
          "@type": "PriceSpecification",
          "description": "Pax 6",
          "minPrice": "770.00",
          "maxPrice": "770.00",
          "priceCurrency": "EUR"
        }
      ]
    }
  ]
}