{
  "@context": "http://schema.org",
  "@type": "BedAndBreakfast",
  "url": [
    "http://www.landhaus-tirol.com",
    "http://maps.best-of-zillertal.at/proxy/frontend/page/fuegen/de?foreignResource\u003d8781490C-E4BB-4B6D-88C6-4B42DB1EE416"
  ],
  "address": {
    "@type": "PostalAddress",
    "streetAddress": "Lenzengasse 2",
    "addressCountry": "AT",
    "postalCode": "6275",
    "addressRegion": "Stumm",
    "telephone": "(0043) 5283 2454",
    "faxNumber": "(0043) 5283 2454",
    "email": "info@garni-tyrol.at",
    "url": "http://www.garni-tyrol.at"
  },
  "name": "Garni Tyrol",
  "description": [
    {
      "@language": "de",
      "@value": "Nichtraucherhaus!\n\nStilvoll eingerichtetes Gästehaus unmittelbar vor dem schönen Stummer Dorfzentrum. Teeküche, Aufenthaltsraum, Liegewiese. 4 Zimmer / 8 Betten. Zimmer und Aufenthaltsräume sind Nichtraucher-Zonen. Skikeller und Skischuhtrockner. Skibushaltestelle gegenüber unseres Hauses.\n"
    },
    {
      "@language": "de",
      "@value": "Kurzaufenthaltszuschlag:\nbis 3 Nächte EUR 3,--"
    },
    {
      "@language": "en",
      "@value": "Elegantly furnished guest house situated close to the beautiful Stumm village centre. Tea making facilities, lounge, sunbathing lawn. 4 rooms / 8 beds. Rooms and lounges are non- smoking-areas! Close to ski bus stop and all leisure facilities.\n"
    },
    {
      "@language": "en",
      "@value": "Shortstay supplement:\nup to 3 nights EUR 3,--\n\n"
    }
  ],
  "image": [
    {
      "@type": "ImageObject",
      "url": "http://resc.deskline.net/images/ZIL/1/7f1dbd07-7924-4cd0-bcda-720a023487fc/99/image.jpg",
      "caption": [
        {
          "@language": "de",
          "@value": "Haus Sommer 1"
        },
        {
          "@language": "en",
          "@value": "Haus Sommer 1"
        }
      ]
    },
    {
      "@type": "ImageObject",
      "url": "http://resc.deskline.net/images/ZIL/1/2708f095-c814-4eba-a709-d80a62426eb9/99/image.jpg",
      "caption": [
        {
          "@language": "de",
          "@value": "Blick ins Dorf Sommer"
        },
        {
          "@language": "en",
          "@value": "Blick ins Dorf Sommer"
        }
      ]
    },
    {
      "@type": "ImageObject",
      "url": "http://resc.deskline.net/images/ZIL/1/f61462c4-3718-4233-a0d5-587e76beb489/99/image.jpg",
      "caption": [
        {
          "@language": "de",
          "@value": "Haus Winter 1"
        },
        {
          "@language": "en",
          "@value": "Haus Winter 1"
        }
      ]
    },
    {
      "@type": "ImageObject",
      "url": "http://resc.deskline.net/images/ZIL/1/58e5938f-cbff-43fc-ac17-24afa874f83c/99/image.jpg",
      "caption": [
        {
          "@language": "de",
          "@value": "Frühsücksraum 2"
        },
        {
          "@language": "en",
          "@value": "Frühsücksraum 2"
        }
      ]
    },
    {
      "@type": "ImageObject",
      "url": "http://resc.deskline.net/images/ZIL/1/8ee893d6-2761-4dd0-8e8d-94d3d59532eb/99/image.jpg",
      "caption": [
        {
          "@language": "de",
          "@value": "Frühstücksraum 1"
        },
        {
          "@language": "en",
          "@value": "Frühstücksraum 1"
        }
      ]
    },
    {
      "@type": "ImageObject",
      "url": "http://resc.deskline.net/images/ZIL/1/0952859f-1b22-45ae-aa24-a252649b96a4/99/image.jpg",
      "caption": [
        {
          "@language": "de",
          "@value": "Tischgruppe 1"
        },
        {
          "@language": "en",
          "@value": "Tischgruppe 1"
        }
      ]
    },
    {
      "@type": "ImageObject",
      "url": "http://resc.deskline.net/images/ZIL/1/2cb14039-217a-4ba1-ae98-52d4e5a77797/99/image.jpg",
      "caption": [
        {
          "@language": "de",
          "@value": "Tischgruppe 2"
        },
        {
          "@language": "en",
          "@value": "Tischgruppe 2"
        }
      ]
    },
    {
      "@type": "ImageObject",
      "url": "http://resc.deskline.net/images/ZIL/1/de05d7e1-b269-4686-9c3b-89b85f16b8bb/99/image.jpeg",
      "caption": [
        {
          "@language": "de",
          "@value": "Blick vom Balkon"
        },
        {
          "@language": "en",
          "@value": "Blick vom Balkon"
        }
      ]
    },
    {
      "@type": "ImageObject",
      "url": "http://resc.deskline.net/images/ZIL/1/cac1a551-7bff-47ca-a452-630ea544e488/99/image.jpg",
      "caption": [
        {
          "@language": "de",
          "@value": "Zimmer 1"
        },
        {
          "@language": "en",
          "@value": "Zimmer 1"
        }
      ]
    },
    {
      "@type": "ImageObject",
      "url": "http://resc.deskline.net/images/ZIL/1/e158590e-24ac-4f7f-8458-54b1fd2feb15/99/image.jpg",
      "caption": [
        {
          "@language": "de",
          "@value": "Zimmer 2"
        },
        {
          "@language": "en",
          "@value": "Zimmer 2"
        }
      ]
    }
  ],
  "geo": {
    "@type": "GeoCoordinates",
    "latitude": "47.292533463581",
    "longitude": "11.886519073597"
  },
  "currenciesAccepted": "EUR",
  "makesOffer": [
    {
      "@type": "Offer",
      "name": [
        {
          "@language": "de",
          "@value": "Doppelzimmer, Dusche, WC"
        },
        {
          "@language": "en",
          "@value": "Double room, shower, toilet"
        }
      ],
      "description": [
        {
          "@language": "de",
          "@value": "Gemütliche Zimmer mit DU/WC, Fön,  SAT-TV, großteils Balkon"
        },
        {
          "@language": "en",
          "@value": "Cosy rooms with shower/WC, hair-dryer, satellite TV, mainly balcony"
        }
      ],
      "availability": "http://schema.org/InStock",
      "itemOffered": [
        {
          "@type": [
            "HotelRoom",
            "Product"
          ],
          "name": [
            {
              "@language": "de",
              "@value": "Doppelzimmer mit Dusche, WC"
            },
            {
              "@language": "en",
              "@value": "double room with shower, WC"
            }
          ],
          "bed": {
            "@type": "BedDetails",
            "numberOfBeds": "1"
          },
          "occupancy": {
            "@type": "QuantitativeValue",
            "maxValue": "2",
            "minValue": "1"
          }
        }
      ],
      "priceSpecification": [
        {
          "@type": "PriceSpecification",
          "description": "Pax 1",
          "minPrice": "32.00",
          "maxPrice": "38.00",
          "priceCurrency": "EUR"
        },
        {
          "@type": "PriceSpecification",
          "description": "Pax 2",
          "minPrice": "26.00",
          "maxPrice": "32.00",
          "priceCurrency": "EUR"
        }
      ]
    }
  ]
}