{
  "@context": "http://schema.org",
  "@type": "LodgingBusiness",
  "url": [
    "http://www.fw-wechselberger.at",
    "http://maps.best-of-zillertal.at/proxy/frontend/page/fuegen/de?foreignResource\u003d8B40CB36-F64A-4483-AED2-A3F468E9B906"
  ],
  "address": {
    "@type": "PostalAddress",
    "name": "Appartmenthaus Angelika",
    "streetAddress": "Lenzengasse 4",
    "addressCountry": "AT",
    "postalCode": "6275",
    "addressRegion": "Stumm",
    "telephone": "(0043) 5283 3265",
    "faxNumber": "(0043) 5283 3265",
    "email": "office@fw-wechselberger.at",
    "url": "http://www.fw-wechselberger.at"
  },
  "name": "Appartmenthaus Angelika",
  "description": [
    {
      "@language": "de",
      "@value": "Zentral gelegenes Wohnhaus, in sonniger und ruhiger Lage, mit herrlichem Ausblick auf die Zillertaler Bergwelt. Skiraum, Trockenraum. Sämtliche Freizeitanlagen und Geschäfte sind in wenigen Gehminuten erreichbar. Parkplätze am Haus, die Skibushaltestelle ist nur ca. 50m entfernt."
    },
    {
      "@language": "de",
      "@value": "Endreinigung JOHANNES und MAX jeweils EUR 30,-- ab der 2. Person je zusätzlich EUR 5,--\nEndreinigung MAXIMILIAN EUR 40,-- + ab der 4. Person je zusätzlich EUR 5,--\nNichtraucherhaus, Rauchen am Balkon ist möglich.\nAuf Wunsch Brötchenservice. Bezüglich Haustiere ersuchen wir im Einzelfall rückzufragen, wobei Hunde NICHT gestattet sind!\nAbreise bis 10.00 Uhr, Anreise ab 15.00 Uhr möglich.\nIm Preis sind Strom, Wasser, Heizung, Bettwäsche, Handtücher, Badetücher und Geschirrtücher inkludiert. \nAuf Anfrage stellen wir gerne ein Kinderbett sowie einen Kindersitz für den Esstisch kostenfrei zur Verfügung.\nKinderermäßigung:\n0-1 Jahr      pauschal EUR 5,-- die Woche\n2-10 Jahre  50% Ermäßigung\n11-14 Jahre 25% Ermäßigung\nDie Tourismusabgabe beträgt pro Person und Tag € 1,-- im Winter bzw. 0,75 im Sommer (Kinder bis 15 Jahre sind von der Abgabe befreit).\nAnzahlung nach Vereinbarung.\nMindestaufenthalt: 3 Tage bei täglicher Anreise.\n\n"
    },
    {
      "@language": "de",
      "@value": "Anreise ab 15:00 Uhr\nAbreise bis 10:00 Uhr"
    },
    {
      "@language": "en",
      "@value": "House in sunny and central but quiet location with tremendous views of the Zillertal mountain world.  Storage room, ski storage room. All leisure facilities and shops are just a few minutes\u0027 walk away. The ski bus stop is only approx. 50 m away.\n"
    },
    {
      "@language": "en",
      "@value": "final cleaning JOHANNES and MAX € 30,-- and every person more € 5,-- each\nfinal cleaning MAXIMILIAN € 40,-- + and every 4th person € 5,-- each\nnon smoking hous, smoking is allowed at the balconies.\nbread rolls on request"
    },
    {
      "@language": "en",
      "@value": "Checkin 03:00 pm\nCheckout 10:00 am"
    }
  ],
  "aggregateRating": {
    "@type": "AggregateRating",
    "ratingValue": "4.8",
    "reviewCount": "30"
  },
  "image": [
    {
      "@type": "ImageObject",
      "url": "http://resc.deskline.net/images/ZIL/1/d9edef97-0b2e-412c-aecf-c05efe30e006/99/image.jpg",
      "caption": [
        {
          "@language": "de",
          "@value": "Appartmenthaus Angelika"
        },
        {
          "@language": "en",
          "@value": "Appartmenthaus Angelika"
        }
      ]
    },
    {
      "@type": "ImageObject",
      "url": "http://resc.deskline.net/images/ZIL/1/86be8526-1144-4881-8d8c-2db079fdf159/99/image.jpg",
      "caption": [
        {
          "@language": "de",
          "@value": "Grundriss FEWO"
        },
        {
          "@language": "en",
          "@value": "Grundriss FEWO"
        }
      ]
    },
    {
      "@type": "ImageObject",
      "url": "http://resc.deskline.net/images/ZIL/1/f33d4a87-504a-4dbf-93fe-b90aa44bf633/99/image.jpg",
      "caption": [
        {
          "@language": "de",
          "@value": "Grundriss FEWO 2"
        },
        {
          "@language": "en",
          "@value": "Grundriss FEWO 2"
        }
      ]
    },
    {
      "@type": "ImageObject",
      "url": "http://resc.deskline.net/images/ZIL/1/22592dce-f6a4-4d39-8569-aea5abdd33cf/99/image.jpg",
      "caption": [
        {
          "@language": "de",
          "@value": "Schlafzimmer Johannes"
        },
        {
          "@language": "en",
          "@value": "Schlafzimmer Johannes"
        }
      ]
    },
    {
      "@type": "ImageObject",
      "url": "http://resc.deskline.net/images/ZIL/1/46c0cc81-c4ef-4a96-b24e-6769ad646067/99/image.jpg",
      "caption": [
        {
          "@language": "de",
          "@value": "Bad Johannes"
        },
        {
          "@language": "en",
          "@value": "Bad Johannes"
        }
      ]
    },
    {
      "@type": "ImageObject",
      "url": "http://resc.deskline.net/images/ZIL/1/ecf7f1d4-c4e8-4d5f-9a87-426afcf7c429/99/image.jpg",
      "caption": [
        {
          "@language": "de",
          "@value": "Küche Johannes"
        },
        {
          "@language": "en",
          "@value": "Küche Johannes"
        }
      ]
    },
    {
      "@type": "ImageObject",
      "url": "http://resc.deskline.net/images/ZIL/1/17ac2f0d-a17e-4e58-af9d-83798adef39d/99/image.jpg",
      "caption": [
        {
          "@language": "de",
          "@value": "Schlafzimmer Max1"
        },
        {
          "@language": "en",
          "@value": "Schlafzimmer Max1"
        }
      ]
    },
    {
      "@type": "ImageObject",
      "url": "http://resc.deskline.net/images/ZIL/1/f9bb019d-05e3-45b6-8df5-3d25b624d4f9/99/image.jpg",
      "caption": [
        {
          "@language": "de",
          "@value": "Schlafzimmer Max2"
        },
        {
          "@language": "en",
          "@value": "Schlafzimmer Max2"
        }
      ]
    },
    {
      "@type": "ImageObject",
      "url": "http://resc.deskline.net/images/ZIL/1/88fa4c83-31e9-4d60-baf2-cacaca8cd3ad/99/image.jpg",
      "caption": [
        {
          "@language": "de",
          "@value": "Schlafzimmer Max3"
        },
        {
          "@language": "en",
          "@value": "Schlafzimmer Max3"
        }
      ]
    },
    {
      "@type": "ImageObject",
      "url": "http://resc.deskline.net/images/ZIL/1/e3f15824-9701-4c0c-a7f7-00fcbfd73b7f/99/image.jpg",
      "caption": [
        {
          "@language": "de",
          "@value": "Bad Max"
        },
        {
          "@language": "en",
          "@value": "Bad Max"
        }
      ]
    },
    {
      "@type": "ImageObject",
      "url": "http://resc.deskline.net/images/ZIL/1/be3ab90a-9d6d-4ff9-8a0f-71ea8fddbfc4/99/image.jpg",
      "caption": [
        {
          "@language": "de",
          "@value": "Küche Max"
        },
        {
          "@language": "en",
          "@value": "Küche Max"
        }
      ]
    },
    {
      "@type": "ImageObject",
      "url": "http://resc.deskline.net/images/ZIL/1/83b6147e-98f6-49ca-afcd-41b5bf24f3d5/99/image.jpg",
      "caption": [
        {
          "@language": "de",
          "@value": "Schlafzimmer Maximilian1"
        },
        {
          "@language": "en",
          "@value": "Schlafzimmer Maximilian1"
        }
      ]
    },
    {
      "@type": "ImageObject",
      "url": "http://resc.deskline.net/images/ZIL/1/c27e8250-c1ae-433f-bf48-0e9bab872b80/99/image.jpg",
      "caption": [
        {
          "@language": "de",
          "@value": "Schlafzimmer Maximilian2"
        },
        {
          "@language": "en",
          "@value": "Schlafzimmer Maximilian2"
        }
      ]
    },
    {
      "@type": "ImageObject",
      "url": "http://resc.deskline.net/images/ZIL/1/c2dfc88b-6aba-468e-8e86-9c55c4303dae/99/image.jpg",
      "caption": [
        {
          "@language": "de",
          "@value": "Schlafzimmer Maximilian3"
        },
        {
          "@language": "en",
          "@value": "Schlafzimmer Maximilian3"
        }
      ]
    },
    {
      "@type": "ImageObject",
      "url": "http://resc.deskline.net/images/ZIL/1/6cf333c6-cd0b-40c8-868a-c81d49bd1fe5/99/image.jpg",
      "caption": [
        {
          "@language": "de",
          "@value": "Küche Maximilian"
        },
        {
          "@language": "en",
          "@value": "Küche Maximilian"
        }
      ]
    },
    {
      "@type": "ImageObject",
      "url": "http://resc.deskline.net/images/ZIL/1/46034dc7-1315-4663-9e4f-04e412c95143/99/image.jpg",
      "caption": [
        {
          "@language": "de",
          "@value": "Bad Maximilian"
        },
        {
          "@language": "en",
          "@value": "Bad Maximilian"
        }
      ]
    },
    {
      "@type": "ImageObject",
      "url": "http://resc.deskline.net/images/ZIL/1/9763961f-a2e6-4944-9c14-8a7390677d40/99/image.jpg",
      "caption": [
        {
          "@language": "de",
          "@value": "Esszimmer Maximilian"
        },
        {
          "@language": "en",
          "@value": "Esszimmer Maximilian"
        }
      ]
    },
    {
      "@type": "ImageObject",
      "url": "http://resc.deskline.net/images/ZIL/1/5f42df64-c882-4348-a9f9-156901615279/99/image.jpg",
      "caption": [
        {
          "@language": "de",
          "@value": "Wohnzimmer Maximilian"
        },
        {
          "@language": "en",
          "@value": "Wohnzimmer Maximilian"
        }
      ]
    }
  ],
  "geo": {
    "@type": "GeoCoordinates",
    "latitude": "47.29260029642",
    "longitude": "11.886821466299"
  },
  "currenciesAccepted": "EUR",
  "makesOffer": [
    {
      "@type": "Offer",
      "name": [
        {
          "@language": "de",
          "@value": "Appartement/Fewo, Bad, WC, 1 Schlafraum"
        },
        {
          "@language": "en",
          "@value": "Apartment, bath, toilet, 1 bed room"
        }
      ],
      "description": [
        {
          "@language": "de",
          "@value": "Die Wohneinheit „Johannes“  mit ca. 40 m2 bietet Platz für 2 bis 3 Personen.\nIn der gemütlichen Wohnküche befinden sich eine Eckbank und vier Stühlen sowie eine komplett ausgestattete Küche (Elektroherd mit Backrohr, Dunstabzugshaube und Geschirrspüler). Im Wohnschlafraum sind ein Doppelbett mit Nachtkästchen, ein Kleiderschrank, eine gemütliche Ausziehcouch und TV-Gerät mit Satellitenempfang vorhanden. Vom Balkon aus können Sie den herrlichen Ausblick auf die Berge genießen. Das Badezimmer verfügt über eine Dusche oder eine Badewanne, Waschbecken mit Spiegel sowie ein WC. Weiters ist ein Abstellraum vorhanden.\n\n"
        },
        {
          "@language": "en",
          "@value": "Comfortable apartment with fully equipped kitchen (oven, coffee maker,\nmicrowave,dishwasher..) 1 bedroom, satellite TV, radio, bath and WC, balcony; hand towels and bed linen provided. Area: approx. 40m2.\n"
        }
      ],
      "availability": "http://schema.org/InStock",
      "itemOffered": [
        {
          "@type": [
            "Apartment",
            "Product"
          ],
          "name": [
            {
              "@language": "de",
              "@value": "Apartment JOHANNES"
            },
            {
              "@language": "en",
              "@value": "apartment/1 bedroom/bath tube, WC"
            }
          ],
          "numberOfRooms": "3.0",
          "occupancy": {
            "@type": "QuantitativeValue",
            "maxValue": "3",
            "minValue": "2"
          }
        }
      ],
      "priceSpecification": [
        {
          "@type": "PriceSpecification",
          "description": "Pax 2",
          "minPrice": "80.00",
          "maxPrice": "90.00",
          "priceCurrency": "EUR"
        },
        {
          "@type": "PriceSpecification",
          "description": "Pax 3",
          "minPrice": "100.00",
          "maxPrice": "110.00",
          "priceCurrency": "EUR"
        }
      ]
    },
    {
      "@type": "Offer",
      "name": [
        {
          "@language": "de",
          "@value": "Appartement/Fewo, Bad, WC, 2 Schlafräume"
        },
        {
          "@language": "en",
          "@value": "Apartment, bath, toilet, 2 bed rooms"
        }
      ],
      "description": [
        {
          "@language": "de",
          "@value": "Die Wohneinheit „Max“ mit ca. 50 m2 bietet Platz für 2 bis 4 Personen. In der gemütlichen Wohnküche befinden sich ein Tisch mit vier Stühlen, eine komplett ausgestattete Küche (Elektroherd mit Backrohr und Dunstabzugshaube) sowie ein TV-Gerät und Geschirrspüler. Das erste Schlafzimmer ist mit Doppelbett, Kleiderschrank, Nachtkästchen und einer gemütlichen Sitzecke (im Erker) ausgestattet. Der zweite Schlafraum verfügt über zwei Einzelbetten,  Nachtkästchen und einen Kleiderschrank. Vom Balkon aus können Sie den herrlichen Ausblick auf die Berge genießen. Das Badezimmer ist mit einer Dusche, einem Waschbecken mit Spiegel sowie einem WC ausgestattet. Weiters ist ein Abstellraum vorhanden. \n\n\n"
        },
        {
          "@language": "en",
          "@value": "Apartment \"Max\" with ca. 50 m² offers space for 2 - 4 persons. The apartement offers a kitchenett with a table and 4 chairs, completely equipped kitchen (stove, oven, extractor) as well as a televesion and dishwasher. The first room has got a double bed, wardrobe, nightstand and comfortable seating area. The second room is equipped with 2 single bed, nightstand and wardrobe. From the balcony you have got a beautiful view over the mountains"
        }
      ],
      "availability": "http://schema.org/InStock",
      "itemOffered": [
        {
          "@type": [
            "Apartment",
            "Product"
          ],
          "name": [
            {
              "@language": "de",
              "@value": "Apartment MAX"
            },
            {
              "@language": "en",
              "@value": "Apartment, bath, toilet, 2 bed rooms"
            }
          ],
          "numberOfRooms": "3.0",
          "occupancy": {
            "@type": "QuantitativeValue",
            "maxValue": "4",
            "minValue": "2"
          }
        }
      ],
      "priceSpecification": [
        {
          "@type": "PriceSpecification",
          "description": "Pax 2",
          "minPrice": "80.00",
          "maxPrice": "90.00",
          "priceCurrency": "EUR"
        },
        {
          "@type": "PriceSpecification",
          "description": "Pax 3",
          "minPrice": "100.00",
          "maxPrice": "110.00",
          "priceCurrency": "EUR"
        },
        {
          "@type": "PriceSpecification",
          "description": "Pax 4",
          "minPrice": "120.00",
          "maxPrice": "130.00",
          "priceCurrency": "EUR"
        }
      ]
    },
    {
      "@type": "Offer",
      "name": [
        {
          "@language": "de",
          "@value": "Appartement/Fewo, Dusche und Bad, WC, 3 Schlafräume"
        },
        {
          "@language": "en",
          "@value": "Apartment, shower and bath, toilet, 3 bed rooms"
        }
      ],
      "description": [
        {
          "@language": "de",
          "@value": "In der Ferienwohnung „Maximilian“ mit ca.128 m2 können bis zu 10 Personen bequemst gemeinsam urlauben. In der Küche sowie dem angrenzenden Speiseraum befinden sich ein komplett ausgestatteter Küchenblock (Elektroherd mit Backrohr und Dunstabzugshaube) und ein großer Esstisch mit Stühlen sowie eine Anrichte. Im Wohnzimmer sind eine gemütliche Ausziehcouch mit Blick auf die Zillertaler Bergwelt, eine Wohnwand mit TV-Gerät und Satellitenempfang vorhanden. In den drei Schlafzimmern stehen jeweils ein Doppelbett mit Nachtkästchen, ein Kleiderschrank bzw. in einem auch ein Stockbett zur Verfügung. Das Badezimmer verfügt über eine Badewanne und eine Dusche, Waschbecken mit Spiegel sowie ein WC. In dieser Wohnung sind weiters eine separate Dusche sowie ein zusätzliches WC vorhanden. Der ungewöhnlich große Balkon bietet viel Platz zum Sonnen bzw. Relaxen in der gesunden Bergluft.\n\n"
        },
        {
          "@language": "en",
          "@value": "Apartment \"Maximilian\" with ca. 128 m² offers space for 10 persons. The kitchen and the connected dining room are equipped with stove, oven, extractor a spacious stable with chairs and a sideboard. Living room with a sofa and Sat-TV. All 3 rooms are equipped with a double bed, nightstand, wardrobe (1 room is available with a bunkbed). The bathroom features a bathtube, shower, sink and a mirror as well as a toilette. There is a separated shower and toilette. It offers a spacious balcony."
        }
      ],
      "availability": "http://schema.org/InStock",
      "itemOffered": [
        {
          "@type": [
            "Apartment",
            "Product"
          ],
          "name": [
            {
              "@language": "de",
              "@value": "Apartment MAXIMILIAN"
            },
            {
              "@language": "en",
              "@value": "apartment/3 bedrooms/shower,bath tube,WC"
            }
          ],
          "numberOfRooms": "5.0",
          "occupancy": {
            "@type": "QuantitativeValue",
            "maxValue": "10",
            "minValue": "6"
          }
        }
      ],
      "priceSpecification": [
        {
          "@type": "PriceSpecification",
          "description": "Pax 6",
          "minPrice": "180.00",
          "maxPrice": "190.00",
          "priceCurrency": "EUR"
        },
        {
          "@type": "PriceSpecification",
          "description": "Pax 7",
          "minPrice": "210.00",
          "maxPrice": "221.70",
          "priceCurrency": "EUR"
        },
        {
          "@type": "PriceSpecification",
          "description": "Pax 8",
          "minPrice": "240.00",
          "maxPrice": "253.40",
          "priceCurrency": "EUR"
        },
        {
          "@type": "PriceSpecification",
          "description": "Pax 9",
          "minPrice": "270.00",
          "maxPrice": "285.00",
          "priceCurrency": "EUR"
        },
        {
          "@type": "PriceSpecification",
          "description": "Pax 10",
          "minPrice": "300.00",
          "maxPrice": "316.70",
          "priceCurrency": "EUR"
        }
      ]
    }
  ]
}