{
  "@context": "http://schema.org",
  "@type": "LodgingBusiness",
  "url": [
    "http://maps.best-of-zillertal.at/proxy/frontend/page/fuegen/de?foreignResource\u003d8CDF14DB-F718-406E-B9B0-F39F4E139F57"
  ],
  "address": {
    "@type": "PostalAddress",
    "streetAddress": "Stummerberg 46",
    "addressCountry": "AT",
    "postalCode": "6276",
    "addressRegion": "Stummerberg",
    "telephone": "(0043) 5283 3368",
    "email": "hans_joerg.mauracher@utanet.at"
  },
  "name": "Bauernhof Obertrog",
  "description": [
    {
      "@language": "de",
      "@value": "Bauernhof in ruhiger und sonniger Lage auf 800 m Seehöhe am Stummerberg;\n4 km vom Skigebiet Hochzillertal in der Ersten Ferienregion im Zillertal entfernt; Bushaltestelle in unmittelbarer Nähe;\n \n"
    },
    {
      "@language": "de",
      "@value": "Anreise prinzipiell ab 16:00 Uhr. Abweichungen können telefonisch vereinbart werden."
    },
    {
      "@language": "en",
      "@value": "Nice and beautiful farmhouse in sunny and quiet location at Stummerberg, central heating, skibus-stop."
    }
  ],
  "image": [
    {
      "@type": "ImageObject",
      "url": "http://resc.deskline.net/images/ZIL/1/5b055d69-e6c3-4db6-975a-e369c3b8b5ca/99/image.jpg",
      "caption": [
        {
          "@language": "de",
          "@value": "PICT0001"
        },
        {
          "@language": "en",
          "@value": "PICT0001"
        }
      ]
    },
    {
      "@type": "ImageObject",
      "url": "http://resc.deskline.net/images/ZIL/1/86bdacd0-568a-4ada-a2cb-0a725a2e652d/99/image.jpg",
      "caption": [
        {
          "@language": "de",
          "@value": "01Jänner"
        },
        {
          "@language": "en",
          "@value": "01Jänner"
        }
      ]
    }
  ],
  "geo": {
    "@type": "GeoCoordinates",
    "latitude": "47.291028602846",
    "longitude": "11.899892940378"
  },
  "currenciesAccepted": "EUR",
  "makesOffer": [
    {
      "@type": "Offer",
      "name": [
        {
          "@language": "de",
          "@value": "Doppelzimmer, Dusche, WC"
        },
        {
          "@language": "en",
          "@value": "Double room, shower, toilet"
        }
      ],
      "description": [
        {
          "@language": "de",
          "@value": "Zimmer mit Doppelbett, Dusche und WC, Balkon, Couch, Fernseher."
        },
        {
          "@language": "en",
          "@value": "rooms with double bed, shower and toilet, balcony\nextra bed possible, tv"
        }
      ],
      "availability": "http://schema.org/InStock",
      "itemOffered": [
        {
          "@type": [
            "HotelRoom",
            "Product"
          ],
          "name": [
            {
              "@language": "de",
              "@value": "Doppelzimmer mit Dusche, WC"
            },
            {
              "@language": "en",
              "@value": "double room with shower, WC"
            }
          ],
          "bed": {
            "@type": "BedDetails",
            "numberOfBeds": "1"
          },
          "occupancy": {
            "@type": "QuantitativeValue",
            "maxValue": "3",
            "minValue": "2"
          }
        }
      ]
    }
  ]
}