{
  "@context": "http://schema.org",
  "@type": "BedAndBreakfast",
  "url": [
    "http://tinyurl.com/privatpensionbaumann",
    "http://maps.best-of-zillertal.at/proxy/frontend/page/fuegen/de?foreignResource\u003d920F9199-8F47-49AC-B2A1-B17DB9E6F4A7"
  ],
  "address": {
    "@type": "PostalAddress",
    "streetAddress": "Eichenweg 14",
    "addressCountry": "AT",
    "postalCode": "6263",
    "addressRegion": "Fügen",
    "telephone": "(0043) 5288 62560",
    "email": "irmgard.baumann@aon.at",
    "url": "http://www.zimmervermietung-baumann.at"
  },
  "name": "Privatpension Baumann",
  "description": [
    {
      "@language": "de",
      "@value": "Herzlich willkommen in unserer familiär geführten Privatpension in Fügen - Ortsteil Kleinboden!\n\nUnsere Pension Baumann liegt in sonniger und ruhiger Lage und garantiert Ihnen einen erholsamen Urlaub mit der ganzen Familie.\nIn nur 3 - 5 Autominuten oder ca. 10 Gehminuten erreichen Sie das Zentrum von Fügen, die Erlebnistherme mit Freibad und den Golfplatz.\nUnsere Top-Skigebiete sind ebenfalls gut erreichbar. Das Skigebiet Spieljoch in Fügen ist nur 5 Fahrminuten entfernt, das mehrfach ausgezeichnete Skigeibet Hochfügen-Hochzillertal nur 10 Fahrminuten. Beide Skigebiete werden vom kostenlosen Skibus, der bei der Erlebnistherme (1,5 km vom Haus) hält. Die nächste Bahn- und Busstation (Kapfing) ist ca. 5 Gehminuten von unserer Pension Baumann entfernt.\n\nUnseren Gästen steht ein Garten mit Liegewiese und Grillmöglichkeit und ein ca. 25 m2 großer, überdachter und windgeschützter Gemeinschaftskablkon, auf dem Sommer auch unser erweitertes Frühstück mit regionalen Produkten serviert wird, zur Verfügung. Weiters bieten wir einen Frühstücks- und Aufenthaltsraum, einen Gästekühlschrank und einen kleinen Fitnessraum.\n\nEs erwarten Sie geräumige Komfortzimmer mit DU/WC, Sat-TV und Vollholzmöbeln inkl. Sitzecke.\nRund um Fügen und den Fügenberg locken zahlreiche markierte Wanderwege. Der Anschluss zahlreicher Wander- und Radwege liegt direkt vor dem Haus. Die Therme Fügen und das Freibad sorgen für einen entspannten Tag für die ganze Familie. Der neue 18-Loch-Golfplatz Uderns Zillertal erfreut sich bereits größter Beliebtheit.\n\nIm Winter dreht sich natürlich alles um das Skifahren in unseren Skigebieten Spieljoch (ideal zum Skifahren mit Kindern) und Hochfügen - Hochzillertal. Unseren Gästen steht ein Trockenraum für Skibekleidung und Skiausrüstung zur Verfügung.\n\nWir freuen uns, Sie in der Ersten Ferienregion Zillertal in Fügen begrüßen und verwöhnen zu dürfen!\nIhre Familie Baumann\n"
    },
    {
      "@language": "de",
      "@value": "Stornobedingungen:\nbis 90 Tage vor Anreise: kostenlose Stornierung möglich\n90 - 30 Tage vor Anreise: 40 % Stornogebühren\n30 - 7 Tage vor Anreise: 70 % Stornogebühren\n7 - 0 Tage vor Anreise: 90 % Stornogebühren"
    },
    {
      "@language": "de",
      "@value": "Check-in: ab 14.00 Uhr\nCheck-out: bis 10.00 Uhr"
    },
    {
      "@language": "en",
      "@value": "Welcome to our family-run private pension in Fügen - Kleinboden! \n\nOur pension Baumann is in a sunny and quiet location and ensures you a relaxing holiday with your whole family. \nIn just 3-5 minutes by car or 10 minutes walk you can reach the center of Fügen an the Erlebnistherme Zillertal (spa) with by joining the adventure  pool, as well as the golf course. \nOur top ski areas are also easily accessible. The Spieljochbahn is just 5 minutes away, the award-winning skiing area Hochfügen-Hochzillertal just 10 minutes. Both ski areas are reachable by the charge-freee ski bus, which stops at the Erlebnistherme (1.5 km from our house). The nearest train and bus station (Kapfing) is about 5 minutes walk from our private pension Baumann. \n\nOur guests have a garden with sunbathing area and barbecue facilities and a 25 m2 large, covered and sheltered common balcony, where you get served your extended breakfast with regional products in summer. We also offer a breakfast room and lounge, a guest refrigerator and a small gym.\n\nYou stay in spacious comfortable rooms with shower / WC, satellite-TV and sitting area. \nAround Fügen and Fügenberg hikers are invited by numerous marked hiking trails. The connection of numerous hiking and biking trails are just outside the house. The Erlebnistherme Zilleral in Fügen and the outdoor pool guarantee a relaxing day for the whole family. The new 18-hole golf course Uderns Zillertal already enjoys great popularity. \n\nIn winter, of course, everything revolves around skiing. The skiing area Spieljoch is ideal for skiing with children and the skiin area Hochfügen-Hochzillertal is on of the most popular skiing areas in mid-Europe. Our guests have a drying room for ski wear and ski equipment. \n\nWe look forward to welcoming and making your holiday unforgettable!\nYours family Baumann "
    },
    {
      "@language": "en",
      "@value": "check-in: from 2.00 pm\ncheck-out: until 10.00 am"
    }
  ],
  "image": [
    {
      "@type": "ImageObject",
      "url": "http://resc.deskline.net/images/ZIL/1/2a770990-422d-4aa1-819d-2051d43c27a7/99/image.jpg",
      "caption": [
        {
          "@language": "de",
          "@value": "Haus Sommer1"
        },
        {
          "@language": "en",
          "@value": "Haus Sommer1"
        }
      ]
    },
    {
      "@type": "ImageObject",
      "url": "http://resc.deskline.net/images/ZIL/1/04c06d0a-e576-4c95-98ca-fbaa014df4c6/99/image.jpg",
      "caption": [
        {
          "@language": "de",
          "@value": "Hausansicht Winter"
        },
        {
          "@language": "en",
          "@value": "Hausansicht Winter"
        }
      ]
    },
    {
      "@type": "ImageObject",
      "url": "http://resc.deskline.net/images/ZIL/1/8b2024d0-c945-4900-b34a-2351b4276eb8/99/image.jpg",
      "caption": [
        {
          "@language": "de",
          "@value": "Haus Sommer 2"
        },
        {
          "@language": "en",
          "@value": "Haus Sommer 2"
        }
      ]
    },
    {
      "@type": "ImageObject",
      "url": "http://resc.deskline.net/images/ZIL/1/58dbfb21-e759-4805-88cc-769463d4c52d/99/image.jpg",
      "caption": [
        {
          "@language": "de",
          "@value": "Haus Sommer 1"
        },
        {
          "@language": "en",
          "@value": "Haus Sommer 1"
        }
      ]
    },
    {
      "@type": "ImageObject",
      "url": "http://resc.deskline.net/images/ZIL/1/1432fa8d-d303-42db-9835-cf8bf93e9e14/99/image.jpg",
      "caption": [
        {
          "@language": "de",
          "@value": "Haus Sommer 3"
        },
        {
          "@language": "en",
          "@value": "Haus Sommer 3"
        }
      ]
    },
    {
      "@type": "ImageObject",
      "url": "http://resc.deskline.net/images/ZIL/1/e06fdd03-b3fc-43c4-8563-8aa17d04c747/99/image.jpg",
      "caption": [
        {
          "@language": "de",
          "@value": "Balkon 1"
        },
        {
          "@language": "en",
          "@value": "Balkon 1"
        }
      ]
    },
    {
      "@type": "ImageObject",
      "url": "http://resc.deskline.net/images/ZIL/1/81d59572-9cd5-4b80-a73f-98d78f5c1f7b/99/image.jpg",
      "caption": [
        {
          "@language": "de",
          "@value": "Balkon 2"
        },
        {
          "@language": "en",
          "@value": "Balkon 2"
        }
      ]
    },
    {
      "@type": "ImageObject",
      "url": "http://resc.deskline.net/images/ZIL/1/c2a98120-8479-4aad-b187-a941d642fcdb/99/image.jpg",
      "caption": [
        {
          "@language": "de",
          "@value": "Balkon Aussicht"
        },
        {
          "@language": "en",
          "@value": "Balkon Aussicht"
        }
      ]
    },
    {
      "@type": "ImageObject",
      "url": "http://resc.deskline.net/images/ZIL/1/020667a4-4db7-4edb-81a1-0e233133d714/99/image.jpg",
      "caption": [
        {
          "@language": "de",
          "@value": "Aufenthaltsraum Bild 1"
        },
        {
          "@language": "en",
          "@value": "Aufenthaltsraum Bild 1"
        }
      ]
    },
    {
      "@type": "ImageObject",
      "url": "http://resc.deskline.net/images/ZIL/1/9a9936b0-dc57-49b8-8a49-06272445dc50/99/image.jpg",
      "caption": [
        {
          "@language": "de",
          "@value": "Aufenthaltsraum Bild 2"
        },
        {
          "@language": "en",
          "@value": "Aufenthaltsraum Bild 2"
        }
      ]
    },
    {
      "@type": "ImageObject",
      "url": "http://resc.deskline.net/images/ZIL/1/b4338cd5-6fd6-4996-8c29-fdc979145da8/99/image.jpg",
      "caption": [
        {
          "@language": "de",
          "@value": "Frühstücksraum"
        },
        {
          "@language": "en",
          "@value": "Frühstücksraum"
        }
      ]
    },
    {
      "@type": "ImageObject",
      "url": "http://resc.deskline.net/images/ZIL/1/dfcc1815-b88a-49e4-9170-a06827026fdb/99/image.jpg",
      "caption": [
        {
          "@language": "de",
          "@value": "Terrasse"
        },
        {
          "@language": "en",
          "@value": "Terrasse"
        }
      ]
    },
    {
      "@type": "ImageObject",
      "url": "http://resc.deskline.net/images/ZIL/1/c97fc872-ae80-4e4b-bbab-8d1f85ae0c2c/99/image.jpg",
      "caption": [
        {
          "@language": "de",
          "@value": "Zimmer1"
        },
        {
          "@language": "en",
          "@value": "Zimmer1"
        }
      ]
    },
    {
      "@type": "ImageObject",
      "url": "http://resc.deskline.net/images/ZIL/1/8066cde1-f7af-4ddd-9ddd-eac539418236/99/image.jpg",
      "caption": [
        {
          "@language": "de",
          "@value": "Zimmer 1 Badezimmer"
        },
        {
          "@language": "en",
          "@value": "Zimmer 1 Badezimmer"
        }
      ]
    },
    {
      "@type": "ImageObject",
      "url": "http://resc.deskline.net/images/ZIL/1/4bcd6abd-6110-49cc-8273-40092c746c8f/99/image.jpg",
      "caption": [
        {
          "@language": "de",
          "@value": "Zimmer 3"
        },
        {
          "@language": "en",
          "@value": "Zimmer 3"
        }
      ]
    },
    {
      "@type": "ImageObject",
      "url": "http://resc.deskline.net/images/ZIL/1/41a6ac47-0f91-440c-84ee-e95206896293/99/image.jpg",
      "caption": [
        {
          "@language": "de",
          "@value": "Zimmer 3 Badezimmer"
        },
        {
          "@language": "en",
          "@value": "Zimmer 3 Badezimmer"
        }
      ]
    },
    {
      "@type": "ImageObject",
      "url": "http://resc.deskline.net/images/ZIL/1/b81b321e-822e-46b1-bb26-3d6a2ca90d18/99/image.jpg",
      "caption": [
        {
          "@language": "de",
          "@value": "Zimmer 4 "
        },
        {
          "@language": "en",
          "@value": "Zimmer 4 "
        }
      ]
    },
    {
      "@type": "ImageObject",
      "url": "http://resc.deskline.net/images/ZIL/1/754bcfc9-bbc3-4f19-8261-a24eb3dccc1a/99/image.jpg",
      "caption": [
        {
          "@language": "de",
          "@value": "Zimmer 4 Badezimmer"
        },
        {
          "@language": "en",
          "@value": "Zimmer 4 Badezimmer"
        }
      ]
    },
    {
      "@type": "ImageObject",
      "url": "http://resc.deskline.net/images/ZIL/1/aaaa2890-2c40-41dd-9fb6-a5da12d190f0/99/image.jpg",
      "caption": [
        {
          "@language": "de",
          "@value": "Haus Sommer"
        },
        {
          "@language": "en",
          "@value": "Haus Sommer"
        }
      ]
    },
    {
      "@type": "ImageObject",
      "url": "http://resc.deskline.net/images/ZIL/1/9c9138af-3e81-4f71-9e78-b4182ed2c1c0/99/image.jpg",
      "caption": [
        {
          "@language": "de",
          "@value": "Haus Winter"
        },
        {
          "@language": "en",
          "@value": "Haus Winter"
        }
      ]
    }
  ],
  "geo": {
    "@type": "GeoCoordinates",
    "latitude": "47.3284357359989",
    "longitude": "11.851286888122559"
  },
  "currenciesAccepted": "EUR",
  "makesOffer": [
    {
      "@type": "Offer",
      "name": [
        {
          "@language": "de",
          "@value": "Dreibettzimmer, Dusche, WC"
        },
        {
          "@language": "en",
          "@value": "Triple room, shower, toilet"
        }
      ],
      "description": [
        {
          "@language": "de",
          "@value": "Zimmer mit DU/WC mit Sat TV, sehr geräumig"
        },
        {
          "@language": "en",
          "@value": "rooms with shower/toilet and Sat-TV, roomy"
        }
      ],
      "availability": "http://schema.org/InStock",
      "itemOffered": [
        {
          "@type": [
            "HotelRoom",
            "Product"
          ],
          "name": [
            {
              "@language": "de",
              "@value": "Dreibettzimmer mit Dusche, WC"
            },
            {
              "@language": "en",
              "@value": "triple room with shower, WC"
            }
          ],
          "bed": {
            "@type": "BedDetails",
            "numberOfBeds": "1"
          },
          "occupancy": {
            "@type": "QuantitativeValue",
            "maxValue": "3",
            "minValue": "2"
          }
        }
      ],
      "priceSpecification": [
        {
          "@type": "PriceSpecification",
          "description": "Pax 2",
          "minPrice": "24.00",
          "maxPrice": "26.00",
          "priceCurrency": "EUR"
        },
        {
          "@type": "PriceSpecification",
          "description": "Pax 3",
          "minPrice": "24.00",
          "maxPrice": "26.00",
          "priceCurrency": "EUR"
        }
      ]
    },
    {
      "@type": "Offer",
      "name": [
        {
          "@language": "de",
          "@value": "Doppelzimmer, Dusche, WC"
        },
        {
          "@language": "en",
          "@value": "Double room, shower, toilet"
        }
      ],
      "description": [
        {
          "@language": "de",
          "@value": "Zimmer mit DU/WC, Sat-TV."
        },
        {
          "@language": "en",
          "@value": "rooms with shower/toilet, satellite tv."
        }
      ],
      "availability": "http://schema.org/InStock",
      "itemOffered": [
        {
          "@type": [
            "HotelRoom",
            "Product"
          ],
          "name": [
            {
              "@language": "de",
              "@value": "Doppelzimmer mit Dusche, WC"
            },
            {
              "@language": "en",
              "@value": "double room with shower, WC"
            }
          ],
          "bed": {
            "@type": "BedDetails",
            "numberOfBeds": "1"
          },
          "occupancy": {
            "@type": "QuantitativeValue",
            "maxValue": "2",
            "minValue": "2"
          }
        }
      ],
      "priceSpecification": [
        {
          "@type": "PriceSpecification",
          "description": "Pax 2",
          "minPrice": "24.00",
          "maxPrice": "26.00",
          "priceCurrency": "EUR"
        }
      ]
    }
  ]
}