{
  "@context": "http://schema.org",
  "@type": "LodgingBusiness",
  "url": [
    "http://www.tiscover.at/apart-maria",
    "http://maps.best-of-zillertal.at/proxy/frontend/page/fuegen/de?foreignResource\u003d945F7B45-501F-496F-BA50-A16BA1CFE1EA"
  ],
  "address": {
    "@type": "PostalAddress",
    "streetAddress": "Gärtnerweg 9",
    "addressCountry": "AT",
    "postalCode": "6263",
    "addressRegion": "Fügen",
    "email": "info@landhausmaria.at",
    "url": "http://www.tiscover.at/apart-maria"
  },
  "name": "Apart Maria",
  "description": [
    {
      "@language": "de",
      "@value": "In zentraler, sonniger und freier Lage steht unser Apart Maria.\nEine schöne Ferienwohnung für 2 - 4 Personen mit riesigem Sonnenbalkon, 1 Schlafzimmer, 1 Küche mit E-Herd mit Backrohr, Küchenblock, Geschirrspüler und gemütlicher Essecke, 1 großes Wohnzimmer mit bequemer Sitzgarnitur mit Radio und Fab-TV (Sat) und Doppelcouch, 1 Badezimmer mit Dusche, 1 WC. Gratis Internetanschluss in der Wohnung. Kleine Sauna - Infrarotkabine im Haus, Skibushaltestelle 1 Minute vom Haus, Brötchenservice.\nSchiraum mit Schischuhtrockner!\n\nWir würden uns freuen, Sie als Gäste bei uns begrüßen zu dürfen!\nFamilie Maria und Norbert Gitsch"
    },
    {
      "@language": "de",
      "@value": "Endreinigung € 45,00"
    },
    {
      "@language": "de",
      "@value": "Anreise nach telefonischer Vereinbarung"
    },
    {
      "@language": "en",
      "@value": "Our apart house \"Maria\"  is situated in a central and sunny position.\nIt\u0027s a beatiful holiday appartement for 2-4 persons with an huge balcony, 1 sleeping room, 1 kitchen with stove and oven, dish washer, 1 living room with radio, TV and couch, 1 bathroom with shower, 1  WC. Free Internet in the appartement. Sauna and infrared cabine in the house, skibus stop 1 minute away, fresh backery service."
    },
    {
      "@language": "en",
      "@value": "final cleaning EUR 45,00"
    },
    {
      "@language": "en",
      "@value": "Check-In by arrangement"
    }
  ],
  "image": [
    {
      "@type": "ImageObject",
      "url": "http://resc.deskline.net/images/ZIL/1/c6aae20a-8660-49aa-b602-e7f695a2daf0/99/image.jpg",
      "caption": [
        {
          "@language": "de",
          "@value": "Herzlich Willkommen im Apart Maria!"
        },
        {
          "@language": "en",
          "@value": "Herzlich Willkommen im Apart Maria!"
        }
      ]
    },
    {
      "@type": "ImageObject",
      "url": "http://resc.deskline.net/images/ZIL/1/5df43ee3-7301-4707-b5b3-dda11841808a/99/image.jpg",
      "caption": [
        {
          "@language": "de",
          "@value": "Unser Haus im Winter"
        },
        {
          "@language": "en",
          "@value": "Unser Haus im Winter"
        }
      ]
    },
    {
      "@type": "ImageObject",
      "url": "http://resc.deskline.net/images/ZIL/1/7ea5ff80-abe9-472c-8a81-9eb73d933268/99/image.jpg",
      "caption": [
        {
          "@language": "de",
          "@value": "Küche mit Küchenblock, Geschirrspüler,..."
        },
        {
          "@language": "en",
          "@value": "Küche mit Küchenblock, Geschirrspüler,..."
        }
      ]
    },
    {
      "@type": "ImageObject",
      "url": "http://resc.deskline.net/images/ZIL/1/d0276321-97f3-4c97-bb3b-f12542d16e34/99/image.jpg",
      "caption": [
        {
          "@language": "de",
          "@value": "Küche mit Essecke"
        },
        {
          "@language": "en",
          "@value": "Küche mit Essecke"
        }
      ]
    },
    {
      "@type": "ImageObject",
      "url": "http://resc.deskline.net/images/ZIL/1/5c0f54ad-2201-4450-a528-e823f728642d/99/image.jpg",
      "caption": [
        {
          "@language": "de",
          "@value": "Wohnzimmer mit Sitzgarnitur"
        },
        {
          "@language": "en",
          "@value": "Wohnzimmer mit Sitzgarnitur"
        }
      ]
    },
    {
      "@type": "ImageObject",
      "url": "http://resc.deskline.net/images/ZIL/1/75d356b9-3fd8-4181-b155-3ba111f5c77f/99/image.jpg",
      "caption": [
        {
          "@language": "de",
          "@value": "ausziehbare Doppelcouch"
        },
        {
          "@language": "en",
          "@value": "ausziehbare Doppelcouch"
        }
      ]
    },
    {
      "@type": "ImageObject",
      "url": "http://resc.deskline.net/images/ZIL/1/b14e840a-5718-4789-9e56-b7791fc3e77c/99/image.jpg",
      "caption": [
        {
          "@language": "de",
          "@value": "Schlafzimmer"
        },
        {
          "@language": "en",
          "@value": "Schlafzimmer"
        }
      ]
    },
    {
      "@type": "ImageObject",
      "url": "http://resc.deskline.net/images/ZIL/1/d7576ae0-c492-46be-b002-7e404b3988d6/99/image.jpg",
      "caption": [
        {
          "@language": "de",
          "@value": "Badezimmer mit Dusche"
        },
        {
          "@language": "en",
          "@value": "Badezimmer mit Dusche"
        }
      ]
    },
    {
      "@type": "ImageObject",
      "url": "http://resc.deskline.net/images/ZIL/1/76a51516-f427-4a61-b9fb-1d234af0fa1f/99/image.jpg",
      "caption": [
        {
          "@language": "de",
          "@value": "Sauna-Infrarotkabine"
        },
        {
          "@language": "en",
          "@value": "Sauna-Infrarotkabine"
        }
      ]
    },
    {
      "@type": "ImageObject",
      "url": "http://resc.deskline.net/images/ZIL/1/c1649260-4dd6-4093-aedf-651940290c96/99/image.jpg",
      "caption": [
        {
          "@language": "de",
          "@value": "Ruheraum-Sauna"
        },
        {
          "@language": "en",
          "@value": "Ruheraum-Sauna"
        }
      ]
    },
    {
      "@type": "ImageObject",
      "url": "http://resc.deskline.net/images/ZIL/1/a5edce19-be27-4c0b-b6ef-32263deb5635/99/image.jpg",
      "caption": [
        {
          "@language": "de",
          "@value": "Aussicht vom Balkon"
        },
        {
          "@language": "en",
          "@value": "Aussicht vom Balkon"
        }
      ]
    },
    {
      "@type": "ImageObject",
      "url": "http://resc.deskline.net/images/ZIL/1/b3f619ea-60e3-4595-b808-48421910a7b7/99/image.jpg",
      "caption": [
        {
          "@language": "de",
          "@value": "Ein kleiner Willkommensgruß!"
        },
        {
          "@language": "en",
          "@value": "Ein kleiner Willkommensgruß!"
        }
      ]
    },
    {
      "@type": "ImageObject",
      "url": "http://resc.deskline.net/images/ZIL/1/eb55f549-2b7b-4a31-80ad-abe25c857511/99/image.jpg",
      "caption": [
        {
          "@language": "de",
          "@value": "Weihnachten"
        },
        {
          "@language": "en",
          "@value": "Weihnachten"
        }
      ]
    },
    {
      "@type": "ImageObject",
      "url": "http://resc.deskline.net/images/ZIL/1/132fd9ac-6a94-4377-891e-5e19a608ecf4/99/image.jpg",
      "caption": [
        {
          "@language": "de",
          "@value": "Idyllische Lage, umgeben von Wiesen"
        },
        {
          "@language": "en",
          "@value": "Idyllische Lage, umgeben von Wiesen"
        }
      ]
    }
  ],
  "geo": {
    "@type": "GeoCoordinates",
    "latitude": "47.349858190166948",
    "longitude": "11.850965023040771"
  },
  "currenciesAccepted": "EUR",
  "makesOffer": [
    {
      "@type": "Offer",
      "name": [
        {
          "@language": "de",
          "@value": "Appartement/Fewo, Dusche, WC"
        },
        {
          "@language": "en",
          "@value": "Apartment, shower, toilet"
        }
      ],
      "description": [
        {
          "@language": "de",
          "@value": "Eine Ferienwohnung mit einem Schlafzimmer (Doppelbett), ein Badezimmer mit Dusche, ein WC, Küche mit Essecke, Wohnzimmer mit ausziehbarer Doppelcouch. "
        },
        {
          "@language": "en",
          "@value": "Appartement with one double bed room, bathroom with shower, WC, kitchen with dining corner, living room with extendable double sofa."
        }
      ],
      "availability": "http://schema.org/InStock",
      "itemOffered": [
        {
          "@type": [
            "Apartment",
            "Product"
          ],
          "name": [
            {
              "@language": "de",
              "@value": "Ap./Wohn-Schlafraum/1 Schlafraum/Du,WC"
            },
            {
              "@language": "en",
              "@value": "ap/comb.living-bedr./1 bedroom/shower,wc"
            }
          ],
          "numberOfRooms": "2.0",
          "occupancy": {
            "@type": "QuantitativeValue",
            "maxValue": "4",
            "minValue": "2"
          }
        }
      ]
    }
  ]
}