{
  "@context": "http://schema.org",
  "@type": "LodgingBusiness",
  "url": [
    "http://www.tiscover.at/haus.anita",
    "http://maps.best-of-zillertal.at/proxy/frontend/page/fuegen/de?foreignResource\u003d94BF750F-1393-4DE0-B90C-CAC06B7DFE10"
  ],
  "address": {
    "@type": "PostalAddress",
    "streetAddress": "Dorfstraße 79",
    "addressCountry": "AT",
    "postalCode": "6274",
    "addressRegion": "Aschau im Zillertal",
    "telephone": "(0043) 5282 2657",
    "faxNumber": "(0043) 5282 2657",
    "email": "fewo.hausanita@aon.at",
    "url": "http://www.tiscover.at/haus.anita"
  },
  "name": "Haus Anita",
  "description": [
    {
      "@language": "de",
      "@value": "Im familiären Haus Anita in Aschau im Zillertal werden Sie und Ihre Familie persönlich betreut. Ob Sie Tipps für Ihre Rad- oder Wandertour im Zillertal brauchen, oder wissen möchten, wann und wo eine unserer zahlreichen Veranstaltungen in der Ersten Ferienregion im Zillertal stattfindet - wir helfen Ihnen gerne weiter. \n\nIhre Wanderungen führen Sie direkt von unserem Haus Anita in die herrliche Bergwelt des Zillertals. Aber auch Radfahrer und Mountainbiker kommen bei uns in Aschau voll auf Ihre Kosten, da Sich unser Haus in unmittelbarer Nähe der Radwege befindet.\n\nDas Haus Anita ist ein im Jahr 2004 errichtetes Haus mit zwei gemütlichen, modern eingerichteten Ferienwohnungen. \nNach einem erlebnisreichen Tag laden die nach Süden und Westen ausgerichteten Balkone mit Gartenmöbeln zum Erholen ein. \nWir bieten Ihnen außerdem einen Parkplatz für die Dauer Ihres Aufenthaltes, einen Skischuhtrockner sowie W-Lan (gegen Gebühr).\n\n\nUnsere gemütlich eingerichtete und neuwertige Ferienwohnung mit 3 Doppelzimmern (auch mit Zustellbett möglich) bietet Ihnen eine komplett ausgestattete Wohnküche (Herd, Backrohr, Kaffeemaschine, Mikrowelle, Geschirrspüler, Gefrierschrank), Dusche und separates WC mit Doppelwaschbecken, Sat-TV, Radio, Geschirr; \nBettwäsche und Handtücher sind vorhanden, Brötchenservice ist möglich. \n\nIn 3 Minuten erreichen Sie die Skibushaltestelle, der Gratis Skibus bringt  Sie in unser Top Skigebiet Hochzillertal - Hochfügen.\n\nWir freuen uns auf Sie - herzlichst\nIhre Familie Bischofer\n\n"
    },
    {
      "@language": "de",
      "@value": "Endreinigung € 50,-- einmalig"
    },
    {
      "@language": "de",
      "@value": "Anreise ab 14.00 Uhr \nAbreise bis 10.00 Uhr"
    },
    {
      "@language": "en",
      "@value": "Modern establishment in sunny location on the outskirts of Aschau with sunbathing lawn and car park. Only 3 mins. from the ski bus stop. Also with access to cross-country skiing track, cycling and hiking paths in the immediate vicinity!\n\n"
    },
    {
      "@language": "en",
      "@value": "final cleaning € 50,00 per stay"
    },
    {
      "@language": "en",
      "@value": "check-in 2.00 p.m.\ncheck-out 10.00 a.m."
    }
  ],
  "image": [
    {
      "@type": "ImageObject",
      "url": "http://resc.deskline.net/images/ZIL/1/5e8a48ee-3867-4def-85b8-9e0646a80ae1/99/image.jpg",
      "caption": [
        {
          "@language": "de",
          "@value": "Haus im Sommer"
        },
        {
          "@language": "en",
          "@value": "Haus im Sommer"
        }
      ]
    },
    {
      "@type": "ImageObject",
      "url": "http://resc.deskline.net/images/ZIL/1/5da3ec7e-c529-41a3-bb96-e19b055ddd3c/99/image.jpg",
      "caption": [
        {
          "@language": "de",
          "@value": "Haus Anita"
        },
        {
          "@language": "en",
          "@value": "Haus Anita"
        }
      ]
    },
    {
      "@type": "ImageObject",
      "url": "http://resc.deskline.net/images/ZIL/1/f4a80576-e64f-4d02-8fff-2ec4e90fdeb3/99/image.jpg",
      "caption": [
        {
          "@language": "de",
          "@value": "Haus Winter"
        },
        {
          "@language": "en",
          "@value": "Haus Winter"
        }
      ]
    }
  ],
  "geo": {
    "@type": "GeoCoordinates",
    "latitude": "47.257774261018724",
    "longitude": "11.89395010471344"
  },
  "currenciesAccepted": "EUR",
  "makesOffer": [
    {
      "@type": "Offer",
      "name": [
        {
          "@language": "de",
          "@value": "Appartement/Fewo, Dusche, WC, 3 Schlafräume"
        },
        {
          "@language": "en",
          "@value": "Apartment, shower, toilet, 3 bed rooms"
        }
      ],
      "description": [
        {
          "@language": "de",
          "@value": "Gemütlich eingerichtete und neuwertige Ferienwohnung mit 3 Doppelzimmer (1 davon auch mit Zustellbett möglich), Wohnküche komplett ausgestattet (Herd, Backrohr, Kaffeemaschine, Mikrowelle, Geschirrspüler, Gefrierschrank), Dusche und WC seperat mit Doppelwaschbecken, Sat-TV, Radio, Geschirr; Bettwäsche vorhanden, 2x Balkon, Brötchenservice; (75 m²), Skischuhtrockner, W-Lan(gegen Gebühr)"
        },
        {
          "@language": "en",
          "@value": "Cosily furnished, modern holiday apartment with 3 double rooms (1 of them possible with extra bed), fully equipped, combinded kitchen and living room (cooker, oven, coffee maker, microwave, dish washer), shower and WC seperate with twin washbasin, satellite TV, radio, crockery; bed linen, 2x balcony, fresh bakery service; (75 m2), ski shoe dryer\n"
        }
      ],
      "availability": "http://schema.org/InStock",
      "itemOffered": [
        {
          "@type": [
            "Apartment",
            "Product"
          ],
          "name": [
            {
              "@language": "de",
              "@value": "Apartment/3 Schlafräume/Dusche, WC"
            },
            {
              "@language": "en",
              "@value": "apartment/3 bedrooms/shower, WC"
            }
          ],
          "numberOfRooms": "6.0",
          "occupancy": {
            "@type": "QuantitativeValue",
            "maxValue": "8",
            "minValue": "4"
          }
        }
      ],
      "priceSpecification": [
        {
          "@type": "PriceSpecification",
          "description": "Pax 4",
          "minPrice": "68.00",
          "maxPrice": "88.00",
          "priceCurrency": "EUR"
        },
        {
          "@type": "PriceSpecification",
          "description": "Pax 5",
          "minPrice": "85.00",
          "maxPrice": "110.00",
          "priceCurrency": "EUR"
        },
        {
          "@type": "PriceSpecification",
          "description": "Pax 6",
          "minPrice": "102.00",
          "maxPrice": "132.00",
          "priceCurrency": "EUR"
        },
        {
          "@type": "PriceSpecification",
          "description": "Pax 7",
          "minPrice": "112.00",
          "maxPrice": "150.00",
          "priceCurrency": "EUR"
        },
        {
          "@type": "PriceSpecification",
          "description": "Pax 8",
          "minPrice": "136.00",
          "maxPrice": "170.00",
          "priceCurrency": "EUR"
        }
      ]
    },
    {
      "@type": "Offer",
      "name": [
        {
          "@language": "de",
          "@value": "Appartement/Fewo, Bad, WC, 1 Schlafraum"
        },
        {
          "@language": "en",
          "@value": "Apartment, bath, toilet, 1 bed room"
        }
      ],
      "description": [
        {
          "@language": "de",
          "@value": "Gemütlich eingerichtetes Einraumappartement im Untergeschoss für 2 Personen mit komplett ausgestatteter Wohnküche (Herd, Backofen, Kaffeemaschine, Mikrowelle, Geschirrspüler, Gefrierschrank), DU/WC, Sat-TV, Geschirr, Bettwäsche vorhanden, Brotservice auf Wunsch, Skiraum und Skischuhtrockner, W-Lan (gegen Gebühr)"
        },
        {
          "@language": "en",
          "@value": "Comfortable furnished 1-room-appartement at the ground floor for 2 persons with completely furnished living-kitchen (oven, stove, coffee maker, microwave, dish washer, freezer), shower/toilet, satellite tv, dishes, bed linen. Bredservice possible."
        }
      ],
      "availability": "http://schema.org/InStock",
      "itemOffered": [
        {
          "@type": [
            "Apartment",
            "Product"
          ],
          "name": [
            {
              "@language": "de",
              "@value": "Apartment/1 Schlafraum/Bad, WC"
            },
            {
              "@language": "en",
              "@value": "apartment/1 bedroom/bath tube, WC"
            }
          ],
          "numberOfRooms": "1.0",
          "occupancy": {
            "@type": "QuantitativeValue",
            "maxValue": "2",
            "minValue": "2"
          }
        }
      ],
      "priceSpecification": [
        {
          "@type": "PriceSpecification",
          "description": "Pax 2",
          "minPrice": "36.00",
          "maxPrice": "40.00",
          "priceCurrency": "EUR"
        }
      ]
    }
  ]
}