{
  "@context": "http://schema.org",
  "@type": "LodgingBusiness",
  "url": [
    "http://maps.best-of-zillertal.at/proxy/frontend/page/fuegen/de?foreignResource\u003d98DE4E3F-E687-4258-B2D1-57F9FAFC7A0E"
  ],
  "address": {
    "@type": "PostalAddress",
    "streetAddress": "Zillerweg 4",
    "addressCountry": "AT",
    "postalCode": "6263",
    "addressRegion": "Fügen",
    "telephone": "(0043) 5288 63108"
  },
  "name": "Appartement Knapp Frieda",
  "description": [
    {
      "@language": "de",
      "@value": "Tiroler Landhausstil direkt im Zentrum von Fügen, Freizeitmöglichkeiten, Restaurants, sowie Kaffeehäuser in direkter Umgebung. Ein Ärztehaus sowie ein Spar-Markt befinden sich in unmittelbarer Nähe (ca. 30 m). Skibushaltestelle ca. 100 m entfernt."
    },
    {
      "@language": "de",
      "@value": "Endreinigung EUR 40,00"
    },
    {
      "@language": "en",
      "@value": "The house is situated in the center of Fügen. Restaurants and coffee´s are nearby. Supermarket (Spar) is about 30 m away. Ski bus stop 100 m away."
    },
    {
      "@language": "en",
      "@value": "Final cleaning EUR 40,00"
    }
  ],
  "image": [
    {
      "@type": "ImageObject",
      "url": "http://resc.deskline.net/images/ZIL/1/b32fb52e-5041-4754-9489-714d1cfa131a/99/image.jpg",
      "caption": [
        {
          "@language": "de",
          "@value": "dummy"
        },
        {
          "@language": "en",
          "@value": "dummy"
        }
      ]
    }
  ],
  "geo": {
    "@type": "GeoCoordinates",
    "latitude": "47.3485860998521",
    "longitude": "11.8510669469833"
  },
  "currenciesAccepted": "EUR",
  "makesOffer": [
    {
      "@type": "Offer",
      "name": [
        {
          "@language": "de",
          "@value": "Appartement/Fewo, Dusche und Bad, WC, 2 Schlafräume"
        },
        {
          "@language": "en",
          "@value": "Apartment, shower and bath, toilet, 2 bed rooms"
        }
      ],
      "description": [
        {
          "@language": "de",
          "@value": "1 ganze Etage als Appartement. Alle Zimmer mit TV, 1x DU/WC am Gang, 1x Badezimmer/WC im Appartement, Handtücher vorhanden. Bettwäsche vorhanden."
        },
        {
          "@language": "en",
          "@value": "All rooms with TV. 1 shower/toilet at the same floor, 1 bathroom/toilet in the appartment. Towels are available. Bed linen available."
        }
      ],
      "availability": "http://schema.org/InStock",
      "itemOffered": [
        {
          "@type": [
            "Apartment",
            "Product"
          ],
          "name": [
            {
              "@language": "de",
              "@value": "Apartment/2 Schlafräume/Du und Bad, WC"
            },
            {
              "@language": "en",
              "@value": "ap./2 bedrooms/shower or bath tube, WC"
            }
          ],
          "numberOfRooms": "3.0",
          "occupancy": {
            "@type": "QuantitativeValue",
            "maxValue": "6",
            "minValue": "4"
          }
        }
      ]
    }
  ]
}