{
  "@context": "http://schema.org",
  "@type": "LodgingBusiness",
  "url": [
    "http://www.gaestehaus-fiechtl.at",
    "http://maps.best-of-zillertal.at/proxy/frontend/page/fuegen/de?foreignResource\u003d99EA2E0E-E3EE-4902-82C5-F5AC03DCB3C6"
  ],
  "address": {
    "@type": "PostalAddress",
    "name": "Gästehaus Fiechtl",
    "streetAddress": "Obere März 36",
    "addressCountry": "AT",
    "postalCode": "6275",
    "addressRegion": "Stumm",
    "telephone": "(0043) 5283 2757",
    "faxNumber": "(0043) 5283 2757",
    "email": "gaestehaus-fiechtl@aon.at",
    "url": "http://www.gaestehaus-fiechtl.at"
  },
  "name": "Gästehaus Fiechtl",
  "description": [
    {
      "@language": "de",
      "@value": "Machen Sie doch mal URLAUB OHNE KOMPROMISSE, entweder in unseren Komfortzimmern mit Frühstücksbuffet, oder schon ab 4 Personen (Frühjahr, Herbst oder Last-Minute) in unseren Ferienwohnungen der XX-Large Klasse!!\n\nAuch mit 12 Personen bieten wir Ihnen noch reichlich Platz und Wohnkomfort! Eine übersichtliche Preisgestaltung finden Sie auf unserer Homepage www.gaestehaus-fiechtl.at!\n\nJim \u0026 Vroni sagen \"Auf Bald!\""
    },
    {
      "@language": "de",
      "@value": "Zuschläge: Einzelperson im Doppelzimmer EUR 10,--\nKinderrabatt für die 3. Person im Zimmer:\n0 \u003c 2 : 100%, 2 \u003c 5 : 50%, 5 \u003c 10 : 25%\n\nwww.gaestehaus-fiechtl.at"
    },
    {
      "@language": "en",
      "@value": "VACATION WITHOUT COMPROMISES either in our comfort rooms with breakfast, or in our XX-Large vacation homes!!\n(minimum 4 persons, spring, autum or last-minute)\n\nEven with 12 persons we are able to offer you lots of room and all comfort we think you will appreciate!\n\nFor prices and more, please look at our homepage www.gaestehaus-fiechtl. at\n\nJim and Vroni say \"see you soon\"!"
    },
    {
      "@language": "en",
      "@value": "www.gaestehaus-fiechtl.at"
    }
  ],
  "image": [
    {
      "@type": "ImageObject",
      "url": "http://resc.deskline.net/images/ZIL/1/507c4804-472a-4e8b-8fb2-5a3bf6bc2a92/99/image.jpg",
      "caption": [
        {
          "@language": "de",
          "@value": "Sommer mit Hamberg"
        },
        {
          "@language": "en",
          "@value": "Sommer mit Hamberg"
        }
      ]
    },
    {
      "@type": "ImageObject",
      "url": "http://resc.deskline.net/images/ZIL/1/8230d382-5fef-4c03-bf4b-2355c5a17448/99/image.jpg",
      "caption": [
        {
          "@language": "de",
          "@value": "Haus \u0026 Stummerberg"
        },
        {
          "@language": "en",
          "@value": "Haus \u0026 Stummerberg"
        }
      ]
    },
    {
      "@type": "ImageObject",
      "url": "http://resc.deskline.net/images/ZIL/1/f65ee7ae-8215-4a60-afcc-d0b079fe1420/99/image.jpg",
      "caption": [
        {
          "@language": "de",
          "@value": "Ausblick vom Zimmer"
        },
        {
          "@language": "en",
          "@value": "Ausblick vom Zimmer"
        }
      ]
    },
    {
      "@type": "ImageObject",
      "url": "http://resc.deskline.net/images/ZIL/1/019a3ee0-d595-4a74-a9e8-f8a5cb14e4a4/99/image.jpg",
      "caption": [
        {
          "@language": "de",
          "@value": "Sommer"
        },
        {
          "@language": "en",
          "@value": "Sommer"
        }
      ]
    },
    {
      "@type": "ImageObject",
      "url": "http://resc.deskline.net/images/ZIL/1/d1c71981-f2c1-4217-b9bb-aa01bfcc648c/99/image.jpg",
      "caption": [
        {
          "@language": "de",
          "@value": "Aufenthaltsraum"
        },
        {
          "@language": "en",
          "@value": "Aufenthaltsraum"
        }
      ]
    },
    {
      "@type": "ImageObject",
      "url": "http://resc.deskline.net/images/ZIL/1/83cd1b03-0f27-4f9c-8708-04cc9858b36c/99/image.jpg",
      "caption": [
        {
          "@language": "de",
          "@value": "Jim \u0026 Vroni im Frühstücksraum"
        },
        {
          "@language": "en",
          "@value": "Jim \u0026 Vroni im Frühstücksraum"
        }
      ]
    },
    {
      "@type": "ImageObject",
      "url": "http://resc.deskline.net/images/ZIL/1/9384e68d-3de1-48b7-9df7-27a77193651e/99/image.jpg",
      "caption": [
        {
          "@language": "de",
          "@value": "Wohnzimmer 2.Stock"
        },
        {
          "@language": "en",
          "@value": "Wohnzimmer 2.Stock"
        }
      ]
    },
    {
      "@type": "ImageObject",
      "url": "http://resc.deskline.net/images/ZIL/1/e2298998-eab2-45de-8521-efda07bad128/99/image.jpg",
      "caption": [
        {
          "@language": "de",
          "@value": "Küche"
        },
        {
          "@language": "en",
          "@value": "Küche"
        }
      ]
    },
    {
      "@type": "ImageObject",
      "url": "http://resc.deskline.net/images/ZIL/1/23563ac3-8679-4cb0-8d84-177eaf7c3bf1/99/image.jpg",
      "caption": [
        {
          "@language": "de",
          "@value": "Zimmer 6"
        },
        {
          "@language": "en",
          "@value": "Zimmer 6"
        }
      ]
    },
    {
      "@type": "ImageObject",
      "url": "http://resc.deskline.net/images/ZIL/1/42c0d32b-f362-4379-9e43-832dea2043b4/99/image.jpg",
      "caption": [
        {
          "@language": "de",
          "@value": "Schlafcouch Wohnzimmer 3.Stock"
        },
        {
          "@language": "en",
          "@value": "Schlafcouch Wohnzimmer 3.Stock"
        }
      ]
    },
    {
      "@type": "ImageObject",
      "url": "http://resc.deskline.net/images/ZIL/1/eb033a98-fdb9-4f99-9c1b-611495c1cc91/99/image.jpg",
      "caption": [
        {
          "@language": "de",
          "@value": "Masterroom-Zimmer 4"
        },
        {
          "@language": "en",
          "@value": "Masterroom-Zimmer 4"
        }
      ]
    }
  ],
  "geo": {
    "@type": "GeoCoordinates",
    "latitude": "47.296908919446",
    "longitude": "11.886663635163"
  },
  "currenciesAccepted": "EUR",
  "makesOffer": [
    {
      "@type": "Offer",
      "name": [
        {
          "@language": "de",
          "@value": "Doppelzimmer, Dusche, WC"
        },
        {
          "@language": "en",
          "@value": "Double room, shower, toilet"
        }
      ],
      "description": [
        {
          "@language": "de",
          "@value": "Zimmer mit Dusche/WC, Sat-TV, Balkon"
        },
        {
          "@language": "en",
          "@value": "Rooms with shower/WC, sat-TV, balcony"
        }
      ],
      "availability": "http://schema.org/InStock",
      "itemOffered": [
        {
          "@type": [
            "HotelRoom",
            "Product"
          ],
          "name": [
            {
              "@language": "de",
              "@value": "Doppelzimmer mit Dusche, WC"
            },
            {
              "@language": "en",
              "@value": "double room with shower, WC"
            }
          ],
          "bed": {
            "@type": "BedDetails",
            "numberOfBeds": "1"
          },
          "occupancy": {
            "@type": "QuantitativeValue",
            "maxValue": "2",
            "minValue": "2"
          }
        }
      ]
    },
    {
      "@type": "Offer",
      "name": [
        {
          "@language": "de",
          "@value": "Dreibettzimmer, Dusche, WC"
        },
        {
          "@language": "en",
          "@value": "Triple room, shower, toilet"
        }
      ],
      "description": [
        {
          "@language": "de",
          "@value": "Zimmer mit DU/WC, Sat-TV und Balkon."
        },
        {
          "@language": "en",
          "@value": "rooms with shower/toilet, satelite-TV and balcony"
        }
      ],
      "availability": "http://schema.org/InStock",
      "itemOffered": [
        {
          "@type": [
            "HotelRoom",
            "Product"
          ],
          "name": [
            {
              "@language": "de",
              "@value": "Dreibettzimmer mit Dusche, WC"
            },
            {
              "@language": "en",
              "@value": "triple room with shower, WC"
            }
          ],
          "bed": {
            "@type": "BedDetails",
            "numberOfBeds": "1"
          },
          "occupancy": {
            "@type": "QuantitativeValue",
            "maxValue": "3",
            "minValue": "2"
          }
        }
      ]
    },
    {
      "@type": "Offer",
      "name": [
        {
          "@language": "de",
          "@value": "Appartement/Fewo, Dusche und Bad, WC, 4 oder mehr Schlafräume"
        },
        {
          "@language": "en",
          "@value": "Apartment, shower and bath, toilet, 4 or more bed rooms"
        }
      ],
      "description": [
        {
          "@language": "de",
          "@value": "Großraumferienwohnung  mit ca. 180m², 4 Schlafzimmer (davon 1 mit Dusche/WC), großes Wohn/Schlafzimmer, große Küche (Herd, Backrohr, Kaffeemaschine, Mikrowelle, Geschirrspülmaschine ..), SAT-TV, Radio, Bad/Dusche/WC mit Waschmaschine, WC extra, Dusche extra; Geschirr, Bettwäsche und Handtücher vorhanden. Brötchenservice. Eigenes Grillplatzl! WLAN gratis.\n"
        },
        {
          "@language": "en",
          "@value": "Spacious holiday apartment with approx. 180 m2, 4 bedrooms (one of them with shower/toilet), combined living/bedroom, big kitchen fully equipped (cooker, oven, coffee maker, dishwasher, ...), satellite TV, radio, bath/shower/toilet with washing machine, separate toilet, separate shower; barbecue facilities. Crockery, bed linen and hand towels provided. Fresh bakery service. WLAN free."
        }
      ],
      "availability": "http://schema.org/InStock",
      "itemOffered": [
        {
          "@type": [
            "Apartment",
            "Product"
          ],
          "name": [
            {
              "@language": "de",
              "@value": "Ap./4 od. mehr Schlafräume/Dusche,Bad,WC"
            },
            {
              "@language": "en",
              "@value": "ap./4 + more bedrooms/shower, bath, WC"
            }
          ],
          "numberOfRooms": "6.0",
          "occupancy": {
            "@type": "QuantitativeValue",
            "maxValue": "12",
            "minValue": "1"
          }
        }
      ]
    }
  ]
}