{
  "@context": "http://schema.org",
  "@type": "LodgingBusiness",
  "url": [
    "http://maps.best-of-zillertal.at/proxy/frontend/page/fuegen/de?foreignResource\u003d99EC45C7-F2F7-4779-89F5-F5A0B38ADEB0"
  ],
  "address": {
    "@type": "PostalAddress",
    "streetAddress": "Talstraße 3",
    "addressCountry": "AT",
    "postalCode": "6273",
    "addressRegion": "Ried im Zillertal",
    "telephone": "(0043) 676 3424501",
    "email": "rikl@aon.at"
  },
  "name": "Ferienwohnungen Kammerlander",
  "description": [
    {
      "@language": "de",
      "@value": "Gepflegtes, gemütliches Gästehaus in sonniger, ruhiger Lage mit 2 Ferienwohnungen für insgesamt 16 Personen, Skiraum, Liegewiese, Nähe Langlaufloipe, Parkplatz, Nähe Supermarkt, Skibushaltestelle 200 m entfernt;"
    },
    {
      "@language": "de",
      "@value": "Endreinigung Euro 50,-- für kleine Wohnung\nEndreinigung Euro 70,-- für grosse Wohnung"
    },
    {
      "@language": "de",
      "@value": "Check in ab 15:00 Uhr \nCheck out bis 09:00 Uhr"
    },
    {
      "@language": "en",
      "@value": "Elegant, comfortable guest house in sunny, quiet location with 2 apartments for complete 16 persons, ski storage room, sunbathing lawn, close to cross-country skiing track, car park, close to supermarket, skibus-stop 200 m;\n\n"
    },
    {
      "@language": "en",
      "@value": "final cleaning Euro 50,-- from the little apartment\nfinal cleaning Euro 70,-- from the great apartment"
    },
    {
      "@language": "en",
      "@value": "Check in: from 3.00 pm\nCheck out: until 09.00 am"
    }
  ],
  "image": [
    {
      "@type": "ImageObject",
      "url": "http://resc.deskline.net/images/ZIL/1/c356af0d-a608-444d-af5c-5d8c87609acb/99/image.jpg",
      "caption": [
        {
          "@language": "de",
          "@value": "Haus Kammerlander"
        },
        {
          "@language": "en",
          "@value": "Haus Kammerlander"
        }
      ]
    },
    {
      "@type": "ImageObject",
      "url": "http://resc.deskline.net/images/ZIL/1/1c330ac8-bb59-40d8-af4f-c1a59e2a634b/99/image.jpg",
      "caption": [
        {
          "@language": "de",
          "@value": "Haus Kammerlander"
        },
        {
          "@language": "en",
          "@value": "Haus Kammerlander"
        }
      ]
    },
    {
      "@type": "ImageObject",
      "url": "http://resc.deskline.net/images/ZIL/1/710f65e0-0893-447c-bd0d-fe7e0164907b/99/image.jpg",
      "caption": [
        {
          "@language": "de",
          "@value": "Haus Kammerlander"
        },
        {
          "@language": "en",
          "@value": "Haus Kammerlander"
        }
      ]
    },
    {
      "@type": "ImageObject",
      "url": "http://resc.deskline.net/images/ZIL/1/83f97e14-bfca-401e-89f6-25af5fc7dd0f/99/image.jpg",
      "caption": [
        {
          "@language": "de",
          "@value": "Eingang Fewo"
        },
        {
          "@language": "en",
          "@value": "Eingang Fewo"
        }
      ]
    },
    {
      "@type": "ImageObject",
      "url": "http://resc.deskline.net/images/ZIL/1/c4b18a9c-90b8-40cb-b29f-cab40033d555/99/image.jpg",
      "caption": [
        {
          "@language": "de",
          "@value": "Küche"
        },
        {
          "@language": "en",
          "@value": "Küche"
        }
      ]
    },
    {
      "@type": "ImageObject",
      "url": "http://resc.deskline.net/images/ZIL/1/01f085ef-c796-4989-ba4e-9e230d2fbcbd/99/image.jpg",
      "caption": [
        {
          "@language": "de",
          "@value": "Küche"
        },
        {
          "@language": "en",
          "@value": "Küche"
        }
      ]
    },
    {
      "@type": "ImageObject",
      "url": "http://resc.deskline.net/images/ZIL/1/d09eafdf-b862-4f96-a3cd-94d1572d9c76/99/image.jpg",
      "caption": [
        {
          "@language": "de",
          "@value": "Wohnzimmer"
        },
        {
          "@language": "en",
          "@value": "Wohnzimmer"
        }
      ]
    },
    {
      "@type": "ImageObject",
      "url": "http://resc.deskline.net/images/ZIL/1/3c702375-9f86-49f8-9811-995b035cfc1c/99/image.jpg",
      "caption": [
        {
          "@language": "de",
          "@value": "Wohnzimmer"
        },
        {
          "@language": "en",
          "@value": "Wohnzimmer"
        }
      ]
    },
    {
      "@type": "ImageObject",
      "url": "http://resc.deskline.net/images/ZIL/1/009837ba-8df3-4c22-9f27-3ceee812c267/99/image.jpg",
      "caption": [
        {
          "@language": "de",
          "@value": "Wohnzimmer"
        },
        {
          "@language": "en",
          "@value": "Wohnzimmer"
        }
      ]
    },
    {
      "@type": "ImageObject",
      "url": "http://resc.deskline.net/images/ZIL/1/01a62bbd-dfc6-4fe9-a614-088cef5603a8/99/image.jpg",
      "caption": [
        {
          "@language": "de",
          "@value": "Stiege 1. Stock"
        },
        {
          "@language": "en",
          "@value": "Stiege 1. Stock"
        }
      ]
    },
    {
      "@type": "ImageObject",
      "url": "http://resc.deskline.net/images/ZIL/1/15d68ff6-4e78-460b-ad74-668a7a4d8215/99/image.jpg",
      "caption": [
        {
          "@language": "de",
          "@value": "Bad"
        },
        {
          "@language": "en",
          "@value": "Bad"
        }
      ]
    },
    {
      "@type": "ImageObject",
      "url": "http://resc.deskline.net/images/ZIL/1/676ccbfb-4b3a-4880-85e0-cbf6ca7d3514/99/image.jpg",
      "caption": [
        {
          "@language": "de",
          "@value": "Zimmer"
        },
        {
          "@language": "en",
          "@value": "Zimmer"
        }
      ]
    },
    {
      "@type": "ImageObject",
      "url": "http://resc.deskline.net/images/ZIL/1/608ed4f8-dcaf-4bc8-b8f8-f04fa92701bc/99/image.jpg",
      "caption": [
        {
          "@language": "de",
          "@value": "Zimmer"
        },
        {
          "@language": "en",
          "@value": "Zimmer"
        }
      ]
    }
  ],
  "geo": {
    "@type": "GeoCoordinates",
    "latitude": "47.301649992103009",
    "longitude": "11.86948299407959"
  },
  "currenciesAccepted": "EUR",
  "makesOffer": [
    {
      "@type": "Offer",
      "name": [
        {
          "@language": "de",
          "@value": "Appartement/Fewo, Etagendusche/Etagen-WC, Nichtraucher"
        },
        {
          "@language": "en",
          "@value": "Apartment, shared shower/shared toilet, no smoker"
        }
      ],
      "description": [
        {
          "@language": "de",
          "@value": "Ländlich eingerichtete Ferienwohnung ca. 70m² im Parterre mit Terrasse, mit komplett eingerichteter Küche (Kaffeemaschine, Backrohr, Geschirrspülmaschine etc.), 2 Schlafzimmer (Doppelzimmer), gemütliches Wohnzimmer mit zusätzlicher Schlafgelegenheit und SAT-TV, Dusche/WC,  Bettwäsche und Handtücher vorhanden;\n\n"
        },
        {
          "@language": "en",
          "@value": "Country-style appointed holiday apartment approx. 70m2 with terrace, with fully equipped kitchen (coffee maker, oven, dish washer etc., 2 bedrooms (double room), pleasant living room with additional sleeping space and satellite TV, shower/WC,  bed linen and hand towels provided;\n\n"
        }
      ],
      "availability": "http://schema.org/InStock",
      "itemOffered": [
        {
          "@type": [
            "Apartment",
            "Product"
          ],
          "name": [
            {
              "@language": "de",
              "@value": "Apartment/2 Schlafräume/Dusche, WC"
            },
            {
              "@language": "en",
              "@value": "apartment/2 bedrooms/shower, WC"
            }
          ],
          "numberOfRooms": "4.0",
          "occupancy": {
            "@type": "QuantitativeValue",
            "maxValue": "6",
            "minValue": "2"
          }
        }
      ]
    },
    {
      "@type": "Offer",
      "name": [
        {
          "@language": "de",
          "@value": "Appartement/Fewo, Etagendusche/Etagen-WC, Nichtraucher"
        },
        {
          "@language": "en",
          "@value": "Apartment, shared shower/shared toilet, no smoker"
        }
      ],
      "description": [
        {
          "@language": "de",
          "@value": "Komfortable, große Ferienwohnung mit komplett eingerichteter, geräumiger Wohnküche (Kaffeemaschine, Herd mit Backrohr, großer Kühlschrank, Micro, Geschirrspülmaschine, gemütliche, große Sitzecke, etc.), Abstellkammer, 5 Doppelzimmer, großes Wohnzimmer mit Doppelbettcouch, SAT-TV, 2x DU, 2x WC separat (Fewo bewegt sich auf 2 Etagen), großer Balkon, Handtücher und Bettwäsche vorhanden;"
        },
        {
          "@language": "en",
          "@value": "great, cosy apartment with complete living-citchen (coffee maker, electric cooker with oven, great refrigerator, dish washer, microwave, grat seating corner etc.), storageroom, 5 double rooms, cosy, great lounge in 2 people can also sleep, satellite TV, 2 x shower/WC, 2 x WC\nseparated, balcony, bed linen and hand towels available;"
        }
      ],
      "availability": "http://schema.org/InStock",
      "itemOffered": [
        {
          "@type": [
            "Apartment",
            "Product"
          ],
          "name": [
            {
              "@language": "de",
              "@value": "Ap./Wohn-Schlafr./4+mehr Schlafr./Du/WC"
            },
            {
              "@language": "en",
              "@value": "ap/comb.living-bedr./4+more bedr./sho/wc"
            }
          ],
          "numberOfRooms": "7.0",
          "occupancy": {
            "@type": "QuantitativeValue",
            "maxValue": "10",
            "minValue": "4"
          }
        }
      ],
      "priceSpecification": [
        {
          "@type": "PriceSpecification",
          "description": "Pax 4",
          "minPrice": "220.00",
          "maxPrice": "220.00",
          "priceCurrency": "EUR"
        },
        {
          "@type": "PriceSpecification",
          "description": "Pax 5",
          "minPrice": "220.00",
          "maxPrice": "220.00",
          "priceCurrency": "EUR"
        },
        {
          "@type": "PriceSpecification",
          "description": "Pax 6",
          "minPrice": "220.00",
          "maxPrice": "220.00",
          "priceCurrency": "EUR"
        },
        {
          "@type": "PriceSpecification",
          "description": "Pax 7",
          "minPrice": "220.00",
          "maxPrice": "220.00",
          "priceCurrency": "EUR"
        },
        {
          "@type": "PriceSpecification",
          "description": "Pax 8",
          "minPrice": "160.00",
          "maxPrice": "220.00",
          "priceCurrency": "EUR"
        },
        {
          "@type": "PriceSpecification",
          "description": "Pax 9",
          "minPrice": "160.00",
          "maxPrice": "220.00",
          "priceCurrency": "EUR"
        },
        {
          "@type": "PriceSpecification",
          "description": "Pax 10",
          "minPrice": "160.00",
          "maxPrice": "220.00",
          "priceCurrency": "EUR"
        }
      ]
    }
  ]
}