{
  "@context": "http://schema.org",
  "@type": "LodgingBusiness",
  "url": [
    "http://www.kreutwies-huette.at",
    "http://maps.best-of-zillertal.at/proxy/frontend/page/fuegen/de?foreignResource\u003d9CB32A1D-C50F-4BA0-9208-2D1438428B12"
  ],
  "address": {
    "@type": "PostalAddress",
    "name": "Kreutwieshütte",
    "streetAddress": "Ludwig-Dornauer-Weg 5",
    "addressCountry": "AT",
    "postalCode": "6264",
    "addressRegion": "Fügenberg",
    "telephone": "(0043) 660 4946610",
    "email": "info@kreutwies-huette.at",
    "url": "http://www.kreutwies-huette.at"
  },
  "name": "Kreutwieshütte",
  "description": [
    {
      "@language": "de",
      "@value": "Die Kreutwies Hütte mit total 120m2 Wohnfläche befindet sich in leicht abgelegener, ruhiger Lage auf ca. 1.000 m Seehöhe, am Pankrazberg in Fügen im Zillertal. \nErreicht wird die Hütte ganzjährig mit PKW auf einer neu ausgebauten Zufahrtsstrasse, die als Sackgase endet, deshalb gibt es hier fast keinen Durchzugsverkehr. Parkmöglichkeit direkt vor der Hütte.\n\nSehr schöne Aussicht auf das mittlere und hintere Zillertal. Der nächste Ort Fügen ist ca. 5 km entfernt.\n"
    },
    {
      "@language": "de",
      "@value": "Folgende Kosten sind vor Ort zu zahlen.\nSie sind nicht im Mietpreis enthalten:\n\nKurtaxe\nEndreinigung: € 75,00 einmalig\nHaustier: € 15,00 pro Woche\nZusatzbett: € 10,00 pro Person pro Tag\nKaution: € 200,00 vor Ort zu bezahlen pauschal\n"
    },
    {
      "@language": "en",
      "@value": "The \"Kreutwies Hütte\" (120 m²) is situated a little bit outside in a quiet location, about 1.000 m sea level, at Pankrazberg (a part of Fügen).\nYou can reach the hut the whole year by car. Parking space directly in front of the house.\n\nA wonderful view over the Ziller Valley. The next village Fügen is about 5 km afar."
    },
    {
      "@language": "en",
      "@value": "extra costs:\n\nlocal tax\nfinal cleaning: € 75,00\npet: € 15,00 per week\nextra bed: € 10,00 per person per day\ndeposit: € 200,00"
    }
  ],
  "image": [
    {
      "@type": "ImageObject",
      "url": "http://resc.deskline.net/images/ZIL/1/8e19e3b9-e96b-4616-830f-a28aa4bb8453/99/image.jpg",
      "caption": [
        {
          "@language": "de",
          "@value": "Hütte im Sommer"
        },
        {
          "@language": "en",
          "@value": "Hütte im Sommer"
        }
      ]
    },
    {
      "@type": "ImageObject",
      "url": "http://resc.deskline.net/images/ZIL/1/eafeca5f-b321-4ed1-a2e9-bd99e515c78e/99/image.jpg",
      "caption": [
        {
          "@language": "de",
          "@value": "Küche"
        },
        {
          "@language": "en",
          "@value": "Küche"
        }
      ]
    },
    {
      "@type": "ImageObject",
      "url": "http://resc.deskline.net/images/ZIL/1/6d82b114-5a2b-4dd1-bd2d-efdb102945cc/99/image.jpg",
      "caption": [
        {
          "@language": "de",
          "@value": "Sauna"
        },
        {
          "@language": "en",
          "@value": "Sauna"
        }
      ]
    },
    {
      "@type": "ImageObject",
      "url": "http://resc.deskline.net/images/ZIL/1/9f0df7ae-091d-41bd-8de3-75576c15f11a/99/image.jpg",
      "caption": [
        {
          "@language": "de",
          "@value": "Schlafzimmer 1"
        },
        {
          "@language": "en",
          "@value": "Schlafzimmer 1"
        }
      ]
    },
    {
      "@type": "ImageObject",
      "url": "http://resc.deskline.net/images/ZIL/1/abd80aee-74e7-4b74-9aac-0284b3b50b8c/99/image.jpg",
      "caption": [
        {
          "@language": "de",
          "@value": "Schlafzimmer 2"
        },
        {
          "@language": "en",
          "@value": "Schlafzimmer 2"
        }
      ]
    },
    {
      "@type": "ImageObject",
      "url": "http://resc.deskline.net/images/ZIL/1/2c06260d-5380-4a2a-b7a0-125eb31a9f3a/99/image.jpg",
      "caption": [
        {
          "@language": "de",
          "@value": "Sitzecke"
        },
        {
          "@language": "en",
          "@value": "Sitzecke"
        }
      ]
    },
    {
      "@type": "ImageObject",
      "url": "http://resc.deskline.net/images/ZIL/1/9f471268-5aff-44e6-96d0-71fb47f11c10/99/image.jpg",
      "caption": [
        {
          "@language": "de",
          "@value": "Badezimmer"
        },
        {
          "@language": "en",
          "@value": "Badezimmer"
        }
      ]
    }
  ],
  "geo": {
    "@type": "GeoCoordinates",
    "latitude": "47.325527",
    "longitude": "11.827438"
  },
  "currenciesAccepted": "EUR"
}