{
  "@context": "http://schema.org",
  "@type": "LodgingBusiness",
  "address": {
    "@type": "PostalAddress",
    "name": "Appartement Schiestlhof",
    "streetAddress": "Haidach 8",
    "addressCountry": "AT",
    "postalCode": "6263",
    "addressRegion": "Fügen",
    "telephone": "(0043) 699 1214 1139",
    "email": "tommy521@gmx.at"
  },
  "name": "Appartement Schiestlhof",
  "description": [
    {
      "@language": "de",
      "@value": "Willkommen am Schiestlhof in Fügen\n\nDas familienfreundliche Appartement Schiestlhof liegt äußerst ruhig und sonnig, bietet mit ca. 100 m² Wohnfläche genügend Platz für 4- 8 Personen in 4 Zimmer aufgeteilt und befindet sich auf einem Bauernhof im 2 OG.\n\nMit wunderschönen rundum Blick auf die Zillertaler Berge und die herrliche Umgebung liegt das Appartement ca. 100 m an der Abfahrt der Spieljochbahn bzw. der Talstation in Fügen und an der Bushaltestelle für das Skigebiet in Hochfügen.\n\nZum örtlichen Freibad bzw. zur Freizeittherme sind es nur wenige Fahrminuten, ebenso kann die umliegende Gastronomie problemlos in 5 Minuten zu Fuß erreicht werden. Einkaufsmöglichkeiten gibt es im Ort Fügen zur Genüge. Ebenso bieten wir kostenloses WLAN."
    },
    {
      "@language": "de",
      "@value": "incl. Bettwäsche, Handtücher, Strom und Heizung\nEndreinigung € 120,--"
    },
    {
      "@language": "de",
      "@value": "Anreise ab 15:00 Uhr \nAbreise bis 10:00 Uhr"
    },
    {
      "@language": "en",
      "@value": "Welcome to the appartment Schiestlhof\n\nHave a beautiful view to the mountains! \nThe appartment is situated in a calm and sunny part of Fügen, only a few meters from centre\n\n"
    },
    {
      "@language": "en",
      "@value": "final cleaning € 120,--\n"
    },
    {
      "@language": "en",
      "@value": "check-in 3.00 p.m.\ncheck-out 10.00 a.m. "
    }
  ],
  "image": [
    {
      "@type": "ImageObject",
      "url": "http://resc.deskline.net/images/ZIL/1/cc7ec1fe-2eff-4d2c-b070-cc9cf3552b6d/99/image.jpg",
      "caption": [
        {
          "@language": "de",
          "@value": "Außenansicht"
        },
        {
          "@language": "en",
          "@value": "Außenansicht"
        }
      ]
    },
    {
      "@type": "ImageObject",
      "url": "http://resc.deskline.net/images/ZIL/1/bc053b7c-9711-43f5-9806-a19e79e79d61/99/image.jpg",
      "caption": [
        {
          "@language": "de",
          "@value": "Außenansicht 02"
        },
        {
          "@language": "en",
          "@value": "Außenansicht 02"
        }
      ]
    }
  ],
  "geo": {
    "@type": "GeoCoordinates",
    "latitude": "47.3412157",
    "longitude": "11.8420682"
  },
  "currenciesAccepted": "EUR",
  "makesOffer": [
    {
      "@type": "Offer",
      "name": [
        {
          "@language": "de",
          "@value": "Appartement/Fewo, Dusche oder Bad, WC, 4 oder mehr Schlafräume"
        },
        {
          "@language": "en",
          "@value": "Apartment, shower or bath, toilet, 4 or more bed rooms"
        }
      ],
      "description": [
        {
          "@language": "de",
          "@value": "Das familienfreundliche Appartement Schiestlhof liegt äußerst ruhig und sonnig, bietet mit ca. 100 m² Wohnfläche genügend Platz für 4- 8 Personen in 4 Zimmer aufgeteilt und befindet sich auf einem Bauernhof im 2 OG.\n\nMit wunderschönen rundum Blick auf die Zillertaler Berge und die herrliche Umgebung liegt das Appartement ca. 100 m an der Abfahrt der Spieljochbahn bzw. der Talstation in Fügen und an der Bushaltestelle für das Skigebiet in Hochfügen.\nkostenloses W-Lan"
        },
        {
          "@language": "en",
          "@value": "Appartement with 100 aquare meters, shower and WC, on the 2nd floor of a farmer\u0027s house"
        }
      ],
      "availability": "http://schema.org/InStock",
      "itemOffered": [
        {
          "@type": [
            "Apartment",
            "Product"
          ],
          "name": [
            {
              "@language": "de",
              "@value": "Appartement Schiestlhof"
            },
            {
              "@language": "en",
              "@value": "Apartment, shower or bath, toilet, 4 or more bed rooms"
            }
          ],
          "numberOfRooms": "6.0",
          "occupancy": {
            "@type": "QuantitativeValue",
            "maxValue": "10",
            "minValue": "4"
          }
        }
      ],
      "priceSpecification": [
        {
          "@type": "PriceSpecification",
          "description": "Pax 4",
          "minPrice": "140.00",
          "maxPrice": "150.00",
          "priceCurrency": "EUR"
        },
        {
          "@type": "PriceSpecification",
          "description": "Pax 5",
          "minPrice": "140.00",
          "maxPrice": "150.00",
          "priceCurrency": "EUR"
        },
        {
          "@type": "PriceSpecification",
          "description": "Pax 6",
          "minPrice": "168.00",
          "maxPrice": "180.00",
          "priceCurrency": "EUR"
        },
        {
          "@type": "PriceSpecification",
          "description": "Pax 7",
          "minPrice": "168.00",
          "maxPrice": "180.00",
          "priceCurrency": "EUR"
        },
        {
          "@type": "PriceSpecification",
          "description": "Pax 8",
          "minPrice": "210.00",
          "maxPrice": "230.00",
          "priceCurrency": "EUR"
        },
        {
          "@type": "PriceSpecification",
          "description": "Pax 9",
          "minPrice": "210.00",
          "maxPrice": "230.00",
          "priceCurrency": "EUR"
        },
        {
          "@type": "PriceSpecification",
          "description": "Pax 10",
          "minPrice": "210.00",
          "maxPrice": "230.00",
          "priceCurrency": "EUR"
        }
      ]
    }
  ]
}