{
  "@context": "http://schema.org",
  "@type": "LodgingBusiness",
  "url": [
    "http://maps.best-of-zillertal.at/proxy/frontend/page/fuegen/de?foreignResource\u003d9F2A8141-A858-4E94-AF7F-D6F9C0EDB675"
  ],
  "address": {
    "@type": "PostalAddress",
    "name": "Appartement Höllwarth",
    "streetAddress": "Panoramastraße 47",
    "addressCountry": "AT",
    "postalCode": "6264",
    "addressRegion": "Fügenberg",
    "telephone": "(0043) 5288 62149",
    "faxNumber": "(0043) 5288 62149"
  },
  "name": "Appartement Höllwarth",
  "description": [
    {
      "@language": "de",
      "@value": "Das Haus liegt an einer Anhöhe oberhalb von Fügen in ruhiger Lage, bequem mit dem Auto erreichbar. Von Wiesen umgeben und einem einzigartigen Talblick über Fügen hinweg ins hintere Zillertal. Sie teilen dieses Haus nur mit den Hausbesitzern. Durch gepflegte Wanderwege spazieren Sie durch Waldstreifen in den Ort. In unmittelbarer Nähe befinden sich ein Tiergehege ( Rehe), Rodelbahn ( Sommer + Winter), sowie ein gemütliches Gasthaus.\n"
    },
    {
      "@language": "de",
      "@value": "Endreinigung EUR 35,--"
    },
    {
      "@language": "en",
      "@value": "The house is situated in a quiet location, easy to reach by car. Near-by there is a vivarium, toboggan run (summer and winter) and restaurant."
    },
    {
      "@language": "en",
      "@value": "Final cleaning: EUR 35,00"
    }
  ],
  "image": [
    {
      "@type": "ImageObject",
      "url": "http://resc.deskline.net/images/ZIL/1/8c8e6f84-9c04-4255-9887-fd152ef09438/99/image.jpg",
      "caption": [
        {
          "@language": "de",
          "@value": "Hausansicht"
        },
        {
          "@language": "en",
          "@value": "Hausansicht"
        }
      ]
    }
  ],
  "geo": {
    "@type": "GeoCoordinates",
    "latitude": "47.3456965236521",
    "longitude": "11.833584308624268"
  },
  "currenciesAccepted": "EUR",
  "makesOffer": [
    {
      "@type": "Offer",
      "name": [
        {
          "@language": "de",
          "@value": "Appartement/Fewo, Dusche, WC"
        },
        {
          "@language": "en",
          "@value": "Apartment, shower, toilet"
        }
      ],
      "description": [
        {
          "@language": "de",
          "@value": "Die Wohnung ist ca. 85m2 groß und für max. 9 Personen geeignet. Die Wohnung bietet 3 Schlafzimmer, 1 Küche, Wohnzimmer mit Sitz- und Essecke, Sat-TV, Bad und WC; eigener Garten zum Sonnenbaden, Grillen, Spielen..."
        },
        {
          "@language": "en",
          "@value": "The appartement is about 85 m² and for up to 9 persons. In the appartement there are 3 bed rooms, 1 kitchen, living room with lounge, satellite tv, bath room and toilet, own garden with sunbathing lawn, barbecue, ..."
        }
      ],
      "availability": "http://schema.org/InStock",
      "itemOffered": [
        {
          "@type": [
            "Apartment",
            "Product"
          ],
          "name": [
            {
              "@language": "de",
              "@value": "Ap./Wohn-Schlafraum/3 Schlafr./Dusche,WC"
            },
            {
              "@language": "en",
              "@value": "ap/comb.living-bedr./3 bedr./shower, wc"
            }
          ],
          "numberOfRooms": "5.0",
          "occupancy": {
            "@type": "QuantitativeValue",
            "maxValue": "9",
            "minValue": "4"
          }
        }
      ]
    }
  ]
}