{
  "@context": "http://schema.org",
  "@type": "LodgingBusiness",
  "url": [
    "http://maps.best-of-zillertal.at/proxy/frontend/page/fuegen/de?foreignResource\u003dA1C3054A-E961-4CEB-9F0D-E1E89ACF1A55"
  ],
  "address": {
    "@type": "PostalAddress",
    "streetAddress": "HNR 163",
    "addressCountry": "AT",
    "postalCode": "6262",
    "addressRegion": "Schlitters",
    "telephone": "(0043) 5288 72464",
    "faxNumber": "(0043) 5288 72464  ",
    "email": "elisabeth.brandacher@gmx.at"
  },
  "name": "Brandacher, Elisabeth",
  "description": [
    {
      "@language": "de",
      "@value": "Privathaus mit zwei gemütlichen Ferienwohnungen in ruhiger, sonniger Lage unweit des Zentrums. Beide Ferienwohnungen mit Balkon. Große Liegewiese, Parkplatz. Ganzjährig geöffnet!\nDie kleinere Ferienwohnung ist für 2-3 Personen geeignet. 1 Schlafzimmer, 1 Küche mit einer Couchliege, Du/WC getrennt. Auf Wunsch ist ein Zusatzbett möglich.\nDie größere Ferienwohnung ist für 2-5 Personen geeignet. 2 Schlafzimmer, 1 Küche mit einer Couchliege, DU/WC getrennt.\nIn beiden Wohnungen befinden sich SAT-TV, getrennte Küche, Gefrier- Kühlschrank, Geschirrspüler, Kaffeemaschine, Radio, Bett- und Tischwäsche. Schlaf- und Wohnräume sind getrennt."
    },
    {
      "@language": "de",
      "@value": "INKLUSIVE: Heizung, Parkplatz, Wasser, Strom, Bett- Tischwäsche\nEXKLUSIVE: Endreinigung Wohnung 2-3 Pers.  € 30,--  ; Kurtaxe\n                      Endreinigung Wohnung 2-5 Pers.  € 35,--  ; Kurtaxe"
    },
    {
      "@language": "de",
      "@value": "Fahren Sie zur Dorfmitte und bleiben Sie auf der Straße. Nach ca. 250m biegen Sie in die erste Straße nach rechts ein zu unserem Haus Nr. 163 auf der rechten Seite."
    },
    {
      "@language": "en",
      "@value": "Private house with two comfortable apartments situated at a sunny and quiet site not far away from cnetre. Both apartments with balcony. Large lawn, car park. The whole year open!\nOne apartment is for 2-3 persons. 1 bedroom, 1 kitchen with a couch, shower and WC are separate. If you wish one more bed is possible.\nOne apartment is for 2-5 persons. 2 bedrooms, 1 kitchen with a couch, shower and WC are separate.\nThe apartments have SAT-TV, separate kitchen, refrigerator, machine for wash-up, coffeemaker, radio, bed-linen. Bedroom and living-rooms are separate."
    },
    {
      "@language": "en",
      "@value": "INCLUSIVE: central heating, garage, water, electric current, bed-linen\nEXCLUSIVE: cleaning after stay : apartment 2-3 persons € 30,-- ; tax\n                                                           apartment 2-5 persons € 35,-- ; tax"
    },
    {
      "@language": "en",
      "@value": "Drive to the middle of the village and follow the street straight ahead. After 250m you have to turn right by the first road to our house number 163 on the right site."
    }
  ],
  "image": [
    {
      "@type": "ImageObject",
      "url": "http://resc.deskline.net/images/ZIL/1/91c3e4f1-e662-4d33-9161-130118745a7e/99/image.jpg",
      "caption": [
        {
          "@language": "de",
          "@value": "brandachers"
        },
        {
          "@language": "en",
          "@value": "brandachers"
        }
      ]
    }
  ],
  "geo": {
    "@type": "GeoCoordinates",
    "latitude": "47.373931259989682",
    "longitude": "11.842296123504639"
  },
  "currenciesAccepted": "EUR",
  "makesOffer": [
    {
      "@type": "Offer",
      "name": [
        {
          "@language": "de",
          "@value": "Appartement/Fewo, Dusche, WC, 1 Schlafraum"
        },
        {
          "@language": "en",
          "@value": "Apartment, shower, toilet, 1 bed room"
        }
      ],
      "description": [
        {
          "@language": "de",
          "@value": "Gemütliche Ferienwohnung für 2-3 Personen mit 1 Schlafzimmer, 1 Küche mit einer Couchliege und DU/WC."
        },
        {
          "@language": "en",
          "@value": "Comfortable apartment for 2-3 persons with 1 bedroom, 1 kitchen with a couch and shower/WC."
        }
      ],
      "availability": "http://schema.org/InStock",
      "itemOffered": [
        {
          "@type": [
            "Apartment",
            "Product"
          ],
          "name": [
            {
              "@language": "de",
              "@value": "Apartment/1 Schlafraum/Dusche, WC"
            },
            {
              "@language": "en",
              "@value": "apartment/1 bedroom/shower, WC"
            }
          ],
          "numberOfRooms": "2.0",
          "occupancy": {
            "@type": "QuantitativeValue",
            "maxValue": "3",
            "minValue": "2"
          }
        }
      ]
    },
    {
      "@type": "Offer",
      "name": [
        {
          "@language": "de",
          "@value": "Appartement/Fewo, Dusche, WC, 2 Schlafräume"
        },
        {
          "@language": "en",
          "@value": "Apartment, shower, toilet, 2 bed rooms"
        }
      ],
      "description": [
        {
          "@language": "de",
          "@value": "Gemütliche Ferienwohnung für 2-5 Personen mit 2 Schlafzimmern, 1 Küche mit Couchliege und DU/WC."
        },
        {
          "@language": "en",
          "@value": "Comfortable apartment for 2-5 persons with 2 bedrooms, 1 kitchen with a couch and shower/WC."
        }
      ],
      "availability": "http://schema.org/InStock",
      "itemOffered": [
        {
          "@type": [
            "Apartment",
            "Product"
          ],
          "name": [
            {
              "@language": "de",
              "@value": "Apartment/2 Schlafräume/Dusche, WC"
            },
            {
              "@language": "en",
              "@value": "apartment/2 bedrooms/shower, WC"
            }
          ],
          "numberOfRooms": "3.0",
          "occupancy": {
            "@type": "QuantitativeValue",
            "maxValue": "5",
            "minValue": "2"
          }
        }
      ]
    }
  ]
}