{
  "@context": "http://schema.org",
  "@type": "LodgingBusiness",
  "url": [
    "http://www.tiscover.at/kammerlander.aschau",
    "http://maps.best-of-zillertal.at/proxy/frontend/page/fuegen/de?foreignResource\u003dA485DDE8-56DB-4109-9127-8B036C994ED8"
  ],
  "address": {
    "@type": "PostalAddress",
    "streetAddress": "Mühlfeldweg 18",
    "addressCountry": "AT",
    "postalCode": "6274",
    "addressRegion": "Aschau",
    "telephone": "(0043) 5282 4793",
    "faxNumber": "(0043) 5282 4793",
    "email": "haus.kammerlander@aon.at",
    "url": "http://www.tiscover.at/kammerlander.aschau"
  },
  "name": "Gästehaus Kammerlander",
  "description": [
    {
      "@language": "de",
      "@value": "Unser familienfreundliches Gästehaus Kammerlander liegt in ruhiger und sonniger Lage mit Ausblick auf die Zillertaler Bergwelt nur wenige Gehminuten vom Zentrum Aschau entfernt. \n\nEs begrüßt Sie ein gemütliches Gästehaus im Tiroler Stil mit eigener Landwirtschaft.\nDas Gästehaus Kammerlander befindet sich in unmittelbarer Nähe zum Ortszentrum Aschau wo Sie Einkaufsmöglichkeiten, Bushaltestellen und den Bahnhof vorfinden. Auch der kostenlose Skibus ins Skigebiet Hochfügen - Hochzillertal bzw. in die Zillertal Arena fährt nur 5 Gehminuten von unserem Gästehaus entfernt ab. \n\nGenießen Sie das traumhafte Panorama der Zillertaler Alpen und herrliche Sonnenstunden auf unserer Terrasse oder Liegewiese mit der ganzen Familie. Zu den weiteren Annehmlichkeiten unseres Gästehaus Kammerlander gehören ein Skiabstellplatz, ein Skischuhtrockner und ein kostenfreier Parkplatz direkt vor dem Haus. \n\nWir bieten Ihnen und Ihrer Familie 2 komplett ausgestattete Ferienwohnungen für jeweils bis zu 8 Personen. Diese verfügen über 3 Schlafzimmer (alle mit DU/WC), Wohnbereich mit TV, voll eingerichtete Küche mit Geschirrspülmaschine und einen großzügigen Balkon. Natürlich bieten wir unseren Gästen der Ferienwohnungen einen Brötchenservice. \n\nNach ihrem Frühstück können Sie im Sommer mit der ganzen Familie die herrlichen Wander- und Radwege der Ersten Ferienregion Zillertal entdecken. Der große Freizeitpark Aufenfeld mit Badesee, Kletterzentrum und vielem mehr befindet sich im Ort und ist nur 10 - 15 Gehminuten von unserem Gästehaus Kammerlander entfernt.\n\nIm Winter ist unser Gästehaus Kammerlander ein idealer Ausgangspunkt für die top Skigebiete in der Ersten Ferienregion Zillertal. Sowohl die Talstation Hochfügen - Hochzillertal als auch die Zillertal Arena erreichen Sie mit dem kostenlosen Skibus in nur ca. 5 - 10 Minuten. Die Talabfahrt vom Skigebiet Hochzillertal nach Aschau endet nur ca. 300 Meter von unseren Ferienwohnungen entfernt.\n\nWir freuen uns, Sie bei uns im Gästehaus Kammerlander begrüßen zu dürfen!\nIhre Familie Kammerlander\n"
    },
    {
      "@language": "de",
      "@value": "Endreinigung € 25,00  bis € 40,00 einmalig in der kl. FEWO\nEndreinigung € 50,00 bis € 60,00 einmalig in der gr. FEWO"
    },
    {
      "@language": "en",
      "@value": "Our family-friendly Kammerlander guesthouse is located in a quiet and sunny area only a few minutes from the centre of Aschau and offers a fantastic view across the Zillertaler mountains. \n\nWe welcome you at our cosy guesthouse in Tyrolean style with own, adjacent farm.\nThe guesthouse is in direct proximity to Aschau centre where you find shopping facilities, bus stops and the station. The free ski bus to the skiing area of Hochfügen - Hochzillertal and/or to Zillertal Arena is only 5 minutes away from our house on foot. \n\nEnjoy the fantastic panorama of the Zillertaler Alps and spend wonderful hours on our terrace or the sunbathing lawn together with your family. Among the pleasures available at our guesthouse are a ski room, a ski boot dryer and free parking, directly in front of the house. \n\nWe offer you and your family 2 fully furnished holiday apartments for up to 8 people. They come with 3 bedrooms (all with shower/WC), a living room with TV, a fully furnished kitchen with dishwasher and a generous balcony respectively. Of course, we also offer a fresh roll service to the guests of our holiday apartments. \n\nIn summer, you can discover the wonderful hiking paths and cycle trails of Erste Ferienregion Zillertal together with the whole family right after breakfast. The large Aufenfeld recreational park with bathing lake, climbing centre and many other attractions is only 10 - 15 minutes from our guesthouse on foot.\n\nIn winter, our guesthouse is an ideal starting point for top the skiing areas of Erste Ferienregion Zillertal. Both the valley stations of Hochfügen - Hochzillertal and the Zillertal arena can be reached in less than 10 minutes when taking the free ski bus. The valley descent of the Hochzillertal skiing area to Aschau ends only about 300 metres away from our holiday apartments.\n\nWe look forward to welcoming you here with us at Gästehaus Kammerlander!\nYour hosts, the Kammerlander family \n"
    },
    {
      "@language": "en",
      "@value": "final cleaning charges from € 25,00 to € 40,00 small appartment\nfinal cleaning charges from € 50,00 to € 60,00 large appartment"
    }
  ],
  "image": [
    {
      "@type": "ImageObject",
      "url": "http://resc.deskline.net/images/ZIL/1/6e9c0311-18a4-491f-a692-4da16ec99359/99/image.jpg",
      "caption": [
        {
          "@language": "de",
          "@value": "Haus Sommer"
        },
        {
          "@language": "en",
          "@value": "Haus Sommer"
        }
      ]
    },
    {
      "@type": "ImageObject",
      "url": "http://resc.deskline.net/images/ZIL/1/3f3b7759-99f8-4509-910c-38e4e1296652/99/image.jpg",
      "caption": [
        {
          "@language": "de",
          "@value": "Haus Sommer 1"
        },
        {
          "@language": "en",
          "@value": "Haus Sommer 1"
        }
      ]
    },
    {
      "@type": "ImageObject",
      "url": "http://resc.deskline.net/images/ZIL/1/2d29ddaf-c97c-4332-b271-fe690c3cde2d/99/image.jpg",
      "caption": [
        {
          "@language": "de",
          "@value": "Hofprodukte"
        },
        {
          "@language": "en",
          "@value": "Hofprodukte"
        }
      ]
    },
    {
      "@type": "ImageObject",
      "url": "http://resc.deskline.net/images/ZIL/1/7ec2a773-d79a-44eb-ab3d-73fdc64b2d5a/99/image.jpg",
      "caption": [
        {
          "@language": "de",
          "@value": "Selbsterzeugung"
        },
        {
          "@language": "en",
          "@value": "Selbsterzeugung"
        }
      ]
    }
  ],
  "geo": {
    "@type": "GeoCoordinates",
    "latitude": "47.26239316056",
    "longitude": "11.892051369083"
  },
  "currenciesAccepted": "EUR",
  "makesOffer": [
    {
      "@type": "Offer",
      "name": [
        {
          "@language": "de",
          "@value": "Appartement/Fewo, Dusche, WC, 3 Schlafräume"
        },
        {
          "@language": "en",
          "@value": "Apartment, shower, toilet, 3 bed rooms"
        }
      ],
      "description": [
        {
          "@language": "de",
          "@value": "Komfortabel und gemütlich eingerichtet. Küche mit E-Herd und Backrohr, Geschirrspüler, Kühlschrank mit Gefrierfach, Kaffeemaschine, Geschirr vorhanden, Wohnraum mit Essecke, Sat-TV und Radio, Sofa, 3 Schlafzimmer (2 Dreibettzimmer mit DU/WC und 1 Doppelzimmer mit DU/WC), alle Zimmer mit Balkon, Bettwäsche und Handtücher vorhanden, NICHTRAUCHER-WOHNUNG. Auf Wunsch sind die Schlafzimmer auch mit Frühstück möglich (ohne Küchenbenützung)."
        }
      ],
      "availability": "http://schema.org/InStock",
      "itemOffered": [
        {
          "@type": [
            "Apartment",
            "Product"
          ],
          "name": [
            {
              "@language": "de",
              "@value": "Apartment 1. Stock"
            },
            {
              "@language": "en",
              "@value": "apartment/3 bedrooms/shower, WC"
            }
          ],
          "numberOfRooms": "5.0",
          "occupancy": {
            "@type": "QuantitativeValue",
            "maxValue": "8",
            "minValue": "6"
          }
        }
      ],
      "priceSpecification": [
        {
          "@type": "PriceSpecification",
          "description": "Pax 6",
          "minPrice": "138.00",
          "maxPrice": "138.00",
          "priceCurrency": "EUR"
        },
        {
          "@type": "PriceSpecification",
          "description": "Pax 7",
          "minPrice": "161.00",
          "maxPrice": "161.00",
          "priceCurrency": "EUR"
        },
        {
          "@type": "PriceSpecification",
          "description": "Pax 8",
          "minPrice": "184.00",
          "maxPrice": "184.00",
          "priceCurrency": "EUR"
        }
      ]
    }
  ]
}