{
  "@context": "http://schema.org",
  "@type": "LodgingBusiness",
  "url": [
    "http://maps.best-of-zillertal.at/proxy/frontend/page/fuegen/de?foreignResource\u003dA4F17691-83B6-4AAA-88AD-714012D47670"
  ],
  "address": {
    "@type": "PostalAddress",
    "streetAddress": "Knappenweg 48",
    "addressCountry": "AT",
    "postalCode": "6263",
    "addressRegion": "Fügen",
    "telephone": "(0043) 5288 64630",
    "faxNumber": "(0043) 5288 64630",
    "email": "karl-josef.dornauer@aon.at"
  },
  "name": "Dornauer, Kerstin",
  "description": [
    {
      "@language": "de",
      "@value": "NEU: Skischuhtrockner, Endreinigung: EUR 40,00\nGemütliche große Ferienwohnung mit Bauernstube, Wohnküche (Backrohr, Mikrowelle, Spülmaschine), 2 Schlafzimmer (1 Doppel- und 1 Dreibettzimmer), 2 Balkone, Sat-TV, Terrasse, Gartenbenützung."
    },
    {
      "@language": "en",
      "@value": "NEW: ski-shoe-dryer, final cleaning: EUR 40,00"
    }
  ],
  "image": [
    {
      "@type": "ImageObject",
      "url": "http://resc.deskline.net/images/ZIL/1/bef0a94b-3483-474c-a329-8d466ab88c63/99/image.jpg",
      "caption": [
        {
          "@language": "de",
          "@value": "dummy"
        },
        {
          "@language": "en",
          "@value": "dummy"
        }
      ]
    }
  ],
  "geo": {
    "@type": "GeoCoordinates",
    "latitude": "47.326337736806991",
    "longitude": "11.855025887489319"
  },
  "currenciesAccepted": "EUR",
  "makesOffer": [
    {
      "@type": "Offer",
      "name": [
        {
          "@language": "de",
          "@value": "Appartement/Fewo, Dusche oder Bad, WC, 2 Schlafräume"
        },
        {
          "@language": "en",
          "@value": "Apartment, shower or bath, toilet, 2 bed rooms"
        }
      ],
      "description": [
        {
          "@language": "de",
          "@value": "Gemütliche große Ferienwohnung mit Bauernstube, Wohnküche (Backrohr, Mikrowelle, Spülmaschine), 2 Schlafzimmer (1 Doppel- und 1 Dreibettzimmer), 2 Balkone, Sat-TV, Terrasse, Gartenbenützung."
        },
        {
          "@language": "en",
          "@value": "Comfortable large appartement with living room, living-kitchen (oven, stove, microwave, dish washer), 2 bed rooms (1 double room and 1 triple room), 2 balconies, satellite tv, terrace, use of garden possible."
        }
      ],
      "availability": "http://schema.org/InStock",
      "itemOffered": [
        {
          "@type": [
            "Apartment",
            "Product"
          ],
          "name": [
            {
              "@language": "de",
              "@value": "Apartment/2 Schlafräume/Du od. Bad, WC"
            },
            {
              "@language": "en",
              "@value": "ap./2 bedrooms/shower or bath tube, WC"
            }
          ],
          "numberOfRooms": "4.0",
          "occupancy": {
            "@type": "QuantitativeValue",
            "maxValue": "5",
            "minValue": "2"
          }
        }
      ]
    }
  ]
}