{
  "@context": "http://schema.org",
  "@type": "LodgingBusiness",
  "url": [
    "http://www.fewo-im-zillertal.at",
    "http://maps.best-of-zillertal.at/proxy/frontend/page/fuegen/de?foreignResource\u003da6994b66-c0de-44e1-8623-733592b3fdbe"
  ],
  "address": {
    "@type": "PostalAddress",
    "streetAddress": "Karl-Widmann-Weg 1",
    "addressCountry": "AT",
    "postalCode": "6271",
    "addressRegion": "Uderns",
    "telephone": "(0043) 688 8003118 ",
    "email": "info@fewo-im-zillertal.at",
    "url": "http://www.fewo-im-zillertal.at"
  },
  "name": "Haus Elisabeth",
  "description": [
    {
      "@language": "de",
      "@value": "Neu erbautes Haus in zentraler aber doch sonniger und ruhiger Lage. Skibushaltestelle in unmittelbarer Nähe.\nBesuchen Sie uns auch auf unserer Homepage www.fewo-im-zillertal.at"
    },
    {
      "@language": "en",
      "@value": "New-built house in central, sunny and quiet position. Skibus-stop nearby.\n"
    },
    {
      "@language": "en",
      "@value": "Final cleaning EUR 40,- up tol 4 personen; each further person EUR 10,-"
    }
  ],
  "image": [
    {
      "@type": "ImageObject",
      "url": "http://resc.deskline.net/images/ZIL/1/e777fa88-07fe-48f0-9e67-f0dc4f2fc228/99/image.jpg",
      "caption": [
        {
          "@language": "de",
          "@value": "Hausansicht"
        },
        {
          "@language": "en",
          "@value": "Hausansicht"
        }
      ]
    },
    {
      "@type": "ImageObject",
      "url": "http://resc.deskline.net/images/ZIL/1/747cd362-5a50-4587-86ca-5aaeb4596781/99/image.jpg",
      "caption": [
        {
          "@language": "de",
          "@value": "Hausansicht Winter"
        },
        {
          "@language": "en",
          "@value": "Hausansicht Winter"
        }
      ]
    },
    {
      "@type": "ImageObject",
      "url": "http://resc.deskline.net/images/ZIL/1/68e76cec-8862-43c7-a189-193d0287a8c2/99/image.jpeg",
      "caption": [
        {
          "@language": "de",
          "@value": "Ritschel - R75jpg"
        },
        {
          "@language": "en",
          "@value": "Ritschel - R75jpg"
        }
      ]
    },
    {
      "@type": "ImageObject",
      "url": "http://resc.deskline.net/images/ZIL/1/5756163f-efce-4fa7-a988-c777971efa05/99/image.jpeg",
      "caption": [
        {
          "@language": "de",
          "@value": "Ritschel_Ski005jpg"
        },
        {
          "@language": "en",
          "@value": "Ritschel_Ski005jpg"
        }
      ]
    },
    {
      "@type": "ImageObject",
      "url": "http://resc.deskline.net/images/ZIL/1/c2855e22-6ab4-4d7c-9504-c0176dc45dea/99/image.jpg",
      "caption": [
        {
          "@language": "de",
          "@value": "Wörgötter\u0026friends_HZ_000005"
        },
        {
          "@language": "en",
          "@value": "Wörgötter\u0026friends_HZ_000005"
        }
      ]
    }
  ],
  "geo": {
    "@type": "GeoCoordinates",
    "latitude": "47.321086919528611",
    "longitude": "11.861640214920044"
  },
  "currenciesAccepted": "EUR",
  "makesOffer": [
    {
      "@type": "Offer",
      "name": [
        {
          "@language": "de",
          "@value": "Appartement/Fewo, Dusche, WC, 2 Schlafräume"
        },
        {
          "@language": "en",
          "@value": "Apartment, shower, toilet, 2 bed rooms"
        }
      ],
      "description": [
        {
          "@language": "de",
          "@value": "Ferienwohnung  für 4-6 Personen mit 2 Schlafzimmern, die Ferienwohnung befindet sich im Keller,  DU/WC, Küche - Elektroherd, Kühlschrank mit Gefriermöglichkeit, Geschirrspülbecken, Geschirrspülmaschine, Wasserkocher,  Geschirr, Tisch- und Küchenwäsche vorhanden; Sat-TV.\nBesuchen Sie uns auch auf unserer Homepage www.fewo-im-zillertal.at"
        },
        {
          "@language": "en",
          "@value": "appartment with friendly furniture, für 4 - 6 persons, the apartement  is situated in the cellar, with 2 sleeping rooms, shoer and toilet, kitchen (stove, fridge, dish washer, water boiler, table and kitchen ware, table and kitchen linen provided, satelite TV"
        }
      ],
      "availability": "http://schema.org/InStock",
      "itemOffered": [
        {
          "@type": [
            "Apartment",
            "Product"
          ],
          "name": [
            {
              "@language": "de",
              "@value": "Apartment TOP 2/2 Schlafräume/Dusche, WC"
            },
            {
              "@language": "en",
              "@value": "apartment/2 bedrooms/shower, WC"
            }
          ],
          "numberOfRooms": "3.0",
          "occupancy": {
            "@type": "QuantitativeValue",
            "maxValue": "6",
            "minValue": "2"
          }
        }
      ]
    },
    {
      "@type": "Offer",
      "name": [
        {
          "@language": "de",
          "@value": "Appartement/Fewo, Dusche, WC, 3 Schlafräume"
        },
        {
          "@language": "en",
          "@value": "Apartment, shower, toilet, 3 bed rooms"
        }
      ],
      "description": [
        {
          "@language": "de",
          "@value": "Helle, freundliche Ferienwohnung für 6-8 Personen mit 3 Schlafzimmern, DU/WC, Küche - Elektroherd, Kühlschrank mit Gefriermöglichkeit, Geschirrspülbecken, Geschirrspülmaschine, Wasserkocher, Geschirr, Tisch- und Küchenwäsche vorhanden; Sat-TV. \nBesuchen Sie uns auch auf unserer Homepage www.fewo-im-zillertal.at"
        },
        {
          "@language": "en",
          "@value": "appartment with friendly furniture, für 6 - 8 persons, with 3 sleeping rooms, shower and toilet, kitchen (stove, fridge, dish washer, water boiler, table and kitchen ware, table and kitchen linen provided, satelite TV"
        }
      ],
      "availability": "http://schema.org/InStock",
      "itemOffered": [
        {
          "@type": [
            "Apartment",
            "Product"
          ],
          "name": [
            {
              "@language": "de",
              "@value": "Apartment TOP 1/3 Schlafräume/Dusche, WC"
            },
            {
              "@language": "en",
              "@value": "apartment/3 bedrooms/shower, WC"
            }
          ],
          "numberOfRooms": "4.0",
          "occupancy": {
            "@type": "QuantitativeValue",
            "maxValue": "8",
            "minValue": "2"
          }
        }
      ]
    }
  ]
}