{
  "@context": "http://schema.org",
  "@type": "LodgingBusiness",
  "url": [
    "http://apart-frey.at",
    "https://goo.gl/maps/jrz5P1HQwMH2",
    "https://plus.google.com/+ApartFreyF%C3%BCgen"
  ],
  "address": {
    "@type": "PostalAddress",
    "name": "Appartement Freystätter",
    "streetAddress": "Schützenweg 16",
    "addressCountry": "AT",
    "postalCode": "6263",
    "addressRegion": "Fügen",
    "telephone": "(0043) 720272719",
    "email": "anfrage@apart-frey.at"
  },
  "name": "Appartement Freystätter",
  "description": [
    {
      "@language": "de",
      "@value": "Dein Apartment bietet dir auf über 90 m² Wohnfläche ausreichend Platz für bis zu 6 Personen. Die 3 Schlafzimmer sind mit Doppelbetten ausgestattet. Zwei der Schlafzimmer bieten Zugang zum etwa 12 m² großen Balkon mit Ausrichtung nach Süden und herrlichem Blick auf die Bergwelt. Zum Kochen, Speisen und Entspannen lädt die geräumige Wohnküche ein. Die Küchenzeile ist mit Kühlschrank, E-Herd, Backofen, Mikrowelle, Geschirrspüler, Spüle sowie einem zusätzlichen Tresen ausgestattet. Der große Esstisch bietet genügend Platz für alle Bewohner. Das gemütliche Sofa rundet die Wohnküche ab. Alle drei Schlafzimmer sowie die Wohnküche sind mit modernen Flat-TVs (Sat) und DVD-Player ausgestattet. Außerdem kommst du per WLAN ins Internet. Das Badezimmer ist mit Badewanne und separater Duschkabine ausgestattet und bietet mit seinem Vorraum zusätzlichen Platz. Das WC befindet sich in einem separatem Raum."
    }
  ],
  "image": [
    {
      "@type": "ImageObject",
      "url": "http://resc.deskline.net/images/ZIL/1/c581260e-9ded-42db-ad5d-02858cceb3fe/99/image.jpg",
      "caption": [
        {
          "@language": "de",
          "@value": "Apart-Frey Winter"
        },
        {
          "@language": "en",
          "@value": "Apart-Frey Winter"
        }
      ]
    },
    {
      "@type": "ImageObject",
      "url": "http://resc.deskline.net/images/ZIL/1/d89774d7-4adb-4781-8971-16109902c4be/99/image.jpg",
      "caption": [
        {
          "@language": "de",
          "@value": "ZimmerB1"
        },
        {
          "@language": "en",
          "@value": "ZimmerB1"
        }
      ]
    },
    {
      "@type": "ImageObject",
      "url": "http://resc.deskline.net/images/ZIL/1/f03622a0-bfd1-446d-90e9-4185810d3be4/99/image.jpg",
      "caption": [
        {
          "@language": "de",
          "@value": "Wohnküche2"
        },
        {
          "@language": "en",
          "@value": "Wohnküche2"
        }
      ]
    },
    {
      "@type": "ImageObject",
      "url": "http://resc.deskline.net/images/ZIL/1/7b7f1b53-be67-4a35-8fbf-8ad88da62526/99/image.jpg",
      "caption": [
        {
          "@language": "de",
          "@value": "Raumplan"
        },
        {
          "@language": "en",
          "@value": "Raumplan"
        }
      ]
    },
    {
      "@type": "ImageObject",
      "url": "http://resc.deskline.net/images/ZIL/1/44c2f7d3-a687-4586-ad4f-9a0bd8da6bce/99/image.jpg",
      "caption": [
        {
          "@language": "de",
          "@value": "ZimmerB2"
        },
        {
          "@language": "en",
          "@value": "ZimmerB2"
        }
      ]
    },
    {
      "@type": "ImageObject",
      "url": "http://resc.deskline.net/images/ZIL/1/f44fd8cc-51c8-4e15-8246-688528c26f58/99/image.jpg",
      "caption": [
        {
          "@language": "de",
          "@value": "ZimmerA1"
        },
        {
          "@language": "en",
          "@value": "ZimmerA1"
        }
      ]
    },
    {
      "@type": "ImageObject",
      "url": "http://resc.deskline.net/images/ZIL/1/6f2084d7-d209-499d-9663-1615db6b9dee/99/image.jpg",
      "caption": [
        {
          "@language": "de",
          "@value": "ZimmerA2"
        },
        {
          "@language": "en",
          "@value": "ZimmerA2"
        }
      ]
    },
    {
      "@type": "ImageObject",
      "url": "http://resc.deskline.net/images/ZIL/1/8d3af7aa-c306-49f2-a6a8-1e6ae7bff9b4/99/image.jpg",
      "caption": [
        {
          "@language": "de",
          "@value": "ZimmerC1"
        },
        {
          "@language": "en",
          "@value": "ZimmerC1"
        }
      ]
    },
    {
      "@type": "ImageObject",
      "url": "http://resc.deskline.net/images/ZIL/1/f5650a3b-0c68-4bba-893c-07d3751c8069/99/image.jpg",
      "caption": [
        {
          "@language": "de",
          "@value": "ZimmerC2"
        },
        {
          "@language": "en",
          "@value": "ZimmerC2"
        }
      ]
    },
    {
      "@type": "ImageObject",
      "url": "http://resc.deskline.net/images/ZIL/1/4334ab8c-81d3-4be5-b2ca-c5408a479a03/99/image.jpg",
      "caption": [
        {
          "@language": "de",
          "@value": "Wohnküche1"
        },
        {
          "@language": "en",
          "@value": "Wohnküche1"
        }
      ]
    },
    {
      "@type": "ImageObject",
      "url": "http://resc.deskline.net/images/ZIL/1/65d0f2f3-782c-487e-9c88-a4cd2fe61b03/99/image.jpg",
      "caption": [
        {
          "@language": "de",
          "@value": "Wohnküche3"
        },
        {
          "@language": "en",
          "@value": "Wohnküche3"
        }
      ]
    },
    {
      "@type": "ImageObject",
      "url": "http://resc.deskline.net/images/ZIL/1/fd32d9d4-1e78-47a3-a6cc-9e40bb3312fd/99/image.jpg",
      "caption": [
        {
          "@language": "de",
          "@value": "Wohnküche4"
        },
        {
          "@language": "en",
          "@value": "Wohnküche4"
        }
      ]
    },
    {
      "@type": "ImageObject",
      "url": "http://resc.deskline.net/images/ZIL/1/130c0612-e268-41c3-91e9-0a2a9e5e7953/99/image.jpg",
      "caption": [
        {
          "@language": "de",
          "@value": "Flur"
        },
        {
          "@language": "en",
          "@value": "Flur"
        }
      ]
    },
    {
      "@type": "ImageObject",
      "url": "http://resc.deskline.net/images/ZIL/1/828d2d80-8c4e-445b-85c6-2d9710099438/99/image.jpg",
      "caption": [
        {
          "@language": "de",
          "@value": "Bad1"
        },
        {
          "@language": "en",
          "@value": "Bad1"
        }
      ]
    },
    {
      "@type": "ImageObject",
      "url": "http://resc.deskline.net/images/ZIL/1/00097c7a-c0c8-437c-b6fb-5d5dac8877b9/99/image.jpg",
      "caption": [
        {
          "@language": "de",
          "@value": "Bad2"
        },
        {
          "@language": "en",
          "@value": "Bad2"
        }
      ]
    },
    {
      "@type": "ImageObject",
      "url": "http://resc.deskline.net/images/ZIL/1/d23847f2-a8de-443a-becf-0ca006271c9a/99/image.jpg",
      "caption": [
        {
          "@language": "de",
          "@value": "Apart-Frey"
        },
        {
          "@language": "en",
          "@value": "Apart-Frey"
        }
      ]
    }
  ],
  "geo": {
    "@type": "GeoCoordinates",
    "latitude": "47.3416046",
    "longitude": "11.8481609"
  },
  "currenciesAccepted": "EUR",
  "makesOffer": [
    {
      "@type": "Offer",
      "name": [
        {
          "@language": "de",
          "@value": "Appartement/Fewo, Dusche und Bad, WC, 3 Schlafräume"
        },
        {
          "@language": "en",
          "@value": "Apartment, shower and bath, toilet, 3 bed rooms"
        }
      ],
      "description": [
        {
          "@language": "de",
          "@value": "Dein Apartment bietet dir auf über 90 m² Wohnfläche ausreichend Platz für bis zu 6 Personen mit 3 Schlafzimmer, einem etwa 12 m² großen Balkon und einer geräumige Wohnküche. Die Wohnküche ist mit Kühlschrank, E-Herd, Backofen, Mikrowelle, Geschirrspüler, Spüle und einem großen Esstisch ausgestattet. Alle drei Schlafzimmer sowie die Wohnküche bieten moderne Flat-TVs (Sat) und DVD-Player. Das Badezimmer ist mit Badewanne und separater Duschkabine ausgestattet. Das WC ist in einem separaten Raum."
        }
      ],
      "availability": "http://schema.org/InStock",
      "itemOffered": [
        {
          "@type": [
            "Apartment",
            "Product"
          ],
          "name": [
            {
              "@language": "de",
              "@value": "Appartement Freystätter"
            },
            {
              "@language": "en",
              "@value": "Apartment, bath, toilet, 3 bed rooms"
            }
          ],
          "numberOfRooms": "4.0",
          "occupancy": {
            "@type": "QuantitativeValue",
            "maxValue": "6",
            "minValue": "2"
          }
        }
      ],
      "priceSpecification": [
        {
          "@type": "PriceSpecification",
          "description": "Pax 2",
          "minPrice": "90.00",
          "maxPrice": "190.00",
          "priceCurrency": "EUR"
        },
        {
          "@type": "PriceSpecification",
          "description": "Pax 3",
          "minPrice": "90.00",
          "maxPrice": "190.00",
          "priceCurrency": "EUR"
        },
        {
          "@type": "PriceSpecification",
          "description": "Pax 4",
          "minPrice": "90.00",
          "maxPrice": "190.00",
          "priceCurrency": "EUR"
        },
        {
          "@type": "PriceSpecification",
          "description": "Pax 5",
          "minPrice": "90.00",
          "maxPrice": "190.00",
          "priceCurrency": "EUR"
        },
        {
          "@type": "PriceSpecification",
          "description": "Pax 6",
          "minPrice": "90.00",
          "maxPrice": "190.00",
          "priceCurrency": "EUR"
        }
      ]
    }
  ]
}