{
  "@context": "http://schema.org",
  "@type": "LodgingBusiness",
  "url": [
    "http://www.ferienwohnungen-hell.at",
    "http://maps.best-of-zillertal.at/proxy/frontend/page/fuegen/de?foreignResource\u003dAA488243-1AE8-4E2A-B1A9-ED45DFFF00DD"
  ],
  "address": {
    "@type": "PostalAddress",
    "streetAddress": "Dorfstraße 52",
    "addressCountry": "AT",
    "postalCode": "6271",
    "addressRegion": "Uderns",
    "telephone": "(0043) 660 465 4338",
    "faxNumber": "(0043) 5288 625 754",
    "email": "info@ferienwohnungen-hell.at",
    "url": "http://www.ferienwohnungen-hell.com"
  },
  "name": "Ferienwohnungen Hell",
  "description": [
    {
      "@language": "de",
      "@value": "Unsere Ferienwohnungen liegen mitten im Ort Uderns im Herzen des wunderschönen Zillertales.\n\nDa unser Feriendomizil sehr zentral gelegen ist, erreichen sie alle gewünschten Urlaubsziele des Zillertales problemlos. Außerdem liegt Uderns genau zwischen den Schiorten Kaltenbach und Fügen, welche mit dem Auto oder mit den Gratisschibussen von Uderns aus spielend zu erreichen sind. Natürlich erwarten Sie auch im Sommer zahlreiche Angebote wie zB Spaziergänge oder Radtouren auf unseren schönen Wander- bzw. Radwegen.\n"
    },
    {
      "@language": "de",
      "@value": "Endreinigung € 40,00 bis € 80,00"
    },
    {
      "@language": "en",
      "@value": "Our appartments are in the center of Uderns in the heart of the Zillertal.\n\nOur house is in central location and so you reach all trip resorts without a problem. \nUderns is situated between the skiareas Kaltenbach and Fügen, where you could go by car or the free ski busses. In summer walks and biking tours are expecting you."
    },
    {
      "@language": "en",
      "@value": "Charge for cinal cleaning: EUR 40,00 to EUR 70,00"
    }
  ],
  "image": [
    {
      "@type": "ImageObject",
      "url": "http://resc.deskline.net/images/ZIL/1/b9ba47de-99e4-4bcd-aa26-cd5e4be3dde2/99/image.jpg",
      "caption": [
        {
          "@language": "de",
          "@value": "Ansicht"
        },
        {
          "@language": "en",
          "@value": "Ansicht"
        }
      ]
    }
  ],
  "geo": {
    "@type": "GeoCoordinates",
    "latitude": "47.324393852663",
    "longitude": "11.864243484646"
  },
  "currenciesAccepted": "EUR",
  "makesOffer": [
    {
      "@type": "Offer",
      "name": [
        {
          "@language": "de",
          "@value": "Appartement/Fewo, Dusche, WC, 3 Schlafräume"
        },
        {
          "@language": "en",
          "@value": "Apartment, shower, toilet, 3 bed rooms"
        }
      ],
      "description": [
        {
          "@language": "de",
          "@value": "Gemütliche Ferienwohnung über 2 Stockwerke mit einer Wendeltreppe verbunden für 2-6 Personen mit  Wohnküche und 3 Schlafzimmern (jeweils mit Dusche/WC)"
        }
      ],
      "availability": "http://schema.org/InStock",
      "itemOffered": [
        {
          "@type": [
            "Apartment",
            "Product"
          ],
          "name": [
            {
              "@language": "de",
              "@value": "Apartment HAMBERG"
            },
            {
              "@language": "en",
              "@value": "apartment/3 bedrooms/shower, WC"
            }
          ],
          "numberOfRooms": "4.0",
          "occupancy": {
            "@type": "QuantitativeValue",
            "maxValue": "6",
            "minValue": "2"
          }
        }
      ]
    },
    {
      "@type": "Offer",
      "name": [
        {
          "@language": "de",
          "@value": "Appartement/Fewo, Bad, WC, 2 Schlafräume"
        },
        {
          "@language": "en",
          "@value": "Apartment, bath, toilet, 2 bed rooms"
        }
      ],
      "description": [
        {
          "@language": "de",
          "@value": "Sehr gmütliche Dachgeschosswohnung für 2 - 4 Personen mit großer Wohnküche, 2 Schlafzimmern, Vorraum mit Garderobe und Bad/WC"
        }
      ],
      "availability": "http://schema.org/InStock",
      "itemOffered": [
        {
          "@type": [
            "Apartment",
            "Product"
          ],
          "name": [
            {
              "@language": "de",
              "@value": "Apartment SILBERDISTEL"
            },
            {
              "@language": "en",
              "@value": "apartment/2 bedrooms/bath tube, WC"
            }
          ],
          "numberOfRooms": "3.0",
          "occupancy": {
            "@type": "QuantitativeValue",
            "maxValue": "4",
            "minValue": "2"
          }
        }
      ]
    },
    {
      "@type": "Offer",
      "name": [
        {
          "@language": "de",
          "@value": "Appartement/Fewo, Dusche, WC, 2 Schlafräume"
        },
        {
          "@language": "en",
          "@value": "Apartment, shower, toilet, 2 bed rooms"
        }
      ],
      "description": [
        {
          "@language": "de",
          "@value": "Ferienwohnung mit ca. 70 m², für 4 Personen, 2 Zimmer, grosszügige\nWohnküche, Dusche und WC, Vorraum, Sat-TV, Balkon\n\n"
        },
        {
          "@language": "en",
          "@value": "nice furnished appartment, approx 70  qm,  4 persons, kitchen, 2 sleeping rooms,  spacious living kitchen, satelite TV, shower and toilet, foyer, balcony"
        }
      ],
      "availability": "http://schema.org/InStock",
      "itemOffered": [
        {
          "@type": [
            "Apartment",
            "Product"
          ],
          "name": [
            {
              "@language": "de",
              "@value": "Apartment ALPENROSE"
            },
            {
              "@language": "en",
              "@value": "apartment/2 bedrooms/shower, WC"
            }
          ],
          "numberOfRooms": "3.0",
          "occupancy": {
            "@type": "QuantitativeValue",
            "maxValue": "4",
            "minValue": "4"
          }
        }
      ]
    },
    {
      "@type": "Offer",
      "name": [
        {
          "@language": "de",
          "@value": "Appartement/Fewo, Dusche, WC, 2 Schlafräume"
        },
        {
          "@language": "en",
          "@value": "Apartment, shower, toilet, 2 bed rooms"
        }
      ],
      "description": [
        {
          "@language": "de",
          "@value": "Schön eingerichtete Ferienwohnung, ca. 60 m², für 4  Personen,\nKüche, 2 Schlafzimmer, Wohnraum mit Kachelofen und Sat-TV, Dusche und WC getrennt, Vorraum,"
        },
        {
          "@language": "en",
          "@value": "nice furnished appartment, approx 60 qm, 4 persons, kitchen, 2 sleeping rooms, living room with tyrolean stove (heated with wood) and satelite TV, shower and toilet separate, foyer,"
        }
      ],
      "availability": "http://schema.org/InStock",
      "itemOffered": [
        {
          "@type": [
            "Apartment",
            "Product"
          ],
          "name": [
            {
              "@language": "de",
              "@value": "Apartment ENZIAN"
            },
            {
              "@language": "en",
              "@value": "apartment/2 bedrooms/shower, WC"
            }
          ],
          "numberOfRooms": "3.0",
          "occupancy": {
            "@type": "QuantitativeValue",
            "maxValue": "4",
            "minValue": "4"
          }
        }
      ]
    },
    {
      "@type": "Offer",
      "name": [
        {
          "@language": "de",
          "@value": "Appartement/Fewo, Dusche, WC, 3 Schlafräume"
        },
        {
          "@language": "en",
          "@value": "Apartment, shower, toilet, 3 bed rooms"
        }
      ],
      "description": [
        {
          "@language": "de",
          "@value": "Gemütlich ausgestattete Ferienwohnung für 6 Personen, ca. 90 m²;\n3 Zimmer,  Dusche, WC, Vorraum, großzügige Wohnküche, Balkon"
        },
        {
          "@language": "en",
          "@value": "nice furnished appartment, approx 90  qm,  6 persons, kitchen, 3 sleeping rooms,  spacious living kitchen, satelite TV, shower and toilet, foyer, balcony"
        }
      ],
      "availability": "http://schema.org/InStock",
      "itemOffered": [
        {
          "@type": [
            "Apartment",
            "Product"
          ],
          "name": [
            {
              "@language": "de",
              "@value": "Apartment EDELWEISS"
            },
            {
              "@language": "en",
              "@value": "apartment/3 bedrooms/shower, WC"
            }
          ],
          "numberOfRooms": "4.0",
          "occupancy": {
            "@type": "QuantitativeValue",
            "maxValue": "6",
            "minValue": "4"
          }
        }
      ]
    },
    {
      "@type": "Offer",
      "name": [
        {
          "@language": "de",
          "@value": "Appartement/Fewo, Dusche, WC"
        },
        {
          "@language": "en",
          "@value": "Apartment, shower, toilet"
        }
      ],
      "description": [
        {
          "@language": "de",
          "@value": "Schöne Wohnung, ca. 50 m², für 2 Personen, Wohnraum,\nZimmer, Küche, Dusche und WC, Vorraum, TV\n\n\n"
        },
        {
          "@language": "en",
          "@value": "nice furnished appartment, approx 50 qm,  2 persons, kitchen, livingroom, itchen, satelite TV, shower and toilet, foyer"
        }
      ],
      "availability": "http://schema.org/InStock",
      "itemOffered": [
        {
          "@type": [
            "Apartment",
            "Product"
          ],
          "name": [
            {
              "@language": "de",
              "@value": "Apartment BERGKRISTALL"
            },
            {
              "@language": "en",
              "@value": "ap/comb.living-bedr./1 bedroom/shower,wc"
            }
          ],
          "numberOfRooms": "2.0",
          "occupancy": {
            "@type": "QuantitativeValue",
            "maxValue": "2",
            "minValue": "2"
          }
        }
      ]
    }
  ]
}