{
  "@context": "http://schema.org",
  "@type": "LodgingBusiness",
  "url": [
    "http://www.appartement-sandra.eu",
    "http://maps.best-of-zillertal.at/proxy/frontend/page/fuegen/de?foreignResource\u003dAADEE67E-4E1E-4E66-8E64-75FCABCBB74D"
  ],
  "address": {
    "@type": "PostalAddress",
    "streetAddress": "Märzenstr. 53a",
    "addressCountry": "AT",
    "postalCode": "6275",
    "addressRegion": "Stumm",
    "telephone": "(0043) 5283 20169",
    "email": "appartement.sandra@aon.at",
    "url": "http://www.appartement-sandra.eu"
  },
  "name": "Appartement Sandra",
  "description": [
    {
      "@language": "de",
      "@value": "Unser gemütliches Haus befindet sich in ruhiger sonniger Lage,mit freiem Blick auf die umliegenden Wiesen und die Zillertaler Bergwelt. 10 Min. ins Ortszentrum, Langlaufloipe und Skibushaltestelle in unmittelbarer Nähe. Skiraum, Schischuhtrockner, Parkplatz."
    },
    {
      "@language": "de",
      "@value": "Endreinigung EUR 45,--\nKinderermäßigung auf Anfrage\nKurzaufenthaltszuschlag auf Anfrage\nHaustiere nach Absprache, pro Tag EUR 10,--"
    },
    {
      "@language": "de",
      "@value": ""
    },
    {
      "@language": "en",
      "@value": "Cosy apartments in newly built family house, quiet and sunny position to the south, with spacious balcony. 10 minutes\u0027 walk to centre of village, cross-country track and skibus stop nearby; ski room, ski boot dryer, parking area."
    },
    {
      "@language": "en",
      "@value": "Final cleaning EUR 37--. Childrens\u0027 reduction on request. Short stay supplement on request. Pets on request, EUR 7,-- per day."
    }
  ],
  "image": [
    {
      "@type": "ImageObject",
      "url": "http://resc.deskline.net/images/ZIL/1/cfe4c8be-b8d6-4dd2-b6ae-afaba26ff6f9/99/image.jpg",
      "caption": [
        {
          "@language": "de",
          "@value": "App Sandra"
        },
        {
          "@language": "en",
          "@value": "App Sandra"
        }
      ]
    },
    {
      "@type": "ImageObject",
      "url": "http://resc.deskline.net/images/ZIL/1/0899d69e-92bf-412c-a2c9-1a6e0c14e072/99/image.jpg",
      "caption": [
        {
          "@language": "de",
          "@value": "App Sandra Ost"
        },
        {
          "@language": "en",
          "@value": "App Sandra Ost"
        }
      ]
    },
    {
      "@type": "ImageObject",
      "url": "http://resc.deskline.net/images/ZIL/1/49bf9ce2-c948-4aa1-9fd2-b607738c02f0/99/image.jpg",
      "caption": [
        {
          "@language": "de",
          "@value": "App Sandra Süd"
        },
        {
          "@language": "en",
          "@value": "App Sandra Süd"
        }
      ]
    },
    {
      "@type": "ImageObject",
      "url": "http://resc.deskline.net/images/ZIL/1/719233b7-d6ec-4827-b547-bc0f9de28807/99/image.jpg",
      "caption": [
        {
          "@language": "de",
          "@value": "Gang 01"
        },
        {
          "@language": "en",
          "@value": "Gang 01"
        }
      ]
    },
    {
      "@type": "ImageObject",
      "url": "http://resc.deskline.net/images/ZIL/1/46ed8c7c-d435-4843-8fd3-41461a07f9bd/99/image.jpg",
      "caption": [
        {
          "@language": "de",
          "@value": "Gang 02"
        },
        {
          "@language": "en",
          "@value": "Gang 02"
        }
      ]
    }
  ],
  "geo": {
    "@type": "GeoCoordinates",
    "latitude": "47.303839913438",
    "longitude": "11.878656148910522"
  },
  "currenciesAccepted": "EUR",
  "makesOffer": [
    {
      "@type": "Offer",
      "name": [
        {
          "@language": "de",
          "@value": "Appartement/Fewo, Bad, WC, 2 Schlafräume"
        },
        {
          "@language": "en",
          "@value": "Apartment, bath, toilet, 2 bed rooms"
        }
      ],
      "description": [
        {
          "@language": "de",
          "@value": "Das Appartement im Dachgeschoß besteht aus zwei Schlafzimmern, einem großen Wohnraum mit Fernseher, Radio und Internetanschluss, einer gut ausgestatteten Küche mit Geschirrspüler, Cerankochfeld, Backrohr mit Heißluft, Kühlschrank mit Gefrierfach, Mikrowelle und Espressomaschine sowie einer Eckbank mit Tisch für bis zu 6 Personen. Badezimmer mit Dusche und Badewanne, Haarföhn, Waschbecken und WC. Nicht zu vergessen der großzügige Balkon ca 14m² mit einem herrlichen Ausblick auf die umliegenden Berge und das Schigebiet Hochzillertal."
        },
        {
          "@language": "en",
          "@value": "Apartment on the top floor, 2 bedrooms, spacious living room with TV, radio and internet access. Fully equipped kitchen with dishwasher, stove, oven, fridge with freezer, microwave, coffee maker and dinette for up to 6 persons. Bathroom, hair dryer, double basin and shower; toilet separate. Spacious balcony with wonderful view of the surrounding mountains and the ski resort Hochzillertal."
        }
      ],
      "availability": "http://schema.org/InStock",
      "itemOffered": [
        {
          "@type": [
            "Apartment",
            "Product"
          ],
          "name": [
            {
              "@language": "de",
              "@value": "Appartement 3"
            },
            {
              "@language": "en",
              "@value": "apartment/2 bedrooms/bath tube, WC"
            }
          ],
          "numberOfRooms": "4.0",
          "occupancy": {
            "@type": "QuantitativeValue",
            "maxValue": "5",
            "minValue": "2"
          }
        }
      ]
    },
    {
      "@type": "Offer",
      "name": [
        {
          "@language": "de",
          "@value": "Appartement/Fewo, Bad, WC, 2 Schlafräume"
        },
        {
          "@language": "en",
          "@value": "Apartment, bath, toilet, 2 bed rooms"
        }
      ],
      "description": [
        {
          "@language": "de",
          "@value": "Das Appartement im Obergeschoß besteht aus zwei Schlafzimmern, einem großen Wohnraum mit Fernseher, Radio und Internetanschluss, einer gut ausgestatteten Küche mit Geschirrspüler, Cerankochfeld, Backrohr mit Heißluft, Kühlschrank mit Gefrierfach, Mikrowelle und Espressomaschine sowie einer Eckbank mit Tisch für bis zu 6 Personen. Badezimmer mit Handtuchtrockner, Haarföhn, Doppelwaschbecken und Dusche. WC ist seperat. Nicht zu vergessen der großzügige Balkon mit einem herrlichen Ausblick auf die umliegenden Berge und das Schigebiet Hochzillertal."
        },
        {
          "@language": "en",
          "@value": "Apartment on the first floor, 2 bedrooms, spacious living room with TV, radio and internet access. Fully equipped kitchen with dishwasher, stove, oven, fridge with freezer, microwave, coffee maker and dinette for up to 6 persons. Bathroom, hair dryer, double basin and shower; toilet separate. Spacious balcony with wonderful view of the surrounding mountains and the ski resort Hochzillertal."
        }
      ],
      "availability": "http://schema.org/InStock",
      "itemOffered": [
        {
          "@type": [
            "Apartment",
            "Product"
          ],
          "name": [
            {
              "@language": "de",
              "@value": "Appartement 2"
            },
            {
              "@language": "en",
              "@value": "apartment/2 bedrooms/bath tube, WC"
            }
          ],
          "numberOfRooms": "4.0",
          "occupancy": {
            "@type": "QuantitativeValue",
            "maxValue": "4",
            "minValue": "2"
          }
        }
      ]
    },
    {
      "@type": "Offer",
      "name": [
        {
          "@language": "de",
          "@value": "Appartement/Fewo, Bad, WC, 2 Schlafräume"
        },
        {
          "@language": "en",
          "@value": "Apartment, bath, toilet, 2 bed rooms"
        }
      ],
      "description": [
        {
          "@language": "de",
          "@value": "Das Appartement im Obergeschoß besteht aus zwei  Schlafzimmern, einem großen Wohnraum mit Fernseher, Radio und Internetanschluss, einer gut ausgestatteten Küche mit Geschirrspüler, Cerankochfeld, Backrohr mit Heißluft, Kühlschrank mit Gefrierfach, Mikrowelle und Espressomaschine sowie einer Eckbank mit Tisch für bis zu 6 Personen.  Badezimmer mit Handtuchtrockner, Haarföhn, Doppelwaschbecken und Dusche. WC ist seperat. Nicht zu vergessen der großzügige Balkon mit einem herrlichen Ausblick auf di"
        },
        {
          "@language": "en",
          "@value": "Apartment on the first floor, 2 bedrooms, spacious living room with TV, radio and internet access. Fully equipped kitchen with dishwasher, stove, oven, fridge with freezer, microwave, coffee maker and dinette for up to 7 persons. Bathroom, hair dryer, double basin and shower; toilet separate. Spacious balcony with wonderful view of the surrounding mountains and the ski resort Hochzillertal."
        }
      ],
      "availability": "http://schema.org/InStock",
      "itemOffered": [
        {
          "@type": [
            "Apartment",
            "Product"
          ],
          "name": [
            {
              "@language": "de",
              "@value": "Appartement 1"
            },
            {
              "@language": "en",
              "@value": "apartment/2 bedrooms/bath tube, WC"
            }
          ],
          "description": [
            {
              "@language": "de",
              "@value": "Das Apartment hat eine Grundfläche  von 65m² besteht aus  zwei  Schlafzimmern, einem großen  Wohnraum mit FlatTV, Radio und Internetanschluss (gratis WLAN), einer gut  ausgestatteten Küche mit  Geschirrspüler, Cerankochfeld, Backrohr mit Heißluft, Kühlschrank mit Gefrierfach, Mikrowelle und  Espressomaschine sowie einer  Eckbank mit Tisch für bis zu 6 Personen.  \nBadezimmer mit Haarföhn, Doppelwaschbecken mit Dusche und Handtuchtrockner. WC ist seperat. Nicht zu vergessen der großzügige Balkon!"
            }
          ],
          "image": [
            {
              "@type": "ImageObject",
              "url": "http://resc.deskline.net/images/ZIL/1/ce021b15-b0b9-41ea-9568-dcb8b21a348d/99/image.jpg",
              "caption": [
                {
                  "@language": "de",
                  "@value": "Wohnküche 02"
                },
                {
                  "@language": "en",
                  "@value": "Wohnküche 02"
                }
              ]
            },
            {
              "@type": "ImageObject",
              "url": "http://resc.deskline.net/images/ZIL/1/19d3721e-b794-4b6e-9614-35dd04e272f9/99/image.jpg",
              "caption": [
                {
                  "@language": "de",
                  "@value": "Wohnküche 01"
                },
                {
                  "@language": "en",
                  "@value": "Wohnküche 01"
                }
              ]
            },
            {
              "@type": "ImageObject",
              "url": "http://resc.deskline.net/images/ZIL/1/dc6ed679-a8e2-4d26-aada-744ddc4f67c0/99/image.jpg",
              "caption": [
                {
                  "@language": "de",
                  "@value": "Zimmer"
                },
                {
                  "@language": "en",
                  "@value": "Zimmer"
                }
              ]
            },
            {
              "@type": "ImageObject",
              "url": "http://resc.deskline.net/images/ZIL/1/f0087807-8003-4b81-a3aa-65e7c8baee22/99/image.jpg",
              "caption": [
                {
                  "@language": "de",
                  "@value": "Bad"
                },
                {
                  "@language": "en",
                  "@value": "Bad"
                }
              ]
            }
          ],
          "numberOfRooms": "4.0",
          "occupancy": {
            "@type": "QuantitativeValue",
            "maxValue": "6",
            "minValue": "2"
          }
        }
      ]
    }
  ]
}