{
  "@context": "http://schema.org",
  "@type": "LodgingBusiness",
  "url": [
    "https://www.traum-ferienwohnungen.de/99682/",
    "http://maps.best-of-zillertal.at/proxy/frontend/page/fuegen/de?foreignResource\u003dAB1CDA11-9CFA-411F-96E1-244530407D33"
  ],
  "address": {
    "@type": "PostalAddress",
    "name": "Kornerhof ",
    "streetAddress": "Kornerweg 1",
    "addressCountry": "AT",
    "postalCode": "6272",
    "addressRegion": "Kaltenbach",
    "telephone": "(0043) 664 2162737",
    "email": "fam.haas@outlook.com",
    "url": "http://tinyurl.com/kornerhof"
  },
  "name": "Kornerhof Haas Christoph",
  "description": [
    {
      "@language": "de",
      "@value": "Erleben Sie Natur hautnah bei Ihren Ferien auf dem Bauernhof auf dem Kornerhof in Kaltenbach! \n\nIn ruhiger und sonniger Lage, abseits von Lärm und Verkehr, liegt der Kornerhof am Ortsrand von Kaltenbach. Eingebettet zwischen Wald und Wiesen erwartet Sie hier, im Herzen der Ersten Ferienregion im Zillertal, eine Auszeit vom Alltag. Direkt von unserem Haus aus erreichen Sie die Zillertaler Höhenstraße, wo Sie bei einer Fahrt auf über 2.000 Höhenmeter eine spektakuläre Aussicht genießen können.\n\nErrichtet im traditionellen Tiroler Baustil verfügt der Kornerhof über ein großzügiges Appartement für 4 bis 10 Personen. Unsere Gäste erwartet eine über 140 m² große Wohnfläche, wo Tiroler Rustikalität auf moderne Wohnräume trifft. Im gesamten Appartement befinden sich 4 Schlafzimmer, die als Doppel- oder als Mehrbettzimmer genutzt werden können und alle mit einem Sat-TV ausgestattet sind. Entspannen Sie nach dem Skifahren im Skigebiet Hochfügen-Hochzillertal oder nach Wandern mit Familie in der Zillertaler Bergwelt in der gemütlichen Bauernstube mit Kachelofen. Ausgestattet mit Elektroherd, Backrohr, Wasserkocher, Mikrowelle sowie Geschirrspüler bietet die Küche jeglichen Komfort, den Sie in den Ferien mit Familie benötigen. Von der großzügigen Terrasse fangen Sie die letzten Sonnenstrahlen ein, während Sie das unvergessliche Panorama auf die Zillertaler Bergwelt genießen. \nEgal ob fürs Skifahren auf den Zillertaler Pisten oder fürs Wandern mit Kindern – auf Wunsch bieten wir Ihnen einen Brötchenservice an, sodass Sie immer gut versorgt in den Tag starten. Urlaub mit Hund ist auf dem Kornerhof auf Anfrage möglich. \n\nIn den Sommermonaten eignet sich die Lage ideal, um Fügen-Kaltenbach beim Radfahren mit Kindern zu erkunden. Typisches Tiroler Hüttenfeeling erleben Sie beim Wandern mit Familie auf unserer Alm am Torsee im Tuxertal, oder beim Wasserfallrundweg, der direkt von unserem Haus aus startet. Auf unserer Liegewiese direkt vor dem Kornerhof oder auf dem Waldspielplatz in Ried erleben Sie in Ihren Ferien mit Kindern wohltuende Momente an der frischen Natur. Den Tag können Sie mit einem gemütlichen Grillabend abrunden.\n\nEgal ob Skiprofis oder beim Skifahren mit Kindern – das Skigebiet Hochfügen-Hochzillertal bietet in den Wintermonaten über 89 Kilometer pures Skivergnügen. Nur wenige Meter von unserem Haus entfernt hält der kostenlose Skibus, der Sie in 2 Minuten in das beliebte Familienskigebiet bringt. Ein Rodelabend auf der beleuchteten Naturrodelbahn in Fügen wird zum unvergesslichen Erlebnis für Jung und Alt.\n\nAuf ein baldiges Grüß Gott auf dem Kornerhof in Kaltenbach,\nIhre Gastgeber,\nFamilie Christoph Haas \n\n\n\n"
    },
    {
      "@language": "de",
      "@value": "Endreinigung zwischen EUR 35,-- und EUR 60,--"
    },
    {
      "@language": "de",
      "@value": "Check-In ab 14 Uhr\nCheck - Out  9 Uhr"
    },
    {
      "@language": "en",
      "@value": "Experience nature up close when spending farm holidays at the Kornerhof in Kaltenbach!\n\nIn a quiet and sunny location, away from noise and traffic, the Kornerhof farm is situated on the outskirts of Kaltenbach. Nestled among woods and meadows, here, at the heart of the First Holiday Region in the Zillertal, you are guaranteed a break from everyday life. Directly from our house, you can reach the Zillertaler Höhenstraße, where you can enjoy spectacular views when ascending to an altitude of over 2,000 metres.\n\nBuilt in traditional Tyrolean style, the Kornerhof farm offers a spacious apartment for 4 to 10 people. Guests are awaited by a more than 140m2 of living space, where Tyrolean style meets modern living. Throughout the apartment there are 4 bedrooms, which can be configured as double or multi-bed rooms and all come with satellite TVs. Relax in the cosy parlour with fireplace after a day of skiing in the Hochfügen-Hochzillertal resort or after family hiking in the Zillertal Mountains. Equipped with electric stove, oven, kettle, microwave and dishwasher, the kitchen offers all the comforts you could wish for during your family holidays. On the spacious terrace, you can catch the last sunshine whilst enjoying the unforgettable panorama of the Zillertal Mountains.\nWhether skiing on the Zillertal’s pistes or hiking with children – when desired, we offer a sandwich service, ensuring that you can always start the day well prepared. On request, spending vacations with your dog is also possible at the Kornerhof.\n\nDuring summer months, the situation of the Kornerhof farm is ideal to explore the Fügen-Kaltenbach region cycling with children. Typical Tyrolean lodge feeling can be experienced when family hiking to our Torsee pasture in the Tuxertal, or when exploring the waterfall trail that starts right outside our house. On our lawn in front of the Kornerhof or at the forest playground in Ried, you can experience recreating moments outdoors when spending your holidays with children. You can also end the day with a sociable barbecue.\n\nWhether professional skiers or skiing with children – the Hochfügen-Hochzillertal skiing resort offers more than 89 kilometres of pure skiing fun during winter months. The free ski bus that takes you to the popular family skiing area within 2 minutes, only stops just a few metres away from our house. \nA tobogganing night on the illuminated natural toboggan run in Fügen also is an unforgettable experience for young and older guests.\n\nWe look forward to soon welcoming you at the Kornerhof in Kaltenbach,\n\nYour hosts,\nthe Christoph Haas family\n"
    },
    {
      "@language": "en",
      "@value": "Final cleaning between EUR 35.-- and EUR 50,--"
    },
    {
      "@language": "en",
      "@value": "Check -In from 2 pm\ncheck - out until 09 am"
    }
  ],
  "image": [
    {
      "@type": "ImageObject",
      "url": "http://resc.deskline.net/images/ZIL/1/37c2d767-7a90-4361-a081-4693ce715007/99/image.jpg",
      "caption": [
        {
          "@language": "de",
          "@value": "Kornerhof_Kornerweg_4_Haus_aussen"
        },
        {
          "@language": "en",
          "@value": "Kornerhof_Kornerweg_4_Haus_aussen"
        }
      ]
    },
    {
      "@type": "ImageObject",
      "url": "http://resc.deskline.net/images/ZIL/1/c133a13d-a33c-4827-95a8-198d6fd4aa61/99/image.jpg",
      "caption": [
        {
          "@language": "de",
          "@value": "Haus-Sommer"
        },
        {
          "@language": "en",
          "@value": "Haus-Sommer"
        }
      ]
    },
    {
      "@type": "ImageObject",
      "url": "http://resc.deskline.net/images/ZIL/1/eceab390-00d6-4df9-8a96-2b5592f6c550/99/image.jpg",
      "caption": [
        {
          "@language": "de",
          "@value": "20170109_114909"
        },
        {
          "@language": "en",
          "@value": "20170109_114909"
        }
      ]
    },
    {
      "@type": "ImageObject",
      "url": "http://resc.deskline.net/images/ZIL/1/fbfc04c9-fbe4-4e5d-8705-8adc56dded59/99/image.jpg",
      "caption": [
        {
          "@language": "de",
          "@value": "20170108_093028"
        },
        {
          "@language": "en",
          "@value": "20170108_093028"
        }
      ]
    },
    {
      "@type": "ImageObject",
      "url": "http://resc.deskline.net/images/ZIL/1/31434a98-dca8-4698-bff5-8034277d06c8/99/image.jpg",
      "caption": [
        {
          "@language": "de",
          "@value": "20170108_165212"
        },
        {
          "@language": "en",
          "@value": "20170108_165212"
        }
      ]
    },
    {
      "@type": "ImageObject",
      "url": "http://resc.deskline.net/images/ZIL/1/ebe4ab6f-5efd-49aa-9aa1-2bd49ad49c0a/99/image.jpg",
      "caption": [
        {
          "@language": "de",
          "@value": "20170109_114805"
        },
        {
          "@language": "en",
          "@value": "20170109_114805"
        }
      ]
    },
    {
      "@type": "ImageObject",
      "url": "http://resc.deskline.net/images/ZIL/1/6e27a1ca-cbf0-44ae-82d1-ada59ade29f0/99/image.jpg",
      "caption": [
        {
          "@language": "de",
          "@value": "Kornerhof_Kornerweg_4_Aussicht"
        },
        {
          "@language": "en",
          "@value": "Kornerhof_Kornerweg_4_Aussicht"
        }
      ]
    },
    {
      "@type": "ImageObject",
      "url": "http://resc.deskline.net/images/ZIL/1/3f2d44e0-6dcc-465d-b105-99daed330890/99/image.jpg",
      "caption": [
        {
          "@language": "de",
          "@value": "Kornerhof_Kornerweg_4_Terrasse"
        },
        {
          "@language": "en",
          "@value": "Kornerhof_Kornerweg_4_Terrasse"
        }
      ]
    },
    {
      "@type": "ImageObject",
      "url": "http://resc.deskline.net/images/ZIL/1/f2b17fae-6a26-4fc2-bbd0-738d01e646f4/99/image.jpg",
      "caption": [
        {
          "@language": "de",
          "@value": "Kornerhof_Kornerweg_4_Kaltenbach_App_Zillertal_Kue"
        },
        {
          "@language": "en",
          "@value": "Kornerhof_Kornerweg_4_Kaltenbach_App_Zillertal_Kue"
        }
      ]
    },
    {
      "@type": "ImageObject",
      "url": "http://resc.deskline.net/images/ZIL/1/51c0e01e-8769-4d36-b377-d0413b364bcc/99/image.jpg",
      "caption": [
        {
          "@language": "de",
          "@value": "Kornerhof_Kornerweg_4_Kaltenbach_App_Garten_Schlaf"
        },
        {
          "@language": "en",
          "@value": "Kornerhof_Kornerweg_4_Kaltenbach_App_Garten_Schlaf"
        }
      ]
    },
    {
      "@type": "ImageObject",
      "url": "http://resc.deskline.net/images/ZIL/1/997c2769-fdab-4993-aa67-207dab43a675/99/image.jpg",
      "caption": [
        {
          "@language": "de",
          "@value": "Kornerhof_Kornerweg_4_Kaltenbach_App_Zillertal_Bad"
        },
        {
          "@language": "en",
          "@value": "Kornerhof_Kornerweg_4_Kaltenbach_App_Zillertal_Bad"
        }
      ]
    }
  ],
  "geo": {
    "@type": "GeoCoordinates",
    "latitude": "47.2960670857516",
    "longitude": "11.8659123471805"
  },
  "currenciesAccepted": "EUR",
  "makesOffer": [
    {
      "@type": "Offer",
      "name": [
        {
          "@language": "de",
          "@value": "Appartement/Fewo, Dusche, WC, 4 oder mehr Schlafräume"
        },
        {
          "@language": "en",
          "@value": "Apartment, shower, toilet, 4 or more bed rooms"
        }
      ],
      "description": [
        {
          "@language": "de",
          "@value": "Großzügiges Appartment mit ca. 145m² Wohnnutzfläche für 4-10 Personen. Alles mit SAT/TV und gratis W-LAN. Mit Wohnküche (SAT-TV-Radio, Kühlschrank, Backrohr, Kaffeemaschine, Geschirrspüler, Mikrowelle),gemütliche Stube, 2 x Schlafzimmer( mit Fließwasser), 1 Badezimmer DU/WC, 2 zusätzliches Schlafzimmer mit DU/WC möglich, WC extra am Gang. Großer Vorraum mit Garderobe, Terrasse . Handtücher, Bettwäsche und Geschirr vorhanden."
        },
        {
          "@language": "en",
          "@value": "Spacious holiday apartment with 145m2 for 4-10 persons. With combined kitchen and living room,\n(satellite TV/radio, fridge, oven, coffee maker, dishwasher, microwave), 4x bedroom (3 x with\nrunning water, 1x with shower), 1 additional bedroom with separate shower possible. Shower/WC, \nadditional WC on the same floor. Large hall with cloakroom, balcony. Hand towels, bed linen and crockery provided.\n"
        }
      ],
      "availability": "http://schema.org/InStock",
      "itemOffered": [
        {
          "@type": [
            "Apartment",
            "Product"
          ],
          "name": [
            {
              "@language": "de",
              "@value": "Appartement Zillertal"
            },
            {
              "@language": "en",
              "@value": "apartment/4 + more bedrooms/shower, WC"
            }
          ],
          "numberOfRooms": "5.0",
          "occupancy": {
            "@type": "QuantitativeValue",
            "maxValue": "10",
            "minValue": "2"
          }
        }
      ],
      "priceSpecification": [
        {
          "@type": "PriceSpecification",
          "description": "Pax 2",
          "minPrice": "80.00",
          "maxPrice": "180.00",
          "priceCurrency": "EUR"
        },
        {
          "@type": "PriceSpecification",
          "description": "Pax 3",
          "minPrice": "80.00",
          "maxPrice": "180.00",
          "priceCurrency": "EUR"
        },
        {
          "@type": "PriceSpecification",
          "description": "Pax 4",
          "minPrice": "80.00",
          "maxPrice": "180.00",
          "priceCurrency": "EUR"
        },
        {
          "@type": "PriceSpecification",
          "description": "Pax 5",
          "minPrice": "100.00",
          "maxPrice": "180.00",
          "priceCurrency": "EUR"
        },
        {
          "@type": "PriceSpecification",
          "description": "Pax 6",
          "minPrice": "120.00",
          "maxPrice": "180.00",
          "priceCurrency": "EUR"
        },
        {
          "@type": "PriceSpecification",
          "description": "Pax 7",
          "minPrice": "140.00",
          "maxPrice": "210.00",
          "priceCurrency": "EUR"
        },
        {
          "@type": "PriceSpecification",
          "description": "Pax 8",
          "minPrice": "160.00",
          "maxPrice": "240.00",
          "priceCurrency": "EUR"
        },
        {
          "@type": "PriceSpecification",
          "description": "Pax 9",
          "minPrice": "175.00",
          "maxPrice": "265.00",
          "priceCurrency": "EUR"
        },
        {
          "@type": "PriceSpecification",
          "description": "Pax 10",
          "minPrice": "190.00",
          "maxPrice": "290.00",
          "priceCurrency": "EUR"
        }
      ]
    }
  ]
}