{
  "@context": "http://schema.org",
  "@type": "LodgingBusiness",
  "url": [
    "http://maps.best-of-zillertal.at/proxy/frontend/page/fuegen/de?foreignResource\u003dAB79C098-42EB-4F03-8058-C03F0E7F928C"
  ],
  "address": {
    "@type": "PostalAddress",
    "streetAddress": "Waldfriedenweg 2",
    "addressCountry": "AT",
    "postalCode": "6264",
    "addressRegion": "Fügenberg",
    "telephone": "(0043) 5288 63616",
    "email": "afkroell@gmx.at"
  },
  "name": "Landhaus Kröll",
  "description": [
    {
      "@language": "de",
      "@value": "Gemütliches Landhaus für Reisegruppen bis 24 Personen in ruhiger, sonniger Lage. Ca. 10 Gehminuten vom Ortszentrum Fügen entfernt. Das Landhaus Kröll liegt oberhalb der Talstation Spieljochbahn - also direkt an der Skipiste gelegen. Skibushaltestelle nach Hochfügen. Guter Ausgangspunkt für Wanderungen und Mountainbiketouren im Sommer."
    },
    {
      "@language": "en",
      "@value": "Cosy Landhaus for 24 peoples in quiet and sunny location. Approx 10 minutes far from center in Fügen. The Landhaus Kröll is above the Spieljochbahn -  direct at the skipists. Skibus stop to Hochfügen nearby. Good starting point for walks and mountainbikes tours in summer."
    }
  ],
  "image": [
    {
      "@type": "ImageObject",
      "url": "http://resc.deskline.net/images/ZIL/1/ee68c560-1957-49a7-b030-33dfc179b0c2/99/image.jpg",
      "caption": [
        {
          "@language": "de",
          "@value": "Kröll Ansicht"
        },
        {
          "@language": "en",
          "@value": "Kröll Ansicht"
        }
      ]
    },
    {
      "@type": "ImageObject",
      "url": "http://resc.deskline.net/images/ZIL/1/5c604a3b-745f-4e6d-b3c1-a4f7f555b175/99/image.jpg",
      "caption": [
        {
          "@language": "de",
          "@value": "Haus im Winter"
        },
        {
          "@language": "en",
          "@value": "Haus im Winter"
        }
      ]
    },
    {
      "@type": "ImageObject",
      "url": "http://resc.deskline.net/images/ZIL/1/72aafcb8-abca-45c5-81d4-7208876288d9/99/image.jpg",
      "caption": [
        {
          "@language": "de",
          "@value": "P1184014"
        },
        {
          "@language": "en",
          "@value": "P1184014"
        }
      ]
    },
    {
      "@type": "ImageObject",
      "url": "http://resc.deskline.net/images/ZIL/1/3992bda9-fe05-4d11-9310-cdf77c692ffa/99/image.jpg",
      "caption": [
        {
          "@language": "de",
          "@value": "P1184013"
        },
        {
          "@language": "en",
          "@value": "P1184013"
        }
      ]
    },
    {
      "@type": "ImageObject",
      "url": "http://resc.deskline.net/images/ZIL/1/5af4d145-b71e-4e43-aa69-ed3d380ad9a2/99/image.jpg",
      "caption": [
        {
          "@language": "de",
          "@value": "P1184015"
        },
        {
          "@language": "en",
          "@value": "P1184015"
        }
      ]
    },
    {
      "@type": "ImageObject",
      "url": "http://resc.deskline.net/images/ZIL/1/93f9975b-71a2-4f40-b9b5-9f460c57fc04/99/image.jpg",
      "caption": [
        {
          "@language": "de",
          "@value": "P1184018"
        },
        {
          "@language": "en",
          "@value": "P1184018"
        }
      ]
    },
    {
      "@type": "ImageObject",
      "url": "http://resc.deskline.net/images/ZIL/1/fab32dde-a12f-4af0-a01d-a3721395ba88/99/image.jpg",
      "caption": [
        {
          "@language": "de",
          "@value": "P1184027"
        },
        {
          "@language": "en",
          "@value": "P1184027"
        }
      ]
    },
    {
      "@type": "ImageObject",
      "url": "http://resc.deskline.net/images/ZIL/1/19f7ec2a-5ef0-4ef7-8ea0-858abbec85e3/99/image.jpg",
      "caption": [
        {
          "@language": "de",
          "@value": "P1184030"
        },
        {
          "@language": "en",
          "@value": "P1184030"
        }
      ]
    },
    {
      "@type": "ImageObject",
      "url": "http://resc.deskline.net/images/ZIL/1/8345486c-9cd1-4a67-bbf2-649c3f426a39/99/image.jpg",
      "caption": [
        {
          "@language": "de",
          "@value": "P1184028"
        },
        {
          "@language": "en",
          "@value": "P1184028"
        }
      ]
    },
    {
      "@type": "ImageObject",
      "url": "http://resc.deskline.net/images/ZIL/1/0c8a54bd-5470-4f2e-afc6-59985391fde3/99/image.jpg",
      "caption": [
        {
          "@language": "de",
          "@value": "P1184024"
        },
        {
          "@language": "en",
          "@value": "P1184024"
        }
      ]
    }
  ],
  "geo": {
    "@type": "GeoCoordinates",
    "latitude": "47.338157438082852",
    "longitude": "11.839737296104431"
  },
  "currenciesAccepted": "EUR",
  "makesOffer": [
    {
      "@type": "Offer",
      "name": [
        {
          "@language": "de",
          "@value": "Ferienhaus, Dusche, WC, 4 oder mehr Schlafräume"
        },
        {
          "@language": "en",
          "@value": "Holiday home, shower, toilet, 4 or more bed rooms"
        }
      ],
      "description": [
        {
          "@language": "de",
          "@value": "Großes Ferienhaus für bis zu 21 Personen an der Talabfahrt der Spieljochbahn"
        },
        {
          "@language": "en",
          "@value": "House for 21 persons next to the valley run Spieljoch"
        }
      ],
      "availability": "http://schema.org/InStock",
      "itemOffered": [
        {
          "@type": [
            "Apartment",
            "Product"
          ],
          "name": [
            {
              "@language": "de",
              "@value": "Ferienhaus"
            },
            {
              "@language": "en",
              "@value": "Holiday home, shower, toilet, 4 or more bed rooms"
            }
          ],
          "numberOfRooms": "0.0",
          "occupancy": {
            "@type": "QuantitativeValue",
            "maxValue": "21",
            "minValue": "2"
          }
        }
      ]
    }
  ]
}