{
  "@context": "http://schema.org",
  "@type": "LodgingBusiness",
  "url": [
    "http://maps.best-of-zillertal.at/proxy/frontend/page/fuegen/de?foreignResource\u003dABEC9704-2122-4D39-93E5-B9DD48AA0867"
  ],
  "address": {
    "@type": "PostalAddress",
    "streetAddress": "Kleinstummerberg 75",
    "addressCountry": "AT",
    "postalCode": "6276",
    "addressRegion": "Stummerberg",
    "telephone": "(0043) 5283 3597"
  },
  "name": "Hotter, Johann",
  "geo": {
    "@type": "GeoCoordinates",
    "latitude": "47.277205479203133",
    "longitude": "11.902055740356445"
  },
  "currenciesAccepted": "EUR"
}