{
  "@context": "http://schema.org",
  "@type": "LodgingBusiness",
  "url": [
    "http://maps.best-of-zillertal.at/proxy/frontend/page/fuegen/de?foreignResource\u003dACD9BE94-B878-448F-9002-406C82A54B74"
  ],
  "address": {
    "@type": "PostalAddress",
    "streetAddress": "Bruckerberg 3a",
    "addressCountry": "AT",
    "postalCode": "6260",
    "addressRegion": "Bruck am Ziller",
    "telephone": "(0043) 5288 72320"
  },
  "name": "Eberharter, Christa",
  "geo": {
    "@type": "GeoCoordinates",
    "latitude": "47.384105868408909",
    "longitude": "11.866897344589233"
  },
  "currenciesAccepted": "EUR"
}