{
  "@context": "http://schema.org",
  "@type": "LodgingBusiness",
  "url": [
    "http://maps.best-of-zillertal.at/proxy/frontend/page/fuegen/de?foreignResource\u003dAD2B861A-2B45-4DC0-AF0C-BE5280B63D82"
  ],
  "address": {
    "@type": "PostalAddress",
    "streetAddress": "Weiherweg 14",
    "addressCountry": "AT",
    "postalCode": "6274",
    "addressRegion": "Aschau im Zillertal",
    "telephone": "(0043) 5282 4731"
  },
  "name": "Hörhager, Norbert",
  "geo": {
    "@type": "GeoCoordinates",
    "latitude": "47.260065",
    "longitude": "11.89207"
  },
  "currenciesAccepted": "EUR"
}