{
  "@context": "http://schema.org",
  "@type": "LodgingBusiness",
  "url": [
    "http://www.haus-kranewitter.jimdo.com",
    "http://maps.best-of-zillertal.at/proxy/frontend/page/fuegen/de?foreignResource\u003dADC6C9F5-F580-4A21-840B-3AF72C6B1E5C"
  ],
  "address": {
    "@type": "PostalAddress",
    "streetAddress": "Märzenstraße 51",
    "addressCountry": "AT",
    "postalCode": "6275",
    "addressRegion": "Stumm",
    "telephone": "(0043) 676 7710030",
    "email": "haus-kranewitter@hotmail.com",
    "url": "http://www.haus-kranewitter.jimdo.com"
  },
  "name": "Haus Kranewitter",
  "description": [
    {
      "@language": "de",
      "@value": "Unsere Ferienwohnung \"Märzengrund\" liegt inmitten grüner Wiesen im idyllischen Ortsteil März. Genießen Sie die wunderschöne Aussicht auf die Bergwelt und die einmalige Ruhe. Nur 5 Gehminuten entfernt befindet sich die Haltestelle zum Gratis Skibus nach Hochzillertal. Knapp 1 Kilometer entfernt befinden sich mehrere ausgezeichnete Restaurants, der Ortsbäcker und ein gut sortierter Supermarkt.\nProfitieren Sie von der ruhigen und doch zentralen Lage!"
    },
    {
      "@language": "de",
      "@value": "Anreise ab 15:00 bis 20:00 Uhr\nBitte vorher Bescheid geben, wann die ungefähre Ankunftszeit ist - per Telefon oder Mail.\n\nAbreise bis 09:00 Uhr"
    },
    {
      "@language": "de",
      "@value": "Mit dem Auto:\nAutobahn München - Rosenheim - Grenzübergang Kufstein - A12 bis Abfahrt Zillertal - ca. 15 km bis B169 bis zum Kreisverkehr - Ausfahrt Stumm - an der Dorfkreuzung links abbiegen - ca. 700m Richtung März - an der linken Straßenseite liegt das Gästehaus Kranewitter\n\nMit dem Zug:\nBahnstation Jenbach - umsteigen in die Zillertalbahn oder Zillertalbahn-Bus - Ausstiegsstelle Kaltenbach oder Stumm\n\nMit dem Flugzeug:\nDer Flughafen Innsbruck ist ca. 50km entfernt, München ca. 150km\n\nCheck-in: ab 15.00 Uhr (Wir bitten um Ihren Anruf ca. 30 min. vor Ihrer geplanten Ankunft)\nCheck-out: bis 09.00 Uhr"
    },
    {
      "@language": "en",
      "@value": "Our appartement \"Märzengrund\" is located midst green meadows in the district März. Enjoy the beautiful view of the mountainworld and the silence. Just 5 minutes ago there is a bus station with a free bus to Hochzillertal. Just 1 km away there are excellent restaurants, a bakery and a supermarket.\nBenefit from the quiet and central location!\n"
    },
    {
      "@language": "en",
      "@value": "Check-in from 3 pm until 8 pm\nPlease contact the landlord about the foresee check-in\n\nCheck-out until 9 am"
    },
    {
      "@language": "en",
      "@value": "Check-in from 3 pm until 7 pm\nPlease contact the landlord about the foresee check-in\n\nCheck-out until 9 am"
    }
  ],
  "image": [
    {
      "@type": "ImageObject",
      "url": "http://resc.deskline.net/images/ZIL/1/a569c305-44c8-41f2-90cf-725edb44e115/99/image.jpg",
      "caption": [
        {
          "@language": "de",
          "@value": "IMG_0098"
        },
        {
          "@language": "en",
          "@value": "IMG_0098"
        }
      ]
    },
    {
      "@type": "ImageObject",
      "url": "http://resc.deskline.net/images/ZIL/1/2384c4a9-0b8d-4ea8-bf83-b6a14a6b4427/99/image.jpg",
      "caption": [
        {
          "@language": "de",
          "@value": "IMG_0099"
        },
        {
          "@language": "en",
          "@value": "IMG_0099"
        }
      ]
    },
    {
      "@type": "ImageObject",
      "url": "http://resc.deskline.net/images/ZIL/1/63da0722-3c87-4724-b086-d439dbf6faeb/99/image.jpg",
      "caption": [
        {
          "@language": "de",
          "@value": "IMG_0102"
        },
        {
          "@language": "en",
          "@value": "IMG_0102"
        }
      ]
    },
    {
      "@type": "ImageObject",
      "url": "http://resc.deskline.net/images/ZIL/1/c7e78214-1a1b-40d3-8e09-a295d1519f03/99/image.jpg",
      "caption": [
        {
          "@language": "de",
          "@value": "IMG_0107"
        },
        {
          "@language": "en",
          "@value": "IMG_0107"
        }
      ]
    },
    {
      "@type": "ImageObject",
      "url": "http://resc.deskline.net/images/ZIL/1/74c0c8e2-aee9-4de8-8c0b-512ea8b43199/99/image.jpg",
      "caption": [
        {
          "@language": "de",
          "@value": "IMG_0110"
        },
        {
          "@language": "en",
          "@value": "IMG_0110"
        }
      ]
    },
    {
      "@type": "ImageObject",
      "url": "http://resc.deskline.net/images/ZIL/1/c4ed3207-7304-42b3-bfbc-175ec47895d1/99/image.jpg",
      "caption": [
        {
          "@language": "de",
          "@value": "IMG_0109"
        },
        {
          "@language": "en",
          "@value": "IMG_0109"
        }
      ]
    },
    {
      "@type": "ImageObject",
      "url": "http://resc.deskline.net/images/ZIL/1/b6213c93-e197-4050-b3d9-8d58747edd9e/99/image.jpg",
      "caption": [
        {
          "@language": "de",
          "@value": "IMG_0082"
        },
        {
          "@language": "en",
          "@value": "IMG_0082"
        }
      ]
    },
    {
      "@type": "ImageObject",
      "url": "http://resc.deskline.net/images/ZIL/1/f235398c-d8ea-4774-a186-c29cde2894db/99/image.jpg",
      "caption": [
        {
          "@language": "de",
          "@value": "IMG_0070"
        },
        {
          "@language": "en",
          "@value": "IMG_0070"
        }
      ]
    },
    {
      "@type": "ImageObject",
      "url": "http://resc.deskline.net/images/ZIL/1/f5d85079-7e81-40fd-9008-664382dcd070/99/image.jpg",
      "caption": [
        {
          "@language": "de",
          "@value": "IMG_0064"
        },
        {
          "@language": "en",
          "@value": "IMG_0064"
        }
      ]
    },
    {
      "@type": "ImageObject",
      "url": "http://resc.deskline.net/images/ZIL/1/30a26f7f-9f62-4d8d-9825-86ef190e39f3/99/image.jpg",
      "caption": [
        {
          "@language": "de",
          "@value": "IMG_0072"
        },
        {
          "@language": "en",
          "@value": "IMG_0072"
        }
      ]
    },
    {
      "@type": "ImageObject",
      "url": "http://resc.deskline.net/images/ZIL/1/803e099a-1e86-43cd-948b-90bd7b7760e7/99/image.jpg",
      "caption": [
        {
          "@language": "de",
          "@value": "IMG_0075"
        },
        {
          "@language": "en",
          "@value": "IMG_0075"
        }
      ]
    },
    {
      "@type": "ImageObject",
      "url": "http://resc.deskline.net/images/ZIL/1/ddf1b3fc-948c-41aa-aa11-031479ab6c79/99/image.jpg",
      "caption": [
        {
          "@language": "de",
          "@value": "IMG_0043"
        },
        {
          "@language": "en",
          "@value": "IMG_0043"
        }
      ]
    },
    {
      "@type": "ImageObject",
      "url": "http://resc.deskline.net/images/ZIL/1/5ddabae2-d51b-49d0-8338-877e364a865d/99/image.jpg",
      "caption": [
        {
          "@language": "de",
          "@value": "IMG_0044"
        },
        {
          "@language": "en",
          "@value": "IMG_0044"
        }
      ]
    }
  ],
  "geo": {
    "@type": "GeoCoordinates",
    "latitude": "47.3032871266507",
    "longitude": "11.8789957535628"
  },
  "currenciesAccepted": "EUR",
  "makesOffer": [
    {
      "@type": "Offer",
      "name": [
        {
          "@language": "de",
          "@value": "Appartement/Fewo, Dusche, WC, 3 Schlafräume"
        },
        {
          "@language": "en",
          "@value": "Apartment, shower, toilet, 3 bed rooms"
        }
      ],
      "description": [
        {
          "@language": "de",
          "@value": "Unsere neue Ferienwohnung bietet bis zu 8 Gästen großzügig Platz. Sie werden von der geschmackvollen und hochwertigen Einrichtung begeistert sein. In jedem Zimmer steht Ihnen ein TV \u0026 gratis W-LAN zur Verfügung. Alle Zimmer verfügen über einen eigenen Balkonzugang. \nAusstattung der Küche: Geschirrspüler, Mikrowelle, Wasserkocher, Cerankochfeld, Filterkaffeemaschine, sämtliche Küchenutensilien von Dosenöffner bis Kochlöffel. Die Betten sind gemacht, Handtücher \u0026 Geschirrtücher liegen bereit."
        },
        {
          "@language": "en",
          "@value": "Our new apartment offers up to 8 guests generous space and you will be delighted by the tasteful and high-quality furnishings. Each room has a TV and W-LAN. All rooms have a private balcony access.Kitchen equipment: dishwasher, microwave, water cooker, ceran hob, coffee machine with filter, all kitchen utensils from can opener to cooking spoon. The beds are made, towels and kitchen towels are provided"
        }
      ],
      "availability": "http://schema.org/InStock",
      "itemOffered": [
        {
          "@type": [
            "Apartment",
            "Product"
          ],
          "name": [
            {
              "@language": "de",
              "@value": "Apartment Märzengrund"
            },
            {
              "@language": "en",
              "@value": "Apartment, shower, toilet, 3 bed rooms"
            }
          ],
          "numberOfRooms": "4.0",
          "occupancy": {
            "@type": "QuantitativeValue",
            "maxValue": "8",
            "minValue": "2"
          }
        }
      ],
      "priceSpecification": [
        {
          "@type": "PriceSpecification",
          "description": "Pax 2",
          "minPrice": "80.00",
          "maxPrice": "210.00",
          "priceCurrency": "EUR"
        },
        {
          "@type": "PriceSpecification",
          "description": "Pax 3",
          "minPrice": "80.00",
          "maxPrice": "210.00",
          "priceCurrency": "EUR"
        },
        {
          "@type": "PriceSpecification",
          "description": "Pax 4",
          "minPrice": "80.00",
          "maxPrice": "210.00",
          "priceCurrency": "EUR"
        },
        {
          "@type": "PriceSpecification",
          "description": "Pax 5",
          "minPrice": "100.00",
          "maxPrice": "210.00",
          "priceCurrency": "EUR"
        },
        {
          "@type": "PriceSpecification",
          "description": "Pax 6",
          "minPrice": "120.00",
          "maxPrice": "210.00",
          "priceCurrency": "EUR"
        },
        {
          "@type": "PriceSpecification",
          "description": "Pax 7",
          "minPrice": "140.00",
          "maxPrice": "245.00",
          "priceCurrency": "EUR"
        },
        {
          "@type": "PriceSpecification",
          "description": "Pax 8",
          "minPrice": "160.00",
          "maxPrice": "280.00",
          "priceCurrency": "EUR"
        }
      ]
    }
  ]
}