{
  "@context": "http://schema.org",
  "@type": "LodgingBusiness",
  "url": [
    "http://www.fuegenerhof.at",
    "http://maps.best-of-zillertal.at/proxy/frontend/page/fuegen/de?foreignResource\u003dAF6FBE87-4E67-4594-8DFA-3459B90873B0"
  ],
  "address": {
    "@type": "PostalAddress",
    "name": "Almdorf Zillertal",
    "streetAddress": "Hauptstrasse 25",
    "addressCountry": "AT",
    "postalCode": "6263",
    "addressRegion": "Fügen",
    "telephone": "(0043) 5288 62282",
    "faxNumber": "(0043) 5288 6228264",
    "email": "info@fuegenerhof.at",
    "url": "http://www.fuegenerhof.at"
  },
  "name": "Almdorf Zillertal",
  "description": [
    {
      "@language": "de",
      "@value": "Neben dem Fügenerhof im Zillertal ist ein uriges Feriendorf mit neuen Blockhäusern entstanden. Komplett aus Holz erbaut, bietet jedes der geräumigen Chalets Platz für zehn Personen.\n\nAussen Tiroler Almhütte, innen modernste Landhaus-Atmosphäre.\nDie Innenausstattung aus massivem Vollholz schafft eine Umgebung zum Wohlfühlen."
    },
    {
      "@language": "de",
      "@value": "Endreinigung EUR 20,00/Person\nEine Kaution von EUR 250,-- wird eingehoben!\n\n\n"
    },
    {
      "@language": "en",
      "@value": "Next to Hotel Fügenerhof you find a traditional holiday-village built up with new chalet in Tyrolean style. Each of these chalets offers accommodation for 10 people.\n\nOutside Tyrolean alpine cottage, inside modern country-house atmosphere.\nThe inside equipment made of massive wood offers a place to relaxe.\n"
    },
    {
      "@language": "en",
      "@value": "final cleaning EUR 20,00/person, caution money EUR 250,--\n\n"
    }
  ],
  "image": [
    {
      "@type": "ImageObject",
      "url": "http://resc.deskline.net/images/ZIL/1/fc9013b1-8d40-4ddc-8ac5-ce161e86c958/99/image.jpg",
      "caption": [
        {
          "@language": "de",
          "@value": "Hausansicht"
        },
        {
          "@language": "en",
          "@value": "Hausansicht"
        }
      ]
    },
    {
      "@type": "ImageObject",
      "url": "http://resc.deskline.net/images/ZIL/1/46a9d6e0-62d0-4447-8c09-311c4afc04ee/99/image.jpg",
      "caption": [
        {
          "@language": "de",
          "@value": "Hausansicht"
        },
        {
          "@language": "en",
          "@value": "Hausansicht"
        }
      ]
    },
    {
      "@type": "ImageObject",
      "url": "http://resc.deskline.net/images/ZIL/1/cc42a07e-0e88-4ae4-ae89-f905e7e5e10e/99/image.jpg",
      "caption": [
        {
          "@language": "de",
          "@value": "Almdorf"
        },
        {
          "@language": "en",
          "@value": "Almdorf"
        }
      ]
    },
    {
      "@type": "ImageObject",
      "url": "http://resc.deskline.net/images/ZIL/1/97ea44d3-4deb-4ed2-92b8-5a567283e681/99/image.jpg",
      "caption": [
        {
          "@language": "de",
          "@value": "Almdorf bei Nacht"
        },
        {
          "@language": "en",
          "@value": "Almdorf bei Nacht"
        }
      ]
    },
    {
      "@type": "ImageObject",
      "url": "http://resc.deskline.net/images/ZIL/1/4bf8c42d-2f9b-410d-9979-31dd5a2f7de3/99/image.jpg",
      "caption": [
        {
          "@language": "de",
          "@value": "Ferienhaus"
        },
        {
          "@language": "en",
          "@value": "Ferienhaus"
        }
      ]
    }
  ],
  "geo": {
    "@type": "GeoCoordinates",
    "latitude": "47.351915277053124",
    "longitude": "11.851209104061127"
  },
  "currenciesAccepted": "EUR",
  "makesOffer": [
    {
      "@type": "Offer",
      "name": [
        {
          "@language": "de",
          "@value": "Ferienhaus, Dusche, WC"
        },
        {
          "@language": "en",
          "@value": "Holiday home, shower, toilet"
        }
      ],
      "description": [
        {
          "@language": "de",
          "@value": "Außen Tiroler Almhütte, innen modernste Landhaus-Atmosphäre, so präsentieren sich die fünf neuen Ferienhäuser des Fügenerhofes.\nEine Inneneinrichtung aus massivem Vollholz schafft eine Umgebung zum Wohlfühlen. Die voll ausgestattete Küche grenzt an das großzügige Wohnzimmer mit offenem Kamin und Unterhaltungselektronik.\n\nGelegenheit zur Entspannung bieten die Infrarotkabine auf der Galerie sowie Terrasse und Balkon. Jedes Chalet verfügt zudem über einen eigenen Garten und Parkplätze vor dem Haus. Unsere Blockhäuser sind ein höchst natürlicher Wohnraum, ein Haus das atmet, zu allen Jahreszeiten sich das Wohnklima optimal reguliert, Behaglichkeit und Wohnkomfort ausstrahlt.\n\n3 Doppelzimmer, 1 Einzelzimmer, 1 Dreibettzimmer, Garderobe mit Schuhtrockner für Skischuhe und Skidepot, Offene Küche inkl. Essraum, Küche mit E-Herd, Backrohr, Mikrowelle, Geschirrspüler, Kühlschrank mit Gefrierfach, Toaster, Kaffeemaschine, Schneidemaschine, Geschirr und Besteck (für 10 Pers.), Offenes Wohnzimmer mit Kamin, Sat-TV, DVD-Player, Ledercouch, Fernsehsessel, Kinderzimmer mit Sat-TV, Balkon und Terrasse, 2 Bäder (auf 2 Etagen) mit Dusche, Haarfön, Kosmetikspiegel, Handtuchtrockner, WC extra, Galerie mit Infrarotkabine, ganzes Haus mit Naturholzböden (Lärche), Safe, je 3 Parkplätze pro Haus;"
        },
        {
          "@language": "en",
          "@value": "Equipment of the chalets:\nOutside Tyrolean alpine cottage, inside modern country-house atmosphere. This is the way the five new holiday chalets of Fügenerhof presents themselves. The inside equipment made of massive wood offers a place to relaxe. The fully equipped kitchen is next to the spacy living-room with open fireplace and entertainment electronics.\nRelaxation offer the infra-red cabine on the gallery as well as the terrace and balcony. Every chalet has an own garden and car park. Our chalets ara a pure natural area, a house that\u0027s breathing. The living-climate is adjusting optimal throughout all seasons of the year. Cosiness and living-comfort are radiated.\n\n5 new chalets each for 10 persons:\n3 double-rooms, 1 single-room, 1 triple-room, wardrobe with boots-dryer for ski-boots and ski-storage space, open kitchen incl. dining room for 10 persons, kitchen equipped with electric cooker, oven, microwave, dish-washer, fridge with freezing compartment, toaster, coffee-machine, bread slicer, dish and cutlery for 10 persons, open living-room with open fireplace, satelite-tv, dvd-player, leather couch, tv-chair, childrens room with satelite-tv, balcony and terrace, 2 bath-rooms (on 2 floors) with shower, hair-dryer, beauty-mirror, towel-dryer, lavatory extra, galery with infra-red cabin, natural wooden floor (larch) in all rooms, safe, 3 car parks per chalet"
        }
      ],
      "availability": "http://schema.org/InStock",
      "itemOffered": [
        {
          "@type": [
            "Apartment",
            "Product"
          ],
          "name": [
            {
              "@language": "de",
              "@value": "Ferienhaus/4 od. mehr Schlafr./Dusche,WC"
            },
            {
              "@language": "en",
              "@value": "hol. house - 4 + more bedrooms/shower,WC"
            }
          ],
          "numberOfRooms": "6.0",
          "occupancy": {
            "@type": "QuantitativeValue",
            "maxValue": "10",
            "minValue": "2"
          }
        }
      ]
    }
  ]
}