{
  "@context": "http://schema.org",
  "@type": "LodgingBusiness",
  "url": [
    "http://www.best-of-zillertal.at",
    "http://maps.best-of-zillertal.at/proxy/frontend/page/fuegen/de?foreignResource\u003daf976b23-76d2-495b-a13d-177f5344094c"
  ],
  "address": {
    "@type": "PostalAddress",
    "name": "Gästehaus Wildauer",
    "streetAddress": "HNR 98c",
    "addressCountry": "AT",
    "postalCode": "6262",
    "addressRegion": "Schlitters",
    "telephone": "(0043) 650 6520508",
    "faxNumber": "(0043) 5288 72443",
    "email": "haus-wildauer@aon.at"
  },
  "name": "Wildauer, Manuela",
  "description": [
    {
      "@language": "de",
      "@value": "Unser Haus liegt am Ortsrand von Schlitters und doch zentral, nur 5-10min zum Ortskern/Bahnhof. Langlaufloipe und Fahrradweg direkt am Haus. Kinderspielplatz,  Infrarotkabine, Solarium. \nWanderungen, Grillabende, Parkplatz, Liegewiese, Sandkasten. \nSchöne, gemütliche Ferienwohnung für 2-6 Personen. Die Wohnung besteht aus 1 Küche, 1 Wohnschlafraum, SAT-TV, Vorraum, Geschirrspüler, Schlafzimmer, DU/WC, SAT-TV, Balkon, Bettwäsche, Kaffeemaschine, Kühlschrank und Radio. \nWir holen Sie vom Bahnhof!"
    },
    {
      "@language": "de",
      "@value": "INKLUSIVE: Stromkosten, Heizung, Wasser, Bettwäsche.\nBei einem Aufenthalt von 1 Woche, 1x Infrarotkabine und Solarium kostenlos!\nEXKLUSIVE: Endreinigung € 45,-- bis € 55,-- ; Ortstaxe ,\nBrötchenservice, Infrarotkabine und Solarium"
    },
    {
      "@language": "de",
      "@value": "Check-IN:  15.00 Uhr\nCheck-OUT: 10.00 Uhr\n"
    },
    {
      "@language": "en",
      "@value": "Our house is situatet at a sunny place and in a central position beside Schlitters, only 5-10 minutes from the middle of the village or station. Paths for cycling tours and in winter the path for long-run are by the house. Playground with sand-pit and playroom for children. Sauna and solar radiation. \nHiking tours, barbecue-evenings. Car park, large lawn and a sand-pit for children."
    },
    {
      "@language": "en",
      "@value": "INCLUSIVE: central heating, electric current, water, bed-linen.\nIf you stay one week, you can use 1x sauna or solar radiation free of charge.\nEXCLUSIVE: cleaning after stay € 30,-- bis € 45,-- ;  tax, sauna, solar radiation."
    },
    {
      "@language": "en",
      "@value": "Check-IN:  15.00 p.m.\nCheck-OUT: 10.00 a.m. \n"
    }
  ],
  "image": [
    {
      "@type": "ImageObject",
      "url": "http://resc.deskline.net/images/ZIL/1/02e12028-1700-4254-af09-4c018fdb3263/99/image.jpg",
      "caption": [
        {
          "@language": "de",
          "@value": "Haus im Sommer"
        },
        {
          "@language": "en",
          "@value": "Haus im Sommer"
        }
      ]
    },
    {
      "@type": "ImageObject",
      "url": "http://resc.deskline.net/images/ZIL/1/6e633155-31b2-464c-9370-56ebb419a4d6/99/image.jpg",
      "caption": [
        {
          "@language": "de",
          "@value": "Sauna"
        },
        {
          "@language": "en",
          "@value": "Sauna"
        }
      ]
    },
    {
      "@type": "ImageObject",
      "url": "http://resc.deskline.net/images/ZIL/1/56623868-6658-4f3c-b286-423e98d3db04/99/image.jpg",
      "caption": [
        {
          "@language": "de",
          "@value": "Haus im Sommer"
        },
        {
          "@language": "en",
          "@value": "Haus im Sommer"
        }
      ]
    },
    {
      "@type": "ImageObject",
      "url": "http://resc.deskline.net/images/ZIL/1/269b4730-c4ad-42f4-8147-a23a8ce1c24d/99/image.jpg",
      "caption": [
        {
          "@language": "de",
          "@value": "Haus im Sommer"
        },
        {
          "@language": "en",
          "@value": "Haus im Sommer"
        }
      ]
    },
    {
      "@type": "ImageObject",
      "url": "http://resc.deskline.net/images/ZIL/1/329665d2-e20c-4da7-9854-25b8e09646a9/99/image.jpg",
      "caption": [
        {
          "@language": "de",
          "@value": "Appartement-1-1"
        },
        {
          "@language": "en",
          "@value": "Appartement-1-1"
        }
      ]
    },
    {
      "@type": "ImageObject",
      "url": "http://resc.deskline.net/images/ZIL/1/58cd647f-fdf9-455b-8453-cbcaa44e5d82/99/image.jpg",
      "caption": [
        {
          "@language": "de",
          "@value": "Appartement-1-2"
        },
        {
          "@language": "en",
          "@value": "Appartement-1-2"
        }
      ]
    },
    {
      "@type": "ImageObject",
      "url": "http://resc.deskline.net/images/ZIL/1/f8d48dc6-bd02-4ab0-891d-0b364379f1ee/99/image.jpg",
      "caption": [
        {
          "@language": "de",
          "@value": "Appartement-1-3"
        },
        {
          "@language": "en",
          "@value": "Appartement-1-3"
        }
      ]
    },
    {
      "@type": "ImageObject",
      "url": "http://resc.deskline.net/images/ZIL/1/3ee1c164-c2fa-4b93-bf6a-b2fa20f7ed59/99/image.jpg",
      "caption": [
        {
          "@language": "de",
          "@value": "Appartement-1-4"
        },
        {
          "@language": "en",
          "@value": "Appartement-1-4"
        }
      ]
    },
    {
      "@type": "ImageObject",
      "url": "http://resc.deskline.net/images/ZIL/1/513f7b89-d803-40c6-9f0a-345e935d0628/99/image.jpg",
      "caption": [
        {
          "@language": "de",
          "@value": "Appartement-2-1"
        },
        {
          "@language": "en",
          "@value": "Appartement-2-1"
        }
      ]
    },
    {
      "@type": "ImageObject",
      "url": "http://resc.deskline.net/images/ZIL/1/adc89355-457e-4ba2-8c07-a416f0d54727/99/image.jpg",
      "caption": [
        {
          "@language": "de",
          "@value": "Appartement-2-2"
        },
        {
          "@language": "en",
          "@value": "Appartement-2-2"
        }
      ]
    },
    {
      "@type": "ImageObject",
      "url": "http://resc.deskline.net/images/ZIL/1/458dfb37-50d2-4976-923b-b505a3a4b06f/99/image.jpg",
      "caption": [
        {
          "@language": "de",
          "@value": "Appartement-2-3"
        },
        {
          "@language": "en",
          "@value": "Appartement-2-3"
        }
      ]
    },
    {
      "@type": "ImageObject",
      "url": "http://resc.deskline.net/images/ZIL/1/988a40ef-3060-4a11-b4b2-0c30c64d4383/99/image.jpg",
      "caption": [
        {
          "@language": "de",
          "@value": "Appartement-2-4"
        },
        {
          "@language": "en",
          "@value": "Appartement-2-4"
        }
      ]
    }
  ],
  "geo": {
    "@type": "GeoCoordinates",
    "latitude": "47.3804321",
    "longitude": "11.8381463"
  },
  "currenciesAccepted": "EUR",
  "makesOffer": [
    {
      "@type": "Offer",
      "name": [
        {
          "@language": "de",
          "@value": "Appartement/Fewo, Dusche, WC"
        },
        {
          "@language": "en",
          "@value": "Apartment, shower, toilet"
        }
      ],
      "description": [
        {
          "@language": "de",
          "@value": "Große, gemütliche Ferienwohnung für 2-6 Personen. Küche, Wohnschlafraum, DU/WC, SAT-TV, Schalfzimmer, DU/WC, SAT-TV und Balkon!"
        },
        {
          "@language": "en",
          "@value": "Large and comfortable apartment for 2-6 persons. Kitchen, bed-living-room, shower/WC, SAT-TV, bed-room, shower/WC, SAT-TV and blacony!"
        }
      ],
      "availability": "http://schema.org/InStock",
      "itemOffered": [
        {
          "@type": [
            "Apartment",
            "Product"
          ],
          "name": [
            {
              "@language": "de",
              "@value": "Appartement I"
            },
            {
              "@language": "en",
              "@value": "ap/comb.living-bedr./2 bedr./shower, wc"
            }
          ],
          "numberOfRooms": "3.0",
          "occupancy": {
            "@type": "QuantitativeValue",
            "maxValue": "6",
            "minValue": "2"
          }
        }
      ]
    },
    {
      "@type": "Offer",
      "name": [
        {
          "@language": "de",
          "@value": "Appartement/Fewo, Dusche, WC"
        },
        {
          "@language": "en",
          "@value": "Apartment, shower, toilet"
        }
      ],
      "description": [
        {
          "@language": "de",
          "@value": "Gemütliche Ferienwohnung für 2-4 Personen, Küche, Wohnschlafraum mit Ausziehcouch, Schlafzimmer, Dusche/WC, Sat-TV und Balkon."
        },
        {
          "@language": "en",
          "@value": "Comfortable apartment for 2-4 persons, kitchen, bed-living-room, bed-room, shower/WC, SAT-TV and balcony.\n."
        }
      ],
      "availability": "http://schema.org/InStock",
      "itemOffered": [
        {
          "@type": [
            "Apartment",
            "Product"
          ],
          "name": [
            {
              "@language": "de",
              "@value": "Appartement II"
            },
            {
              "@language": "en",
              "@value": "ap/comb.living-bedr./1 bedroom/shower,wc"
            }
          ],
          "numberOfRooms": "1.0",
          "occupancy": {
            "@type": "QuantitativeValue",
            "maxValue": "4",
            "minValue": "2"
          }
        }
      ]
    }
  ]
}