{
  "@context": "http://schema.org",
  "@type": "LodgingBusiness",
  "url": [
    "http://maps.best-of-zillertal.at/proxy/frontend/page/fuegen/de?foreignResource\u003dB2B21515-BDED-4BA3-A8B8-D35D91B1A390"
  ],
  "address": {
    "@type": "PostalAddress",
    "streetAddress": "Hambergstraße 9",
    "addressCountry": "AT",
    "postalCode": "6265",
    "addressRegion": "Hart",
    "telephone": "(0043) 5288 64504"
  },
  "name": "Niederklapfer, Irma und Otto",
  "description": [
    {
      "@language": "de",
      "@value": "Haus in ruhiger, sonniger Hanglage mit schönem Ausblick zum Skigebiet Spieljoch und auf Fügen."
    },
    {
      "@language": "de",
      "@value": "Endreinigung EUR 20,--"
    },
    {
      "@language": "en",
      "@value": "House in sunny, quiet hillside position with beautiful panoramic view of the skiing area Spieljoch and Fügen."
    },
    {
      "@language": "en",
      "@value": "final cleaning EUR 20,--"
    }
  ],
  "image": [
    {
      "@type": "ImageObject",
      "url": "http://resc.deskline.net/images/ZIL/1/ea815a83-1535-4409-8667-0d286ed958df/99/image.jpg",
      "caption": [
        {
          "@language": "de",
          "@value": "Haus"
        },
        {
          "@language": "en",
          "@value": "Haus"
        }
      ]
    }
  ],
  "geo": {
    "@type": "GeoCoordinates",
    "latitude": "47.341936705396",
    "longitude": "11.877139770641"
  },
  "currenciesAccepted": "EUR",
  "makesOffer": [
    {
      "@type": "Offer",
      "name": [
        {
          "@language": "de",
          "@value": "Appartement/Fewo, Dusche, WC, 1 Schlafraum"
        },
        {
          "@language": "en",
          "@value": "Apartment, shower, toilet, 1 bed room"
        }
      ],
      "description": [
        {
          "@language": "de",
          "@value": "Ferienwohnung für 2-4 Personen ca. 40m2 in ruhiger, sonniger Hanglage mit schönem Ausblick zum Skigebiet Spieljoch und auf Fügen; 1 Küche, 1 Schlafzimmer mit Doppelbett und Balkon, 1 Wohnzimmer mit ausziehbarer Couch für 2 Personen, Sat-TV, Dusche und WC; Handtücher und Bettwäsche sind vorhanden."
        },
        {
          "@language": "en",
          "@value": "Appartment for 2 - 4 persons with approx 40 qm surface, in quiet and sunny location, with beautiful view to the skiarea Spieljoch and over Fügen, kitchen sleepingroom with double bed and balcony, 1 living room with pull out sofa bed for 2 persons, satelite TV, shower and toilet, towels and bed linen are provided"
        }
      ],
      "availability": "http://schema.org/InStock",
      "itemOffered": [
        {
          "@type": [
            "Apartment",
            "Product"
          ],
          "name": [
            {
              "@language": "de",
              "@value": "Apartment/1 Schlafraum/Dusche, WC"
            },
            {
              "@language": "en",
              "@value": "apartment/1 bedroom/shower, WC"
            }
          ],
          "numberOfRooms": "3.0",
          "occupancy": {
            "@type": "QuantitativeValue",
            "maxValue": "4",
            "minValue": "2"
          }
        }
      ]
    }
  ]
}