{
  "@context": "http://schema.org",
  "@type": "LodgingBusiness",
  "url": [
    "http://maps.best-of-zillertal.at/proxy/frontend/page/fuegen/de?foreignResource\u003dB2CDD991-1F55-49F1-AAFD-A4CBE8115FD8"
  ],
  "address": {
    "@type": "PostalAddress",
    "name": "Alpen Lodge",
    "streetAddress": "Neuhütten 65",
    "addressCountry": "AT",
    "postalCode": "6272",
    "addressRegion": "Kaltenbach",
    "telephone": "(0043) 5283 29271",
    "email": "huettenurlaub@sportstock.at",
    "url": "http://www.sportstock.at/lodge/"
  },
  "name": "Alpen Lodge Hochzillertal",
  "description": [
    {
      "@language": "de",
      "@value": "Rustikal tirolerisches Blockhaus mitten im Skigebiet Hochzillertal auf 1.800 m Seehöhe (5 min. zur Bergstation), im Sommer über die Zillertaler Höhenstrasse mit dem PKW erreichbar; Handtücher sind selbst mizubringen.\n"
    },
    {
      "@language": "de",
      "@value": "Endreinigung: € 100,-\n+ Strom lt. Zähler, Einheit 0,25"
    },
    {
      "@language": "en",
      "@value": "Tyrolean-style log-cabin centered in the ski-area Hochzillertal (1.800 m), 5 min. from the top lift station, in summer at the panorama road \"Zillertaler Höhenstrasse\", towels are not provided.\n\n"
    },
    {
      "@language": "en",
      "@value": "Final cleaning: € 100,-\n+ current according to electricity meter"
    }
  ],
  "image": [
    {
      "@type": "ImageObject",
      "url": "http://resc.deskline.net/images/ZIL/1/bd422ead-130b-4412-a305-1cc4b6afa004/99/image.jpg",
      "caption": [
        {
          "@language": "de",
          "@value": "Hütte Sommer"
        },
        {
          "@language": "en",
          "@value": "Hütte Sommer"
        }
      ]
    }
  ],
  "geo": {
    "@type": "GeoCoordinates",
    "latitude": "47.271396518198955",
    "longitude": "11.844624280929565"
  },
  "currenciesAccepted": "EUR",
  "makesOffer": [
    {
      "@type": "Offer",
      "name": [
        {
          "@language": "de",
          "@value": "Appartement/Fewo, Dusche, WC, 3 Schlafräume"
        },
        {
          "@language": "en",
          "@value": "Apartment, shower, toilet, 3 bed rooms"
        }
      ],
      "description": [
        {
          "@language": "de",
          "@value": "3 Schlafzimmer, 1 Wohnraum, 1 Bad, 1 WC, 1 x Dusche/WC, Abstellraum, zentrale Bodenheizung, Sonnenterrasse und Balkon mit Blick auf die Skipisten, Kachelofen inkl. Feuerholz, Küche komplett mit Koch- und Speisegeschirr, Geschirrspüler, Kühl-Gefrierschrank, Kaffeemaschine, Mikrowelle, Sat-TV, Radio, CD-Player, Geschirrtücher, Bettwäsche, Wohnfläche ca. 100 m2"
        },
        {
          "@language": "en",
          "@value": "3 double-rooms, 1 living-room, 1 bath, 1 WC, 1 shower/wc, storage-room, central floor-heating, sun-terrace and balcony with view to the ski-slopes, tiled stove incl. firewood, kitchen complete with dishes, dishwasher, fridge, coffee-machine, microwave, sat-tv, radio, cd-player, tea-towels, bed-linen, totally about 100 qm"
        }
      ],
      "availability": "http://schema.org/InStock",
      "itemOffered": [
        {
          "@type": [
            "Apartment",
            "Product"
          ],
          "name": [
            {
              "@language": "de",
              "@value": "Apartment/3 Schlafräume/Dusche, WC"
            },
            {
              "@language": "en",
              "@value": "apartment/3 bedrooms/shower, WC"
            }
          ],
          "numberOfRooms": "4.0",
          "occupancy": {
            "@type": "QuantitativeValue",
            "maxValue": "6",
            "minValue": "2"
          }
        }
      ],
      "priceSpecification": [
        {
          "@type": "PriceSpecification",
          "description": "Pax 6",
          "minPrice": "250.00",
          "maxPrice": "250.00",
          "priceCurrency": "EUR"
        }
      ]
    },
    {
      "@type": "Offer",
      "name": [
        {
          "@language": "de",
          "@value": "Appartement/Fewo, Dusche, WC, 3 Schlafräume"
        },
        {
          "@language": "en",
          "@value": "Apartment, shower, toilet, 3 bed rooms"
        }
      ],
      "description": [
        {
          "@language": "de",
          "@value": "3 Schlafzimmer, 1 Wohnraum, 1 Bad, 1 WC, 1 x Dusche/WC, Abstellraum, zentrale Bodenheizung, Sonnenterrasse und Balkon mit Blick auf die Skipisten, Kachelofen inkl. Feuerholz, Küche komplett mit Koch- und Speisegeschirr, Geschirrspüler, Kühl-Gefrierschrank, Kaffeemaschine, Mikrowelle, Sat-TV, Radio, CD-Player, Geschirrtücher, Bettwäsche, Wohnfläche ca. 100 m2"
        },
        {
          "@language": "en",
          "@value": "3 double-rooms, 1 living-room, 1 bath, 1 WC, 1 shower/wc, storage-room, central floor-heating, sun-terrace and balcony with view to the ski-slopes, tiled stove incl. firewood, kitchen complete with dishes, dishwasher, fridge, coffee-machine, microwave, sat-tv, radio, cd-player, tea-towels, bed-linen, totally about 100 qm"
        }
      ],
      "availability": "http://schema.org/InStock",
      "itemOffered": [
        {
          "@type": [
            "Apartment",
            "Product"
          ],
          "name": [
            {
              "@language": "de",
              "@value": "Apartment/3 Schlafräume/Dusche, WC"
            },
            {
              "@language": "en",
              "@value": "apartment/3 bedrooms/shower, WC"
            }
          ],
          "numberOfRooms": "4.0",
          "occupancy": {
            "@type": "QuantitativeValue",
            "maxValue": "6",
            "minValue": "2"
          }
        }
      ],
      "priceSpecification": [
        {
          "@type": "PriceSpecification",
          "description": "Pax 6",
          "minPrice": "220.00",
          "maxPrice": "220.00",
          "priceCurrency": "EUR"
        }
      ]
    }
  ]
}