{
  "@context": "http://schema.org",
  "@type": "LodgingBusiness",
  "url": [
    "http://www.zillertalnet.at/kainer",
    "http://maps.best-of-zillertal.at/proxy/frontend/page/fuegen/de?foreignResource\u003dB820453C-CDE5-4D2F-86C4-43BCDEE00D87"
  ],
  "address": {
    "@type": "PostalAddress",
    "streetAddress": "Riedbergstraße 8",
    "addressCountry": "AT",
    "postalCode": "6273",
    "addressRegion": "Ried im Zillertal",
    "telephone": "(0043) 5283 2068",
    "faxNumber": "(0043) 5283 2068",
    "email": "kainer.t@tirol.com",
    "url": "http://www.zillertalnet.at/kainer"
  },
  "name": "Gästehaus Kainer",
  "description": [
    {
      "@language": "de",
      "@value": "Für Ihren Urlaub mit Kindern sind wir vom Gästehaus Kainer in Ried mit zwei Ferienwohnungen für insgesamt bis zu 17 Personen und einem Spielzimmer bestens ausgestattet. Durch unsere ideale Lage am Südhang von Riedberg können Sie einen grandiosen Ausblick auf das Zillertal genießen.\n\nWillkommen in Ried im Zillertal im Gästehaus Kainer. Unsere Ferienwohnungen liegen in der Ersten Ferienregion Zillertal auf einem sonnigen Südhang am Riedberg auf 700m Seehöhe. Für die Anfahrt im Winter zu unserem Haus sind Schneeketten notwendig.\nDas Ortszentrum von Ried ist nur 2.5km von den Ferienwohnungen entfernt. Dort finden Sie neben Einkaufsmöglichkeiten auch Tennisplätze und einen Minigolf Platz.\n\nUnsere gemütlichen Ferienwohnungen sind für bis zu 17 Personen geeignet und bieten Platz für die ganze Familie und Ihren Urlaub mit Kindern. Die Ferienwohnung im ersten Stock ist für 4 - 7 Personen ausgestattet und hat ca. 90 m². Die neu eingerichtete Ferienwohnung im zweiten Stock bietet mit 110 m² Platz für bis zu 10 Personen. Die Ferienwohnungen sind rustikal und großzügig eingerichtet und verfügen jeweils über einen herrlichen Balkon, einen großen voll ausgestatteten Küchenblock oder eine Wohnküche mit Geschirrspüler und eine gemütliche Sitzecke, Sat-TV, 3 - 4 Schlafzimmer und ein großes Badezimmer mit DU/WC separat oder einer Badewanne. Selbstverständlich sind Bettwäsche und Handtücher vorhanden. Es besteht auch die Möglichkeit die Waschmaschine und den Trockner zu benützen. Auf Wunsch haben wir einen Brötchenservice.\n\nFreuen Sie sich auf gemütliche Stunden im Kreise der Familie in unserem Garten mit Terrasse und Gartenhäuschen mit Gasgrill. Sollte das Wetter einmal nicht zum spielen und toben im Garten einladen haben wir für Ihre Kinder ein Spielzimmer.\n\nIm Sommer sind für den Mountainbiker in nächster Nähe viele gekennzeichnete Bikerstrecken. Eine Route zum biken sowie wunderschöne Wanderwege führen direkt an unseren Ferienwohnungen vorbei. Die Sonnenanbeter und Baderatten kommen in der Therme Fügen mit Erlebnisbad, Stummer Freibad oder im Schlitterer Badesee voll auf ihre Kosten. \n\nFür den Wintersportler und den Urlaub mit Kindern sind die Skigebiete Spieljoch oder Hochzillertal mit Gästekindergarten und Skischule nur ca. 10 Autominuten von unserem Gästehaus Kainer entfernt. Auch die Skigebiete Zillertal Arena oder Zillertal 3000 in Mayrhofen sind bequem mit dem Auto zu erreichen. \n\nWir freuen uns auf Sie und Ihre Kinder bei uns im Gästehaus Kainer!\n"
    },
    {
      "@language": "de",
      "@value": "Endreinigung von Euro 40,-- bis Euro 45,-- je nach Personenzahl!\nIm Sommer Kinderermäßigung im Zimmer der Eltern\n0-5 Jahre 100 %, 6-16 Jahre 50 %;\nkeine Haustiere erwünscht;"
    },
    {
      "@language": "de",
      "@value": "Check in: 15.00 Uhr\nCheck out: 8.30 Uhr"
    },
    {
      "@language": "en",
      "@value": "At the guesthouse Kainer in Ried we offer two holiday apartments for up to 17 persons and a toy room for your holidays with children. Due to our ideal situation at the southern side of the Riedberg you can enjoy a magnificent view of the Zillertal.\n\nWelcome to Ried in the Zillertal at the Kainer guesthouse. Our holiday apartments are located in Erste Ferienregion Zillertal on the sunny south side of the Riedberg, 700m above sea-level. Snow chains are necessary when accessing our house in winter.\nThe centre of Ried where you find mini golf, tennis courts and shopping facilities is only 2.5km away from the house.\n\nOur cosy holiday apartments are suited for up to 17 people and offer space for the whole family and your vacation with children. The holiday apartment on the first floor is equipped for 4 - 7 persons and measures approx. 90 m². The recently renovated holiday apartment on the second floor offers room for up to 10 people across 110 m². The holiday apartments are generously furnished in rustic style and have a wonderful balcony, a large, fully equipped kitchen or an eat-in kitchen with dishwasher and a cosy sitting corner, satellite TV, 3 - 4 bedrooms and a large bathroom with separate shower/WC or a tub. Of course, bed linen and towels are available. You can also use the washing machine and the dryer. On request we even offer a fresh roll service.\n\nLook forward to cosy hours together with your family in our garden with terrace and garden house including a gas-powered barbeque. Should the weather not permit garden activities we offer a toy room for your children.\n\nIn summer many marked routes for mountain bikers are in direct proximity. Biking trails as well as many beautiful hiking paths directly pass our holiday apartments. Sun-lovers and water-enthusiasts will enjoy Therme Fügen with its leisure pools, the outdoor swimming in Stumm or at the Schlitterer See bathing lake. \n\nIdeal for winter sports fans and your vacation with children: The skiing areas of Spieljoch or Hochzillertal with day-care and ski schools are only 10 minutes away from our Kainer guesthouse. The Zillertal Arena or the Zillertal 3000 skiing area in Mayrhofen can be comfortably reached by car as well. \n\nWe look forward to welcoming you and your children here with us at the Kainer guesthouse!\n\n"
    },
    {
      "@language": "en",
      "@value": "Final-cleaning Euro 40,-- - Euro 45,-- !\nIn the summer child-reduction in the room of the\nperents: 0-5 years 100 %, 6-16 years 50 %;\nno pets;"
    },
    {
      "@language": "en",
      "@value": "Check in: 3.00pm\nCheck out: 8.30am"
    }
  ],
  "aggregateRating": {
    "@type": "AggregateRating",
    "ratingValue": "4.7",
    "reviewCount": "12"
  },
  "image": [
    {
      "@type": "ImageObject",
      "url": "http://resc.deskline.net/images/ZIL/1/90417644-5880-48a0-b5da-609be5951f61/99/image.jpg",
      "caption": [
        {
          "@language": "de",
          "@value": "Ferienwohnung 2"
        },
        {
          "@language": "en",
          "@value": "Ferienwohnung 2"
        }
      ]
    },
    {
      "@type": "ImageObject",
      "url": "http://resc.deskline.net/images/ZIL/1/9f215ccc-45d4-42b6-b66c-7dc74720a83d/99/image.jpg",
      "caption": [
        {
          "@language": "de",
          "@value": "Garten mit Blick zum Haus"
        },
        {
          "@language": "en",
          "@value": "Garten mit Blick zum Haus"
        }
      ]
    },
    {
      "@type": "ImageObject",
      "url": "http://resc.deskline.net/images/ZIL/1/b55d1849-4512-4a73-805c-4c99d55fb738/99/image.jpg",
      "caption": [
        {
          "@language": "de",
          "@value": "Spielplatz"
        },
        {
          "@language": "en",
          "@value": "Spielplatz"
        }
      ]
    },
    {
      "@type": "ImageObject",
      "url": "http://resc.deskline.net/images/ZIL/1/232fb979-e345-493a-9bbd-9cd5e70bbf84/99/image.jpg",
      "caption": [
        {
          "@language": "de",
          "@value": "Balkon"
        },
        {
          "@language": "en",
          "@value": "Balkon"
        }
      ]
    },
    {
      "@type": "ImageObject",
      "url": "http://resc.deskline.net/images/ZIL/1/9fec826a-4d6b-403d-a6b4-69e837e28922/99/image.jpg",
      "caption": [
        {
          "@language": "de",
          "@value": "Blick ins Tal"
        },
        {
          "@language": "en",
          "@value": "Blick ins Tal"
        }
      ]
    },
    {
      "@type": "ImageObject",
      "url": "http://resc.deskline.net/images/ZIL/1/e259ae3b-e0da-4e39-993f-33b00718bf6f/99/image.jpg",
      "caption": [
        {
          "@language": "de",
          "@value": "Schlafzimmer 1"
        },
        {
          "@language": "en",
          "@value": "Schlafzimmer 1"
        }
      ]
    },
    {
      "@type": "ImageObject",
      "url": "http://resc.deskline.net/images/ZIL/1/823a00c7-b4cd-42e7-afa2-9843957a3851/99/image.jpg",
      "caption": [
        {
          "@language": "de",
          "@value": "Wohnküche"
        },
        {
          "@language": "en",
          "@value": "Wohnküche"
        }
      ]
    },
    {
      "@type": "ImageObject",
      "url": "http://resc.deskline.net/images/ZIL/1/a73138f1-0ef0-4568-8953-6f4ecdf541ed/99/image.jpg",
      "caption": [
        {
          "@language": "de",
          "@value": "Badezimmer"
        },
        {
          "@language": "en",
          "@value": "Badezimmer"
        }
      ]
    },
    {
      "@type": "ImageObject",
      "url": "http://resc.deskline.net/images/ZIL/1/09c0178a-bdef-46f4-8e24-9274aeb805f6/99/image.jpg",
      "caption": [
        {
          "@language": "de",
          "@value": "Gang"
        },
        {
          "@language": "en",
          "@value": "Gang"
        }
      ]
    },
    {
      "@type": "ImageObject",
      "url": "http://resc.deskline.net/images/ZIL/1/8f628db3-11c2-421a-b9a2-c00d4faf1850/99/image.jpg",
      "caption": [
        {
          "@language": "de",
          "@value": "Schlafzimmer"
        },
        {
          "@language": "en",
          "@value": "Schlafzimmer"
        }
      ]
    },
    {
      "@type": "ImageObject",
      "url": "http://resc.deskline.net/images/ZIL/1/6c8d9f19-1fd2-4956-8ac9-0a60e0b516f1/99/image.jpg",
      "caption": [
        {
          "@language": "de",
          "@value": "Schlafzimmer1"
        },
        {
          "@language": "en",
          "@value": "Schlafzimmer1"
        }
      ]
    },
    {
      "@type": "ImageObject",
      "url": "http://resc.deskline.net/images/ZIL/1/ff305dbd-706b-4c9a-ac3a-887833139836/99/image.jpg",
      "caption": [
        {
          "@language": "de",
          "@value": "Schlafzimmer2"
        },
        {
          "@language": "en",
          "@value": "Schlafzimmer2"
        }
      ]
    },
    {
      "@type": "ImageObject",
      "url": "http://resc.deskline.net/images/ZIL/1/0787564b-705d-457d-8989-088419dc3a95/99/image.jpg",
      "caption": [
        {
          "@language": "de",
          "@value": "Wohnkueche"
        },
        {
          "@language": "en",
          "@value": "Wohnkueche"
        }
      ]
    },
    {
      "@type": "ImageObject",
      "url": "http://resc.deskline.net/images/ZIL/1/41953692-e3fb-4899-b3f8-50bc36af004c/99/image.jpg",
      "caption": [
        {
          "@language": "de",
          "@value": "Eingang"
        },
        {
          "@language": "en",
          "@value": "Eingang"
        }
      ]
    },
    {
      "@type": "ImageObject",
      "url": "http://resc.deskline.net/images/ZIL/1/e30f99e1-d50a-45c0-9e51-f955d9a5686e/99/image.jpg",
      "caption": [
        {
          "@language": "de",
          "@value": "Haus aussen"
        },
        {
          "@language": "en",
          "@value": "Haus aussen"
        }
      ]
    },
    {
      "@type": "ImageObject",
      "url": "http://resc.deskline.net/images/ZIL/1/3fadde32-8025-4d4f-ad7b-7672db9ed60e/99/image.jpg",
      "caption": [
        {
          "@language": "de",
          "@value": "Terrasse"
        },
        {
          "@language": "en",
          "@value": "Terrasse"
        }
      ]
    }
  ],
  "geo": {
    "@type": "GeoCoordinates",
    "latitude": "47.298003534067",
    "longitude": "11.856234296349"
  },
  "currenciesAccepted": "EUR",
  "makesOffer": [
    {
      "@type": "Offer",
      "name": [
        {
          "@language": "de",
          "@value": "Appartement/Fewo, Dusche und Bad, WC, 3 Schlafräume"
        },
        {
          "@language": "en",
          "@value": "Apartment, shower and bath, toilet, 3 bed rooms"
        }
      ],
      "description": [
        {
          "@language": "de",
          "@value": "Neu möblierte, komfortable Ferienwohnung für 4-7 Personen, kmplt. eingerichtete Wohnküche (Kaffeemaschine, Kühlschrank mit Gefrierteil, Herd mit Backrohr, Mikro, Wasserkocher, Geschirrspüler, Safe, SAT-TV, Radio mit CD-Player), 3 Schlafzimmer (1x3, 2x2), Bad/DU, Föhn, WC extra, Balkon, Brötchenservice, Frühstück auf Anfrage möglich, Größe ca. 100 m2"
        },
        {
          "@language": "en",
          "@value": "Newly furnished, comfortable holiday apartment for 4-7 persons, fully equipped, combined kitchen and living room (coffee maker, fridge with freezer compartment, cooker with oven, microwave, kettle, dish washer, safe, satellite TV;\nradio with CD player), 3 bedrooms (1x3, 2x2), bath/shower, hairdryer, separate WC, balcony;\nfresh bakery service, breakfast possible by arrangement, size approx. 100 m2\n"
        }
      ],
      "availability": "http://schema.org/InStock",
      "itemOffered": [
        {
          "@type": [
            "Apartment",
            "Product"
          ],
          "name": [
            {
              "@language": "de",
              "@value": "Apartment/3 Schlafräume/Dusche, Bad, WC"
            },
            {
              "@language": "en",
              "@value": "apartment/3 bedrooms/shower,bath tube,WC"
            }
          ],
          "numberOfRooms": "4.0",
          "occupancy": {
            "@type": "QuantitativeValue",
            "maxValue": "6",
            "minValue": "4"
          }
        }
      ],
      "priceSpecification": [
        {
          "@type": "PriceSpecification",
          "description": "Pax 4",
          "minPrice": "65.00",
          "maxPrice": "95.00",
          "priceCurrency": "EUR"
        },
        {
          "@type": "PriceSpecification",
          "description": "Pax 5",
          "minPrice": "78.00",
          "maxPrice": "108.00",
          "priceCurrency": "EUR"
        },
        {
          "@type": "PriceSpecification",
          "description": "Pax 6",
          "minPrice": "90.00",
          "maxPrice": "120.00",
          "priceCurrency": "EUR"
        }
      ]
    }
  ]
}