{
  "@context": "http://schema.org",
  "@type": "BedAndBreakfast",
  "url": [
    "http://maps.best-of-zillertal.at/proxy/frontend/page/fuegen/de?foreignResource\u003dB9610BC6-B556-470E-BFC4-76D175D8C5CC"
  ],
  "address": {
    "@type": "PostalAddress",
    "streetAddress": "Harterstraße 62",
    "addressCountry": "AT",
    "postalCode": "6265",
    "addressRegion": "Hart",
    "telephone": "(0043) 5288 63352",
    "faxNumber": "(0043) 5288 63352",
    "email": "lisanail@gmx.at"
  },
  "name": "Nail, Josef",
  "description": [
    {
      "@language": "de",
      "@value": "Gepflegte Frühstückspension in sonniger, zentraler Lage für Sommer und Winterurlaub. Ca. 2 km zum Ortszentrum von Fügen, 2 Zimmer mit DU/WC. 1 Zimmer mit Fließwasser und Etagendusche. Alle Zimmer mit Balkon. Erweitertes Frühstück."
    },
    {
      "@language": "en",
      "@value": "Well cared breakfast pension in sunny and central position for summer and winter holidays. Ca. 2 kilometres far from the centre of Fügen, 2 rooms with shower and toilet. 1 room with cold and hot running water and shower and toilet on the floor. Every room has a balcony. Extended breakfast."
    }
  ],
  "image": [
    {
      "@type": "ImageObject",
      "url": "http://resc.deskline.net/images/ZIL/1/5152c3aa-ac65-41ca-a8eb-849e213da6f6/99/image.jpg",
      "caption": [
        {
          "@language": "de",
          "@value": "Haus im Sommer"
        },
        {
          "@language": "en",
          "@value": "Haus im Sommer"
        }
      ]
    }
  ],
  "geo": {
    "@type": "GeoCoordinates",
    "latitude": "47.345482070811109",
    "longitude": "11.869343519210815"
  },
  "currenciesAccepted": "EUR",
  "makesOffer": [
    {
      "@type": "Offer",
      "name": [
        {
          "@language": "de",
          "@value": "Doppelzimmer, Dusche oder Bad, WC"
        },
        {
          "@language": "en",
          "@value": "Double room, shower or bath, toilet"
        }
      ],
      "description": [
        {
          "@language": "de",
          "@value": "Doppelzimmer mit Dusche und WC."
        },
        {
          "@language": "en",
          "@value": "room with shower and toilet"
        }
      ],
      "availability": "http://schema.org/InStock",
      "itemOffered": [
        {
          "@type": [
            "HotelRoom",
            "Product"
          ],
          "name": [
            {
              "@language": "de",
              "@value": "Doppelzimmer mit Dusche od. Bad, WC"
            },
            {
              "@language": "en",
              "@value": "double room with shower or bath tube, WC"
            }
          ],
          "bed": {
            "@type": "BedDetails",
            "numberOfBeds": "1"
          },
          "occupancy": {
            "@type": "QuantitativeValue",
            "maxValue": "3",
            "minValue": "2"
          }
        }
      ]
    },
    {
      "@type": "Offer",
      "name": [
        {
          "@language": "de",
          "@value": "Doppelzimmer, fl. k/w Wasser"
        },
        {
          "@language": "en",
          "@value": "Double room, running hot/cold water"
        }
      ],
      "description": [
        {
          "@language": "de",
          "@value": "Doppelzimmer mit Fließwasser und Etagendusche."
        },
        {
          "@language": "en",
          "@value": "rooms with running cold/warm water, shower and toilet on the floor"
        }
      ],
      "availability": "http://schema.org/InStock",
      "itemOffered": [
        {
          "@type": [
            "HotelRoom",
            "Product"
          ],
          "name": [
            {
              "@language": "de",
              "@value": "Doppelzimmer mit fl. Wasser"
            },
            {
              "@language": "en",
              "@value": "double room with running hot/cold water"
            }
          ],
          "bed": {
            "@type": "BedDetails",
            "numberOfBeds": "1"
          },
          "occupancy": {
            "@type": "QuantitativeValue",
            "maxValue": "3",
            "minValue": "2"
          }
        }
      ]
    }
  ]
}