{
  "@context": "http://schema.org",
  "@type": "BedAndBreakfast",
  "url": [
    "http://maps.best-of-zillertal.at/proxy/frontend/page/fuegen/de?foreignResource\u003dBAD55677-EE2F-4DB9-AFAE-70442C30F308"
  ],
  "address": {
    "@type": "PostalAddress",
    "streetAddress": "Schlitterberg 19",
    "addressCountry": "AT",
    "postalCode": "6262",
    "addressRegion": "Schlitters",
    "telephone": "(0043) 5288 72482"
  },
  "name": "Margreiter, Thomas",
  "description": [
    {
      "@language": "de",
      "@value": "Unser familienfreundlicher Bauernhof liegt in sonniger, ruhiger Lage auf dem Schlitterberg. Großer Garten und Liegewiese sowie Sonnenterrasse, Gartenmöbel und Grillplatz für Hausgäste. Hofeigene Produkte. Parkplatz, Skiaufbewahrung. Wir holen Sie vom Bahnhof! Ganzjährig geöffnet!\nGroße, gemütliche Zimmer mit Balkon!"
    },
    {
      "@language": "de",
      "@value": "Auffahrt ab Rotholz auf gut asphaltierter Straße ca 4km zu unserem Haus Nr. 19."
    },
    {
      "@language": "en",
      "@value": "Our farm is situated at a sunny and quiet site on Schlitterberg. Familiar atmosphere. Large garden and lawn for guests. Terrace for sunny days. Bedchairs and place for barbecue. Own farmer products! Car park, place for keeping ski. We pick you up from the station! The whole year open!\nLarge and comfortable rooms with balcony!"
    },
    {
      "@language": "en",
      "@value": "You can reach us on a very good road from Rotholz. Uphill ca. 4km to our home number 19."
    }
  ],
  "image": [
    {
      "@type": "ImageObject",
      "url": "http://resc.deskline.net/images/ZIL/1/600d609b-fe8a-4eb8-853e-c4f5104a50cf/99/image.jpg",
      "caption": [
        {
          "@language": "de",
          "@value": "margreiters"
        },
        {
          "@language": "en",
          "@value": "margreiters"
        }
      ]
    }
  ],
  "geo": {
    "@type": "GeoCoordinates",
    "latitude": "47.376230798770287",
    "longitude": "11.826202869415283"
  },
  "currenciesAccepted": "EUR",
  "makesOffer": [
    {
      "@type": "Offer",
      "name": [
        {
          "@language": "de",
          "@value": "Doppelzimmer, fl. k/w Wasser"
        },
        {
          "@language": "en",
          "@value": "Double room, running hot/cold water"
        }
      ],
      "description": [
        {
          "@language": "de",
          "@value": "Große, gemütliche Zimmer mit Balkon!"
        },
        {
          "@language": "en",
          "@value": "Large and comfortable rooms with balcony!"
        }
      ],
      "availability": "http://schema.org/InStock",
      "itemOffered": [
        {
          "@type": [
            "HotelRoom",
            "Product"
          ],
          "name": [
            {
              "@language": "de",
              "@value": "Doppelzimmer mit fl. Wasser"
            },
            {
              "@language": "en",
              "@value": "double room with running hot/cold water"
            }
          ],
          "bed": {
            "@type": "BedDetails",
            "numberOfBeds": "1"
          },
          "occupancy": {
            "@type": "QuantitativeValue",
            "maxValue": "3",
            "minValue": "1"
          }
        }
      ]
    }
  ]
}