{
  "@context": "http://schema.org",
  "@type": "LodgingBusiness",
  "url": [
    "http://www.platzlhof.at",
    "http://maps.best-of-zillertal.at/proxy/frontend/page/fuegen/de?foreignResource\u003dC09A9431-517C-4B37-B262-C6D34CEEF4FB"
  ],
  "address": {
    "@type": "PostalAddress",
    "streetAddress": "Bachauweg 3",
    "addressCountry": "AT",
    "postalCode": "6273",
    "addressRegion": "Ried im Zillertal",
    "telephone": "(0043) 5283 2338",
    "faxNumber": "(0043) 5283 2338 4",
    "email": "info@platzlhof.at",
    "url": "http://www.platzlhof.at"
  },
  "name": "Appartementhaus Platzlhof",
  "description": [
    {
      "@language": "de",
      "@value": "Herzlich Willkommen in unserem Appartementhaus Platzlhof in Ried. In ruhiger und angehobener Wohngegend mit südlicher Ausrichtung verbringen Sie Ihre Ferien im Herzen der Ersten Ferienregion Zillertal!\n\nUnsere Appartements befinden sich in herrlicher Panoramalage unweit vom Ortskern Ried entfernt. In nur 10 Gehminuten erreichen Sie das Ortszentrum mit Einkaufsmöglichkeiten für Ihren Urlaub.\nZum Bahnhof sind es ebenso nur 15 Gehminuten und auf Wunsch holen wir Sie gerne kostenfrei ab. Die Skibushaltestelle in das  traumhafte Skigebiet Hochfügen - Hochzillertal ist nur 250m vom Haus entfernt. \n\nWir bieten Ihnen 4 gemütlich eingerichtete Appartements für 1 - 2 Personen, welche über Schlafzimmer oder Wohn-Schlafraum, Wohnküche mit Sat TV, Radio und Schranksafe verfügen. Die Badezimmer sind mit DU/WC oder Bad und WC getrennt, Radio, Handtuchtrockner und Haarfön ausgestattet. \nIm Appartementhaus befindet sich ein Skiraum mit Skischuhtrockner, eine Münzwaschmaschine und ein Trockner zur Verfügung. Parkplätze sind verfügbar. \n\nUnser Restaurant im 4 Stern Hotel Platzlhof befindet sich in unmittelbarer Nähe - lassen Sie sich dort kulinarisch so richtig verwöhnen!\n\nDie Erste Ferienregion Zillertal bietet ein vielfältiges Wander- und Radangebot und wir im Ferienhotel Platztlhof beraten Sie sehr gerne. Wir verfügen auch über einen E-Bike Verleih und somit sind Sie für jegliche Radtouren bestens ausgerüstet. \nIm Winter steht das herrliche Skigebiet Hochfügen - Hochzillertal quasi vor der Tür! Ein kostenfreier Skibus bringt Sie von unserer Haustür in nur 10min zur großzügigen Skischaukel Hochfügen - Hochzillertal. Dies verspricht ultimativen Skispaß!\n\nDarauf, Sie bei uns als Gast verwöhnen zu dürfen freuen wir uns recht herzlich!\nIhre Familie Wimpissinger\n\n"
    },
    {
      "@language": "de",
      "@value": "Endreinigung: €30,- bis €35,-\nHunde: EUR 6,- pro Tag ohne Futter"
    },
    {
      "@language": "de",
      "@value": "Check in: ab 15 Uhr, Schlüssel an der Hotelreception abholen: Ferienhotel Platzlhof, Taxachgraflweg 2\nCheck out bis 10 Uhr"
    },
    {
      "@language": "en",
      "@value": "Welcome to our apartment house Platzlhof in Ried. In a quiet and privileged residential area with south exposure you spend your holidays at the heart of Erste Ferienregion Zillertal!\n\nOur apartments are located in a wonderful panorama area, not far from the centre of Ried, which offers numerous shopping possibilities and can be reached in less than 10 minutes on foot.\nThe station is also only a 15-minute walk away; on request we even pick you up free of charge. The ski bus to the fantastic Hochfügen - Hochzillertal skiing area is only 250m away from the house.\n\nWe offer 4 comfortably furnished apartments for 1-2 people that come with bedrooms or living-bedrooms, an eat-in-kitchen with satellite TV, radio and a built-in safe. The bathrooms are equipped with shower/WC or tub and a separate WC, radio, towel and hair dryer. \nThe house offers a ski room with ski boot dryer, a washing machine and a standard dryer. Parking is available as well. \n\nOur restaurant in the 4-star Platzlhof hotel is in direct proximity - let yourself be pampered there with finest culinary treats!\n\nErste Ferienregion Zillertal provides various hiking and bike offers which we gladly advise you on here in the Platztlhof hotel. We also offer e-bike rentals and are ideally equipped to offer you everything you need for bike tours of any kind. \nIn winter, the wonderful Hochfügen - Hochzillertal skiing area is more or less right on your doorstep! A free ski bus brings you from our house to the extensive Hochfügen - Hochzillertal skiing resort in less than 10 minutes where the ultimate ski fun awaits you!\n\nWe look forward to welcoming and pampering you as a guest!\nYour hosts, the Wimpissinger family\n\n\n\n"
    },
    {
      "@language": "en",
      "@value": "Final cleaning: € 30,- til € 35,-\nDogs: EUR 6,- per day without food"
    },
    {
      "@language": "en",
      "@value": "check in: from 3 pm, keyadress Taxachgraflweg 2, Ferienhotel Platzlhof\ncheck out: until 10 am "
    }
  ],
  "image": [
    {
      "@type": "ImageObject",
      "url": "http://resc.deskline.net/images/ZIL/1/7474144d-e2b5-4045-9b51-35acf8380740/99/image.jpg",
      "caption": [
        {
          "@language": "de",
          "@value": "Haus Sommer"
        },
        {
          "@language": "en",
          "@value": "Haus Sommer"
        }
      ]
    },
    {
      "@type": "ImageObject",
      "url": "http://resc.deskline.net/images/ZIL/1/6a613a4d-4cae-4dfd-b39a-7fdbf3dff71a/99/image.jpg",
      "caption": [
        {
          "@language": "de",
          "@value": "Haus Winter"
        },
        {
          "@language": "en",
          "@value": "Haus Winter"
        }
      ]
    },
    {
      "@type": "ImageObject",
      "url": "http://resc.deskline.net/images/ZIL/1/7237f087-b273-41cf-b8f9-15ea92a25187/99/image.jpg",
      "caption": [
        {
          "@language": "de",
          "@value": "Haus Winter 2"
        },
        {
          "@language": "en",
          "@value": "Haus Winter 2"
        }
      ]
    },
    {
      "@type": "ImageObject",
      "url": "http://resc.deskline.net/images/ZIL/1/bf1ebcc1-aa4b-4cb4-9f64-605307e8f542/99/image.jpg",
      "caption": [
        {
          "@language": "de",
          "@value": "Ferienwohnung"
        },
        {
          "@language": "en",
          "@value": "Ferienwohnung"
        }
      ]
    },
    {
      "@type": "ImageObject",
      "url": "http://resc.deskline.net/images/ZIL/1/7eafdea3-af7a-4144-8e73-9d267d18f612/99/image.jpg",
      "caption": [
        {
          "@language": "de",
          "@value": "kl Fewo"
        },
        {
          "@language": "en",
          "@value": "kl Fewo"
        }
      ]
    },
    {
      "@type": "ImageObject",
      "url": "http://resc.deskline.net/images/ZIL/1/687b1271-0440-4ffb-aebe-03b7d1d11477/99/image.jpg",
      "caption": [
        {
          "@language": "de",
          "@value": "bad"
        },
        {
          "@language": "en",
          "@value": "bad"
        }
      ]
    }
  ],
  "geo": {
    "@type": "GeoCoordinates",
    "latitude": "47.298688724974269",
    "longitude": "11.863431930541992"
  },
  "paymentAccepted": [
    "MasterCard",
    "VISA"
  ],
  "currenciesAccepted": "EUR",
  "makesOffer": [
    {
      "@type": "Offer",
      "name": [
        {
          "@language": "de",
          "@value": "Appartement/Fewo, Bad, WC, 1 Schlafraum"
        },
        {
          "@language": "en",
          "@value": "Apartment, bath, toilet, 1 bed room"
        }
      ],
      "description": [
        {
          "@language": "de",
          "@value": "1 Doppelzimmer, komplett ausgestattete Wohnküche mit Sofabett, Geschirrspüler, Mikrowelle, Kühlschrank mit Gefrierteil, 2-Platten-Herd, Kaffeemaschine, Geschirr und Besteck, Safe; Wannendusche, Fön, Handtuchtrockner, WC extra, Vorraum mit Garderobe, Balkon, Sat-TV-Radio,  Bettwäsche, Handtücher und Geschirrtücher vorhanden.\nNEU: W-Lan kostenfrei!"
        },
        {
          "@language": "en",
          "@value": "1 double-room, completely equipped living-kitchen with sofa-bed, dish-washer, microwave, fridge, stove, coffee-machine, dishes and cutlery, safe; tube-shower, hair-dryer, towel-dryer, toilet extra, warderobe, balcony, sat-tv-radio, telephone, bed-linen, towels and tea-towels available. \n"
        }
      ],
      "availability": "http://schema.org/InStock",
      "itemOffered": [
        {
          "@type": [
            "Apartment",
            "Product"
          ],
          "name": [
            {
              "@language": "de",
              "@value": "Appartement \"Anni\""
            },
            {
              "@language": "en",
              "@value": "app. \"Anni\""
            }
          ],
          "numberOfRooms": "2.0",
          "occupancy": {
            "@type": "QuantitativeValue",
            "maxValue": "2",
            "minValue": "2"
          }
        }
      ],
      "priceSpecification": [
        {
          "@type": "PriceSpecification",
          "description": "Pax 2",
          "minPrice": "68.00",
          "maxPrice": "78.00",
          "priceCurrency": "EUR"
        }
      ]
    },
    {
      "@type": "Offer",
      "name": [
        {
          "@language": "de",
          "@value": "Ferienhaus, Dusche, WC"
        },
        {
          "@language": "en",
          "@value": "Holiday home, shower, toilet"
        }
      ],
      "description": [
        {
          "@language": "de",
          "@value": "1 Wohn-Schlafzimmer mit Küchenzeile (Geschirrspüler, Mikrowelle, Kühlschrank mit Gefrierteil, 2-Plattenherd, Kaffeemaschine, Geschirr und Besteck komplett), Sat-TV-Radio, Balkon, Vorraum mit Garderobe, Safe; Bettwäsche,  Handtücher und Geschirrtücher vorhanden.\nNEU: W-LAN kostenfrei!"
        },
        {
          "@language": "en",
          "@value": "1 comined living- and bed-room with kitchenette (dish-washer, microwave, fridge, stove, coffee-machine, dishes and cutlery), sat-tv-radio, balcony, warderobe, safe; bed-linen, towels and tea-towels available.\n"
        }
      ],
      "availability": "http://schema.org/InStock",
      "itemOffered": [
        {
          "@type": [
            "Apartment",
            "Product"
          ],
          "name": [
            {
              "@language": "de",
              "@value": "Appartement \"Karl\""
            },
            {
              "@language": "en",
              "@value": "app. \"Karl\""
            }
          ],
          "numberOfRooms": "1.0",
          "occupancy": {
            "@type": "QuantitativeValue",
            "maxValue": "2",
            "minValue": "2"
          }
        }
      ]
    }
  ]
}