{
  "@context": "http://schema.org",
  "@type": "LodgingBusiness",
  "url": [
    "http://maps.best-of-zillertal.at/proxy/frontend/page/fuegen/de?foreignResource\u003dC57D23CC-BF45-4883-9ED6-43479D792E48"
  ],
  "address": {
    "@type": "PostalAddress",
    "streetAddress": "Embergstraße 10",
    "addressCountry": "AT",
    "postalCode": "6274",
    "addressRegion": "Aschau im Zillertal",
    "telephone": "(0043) 5282 4916",
    "faxNumber": "(0043) 5282 4916",
    "email": "landhaus.haas@gmail.com",
    "url": "http://www.zillertal-online.at/haas"
  },
  "name": "Haas, Waltraud",
  "description": [
    {
      "@language": "de",
      "@value": "Schönes, neuerbautes Haus in sehr ruhiger Lage oberhalb von Aschau, ca. 5 Autominuten vom Ortszentrum entfernt mit Ausblick auf das Zillertal, kleine Liegewiese, Parkplatz, Brötchenservice möglich; Berglage, Haustiere erlaubt."
    },
    {
      "@language": "de",
      "@value": "Endreinigung:\nWinter EUR 30,00\nSommer EUR 28,00\nKinderermäßigung:\nbis 3 Jahre frei, 4-14 Jahre 50 %"
    },
    {
      "@language": "en",
      "@value": "Beautiful, recently built house in a very quiet location above Aschau, approx. 5 minutes\u0027 by car from the centre with view of the Zillertal, small sunbathing lawn, car park, fresh bakery service available; mountainous location, pets allowed.\n"
    },
    {
      "@language": "en",
      "@value": "Final cleaning:\nEUR 30,00 in winter\nEUR 28,00 in summer\nReduction for children:\n0-3 years: 100 %\n4-14 years: 50 %"
    }
  ],
  "image": [
    {
      "@type": "ImageObject",
      "url": "http://resc.deskline.net/images/ZIL/1/2bfcbf2c-663b-4abd-8a66-51c71c589f9d/99/image.jpg",
      "caption": [
        {
          "@language": "de",
          "@value": "Landhaus Haas"
        },
        {
          "@language": "en",
          "@value": "Landhaus Haas"
        }
      ]
    },
    {
      "@type": "ImageObject",
      "url": "http://resc.deskline.net/images/ZIL/1/c1da5697-920f-4f26-8b2f-3c40518aa45a/99/image.jpg",
      "caption": [
        {
          "@language": "de",
          "@value": "Landschaftsbild"
        },
        {
          "@language": "en",
          "@value": "Landschaftsbild"
        }
      ]
    },
    {
      "@type": "ImageObject",
      "url": "http://resc.deskline.net/images/ZIL/1/eb8c2c35-0558-4248-a4eb-85252435f768/99/image.jpg",
      "caption": [
        {
          "@language": "de",
          "@value": "Sonnblick"
        },
        {
          "@language": "en",
          "@value": "Sonnblick"
        }
      ]
    },
    {
      "@type": "ImageObject",
      "url": "http://resc.deskline.net/images/ZIL/1/04455389-bf75-45fd-aa4c-09ab473a52af/99/image.jpg",
      "caption": [
        {
          "@language": "de",
          "@value": "Sonnblick"
        },
        {
          "@language": "en",
          "@value": "Sonnblick"
        }
      ]
    },
    {
      "@type": "ImageObject",
      "url": "http://resc.deskline.net/images/ZIL/1/70072bb7-9c19-430d-8985-e767b48962a3/99/image.jpg",
      "caption": [
        {
          "@language": "de",
          "@value": "Sonnblick"
        },
        {
          "@language": "en",
          "@value": "Sonnblick"
        }
      ]
    },
    {
      "@type": "ImageObject",
      "url": "http://resc.deskline.net/images/ZIL/1/13ec3c85-6e12-4b48-a4fe-a23607e55335/99/image.jpg",
      "caption": [
        {
          "@language": "de",
          "@value": "Sonnblick"
        },
        {
          "@language": "en",
          "@value": "Sonnblick"
        }
      ]
    },
    {
      "@type": "ImageObject",
      "url": "http://resc.deskline.net/images/ZIL/1/ab106215-42c4-4852-a0c0-c82aa81bb51c/99/image.jpg",
      "caption": [
        {
          "@language": "de",
          "@value": "Talblick"
        },
        {
          "@language": "en",
          "@value": "Talblick"
        }
      ]
    },
    {
      "@type": "ImageObject",
      "url": "http://resc.deskline.net/images/ZIL/1/7902d4eb-f3d3-423b-a54b-82f9cceb0db4/99/image.jpg",
      "caption": [
        {
          "@language": "de",
          "@value": "Talblick"
        },
        {
          "@language": "en",
          "@value": "Talblick"
        }
      ]
    },
    {
      "@type": "ImageObject",
      "url": "http://resc.deskline.net/images/ZIL/1/f6e0cab6-56aa-4fb0-8ec2-635b40ed0e5b/99/image.jpg",
      "caption": [
        {
          "@language": "de",
          "@value": "Talblick"
        },
        {
          "@language": "en",
          "@value": "Talblick"
        }
      ]
    },
    {
      "@type": "ImageObject",
      "url": "http://resc.deskline.net/images/ZIL/1/bcdecd95-adf3-42b2-b2e1-36438a9b4edf/99/image.jpg",
      "caption": [
        {
          "@language": "de",
          "@value": "Talblick"
        },
        {
          "@language": "en",
          "@value": "Talblick"
        }
      ]
    },
    {
      "@type": "ImageObject",
      "url": "http://resc.deskline.net/images/ZIL/1/bf03e0b1-7d26-4afb-924e-8c4187e2983e/99/image.jpg",
      "caption": [
        {
          "@language": "de",
          "@value": "Talblick"
        },
        {
          "@language": "en",
          "@value": "Talblick"
        }
      ]
    },
    {
      "@type": "ImageObject",
      "url": "http://resc.deskline.net/images/ZIL/1/b2a55f92-1e44-4e57-82af-1716777bb40a/99/image.jpg",
      "caption": [
        {
          "@language": "de",
          "@value": "Landhaus Haas"
        },
        {
          "@language": "en",
          "@value": "Landhaus Haas"
        }
      ]
    }
  ],
  "geo": {
    "@type": "GeoCoordinates",
    "latitude": "47.272724024176",
    "longitude": "11.879988233692"
  },
  "currenciesAccepted": "EUR",
  "makesOffer": [
    {
      "@type": "Offer",
      "name": [
        {
          "@language": "de",
          "@value": "Appartement/Fewo, Dusche, WC, 1 Schlafraum"
        },
        {
          "@language": "en",
          "@value": "Apartment, shower, toilet, 1 bed room"
        }
      ],
      "description": [
        {
          "@language": "de",
          "@value": "Neu möblierte Ferienwohnung mit ca. 47m² für 2-5 Personen, 1 Dreibettzimmer, Wohnschlafzimmer, Küche, DU/WC, Balkon, SAT-TV; Handtücher und Bettwäsche vorhanden."
        },
        {
          "@language": "en",
          "@value": "Newly furnished holiday apartment with approx. 47m2 for 2-5 persons, 1 triple room, bed-sitting room, kitchen, shower/WC, balcony, satellite TV; hand towels and bed linen provided\n"
        }
      ],
      "availability": "http://schema.org/InStock",
      "itemOffered": [
        {
          "@type": [
            "Apartment",
            "Product"
          ],
          "name": [
            {
              "@language": "de",
              "@value": "Ferienwohnung Sonnblick"
            },
            {
              "@language": "en",
              "@value": "apartment/1 bedroom/shower, WC"
            }
          ],
          "numberOfRooms": "4.0",
          "occupancy": {
            "@type": "QuantitativeValue",
            "maxValue": "5",
            "minValue": "2"
          }
        }
      ],
      "priceSpecification": [
        {
          "@type": "PriceSpecification",
          "description": "Pax 2",
          "minPrice": "34.00",
          "maxPrice": "34.00",
          "priceCurrency": "EUR"
        },
        {
          "@type": "PriceSpecification",
          "description": "Pax 3",
          "minPrice": "51.00",
          "maxPrice": "51.00",
          "priceCurrency": "EUR"
        },
        {
          "@type": "PriceSpecification",
          "description": "Pax 4",
          "minPrice": "68.00",
          "maxPrice": "68.00",
          "priceCurrency": "EUR"
        },
        {
          "@type": "PriceSpecification",
          "description": "Pax 5",
          "minPrice": "85.00",
          "maxPrice": "85.00",
          "priceCurrency": "EUR"
        }
      ]
    },
    {
      "@type": "Offer",
      "name": [
        {
          "@language": "de",
          "@value": "Appartement/Fewo, Dusche, WC, 1 Schlafraum"
        },
        {
          "@language": "en",
          "@value": "Apartment, shower, toilet, 1 bed room"
        }
      ],
      "description": [
        {
          "@language": "de",
          "@value": "Neu möblierte Ferienwohnung mit ca. 40m² für 2-4 Personen, 1 Schlafzimmer, Wohnschlafzimmer, Küche, DU/WC, Balkon, SAT-TV; Handtücher und Bettwäsche vorhanden."
        },
        {
          "@language": "en",
          "@value": "Newly furnished holiday apartment with approx. 40m2 for 2-4 persons, 1 bedroom, bed-sitting room, kitchen, shower/WC, balcony, satellite TV; hand towels and bed linen provided\n"
        }
      ],
      "availability": "http://schema.org/InStock",
      "itemOffered": [
        {
          "@type": [
            "Apartment",
            "Product"
          ],
          "name": [
            {
              "@language": "de",
              "@value": "Ferienwohnung Talblick"
            },
            {
              "@language": "en",
              "@value": "apartment/1 bedroom/shower, WC"
            }
          ],
          "numberOfRooms": "4.0",
          "occupancy": {
            "@type": "QuantitativeValue",
            "maxValue": "4",
            "minValue": "2"
          }
        }
      ],
      "priceSpecification": [
        {
          "@type": "PriceSpecification",
          "description": "Pax 2",
          "minPrice": "34.00",
          "maxPrice": "34.00",
          "priceCurrency": "EUR"
        },
        {
          "@type": "PriceSpecification",
          "description": "Pax 3",
          "minPrice": "51.00",
          "maxPrice": "51.00",
          "priceCurrency": "EUR"
        },
        {
          "@type": "PriceSpecification",
          "description": "Pax 4",
          "minPrice": "68.00",
          "maxPrice": "68.00",
          "priceCurrency": "EUR"
        }
      ]
    }
  ]
}