{
  "@context": "http://schema.org",
  "@type": "LodgingBusiness",
  "url": [
    "http://maps.best-of-zillertal.at/proxy/frontend/page/fuegen/de?foreignResource\u003dC735AAFC-771F-45E7-B75A-8E012877E428"
  ],
  "address": {
    "@type": "PostalAddress",
    "streetAddress": "Innere Embergstraße 8",
    "addressCountry": "AT",
    "postalCode": "6272",
    "addressRegion": "Kaltenbach",
    "telephone": "(0043) 5283 3548",
    "email": "josef.pfister@web.de"
  },
  "name": "Ferienwohnung Pfister Josef",
  "description": [
    {
      "@language": "de",
      "@value": "Gemütliche Ferienwohnung mit ca. 85m². Ebenerdiger Eingang mit Vorgarten und überdachter Sitzgelgenheit mit Blick über das mittlere Zillertal. 100 m neben der Talabfahrt bzw. oberhalb der Talstation der Bergbahn Hochzillertal gelegen. Haustiere erlaubt."
    },
    {
      "@language": "de",
      "@value": "Endreinigung € 10,-- pro Person"
    },
    {
      "@language": "en",
      "@value": "Pleasant holiday apartment with approx. 85m2 of space. Ground floor entrance with front garden and covered seating offering views of the central Zillertal. Situated 100 m from the downhill run / above the valley station of the Hochzillertal cable car. Pets allowed.\n\n"
    },
    {
      "@language": "en",
      "@value": "final cleaning € 10,-- per person"
    }
  ],
  "image": [
    {
      "@type": "ImageObject",
      "url": "http://resc.deskline.net/images/ZIL/1/efd4b5b4-7323-4482-8a84-17ce0ec4cd25/99/image.jpg",
      "caption": [
        {
          "@language": "de",
          "@value": "_MG_1024"
        },
        {
          "@language": "en",
          "@value": "_MG_1024"
        }
      ]
    },
    {
      "@type": "ImageObject",
      "url": "http://resc.deskline.net/images/ZIL/1/fa28c770-213b-49d7-9b26-8a0d2154177a/99/image.jpg",
      "caption": [
        {
          "@language": "de",
          "@value": "_MG_1022"
        },
        {
          "@language": "en",
          "@value": "_MG_1022"
        }
      ]
    },
    {
      "@type": "ImageObject",
      "url": "http://resc.deskline.net/images/ZIL/1/c6eb82b2-abc9-44c6-b8ed-12391ba2c70f/99/image.jpg",
      "caption": [
        {
          "@language": "de",
          "@value": "_MG_1021"
        },
        {
          "@language": "en",
          "@value": "_MG_1021"
        }
      ]
    },
    {
      "@type": "ImageObject",
      "url": "http://resc.deskline.net/images/ZIL/1/0e7209a1-980e-4967-989b-00bc9e88a2a1/99/image.jpg",
      "caption": [
        {
          "@language": "de",
          "@value": "_MG_1017"
        },
        {
          "@language": "en",
          "@value": "_MG_1017"
        }
      ]
    },
    {
      "@type": "ImageObject",
      "url": "http://resc.deskline.net/images/ZIL/1/598a9a76-d96f-4b84-82c7-dc5d0000cf0b/99/image.jpg",
      "caption": [
        {
          "@language": "de",
          "@value": "Winter"
        },
        {
          "@language": "en",
          "@value": "Winter"
        }
      ]
    },
    {
      "@type": "ImageObject",
      "url": "http://resc.deskline.net/images/ZIL/1/eeabf448-2dc2-4275-ae63-aeaace57f0b6/99/image.jpg",
      "caption": [
        {
          "@language": "de",
          "@value": "Winter 1"
        },
        {
          "@language": "en",
          "@value": "Winter 1"
        }
      ]
    },
    {
      "@type": "ImageObject",
      "url": "http://resc.deskline.net/images/ZIL/1/0da24ea0-307a-422b-bc00-75b7bdd6bea9/99/image.jpg",
      "caption": [
        {
          "@language": "de",
          "@value": "Garten"
        },
        {
          "@language": "en",
          "@value": "Garten"
        }
      ]
    }
  ],
  "geo": {
    "@type": "GeoCoordinates",
    "latitude": "47.281585",
    "longitude": "11.875282"
  },
  "currenciesAccepted": "EUR",
  "makesOffer": [
    {
      "@type": "Offer",
      "name": [
        {
          "@language": "de",
          "@value": "Appartement/Fewo, Dusche, WC, 2 Schlafräume"
        },
        {
          "@language": "en",
          "@value": "Apartment, shower, toilet, 2 bed rooms"
        }
      ],
      "description": [
        {
          "@language": "de",
          "@value": "Neu möblierte Wohnung mit komplett eingerichteter Wohnküche (Backrohr, Kaffeemaschine, Mikrowelle, Spülmaschine, Wasserkocher, Espressomaschine, SAT-TV, etc.), 2 rustikale Doppelzimmer je 16m² mit Waschbecken, Zusatzbett in der Diele, 1 Reisegitterbett,  DU/WC. Trockenraum. Handtücher und Bettwäsche vorhanden."
        },
        {
          "@language": "en",
          "@value": "Newly furnished apartment with fully equipped, combined kitchen and living room (oven, coffee maker,\nmicrowave, dishwasher, watercooker, espressomachine, satellite TV), 2 rustic-style double rooms, each 16m2, with washbasin, 1 high bed, 1 journey cot, shower/WC. Drying room. Hand towels and bed linen provided.\n"
        }
      ],
      "availability": "http://schema.org/InStock",
      "itemOffered": [
        {
          "@type": [
            "Apartment",
            "Product"
          ],
          "name": [
            {
              "@language": "de",
              "@value": "Appartement mit 2 Schlafräumen"
            },
            {
              "@language": "en",
              "@value": "Apartment, shower, toilet, 2 bed rooms"
            }
          ],
          "numberOfRooms": "4.0",
          "occupancy": {
            "@type": "QuantitativeValue",
            "maxValue": "6",
            "minValue": "3"
          }
        }
      ],
      "priceSpecification": [
        {
          "@type": "PriceSpecification",
          "description": "Pax 3",
          "minPrice": "110.00",
          "maxPrice": "110.00",
          "priceCurrency": "EUR"
        },
        {
          "@type": "PriceSpecification",
          "description": "Pax 4",
          "minPrice": "110.00",
          "maxPrice": "110.00",
          "priceCurrency": "EUR"
        },
        {
          "@type": "PriceSpecification",
          "description": "Pax 5",
          "minPrice": "110.00",
          "maxPrice": "110.00",
          "priceCurrency": "EUR"
        },
        {
          "@type": "PriceSpecification",
          "description": "Pax 6",
          "minPrice": "120.00",
          "maxPrice": "120.00",
          "priceCurrency": "EUR"
        }
      ]
    }
  ]
}