{
  "@context": "http://schema.org",
  "@type": "LodgingBusiness",
  "url": [
    "http://maps.best-of-zillertal.at/proxy/frontend/page/fuegen/de?foreignResource\u003dC77A39F5-09C1-45E3-9BA3-8DC0C6B0CFCD"
  ],
  "address": {
    "@type": "PostalAddress",
    "streetAddress": "Haidach 20",
    "addressCountry": "AT",
    "postalCode": "6263",
    "addressRegion": "Fügen",
    "telephone": "(0043) 5288 63003",
    "faxNumber": "(0043) 5288 63003",
    "email": "hoellwarth@utanet.at"
  },
  "name": "Appartement Höllwarth",
  "description": [
    {
      "@language": "de",
      "@value": "Im Urlaub morgens wie abends einen atemberaubenden Ausblick genießen - in der Ferienwohnung Höllwarth in Fügen wird dieser Traum zur Realität! Der großflächige Garten des Appartements lädt das ganze Jahr über zum Energie tanken und Urlauben ein.\n\nUnsere Ferienwohnung Höllwarth liegt am Ortsrand von Fügen in der Ersten Ferienregion im Zillertal. Eingerahmt von Wald und Wiesen, finden Sie hier in Ihren Ferien mit Kindern oder im Skiurlaub mit Freunden Ruhe und Entspannung. Das Zentrum von Fügen liegt nur knapp 1 km entfernt und die Spieljochbahn erreichen Sie in 5 Gehminuten.\n\nDie Ferienwohnung Höllwarth mit eigenem Hauseingang im Garten bietet Platz für 6 bis 10 Personen. Das großzügige Appartement verfügt über drei Schlafzimmer, ein Wohnschlafzimmer und drei Badezimmer. Ein Sat-TV in jedem Zimmer runden den Komfort der Ferienwohnung ab. In zwei komplett eingerichteten Küchen mit Espressomaschine, Mikrowelle, Backrohr, Kühlschrank sowie Geschirrspülmaschine können Sie Ihren Lieben nach einem aufregenden Skitag oder nach Wanderungen in den Zillertaler Bergen ein leckeres Gericht zaubern. Genießen Sie Ihren Urlaub im großzügigen Garten mit Gartenmöbeln direkt vor der Ferienwohnung. Morgens können Sie hier Ihr Frühstück in der Morgensonne genießen, während Sie abends den Tag mit einem Grillabend am hauseigenen Grill im Garten abrunden. Auf Wunsch bieten wir unseren Gästen auch einen Brötchenservice an. Für Ihre Skier bzw. für Ihre Fahrräder steht Ihnen ein Abstellraum bereit.\n\nDer Sommer in der Ferienregion Fügen-Kaltenbach bietet abwechslungsreiche Aktivitäten inmitten einer malerischen Umgebung. Direkt von der Ferienwohnung Höllwarth aus können Sie bei Wanderungen mit der Familie oder bei Mountainbike-Touren mit Freunden das Zillertal erkunden. Im Urlaub mit Kindern erwartet Sie an der Bergstation der Bergbahn Spieljoch ein großer Wasser-Spiel-Park sowie ein Kinderklettergarten.\n\nDurch die Nähe zur Spieljochbahn eignet sich unsere Ferienwohnung auch im Winter ideal für Ihren Skiurlaub. Das Familienskigebiet Spieljoch bietet eine Übungswiese für Anfänger, sowie lange Abfahrten für Ski-Profis. Mit dem kostenlosen Skibus gelangen Sie bequem in das benachbarte Skigebiet Hochfügen-Hochzillertal, wo Sie ebenso grenzenloser Pistenspaß erwartet. Alternativ zum Skifahren erwarten Sie weitere Wintersportaktivitäten wie Rodeln (3 Gehminuten entfernt), Eislaufen oder romantisches Schneeschuhwandern, die Ihren Winterurlaub in der Ferienregion Fügen-Kaltenbach unvergesslich machen.\n\nFamilie Höllwarth freut sich, Sie schon bald in den Ferienwohnungen Höllwarth willkommen zu heißen! "
    },
    {
      "@language": "de",
      "@value": "Endreinigung zwischen EUR 25,-- und EUR 65,--"
    },
    {
      "@language": "de",
      "@value": "Anreise ab 14:00 Uhr und auf Anfrage\nAbreise bis 10:00 Uhr\nBei der Anreise können Sie sich an die Hinweistafeln \"Hotel Bruno\" orientieren."
    },
    {
      "@language": "en",
      "@value": "Enjoying breath-taking views during your holidays, whether in the morning or in the evening – at the Höllwarth guesthouse in Fügen this dream will become reality! The large garden of the guesthouse invites you to recharge your batteries and spend relaxing holidays all year round.\n\nOur Höllwarth guesthouse is located on the outskirts of Fügen in the First Holiday Region in the Zillertal. Surrounded by woods and meadows, you will find tranquillity and relaxation when spending your vacation with kids or when enjoying skiing holidays with friends. The centre of Fügen is only about 1 km away and the Spieljochbahn can be reached after a 5-minute walk.\n\nWith a separate garden entrance, the Höllwarth guesthouse accommodates 6 to 10 people. The spacious apartment features three bedrooms, a living room and three bathrooms. Satellite TVs in every room complete the comforts of the apartment. In two fully equipped kitchens with espresso-maker, microwave, oven, refrigerator and dishwasher, you can prepare savoury meals for your loved ones after a long day of skiing or hiking in the Zillertal Mountains. Enjoy your holiday in the spacious garden with loungers right outside the apartment. In the morning, you can enjoy breakfast in the morning sun, while ending the day with a barbecue in the garden at night. On request, we also offer a fresh roll service. \nA storage room is available for your skis or bicycles.\n\nSummer in the Fügen-Kaltenbach holiday region offers varied activities amidst a picturesque setting. Directly from the Höllwarth guesthouse you can explore the Zillertal hiking with family or mountain biking with friends. On holiday with children you are awaited by a large water fun park and a children\u0027s climbing garden at the Spieljoch summit station.\n\nThanks to its proximity to the Spieljochbahn our apartment is also ideal for your spending skiing holidays in winter. The Spieljoch family skiing resort offers a training hill for beginners, as well as long descents for professional skiers. With the free ski bus, you can reach the neighbouring skiing resort of Hochfügen-Hochzillertal, where you will also have limitless alpine fun. Other winter activities, such as tobogganing (3 minute walk), ice skating or romantic snowshoeing are on offer as skiing alternatives that will turn your winter holidays in the Fügen-Kaltenbach holiday region into a memorable experience.\n\nThe Höllwarth family looks forward to soon welcoming you to the Höllwarth guesthouse!"
    },
    {
      "@language": "en",
      "@value": "final cleaning between € 25,- and € 65,-"
    },
    {
      "@language": "en",
      "@value": "Check in 14:00 and on request\nCheck out 10:00 am\nDuring your arrival look for \"Hotel Bruno\""
    }
  ],
  "image": [
    {
      "@type": "ImageObject",
      "url": "http://resc.deskline.net/images/ZIL/1/dafd7de2-d4d0-4c30-9826-8d05ecdd8f86/99/image.jpg",
      "caption": [
        {
          "@language": "de",
          "@value": "Haus aussen"
        },
        {
          "@language": "en",
          "@value": "Haus aussen"
        }
      ]
    },
    {
      "@type": "ImageObject",
      "url": "http://resc.deskline.net/images/ZIL/1/fea744e5-1a49-47c8-943f-f5f1eb08f802/99/image.jpg",
      "caption": [
        {
          "@language": "de",
          "@value": "Haus Seite Eingang"
        },
        {
          "@language": "en",
          "@value": "Haus Seite Eingang"
        }
      ]
    },
    {
      "@type": "ImageObject",
      "url": "http://resc.deskline.net/images/ZIL/1/8941a0d9-2437-481d-b213-ccd4f682b592/99/image.jpg",
      "caption": [
        {
          "@language": "de",
          "@value": "Garten"
        },
        {
          "@language": "en",
          "@value": "Garten"
        }
      ]
    },
    {
      "@type": "ImageObject",
      "url": "http://resc.deskline.net/images/ZIL/1/478376ed-af61-492c-9bf0-93054204c501/99/image.jpg",
      "caption": [
        {
          "@language": "de",
          "@value": "Wohn-Schlafzimmer"
        },
        {
          "@language": "en",
          "@value": "Wohn-Schlafzimmer"
        }
      ]
    },
    {
      "@type": "ImageObject",
      "url": "http://resc.deskline.net/images/ZIL/1/9d544f77-0827-492e-8943-f031ccc552f4/99/image.jpg",
      "caption": [
        {
          "@language": "de",
          "@value": "Esstisch"
        },
        {
          "@language": "en",
          "@value": "Esstisch"
        }
      ]
    },
    {
      "@type": "ImageObject",
      "url": "http://resc.deskline.net/images/ZIL/1/eedbc705-a4db-4bd3-9742-9705d2ad2a07/99/image.jpg",
      "caption": [
        {
          "@language": "de",
          "@value": "Kueche"
        },
        {
          "@language": "en",
          "@value": "Kueche"
        }
      ]
    },
    {
      "@type": "ImageObject",
      "url": "http://resc.deskline.net/images/ZIL/1/0b96a335-4e6a-4427-bfbc-b804da9b18bc/99/image.jpg",
      "caption": [
        {
          "@language": "de",
          "@value": "Schlafzimmer"
        },
        {
          "@language": "en",
          "@value": "Schlafzimmer"
        }
      ]
    },
    {
      "@type": "ImageObject",
      "url": "http://resc.deskline.net/images/ZIL/1/da0db24d-e7e8-4763-afb7-3f8d3e21a5be/99/image.jpg",
      "caption": [
        {
          "@language": "de",
          "@value": "Schlafzimmer1"
        },
        {
          "@language": "en",
          "@value": "Schlafzimmer1"
        }
      ]
    },
    {
      "@type": "ImageObject",
      "url": "http://resc.deskline.net/images/ZIL/1/0036fc8e-3d2e-4607-9b5c-f411ca555381/99/image.jpg",
      "caption": [
        {
          "@language": "de",
          "@value": "Stockbettzimmer"
        },
        {
          "@language": "en",
          "@value": "Stockbettzimmer"
        }
      ]
    },
    {
      "@type": "ImageObject",
      "url": "http://resc.deskline.net/images/ZIL/1/78ef847c-c896-46cd-b4af-36238a1bab69/99/image.jpg",
      "caption": [
        {
          "@language": "de",
          "@value": "Badezimmer"
        },
        {
          "@language": "en",
          "@value": "Badezimmer"
        }
      ]
    }
  ],
  "geo": {
    "@type": "GeoCoordinates",
    "latitude": "47.342581419683",
    "longitude": "11.842424869537354"
  },
  "currenciesAccepted": "EUR",
  "makesOffer": [
    {
      "@type": "Offer",
      "name": [
        {
          "@language": "de",
          "@value": "Ferienhaus, Dusche, WC, 3 Schlafräume"
        },
        {
          "@language": "en",
          "@value": "Holiday home, shower, toilet, 3 bed rooms"
        }
      ],
      "description": [
        {
          "@language": "de",
          "@value": "Ferienwohnung für 6-10 Personen (max. 6 Erwachsene),  1 Doppelzimmer, 1 Doppelzimmer (Stockbett 200 cm), 2 Wohnschlafzimmer(1x fixes Doppelbett und 1x französisches Bett), 2 x Küche komplett (u.a. mit Mikrowelle, Geschirrspüler, Nespressomaschine ...), 3 x  Bad und WC, jedes Zimmer mit Sat-TV und gratis W-Lan."
        },
        {
          "@language": "en",
          "@value": "apartement for 6 - 10 persons, 1 double-room, 1 double-room (bunk-bed 200 cm), 2 living\u0026bed-rooms (each with fixed double-bed), 2 x kitchen completely equipped (microwave, dish-washer, coffee maker ...), 3 x badth-room and toilet, each room with sat-tv and W-Lan for free.\n"
        }
      ],
      "availability": "http://schema.org/InStock",
      "itemOffered": [
        {
          "@type": [
            "Apartment",
            "Product"
          ],
          "name": [
            {
              "@language": "de",
              "@value": "Ferienhaus/3 Schlafräume/ Dusche, WC"
            },
            {
              "@language": "en",
              "@value": "holiday house/3 bedrooms/shower, WC"
            }
          ],
          "numberOfRooms": "7.0",
          "occupancy": {
            "@type": "QuantitativeValue",
            "maxValue": "10",
            "minValue": "6"
          }
        }
      ],
      "priceSpecification": [
        {
          "@type": "PriceSpecification",
          "description": "Pax 6",
          "minPrice": "90.00",
          "maxPrice": "110.00",
          "priceCurrency": "EUR"
        },
        {
          "@type": "PriceSpecification",
          "description": "Pax 7",
          "minPrice": "95.00",
          "maxPrice": "110.00",
          "priceCurrency": "EUR"
        },
        {
          "@type": "PriceSpecification",
          "description": "Pax 8",
          "minPrice": "96.00",
          "maxPrice": "110.00",
          "priceCurrency": "EUR"
        },
        {
          "@type": "PriceSpecification",
          "description": "Pax 9",
          "minPrice": "108.00",
          "maxPrice": "120.00",
          "priceCurrency": "EUR"
        },
        {
          "@type": "PriceSpecification",
          "description": "Pax 10",
          "minPrice": "115.00",
          "maxPrice": "130.00",
          "priceCurrency": "EUR"
        }
      ]
    },
    {
      "@type": "Offer",
      "name": [
        {
          "@language": "de",
          "@value": "Appartement/Fewo, Dusche, WC"
        },
        {
          "@language": "en",
          "@value": "Apartment, shower, toilet"
        }
      ],
      "description": [
        {
          "@language": "de",
          "@value": "Ferienwohnung für 2-5 Personen, 1 Schlafzimmer, 1 Wohnschlafraum, Küche \n(Geschirrspüler, Mikrowelle, Nespressomaschine), Bad und WC, Sat-TV. Wohnungseingang direkt vom großen Garten aus, der zum Frükstück im Freien einlädt."
        },
        {
          "@language": "en",
          "@value": "apartment for 2-5 persons, 1 bedroom, 1 bed sitting room, kitchen (dish washer, micro wave, coffee maker), bath/WC, satellite TV, entrance to the apartment directly from the garden."
        }
      ],
      "availability": "http://schema.org/InStock",
      "itemOffered": [
        {
          "@type": [
            "Apartment",
            "Product"
          ],
          "name": [
            {
              "@language": "de",
              "@value": "Ap./Wohn-Schlafraum/1 Schlafraum/Du,WC"
            },
            {
              "@language": "en",
              "@value": "ap/comb.living-bedr./1 bedroom/shower,wc"
            }
          ],
          "numberOfRooms": "3.0",
          "occupancy": {
            "@type": "QuantitativeValue",
            "maxValue": "5",
            "minValue": "3"
          }
        }
      ],
      "priceSpecification": [
        {
          "@type": "PriceSpecification",
          "description": "Pax 3",
          "minPrice": "49.00",
          "maxPrice": "49.00",
          "priceCurrency": "EUR"
        },
        {
          "@type": "PriceSpecification",
          "description": "Pax 4",
          "minPrice": "59.00",
          "maxPrice": "59.00",
          "priceCurrency": "EUR"
        },
        {
          "@type": "PriceSpecification",
          "description": "Pax 5",
          "minPrice": "69.00",
          "maxPrice": "69.00",
          "priceCurrency": "EUR"
        }
      ]
    },
    {
      "@type": "Offer",
      "name": [
        {
          "@language": "de",
          "@value": "Appartement/Fewo, Dusche, WC"
        },
        {
          "@language": "en",
          "@value": "Apartment, shower, toilet"
        }
      ],
      "description": [
        {
          "@language": "de",
          "@value": "Ferienwohnung für 2 Personen, Wohn-Schlafraum,  Küchenzeile (Dunstabzug, Elektroherd, Gefriermöglichkeit, Geschirrspülbecken, Geschirrspülmaschine, Kühlschrank, Kaffeemaschine, Mikrowelle, Nespressomaschine), Dusche/WC, Sat-TV."
        },
        {
          "@language": "en",
          "@value": "apartement for 2 persons, 1 bed sitting room, kitchenette (dish washer, micro wave, coffee maker), shower/WC, satellite TV."
        }
      ],
      "availability": "http://schema.org/InStock",
      "itemOffered": [
        {
          "@type": [
            "Apartment",
            "Product"
          ],
          "name": [
            {
              "@language": "de",
              "@value": "Apartment/Wohn-Schlafraum/Dusche, WC"
            },
            {
              "@language": "en",
              "@value": "ap./combined living-bed-room/shower, WC"
            }
          ],
          "numberOfRooms": "2.0",
          "occupancy": {
            "@type": "QuantitativeValue",
            "maxValue": "2",
            "minValue": "2"
          }
        }
      ],
      "priceSpecification": [
        {
          "@type": "PriceSpecification",
          "description": "Pax 2",
          "minPrice": "36.00",
          "maxPrice": "36.00",
          "priceCurrency": "EUR"
        }
      ]
    }
  ]
}