{
  "@context": "http://schema.org",
  "@type": "LodgingBusiness",
  "url": [
    "https://www.panorama3d.at/appartements-wermenerhof-fuegenberg",
    "http://www.wermenerhof.at",
    "http://maps.best-of-zillertal.at/proxy/frontend/page/fuegen/de?foreignResource\u003dC97523CD-BB6A-4256-A659-0707901792CC"
  ],
  "address": {
    "@type": "PostalAddress",
    "streetAddress": "St. Pankraz-Weg 125",
    "addressCountry": "AT",
    "postalCode": "6264",
    "addressRegion": "Fügenberg",
    "telephone": "(0043) 664 4204363",
    "email": "Martin.kammerlander@gmx.at",
    "url": "http://www.wermenerhof.at"
  },
  "name": "Appartement Wermenerhof",
  "description": [
    {
      "@language": "de",
      "@value": "Unser familienfreundlicher Bauernhof liegt in schöner, ruhiger Lage, direkt vor der Wallfahrtskirche St. Pankraz, ca. 2 km vom Ortszentrum Fügen entfernt. In wenigen Autominuten erreicht man die Talstation der Spieljochbahn und die Erlebnistherme Zillertal. Schuhtrockner und Autoabstellplätze vorhanden."
    },
    {
      "@language": "de",
      "@value": "Auf Wunsch Versorgung mit hofeigenen Produkten.\n\nEndreinigung: EUR 45,00"
    },
    {
      "@language": "de",
      "@value": "Check-in ab ca. 15 Uhr möglich!"
    },
    {
      "@language": "de",
      "@value": "Urlaub am Bauernhof, Appartement, Ferienwohnung"
    },
    {
      "@language": "en",
      "@value": "Our farmhous is situated in a beautiful, quiet location in front of the church \"St. Pankrazberg\". About 2 km away from the centre of Fügen. You can reach the ski area Spieljochbahn and the Erlebnistherme Zillertal in a few minutes by car. Ski boot dryer and parking area available."
    },
    {
      "@language": "en",
      "@value": "Home-made products on request.\n\nFinal cleaning: EUR 45,00"
    },
    {
      "@language": "en",
      "@value": "Check-in 15.00"
    }
  ],
  "image": [
    {
      "@type": "ImageObject",
      "url": "http://resc.deskline.net/images/ZIL/1/69b80525-3862-4429-bb18-9ed936db2b1a/99/image.jpg",
      "caption": [
        {
          "@language": "de",
          "@value": "Haus Winter"
        },
        {
          "@language": "en",
          "@value": "Haus Winter"
        }
      ]
    },
    {
      "@type": "ImageObject",
      "url": "http://resc.deskline.net/images/ZIL/1/f34e1241-f068-4915-ad46-1dfb54a7cfe4/99/image.jpg",
      "caption": [
        {
          "@language": "de",
          "@value": "Haus Sommer"
        },
        {
          "@language": "en",
          "@value": "Haus Sommer"
        }
      ]
    },
    {
      "@type": "ImageObject",
      "url": "http://resc.deskline.net/images/ZIL/1/df0e7147-2c15-4e07-bb0f-ef5abd968d52/99/image.jpg",
      "caption": [
        {
          "@language": "de",
          "@value": "Umgebung"
        },
        {
          "@language": "en",
          "@value": "Umgebung"
        }
      ]
    },
    {
      "@type": "ImageObject",
      "url": "http://resc.deskline.net/images/ZIL/1/4b08183b-d173-4ad7-8f2f-df10cfe2294c/99/image.jpg",
      "caption": [
        {
          "@language": "de",
          "@value": "Appartement Edelweiss Badezimmer"
        },
        {
          "@language": "en",
          "@value": "Appartement Edelweiss Badezimmer"
        }
      ]
    },
    {
      "@type": "ImageObject",
      "url": "http://resc.deskline.net/images/ZIL/1/e57c449b-d4de-4bf2-9640-8b653f647666/99/image.jpg",
      "caption": [
        {
          "@language": "de",
          "@value": "Appartement Edelweiss Küche"
        },
        {
          "@language": "en",
          "@value": "Appartement Edelweiss Küche"
        }
      ]
    },
    {
      "@type": "ImageObject",
      "url": "http://resc.deskline.net/images/ZIL/1/25044724-be0f-4703-837e-40fcb05f45be/99/image.jpg",
      "caption": [
        {
          "@language": "de",
          "@value": "Appartement Edelweiss Schlafzimmer"
        },
        {
          "@language": "en",
          "@value": "Appartement Edelweiss Schlafzimmer"
        }
      ]
    },
    {
      "@type": "ImageObject",
      "url": "http://resc.deskline.net/images/ZIL/1/6de08e4e-dccd-4584-994f-934ad9bcc991/99/image.jpg",
      "caption": [
        {
          "@language": "de",
          "@value": "Appartement Edelweiss Schlafzimmer1"
        },
        {
          "@language": "en",
          "@value": "Appartement Edelweiss Schlafzimmer1"
        }
      ]
    },
    {
      "@type": "ImageObject",
      "url": "http://resc.deskline.net/images/ZIL/1/aae12f06-60a2-46ec-a50a-0b88be704dce/99/image.jpg",
      "caption": [
        {
          "@language": "de",
          "@value": "Appartement Enzian Küche"
        },
        {
          "@language": "en",
          "@value": "Appartement Enzian Küche"
        }
      ]
    },
    {
      "@type": "ImageObject",
      "url": "http://resc.deskline.net/images/ZIL/1/3ccde6eb-11d6-4995-a649-b8ad379f60cc/99/image.jpg",
      "caption": [
        {
          "@language": "de",
          "@value": "Appartement Enzian Schlafzimmer"
        },
        {
          "@language": "en",
          "@value": "Appartement Enzian Schlafzimmer"
        }
      ]
    },
    {
      "@type": "ImageObject",
      "url": "http://resc.deskline.net/images/ZIL/1/376532c7-5372-4613-b715-6126e5f9ab5c/99/image.jpg",
      "caption": [
        {
          "@language": "de",
          "@value": "Appartement Enzian Schlafzimmer1"
        },
        {
          "@language": "en",
          "@value": "Appartement Enzian Schlafzimmer1"
        }
      ]
    },
    {
      "@type": "ImageObject",
      "url": "http://resc.deskline.net/images/ZIL/1/b6d697f5-a1dd-41d7-aa93-d8b9902c6737/99/image.jpg",
      "caption": [
        {
          "@language": "de",
          "@value": "Appartement Enzian Wohnzimmer"
        },
        {
          "@language": "en",
          "@value": "Appartement Enzian Wohnzimmer"
        }
      ]
    }
  ],
  "geo": {
    "@type": "GeoCoordinates",
    "latitude": "47.329588327471036",
    "longitude": "11.845412850379944"
  },
  "currenciesAccepted": "EUR",
  "makesOffer": [
    {
      "@type": "Offer",
      "name": [
        {
          "@language": "de",
          "@value": "Appartement/Fewo, Dusche und Bad, WC, 2 Schlafräume"
        },
        {
          "@language": "en",
          "@value": "Apartment, shower and bath, toilet, 2 bed rooms"
        }
      ],
      "description": [
        {
          "@language": "de",
          "@value": "Unsere ca. 75 m² große Ferienwohnung verfügt über 2 Doppelzimmer, 1 Wohnküche (die Schlafzimmer und der Wohnbereich sind mit Parkettböden ausgestattet), 1 Badezimmer mit Badewanne/Dusche, WC separat, Sat-TV, Dunstabzug, Elektroherd, Kaffeemaschine, Wasserkocher und Geschirrspüler, sowie Balkon Richtung Süden. Handtücher, Bett-, Tisch- und Küchenwäsche sind vorhanden."
        },
        {
          "@language": "en",
          "@value": "90 m², 2-3 bedrooms (1-2 doubleroom and 1 room for 3 persons), 1 living kitchen, bedrooms and living kitchen with parquet floor, 1 bathroom with bathtub, shower, separate toilet, satellite TV, fume hood, electric cooker, coffee-machine, electric kettle and dish washer, balcony in a southward direction. Towels, bed linen and table linen provided."
        }
      ],
      "availability": "http://schema.org/InStock",
      "itemOffered": [
        {
          "@type": [
            "Apartment",
            "Product"
          ],
          "name": [
            {
              "@language": "de",
              "@value": "Apartment/2 Schlafräume/Dusche, Bad, WC"
            },
            {
              "@language": "en",
              "@value": "apartment/2 bedrooms/shower,bath tube,WC"
            }
          ],
          "numberOfRooms": "3.0",
          "occupancy": {
            "@type": "QuantitativeValue",
            "maxValue": "4",
            "minValue": "2"
          }
        }
      ],
      "priceSpecification": [
        {
          "@type": "PriceSpecification",
          "description": "Pax 4",
          "minPrice": "20.00",
          "maxPrice": "65.00",
          "priceCurrency": "EUR"
        }
      ]
    },
    {
      "@type": "Offer",
      "name": [
        {
          "@language": "de",
          "@value": "Appartement/Fewo, Dusche, WC, 3 Schlafräume"
        },
        {
          "@language": "en",
          "@value": "Apartment, shower, toilet, 3 bed rooms"
        }
      ],
      "description": [
        {
          "@language": "de",
          "@value": "Die ca. 90 m² große Ferienwohnung verfügt über 3 Schlafräume (3 Doppelzimmer), 1 Wohnküche, 2 Badezimmer mit Dusche/WC, Sat-TV, Dunstabzug, Elektroherd, Kaffeemaschine, Wasserkocher, sowie Balkon rund um die Wohnung. Handtücher, Bett-, Tisch- und Küchenwäsche sind vorhanden!"
        },
        {
          "@language": "en",
          "@value": "90 m², 3-4 bedroom (2-3 double bedroom \u0026 1 tripple bedroom), 1 kitchen/living area, 2 bathroom with shower/ toilet, satellite-TV, fume hood, electric cooker, coffee machine, kettle, balcony around the apartment. Hand towels, bed linen, table linen available."
        }
      ],
      "availability": "http://schema.org/InStock",
      "itemOffered": [
        {
          "@type": [
            "Apartment",
            "Product"
          ],
          "name": [
            {
              "@language": "de",
              "@value": "Ap./4 od mehr Schlafräume/Dusche, WC"
            },
            {
              "@language": "en",
              "@value": "Apartment, shower, toilet, 3 bed rooms"
            }
          ],
          "numberOfRooms": "4.0",
          "occupancy": {
            "@type": "QuantitativeValue",
            "maxValue": "6",
            "minValue": "2"
          }
        }
      ],
      "priceSpecification": [
        {
          "@type": "PriceSpecification",
          "description": "Pax 2",
          "minPrice": "40.00",
          "maxPrice": "108.00",
          "priceCurrency": "EUR"
        },
        {
          "@type": "PriceSpecification",
          "description": "Pax 3",
          "minPrice": "60.00",
          "maxPrice": "108.00",
          "priceCurrency": "EUR"
        },
        {
          "@type": "PriceSpecification",
          "description": "Pax 4",
          "minPrice": "65.00",
          "maxPrice": "108.00",
          "priceCurrency": "EUR"
        },
        {
          "@type": "PriceSpecification",
          "description": "Pax 5",
          "minPrice": "75.00",
          "maxPrice": "125.00",
          "priceCurrency": "EUR"
        },
        {
          "@type": "PriceSpecification",
          "description": "Pax 6",
          "minPrice": "90.00",
          "maxPrice": "140.00",
          "priceCurrency": "EUR"
        }
      ]
    },
    {
      "@type": "Offer",
      "name": [
        {
          "@language": "de",
          "@value": "Doppelzimmer, Dusche, WC, Nichtraucher"
        },
        {
          "@language": "en",
          "@value": "Double room, shower, toilet, no smoker"
        }
      ],
      "description": [
        {
          "@language": "de",
          "@value": "Gemütliches Dachzimmer mit Dusche/WC, Sat-TV und W-Lan."
        },
        {
          "@language": "en",
          "@value": "Cozy attic room with shower/WC, Sat-TV and W-Lan."
        }
      ],
      "availability": "http://schema.org/InStock",
      "itemOffered": [
        {
          "@type": [
            "HotelRoom",
            "Product"
          ],
          "name": [
            {
              "@language": "de",
              "@value": "Doppelzimmer, Dusche, WC"
            },
            {
              "@language": "en",
              "@value": "Double room, shower, toilet"
            }
          ],
          "bed": {
            "@type": "BedDetails",
            "numberOfBeds": "0"
          },
          "occupancy": {
            "@type": "QuantitativeValue",
            "maxValue": "2",
            "minValue": "1"
          }
        }
      ],
      "priceSpecification": [
        {
          "@type": "PriceSpecification",
          "description": "Pax 1",
          "minPrice": "20.00",
          "maxPrice": "40.00",
          "priceCurrency": "EUR"
        },
        {
          "@type": "PriceSpecification",
          "description": "Pax 2",
          "minPrice": "20.00",
          "maxPrice": "40.00",
          "priceCurrency": "EUR"
        }
      ]
    }
  ]
}