{
  "@context": "http://schema.org",
  "@type": "LodgingBusiness",
  "url": [
    "http://www.poellstein.at",
    "http://maps.best-of-zillertal.at/proxy/frontend/page/fuegen/de?foreignResource\u003dCA39D3C2-F404-4697-A4E5-E7E13CC92D9F"
  ],
  "address": {
    "@type": "PostalAddress",
    "streetAddress": "Innere Embergstraße 31",
    "addressCountry": "AT",
    "postalCode": "6272",
    "addressRegion": "Kaltenbach",
    "telephone": "(0043) 650 8805455",
    "email": "info@poellstein.at",
    "url": "http://www.poellstein.at"
  },
  "name": "Apart Pöllstein",
  "description": [
    {
      "@language": "de",
      "@value": "Unser neu erbautes Ferienhaus Apart Pöllstein, mit zwei modern eingerichteten Ferienwohnungen, liegt in Kaltenbach an der Auffahrt zur Zillertaler Höhenstraße und heißt Sie und Ihre Familie herzlich willkommen.\n\nDas gepflegte Apart Pöllstein, etwas oberhalb von Kaltenbach gelegen, ist von herrlichen Wäldern umgeben und eröffnet einen weitläufigen Panoramablick auf die Bergwelt des mittleren Zillertal. Sie benötigen ca. 5 Autominuten ins Zentrum von Kaltenbach und zur Bergbahn Hochzillertal. Ganz in der Nähe befinden sich gemütliche Restaurants und Cafés, wo Sie den Tag mit der ganzen Familie gesellig ausklingen lassen können.\n\nIn unserem Apart Pöllstein finden Sie alles vor, was Sie für einen gelungen Urlaub in Kaltenbach mit der ganzen Familie brauchen. Parken Sie direkt vor unserer Haustüre gratis oder in der Garage gegen Gebühr. Selbstverständlich haben wir einen Skiraum mit Skischuhtrockner. Ihren Urlaub mit Hund können Sie auf Anfrage gerne bei uns machen.\nUnsere modern eingerichtete Ferienwohnung Martin für 2-4 Personen besteht aus einem großen Wohn-Schlafraum mit einer gemütlicher Sitzecke, einer Küchenecke, einem geräumigen Badezimmer mit DU/WC und einer kleinen Terrasse mit Loungemöbeln, die Sie und Ihre Familie zum Verweilen einlädt. \nDie ebenso helle und romantisch gestaltete Ferienwohnung Elisabeth bietet Platz für 2-4 Personen. Sie hat einen zusätzlichen Vorraum mit Garderobe, eine Küche mit Geschirrspülmaschine, ein großes Wohnzimmer mit Schlafcouch, ein Schlafzimmer, Badezimmer mit DU/WC und einen Balkon. \n\nIn beiden Ferienwohnungen in unserem Apart Pöllstein haben Sie WLan, Sat-TV, einen Fön und eine Waschmaschine. Auf Wunsch können wir Ihnen Brötchen für Ihr Urlaubsfrühstück bereitstellen und wir bringen Ihnen frische Milch von unserem naheliegenden Bauernhof „Pöllsteinhof“. Unser Leitungswasser kommt aus einer eigenen Quelle und wird zusätzlich energetisch belebt. Sogenanntes Granderwasser!\n\nDie Skibushaltestelle zum Skigebiet Hochfügen -  Hochzillertal liegt ca. 30m entfernt. Skifahren mit Kindern und der ganzen Familie ist in dem weitläufigen Skigebiet Hochfügen - Hochzillertal ein besonderes Vergnügen. Neben einer Kinderskischule mit Kinderskikurs finden Sie auch einen Skiverleih. Auch im Sommer gibt es mit dem RegioTaxi einen günstigen Transfer ins Zentrum von Kaltenbach, wo Sie Restaurants und Geschäfte zum Einkaufen finden. Sie finden ebenso in Kaltenbach einen tollen Hochseilgarten, der bereits für Kinder ab 3 Jahren geeignet ist. Für alle Golfbegeisterte: die neue Golfanlage Zillertal-Uderns befindet sich nur wenige Fahrminuten von uns entfernt.\n\nWir freuen uns schon auf Ihren Besuch in unserem Apart Pöllstein!\nFamilie Martin Höllwarth \n"
    },
    {
      "@language": "de",
      "@value": "Endreinigung EUR 30,-- bis Euro 40,--;\n"
    },
    {
      "@language": "en",
      "@value": "Our newly constructed Apart Pöllstein guesthouse, with two modern holiday apartments, lies in Kaltenbach near the access to the Zillertaler Höhenstrasse road and welcomes you and your family.\n\nThe well groomed Pöllstein house, located somewhat above Kaltenbach, is surrounded by wonderful forests and offers a panoramic view of the Zillertal mountains. By car, you reach the centre of Kaltenbach and the Hochzillertal valley station in less than 5 minutes. Cosy restaurants and cafés, where you can end the day on a sociable note together with your family, are close by as well.\n\nOur holiday apartments provide everything you need for a perfect holiday with your family in Kaltenbach. Park directly in front of the house or use the garage for a small fee. Of course we offer a ski room with ski boot dryer and, on request, you can even bring your dog.\nOur modern “Martin” holiday apartment for 2-4 people comes with a large sleeping / living area with a cosy sitting corner, a kitchenette, a roomy bathroom with shower/WC and a small lounge-style terrace that invites you and your family to relax. \nThe equally bright and romantically designed “Elizabeth” apartment accommodates 2-4 people and additionally offers a vestibule including wardrobe, a kitchen with dishwasher, a large living room with a bed couch, a bedroom, bathroom with shower/WC and a balcony. \nBoth Pöllstein holiday apartments also have Wifi, satellite TV, hair dryer and a washing machine. On request, we even offer a breakfast service including fresh milk from our nearby “Pöllsteinhof” farm. Our tap water is revitalized water, so-called Grander water, and comes from our own spring!\n\nThe ski bus stop to the Hochfügen - Hochzillertal skiing area is only 30m away. Skiing with children and the whole family is a special pleasure in the extensive Hochfügen - Hochzillertal skiing resort. In addition to a children’s ski school with lessons for kids, a ski rental service is available as well. During summer months the RegioTaxi offers cost-efficient transport to the Kaltenbach centre.\n\nWe look forward to welcoming you at the Pöllstein guesthouse!\nMartin Höllwarth and Family\n\n"
    },
    {
      "@language": "en",
      "@value": "Final cleaning EUR 20,-- - EUR 30,--;\nis cancelled by a longstay from 14 days;"
    }
  ],
  "image": [
    {
      "@type": "ImageObject",
      "url": "http://resc.deskline.net/images/ZIL/1/d7f38c82-f414-448a-92a0-375512a8ce34/99/image.jpg",
      "caption": [
        {
          "@language": "de",
          "@value": "Hausansicht Winter 1"
        },
        {
          "@language": "en",
          "@value": "Hausansicht Winter 1"
        }
      ]
    },
    {
      "@type": "ImageObject",
      "url": "http://resc.deskline.net/images/ZIL/1/7640e58c-a67a-4e6d-8896-13aabcaa9b88/99/image.jpg",
      "caption": [
        {
          "@language": "de",
          "@value": "Hausansich Winter"
        },
        {
          "@language": "en",
          "@value": "Hausansich Winter"
        }
      ]
    },
    {
      "@type": "ImageObject",
      "url": "http://resc.deskline.net/images/ZIL/1/9bdedb6f-7f14-492b-b611-c27bff34a7d9/99/image.jpg",
      "caption": [
        {
          "@language": "de",
          "@value": "Aussicht von Balkon"
        },
        {
          "@language": "en",
          "@value": "Aussicht von Balkon"
        }
      ]
    },
    {
      "@type": "ImageObject",
      "url": "http://resc.deskline.net/images/ZIL/1/869dfa46-daa0-4161-af79-8c53fddc1dee/99/image.jpg",
      "caption": [
        {
          "@language": "de",
          "@value": "Winter am Emberg"
        },
        {
          "@language": "en",
          "@value": "Winter am Emberg"
        }
      ]
    },
    {
      "@type": "ImageObject",
      "url": "http://resc.deskline.net/images/ZIL/1/40d0f58c-15db-4ed8-ac0f-9e975ad7165f/99/image.jpg",
      "caption": [
        {
          "@language": "de",
          "@value": "Hausansicht Sommer 1"
        },
        {
          "@language": "en",
          "@value": "Hausansicht Sommer 1"
        }
      ]
    },
    {
      "@type": "ImageObject",
      "url": "http://resc.deskline.net/images/ZIL/1/4485ae7f-6d73-4458-ab68-8684c18e7de6/99/image.jpg",
      "caption": [
        {
          "@language": "de",
          "@value": "Hausansicht Sommer"
        },
        {
          "@language": "en",
          "@value": "Hausansicht Sommer"
        }
      ]
    },
    {
      "@type": "ImageObject",
      "url": "http://resc.deskline.net/images/ZIL/1/09d79725-d440-44fe-bf43-47fe48cf09ce/99/image.jpg",
      "caption": [
        {
          "@language": "de",
          "@value": "Haus Sommer"
        },
        {
          "@language": "en",
          "@value": "Haus Sommer"
        }
      ]
    },
    {
      "@type": "ImageObject",
      "url": "http://resc.deskline.net/images/ZIL/1/3e1d041b-86e8-415c-a983-25e4c27b0d0b/99/image.jpg",
      "caption": [
        {
          "@language": "de",
          "@value": "Aussicht Richtung Stumm"
        },
        {
          "@language": "en",
          "@value": "Aussicht Richtung Stumm"
        }
      ]
    },
    {
      "@type": "ImageObject",
      "url": "http://resc.deskline.net/images/ZIL/1/4f0de24b-1cc9-49aa-9b76-8f815a2a799a/99/image.jpg",
      "caption": [
        {
          "@language": "de",
          "@value": "Ferienwohnung Kaltenbach Apart Pöllstein Herbst"
        },
        {
          "@language": "en",
          "@value": "Ferienwohnung Kaltenbach Apart Pöllstein Herbst"
        }
      ]
    },
    {
      "@type": "ImageObject",
      "url": "http://resc.deskline.net/images/ZIL/1/01320e5b-134a-4953-a382-1b0a34e16cdc/99/image.jpg",
      "caption": [
        {
          "@language": "de",
          "@value": "Ferienwohnung"
        },
        {
          "@language": "en",
          "@value": "Ferienwohnung"
        }
      ]
    },
    {
      "@type": "ImageObject",
      "url": "http://resc.deskline.net/images/ZIL/1/8f0cc590-9440-4619-87bb-df5bf3e9d9e2/99/image.jpg",
      "caption": [
        {
          "@language": "de",
          "@value": "Schlafzimmer"
        },
        {
          "@language": "en",
          "@value": "Schlafzimmer"
        }
      ]
    },
    {
      "@type": "ImageObject",
      "url": "http://resc.deskline.net/images/ZIL/1/85a45955-de53-48ad-ac7e-b7b0c0ee1914/99/image.jpg",
      "caption": [
        {
          "@language": "de",
          "@value": "Ferienwohnung Elisabeth Wohnzimmer"
        },
        {
          "@language": "en",
          "@value": "Ferienwohnung Elisabeth Wohnzimmer"
        }
      ]
    }
  ],
  "geo": {
    "@type": "GeoCoordinates",
    "latitude": "47.280226178067309",
    "longitude": "11.876306533813477"
  },
  "currenciesAccepted": "EUR",
  "makesOffer": [
    {
      "@type": "Offer",
      "name": [
        {
          "@language": "de",
          "@value": "Appartement/Fewo, Bad, WC"
        },
        {
          "@language": "en",
          "@value": "Apartment, bath, toilet"
        }
      ],
      "description": [
        {
          "@language": "de",
          "@value": "FEWO Martin für 2-4 Personen (45 m²), großer Wohn-Schlafraum mit gemütlicher Wohnecke, Sat-TV, Küchenecke mit E-Herd, Backrohr, Kaffeemaschine, Wasserkocher, geräumiges Badezimmer mit Dusche/WC, Waschmaschine, Handtuchtrockner, Fön, kleine Terasse mit Loungemöbel."
        },
        {
          "@language": "en",
          "@value": "FEWO Martin for 2-3 persons (45m²), large combined living- and bedroom with a cosy couch, satelite tv, kitchen with electricity stove, oven, coffeemaker, watercooker, roomy bathroom with shower and toilet, washing machine, dryer for the towels, hair dryer."
        }
      ],
      "availability": "http://schema.org/InStock",
      "itemOffered": [
        {
          "@type": [
            "Apartment",
            "Product"
          ],
          "name": [
            {
              "@language": "de",
              "@value": "FEWO Martin"
            },
            {
              "@language": "en",
              "@value": "Apartement Martin"
            }
          ],
          "numberOfRooms": "2.0",
          "occupancy": {
            "@type": "QuantitativeValue",
            "maxValue": "4",
            "minValue": "2"
          }
        }
      ]
    },
    {
      "@type": "Offer",
      "name": [
        {
          "@language": "de",
          "@value": "Appartement/Fewo, Dusche, WC, 1 Schlafraum"
        },
        {
          "@language": "en",
          "@value": "Apartment, shower, toilet, 1 bed room"
        }
      ],
      "description": [
        {
          "@language": "de",
          "@value": "FEWO Elisabeth für 2-4 Personen (55 m²), Vorraum, Garderobe, Küche mit E-Herd, Backrohr, Geschirrspülmaschine, Kaffemaschine, Wasserkocher, großes Wohnzimmer mit Schlafcouch, Sat-TV, Balkon, 1 Schlafzimmer, Badezimmer mit DuscheWC, Waschmaschine, Handtuchtrockner, Fön."
        },
        {
          "@language": "en",
          "@value": "FEWO Elisabeth for 2-4 persons (55 m²), anteroom, wardrobe, kitchen with electricity stove, oven, dish washer, coffeemaker, watercooker, large living room with a couch, satelite tv, balcony, 1 bedroom, bathroom with shower/WC, washing machine, dryer for the towels, hair-dryer."
        }
      ],
      "availability": "http://schema.org/InStock",
      "itemOffered": [
        {
          "@type": [
            "Apartment",
            "Product"
          ],
          "name": [
            {
              "@language": "de",
              "@value": "FEWO Elisabeth"
            },
            {
              "@language": "en",
              "@value": "Apartement Elisabeth"
            }
          ],
          "numberOfRooms": "2.0",
          "occupancy": {
            "@type": "QuantitativeValue",
            "maxValue": "4",
            "minValue": "2"
          }
        }
      ]
    }
  ]
}