{
  "@context": "http://schema.org",
  "@type": "LodgingBusiness",
  "url": [
    "http://maps.best-of-zillertal.at/proxy/frontend/page/fuegen/de?foreignResource\u003dCA675A0E-FC05-4BDB-8821-3654E8B28CD1"
  ],
  "address": {
    "@type": "PostalAddress",
    "streetAddress": "Tannenweg 10",
    "addressCountry": "AT",
    "postalCode": "6274",
    "addressRegion": "Aschau im Zillertal",
    "telephone": "(0043) 5282 4889",
    "faxNumber": "(0043) 5282 4889",
    "email": "hoerhager@aon.at"
  },
  "name": "Hörhager Regina",
  "description": [
    {
      "@language": "de",
      "@value": "Schönes, modernes Haus in ruhiger, sonniger Lage am Ortrand von Aschau. Parkplatz sowie Schiraum mit Schischuhtrockner vorhanden. Wander- und Spazierwege sowie eine beleuchtete Rodelbahn sind in unmittelbarer Hausnähe! Brötchenservice möglich!"
    },
    {
      "@language": "de",
      "@value": "Keine Endreinigung!"
    },
    {
      "@language": "en",
      "@value": "Nice and modern house in quiet and sunny location in Aschau. Parking space and skiroom with ski boot dryer. Hikingtrails, cross country slopes and tobboggan slope nearby.\nFresh backery service possible!"
    },
    {
      "@language": "en",
      "@value": "No charge for final cleaning!"
    }
  ],
  "image": [
    {
      "@type": "ImageObject",
      "url": "http://resc.deskline.net/images/ZIL/1/99bc50aa-d26d-4286-be50-ea6c502c93a3/99/image.jpg",
      "caption": [
        {
          "@language": "de",
          "@value": "Haus"
        },
        {
          "@language": "en",
          "@value": "Haus"
        }
      ]
    }
  ],
  "geo": {
    "@type": "GeoCoordinates",
    "latitude": "47.266191205746765",
    "longitude": "11.890136003494263"
  },
  "currenciesAccepted": "EUR",
  "makesOffer": [
    {
      "@type": "Offer",
      "name": [
        {
          "@language": "de",
          "@value": "Appartement/Fewo, Dusche, WC, 2 Schlafräume"
        },
        {
          "@language": "en",
          "@value": "Apartment, shower, toilet, 2 bed rooms"
        }
      ],
      "description": [
        {
          "@language": "de",
          "@value": "Gemütlich eingerichtete Wohnung mit ca. 70 m² mit komplett eingerichteter Küche (Backrohr, Kaffeemaschine, Kühlschrank, Herd usw.) mit gemütlicher Sitzecke; 2 Schlafzimmer (2x2) und 1 großes Wohnzimmer mit Doppelschlafcouch und Sat-TV; Dusche/WC getrennt; Bettwäsche ist vorhanden;"
        },
        {
          "@language": "en",
          "@value": "Comfortable apartment, approx. 70 qm, completely equipped kitchen (stove, coffee maker, fridge, ...), sitting-corner, 2 double-rooms, 1 living-room with couble-sofa-bed and sat-tv, shower, toilet extra, bed-linen available\n"
        }
      ],
      "availability": "http://schema.org/InStock",
      "itemOffered": [
        {
          "@type": [
            "Apartment",
            "Product"
          ],
          "name": [
            {
              "@language": "de",
              "@value": "Apartment/2 Schlafräume/Dusche, WC"
            },
            {
              "@language": "en",
              "@value": "apartment/2 bedrooms/shower, WC"
            }
          ],
          "numberOfRooms": "6.0",
          "occupancy": {
            "@type": "QuantitativeValue",
            "maxValue": "6",
            "minValue": "4"
          }
        }
      ]
    },
    {
      "@type": "Offer",
      "name": [
        {
          "@language": "de",
          "@value": "Appartement/Fewo, Dusche, WC, 2 Schlafräume"
        },
        {
          "@language": "en",
          "@value": "Apartment, shower, toilet, 2 bed rooms"
        }
      ],
      "description": [
        {
          "@language": "de",
          "@value": "Schöne, gemütliche Wohnung mit ca. 50 m². 2 Schlafzimmer (2x2), 1 Wohnküche komplett eingerichtet (Backrohr, Kaffeemaschine, Kühlschrank usw.) mit gemütlicher Sitzecke; Sat-TV und Balkon, Du/WC getrennt; Bettwäsche ist vorhanden;"
        },
        {
          "@language": "en",
          "@value": "Comfortable apartment, approx. 50 qm, 2 double-room, combined living-room and kitchen completely equiped (stove, coffee maker, fridge, ...), sitting-corne, sat-tv, balcony, bath-room with shower, toilet extra, bed-linen available"
        }
      ],
      "availability": "http://schema.org/InStock",
      "itemOffered": [
        {
          "@type": [
            "Apartment",
            "Product"
          ],
          "name": [
            {
              "@language": "de",
              "@value": "Apartment/2 Schlafraum/Dusche, WC"
            },
            {
              "@language": "en",
              "@value": "Apartment, shower, toilet, 2 bed rooms"
            }
          ],
          "numberOfRooms": "5.0",
          "occupancy": {
            "@type": "QuantitativeValue",
            "maxValue": "4",
            "minValue": "2"
          }
        }
      ]
    }
  ]
}