{
  "@context": "http://schema.org",
  "@type": "LodgingBusiness",
  "url": [
    "http://www.abfahrtsblick.at"
  ],
  "address": {
    "@type": "PostalAddress",
    "streetAddress": "Quellenweg 3",
    "addressCountry": "AT",
    "postalCode": "6274",
    "addressRegion": "Aschau im Zillertal",
    "telephone": "(0043) 676 4852488",
    "email": "info@abfahrtsblick.at",
    "url": "http://www.abfahrtsblick.at"
  },
  "name": "Haus Abfahrtsblick",
  "description": [
    {
      "@language": "de",
      "@value": "Unser neu erbautes Haus mit Ferienwohnung bedeutet uns sehr viel. Wir haben alles nach unseren Wünschen und Vorstellungen gestaltet. Man soll sich hier Wohlfühlen und die Möglichkeit haben, dem stressigen Arbeitsalltag zu entfliehen und eine Atempause einlegen zu können.\n \nWir befinden uns im Zillertal, in Aschau am Distelberg auf ca. 900m Seehöhe. Man hat von der großen Sonnenterrasse aus einen traumhaften Blick auf die Zillertaler Bergwelt und kann im Winter perfekt die Aschauer Talabfahrt vom Skigebiet Hochzillertal beobachten.\n\nUnsere Ferienwohnung ist aufgeteilt in eine große Wohnküche mit edler gemütlicher Holzstube, Bad, WC und zwei Schlafzimmer. Außerdem ist sie ausgestattet mit einer Spülmaschine, Backofen, Kaffeemaschine, Wasserkocher, Fernseher, Föhn, Staubsauger, WLAN und ganz neu ab Dezember 2015 mit einem Kachelofen.\n\nNatürlich gehört auch eine große Sonnenterrasse mit Liegestühlen dazu, von der man die Aussicht und Sonne genießen kann. Alles ist mit viel Liebe und Freude eingerichtet und wird euch mit Sicherheit einen schönen und unvergesslichen Urlaub bereiten.\n\nAschau liegt in der Mitte des Zillertals und daher bietet sich unsere Ferienwohnung sowohl im Sommer als auch im Winter als idealer Ausgangspunkt für Aktivitäten jeglicher Art an.\n\nDie Skigebiete Hochfügen, Hochzillertal und die Zillertal-Arena sind nur wenige km von unserem Haus entfernt und mit dem Auto zu erreichen. Sollte man am Abend noch nicht genug von der Piste haben bietet Hochzillertal auch einen wöchentlichen Nachtschilauf an.\n\nNatürlich lässt auch der Sommer keine Wünsche offen und das Tal hat für Wanderer und Mountainbiker allerhand zu bieten. Ob Almwanderungen oder hochalpine Hüttentouren, Mountainbike Routen, Singletrails und Zillertal Radweg, es ist für Jeden etwas dabei.\n\nDie 11 Zillertaler Sommerbergbahnen ermöglichen der ganzen Familie einen direkten, schnellen und ausgesprochen bequemen Zugang zu den besten Startpunkten für unvergleichliche Touren.\n"
    },
    {
      "@language": "de",
      "@value": "Endreinigung: EUR 60,00"
    },
    {
      "@language": "de",
      "@value": "Anreise ab 14Uhr möglich"
    },
    {
      "@language": "en",
      "@value": "Our new house with apartment means a lot to us . We have created everything according to our wishes and ideas. Offering you well-being and the opportunity to escape the stresses of everyday work and be able to take a breather ist important for us.\n \nWe are located in the Zillertal, in Aschau - Distelberg at about 900m above sea level. The large sun terrace offers stunning views of the Zillertal Alps as well as to the ski-slope from the ski-area Hochzillertal down to the village of Aschau.\n\nOur apartment is equipped with a large kitchen with elegant cozy wooden room, bathroom, toilet and two bedrooms. In addition, it is equipped with a dishwasher, oven, coffee maker, television and hair dryer.\n\nOf course you will also find a large sun terrace from which you enjoy the view and sun. Everything is decorated with lots of love and joy and will prepare you with certainty a delightful and memorable vacation.\n\nAschau is located in the middle of the Zillertal and therefore is ideal for both summer and winter vacation and starting point for activities of any kind.\n\nThe ski-areas Hochfügen-Hochzillertal and Zillertal Arena are not far from our house and can be reached by car or charge-free skibus. If you do not yet have enough of skiing by day the ski-area Hochzillertal offers weekly night-skiing too.\n\nOf course the summer leaves nothing to be desired and the valley has plenty to offer for hikers and mountain bikers. Whether alpine hikes or high alpine hut tours, mountain bike trails, singletrails or the Zillertal bicycle path down the valley, there is something for everyone .\n\nThe 11 summer cable cars allow the whole family a direct, fast and very comfortable access to the best starting points for unforgettable hiking tours."
    },
    {
      "@language": "en",
      "@value": "Final cleaning: EUR 60,00"
    }
  ],
  "aggregateRating": {
    "@type": "AggregateRating",
    "ratingValue": "5.0",
    "reviewCount": "14"
  },
  "image": [
    {
      "@type": "ImageObject",
      "url": "http://resc.deskline.net/images/ZIL/1/89cf88b2-a46c-4419-a363-5d1d10242f1a/99/image.jpg",
      "caption": [
        {
          "@language": "de",
          "@value": "Abfahrtsblick"
        },
        {
          "@language": "en",
          "@value": "Abfahrtsblick"
        }
      ]
    },
    {
      "@type": "ImageObject",
      "url": "http://resc.deskline.net/images/ZIL/1/948d4234-cfa2-41fb-8b67-fe9fd8cdae1f/99/image.jpg",
      "caption": [
        {
          "@language": "de",
          "@value": "Stube"
        },
        {
          "@language": "en",
          "@value": "Stube"
        }
      ]
    },
    {
      "@type": "ImageObject",
      "url": "http://resc.deskline.net/images/ZIL/1/377edc67-b56f-48e9-b439-4b20ae87e37f/99/image.jpg",
      "caption": [
        {
          "@language": "de",
          "@value": "Küche"
        },
        {
          "@language": "en",
          "@value": "Küche"
        }
      ]
    },
    {
      "@type": "ImageObject",
      "url": "http://resc.deskline.net/images/ZIL/1/d2a4886e-6d8b-43d1-b91d-ab236a47d3a5/99/image.jpg",
      "caption": [
        {
          "@language": "de",
          "@value": "Schlafzimmer"
        },
        {
          "@language": "en",
          "@value": "Schlafzimmer"
        }
      ]
    },
    {
      "@type": "ImageObject",
      "url": "http://resc.deskline.net/images/ZIL/1/0aa63fa2-e40f-48a8-8948-e23f12142f0d/99/image.jpg",
      "caption": [
        {
          "@language": "de",
          "@value": "Schlafzimmer2"
        },
        {
          "@language": "en",
          "@value": "Schlafzimmer2"
        }
      ]
    },
    {
      "@type": "ImageObject",
      "url": "http://resc.deskline.net/images/ZIL/1/891853e3-71bb-4fdc-8104-bc016cf54cf2/99/image.jpg",
      "caption": [
        {
          "@language": "de",
          "@value": "Bad"
        },
        {
          "@language": "en",
          "@value": "Bad"
        }
      ]
    },
    {
      "@type": "ImageObject",
      "url": "http://resc.deskline.net/images/ZIL/1/6fc35ec2-2900-4f0a-a82e-795d5097ae4e/99/image.jpg",
      "caption": [
        {
          "@language": "de",
          "@value": "WC"
        },
        {
          "@language": "en",
          "@value": "WC"
        }
      ]
    },
    {
      "@type": "ImageObject",
      "url": "http://resc.deskline.net/images/ZIL/1/96b702d4-421e-4a88-a1b2-60156e479a95/99/image.jpg",
      "caption": [
        {
          "@language": "de",
          "@value": "Fernseher und Liege"
        },
        {
          "@language": "en",
          "@value": "Fernseher und Liege"
        }
      ]
    },
    {
      "@type": "ImageObject",
      "url": "http://resc.deskline.net/images/ZIL/1/eac873a7-6594-4456-98aa-bd308c1520c5/99/image.jpg",
      "caption": [
        {
          "@language": "de",
          "@value": "Ausblick Taleinwärts"
        },
        {
          "@language": "en",
          "@value": "Ausblick Taleinwärts"
        }
      ]
    },
    {
      "@type": "ImageObject",
      "url": "http://resc.deskline.net/images/ZIL/1/324da3a7-8b82-4f19-8010-14cdff809e00/99/image.jpg",
      "caption": [
        {
          "@language": "de",
          "@value": "Terasse"
        },
        {
          "@language": "en",
          "@value": "Terasse"
        }
      ]
    },
    {
      "@type": "ImageObject",
      "url": "http://resc.deskline.net/images/ZIL/1/19dba7d5-a7cd-4246-95d4-14e8a7c4f672/99/image.jpg",
      "caption": [
        {
          "@language": "de",
          "@value": "Ausblick"
        },
        {
          "@language": "en",
          "@value": "Ausblick"
        }
      ]
    },
    {
      "@type": "ImageObject",
      "url": "http://resc.deskline.net/images/ZIL/1/6cbeda49-829f-4f0e-8e1e-501c93ea73cf/99/image.jpg",
      "caption": [
        {
          "@language": "de",
          "@value": "Haus"
        },
        {
          "@language": "en",
          "@value": "Haus"
        }
      ]
    },
    {
      "@type": "ImageObject",
      "url": "http://resc.deskline.net/images/ZIL/1/fafef4ea-d826-42d0-a0ae-6840698ddc2c/99/image.jpg",
      "caption": [
        {
          "@language": "de",
          "@value": "Liege"
        },
        {
          "@language": "en",
          "@value": "Liege"
        }
      ]
    }
  ],
  "geo": {
    "@type": "GeoCoordinates",
    "latitude": "47.2657247359686",
    "longitude": "11.9089556509261"
  },
  "currenciesAccepted": "EUR",
  "makesOffer": [
    {
      "@type": "Offer",
      "name": [
        {
          "@language": "de",
          "@value": "Appartement/Fewo, Toilette und Bad/Dusche getrennt, 2 Schlafräume"
        },
        {
          "@language": "en",
          "@value": "Apartment, separate toilet and shower/bathtub, 2 bed rooms"
        }
      ],
      "description": [
        {
          "@language": "de",
          "@value": "Unsere Ferienwohnung ist aufgeteilt in eine große Wohnküche mit edler gemütlicher Holzstube, Bad, WC und zwei Schlafzimmer. Außerdem ist sie ausgestattet mit einer Spülmaschine, Backofen, Kaffeemaschine, Fernseher und Föhn, Staubsauger, WLAN und ganz neu ab Dezember 2015 mit einem Kachelofen.\n\nNatürlich gehört auch eine große Sonnenterrasse dazu, von der man die Aussicht und Sonne genießen kann. Alles ist mit viel Liebe und Freude eingerichtet und wird euch mit Sicherheit einen schönen und unv"
        }
      ],
      "availability": "http://schema.org/InStock",
      "itemOffered": [
        {
          "@type": [
            "Apartment",
            "Product"
          ],
          "name": [
            {
              "@language": "de",
              "@value": "Appartement/Fewo, Toilette und Bad/Dusche getrennt"
            },
            {
              "@language": "en",
              "@value": "Apartment, separate toilet and shower/bathtub, 2 bed rooms"
            }
          ],
          "numberOfRooms": "5.0",
          "occupancy": {
            "@type": "QuantitativeValue",
            "maxValue": "4",
            "minValue": "1"
          }
        }
      ]
    }
  ]
}