{
  "@context": "http://schema.org",
  "@type": "LodgingBusiness",
  "url": [
    "http://"
  ],
  "address": {
    "@type": "PostalAddress",
    "streetAddress": "Astholz 99",
    "addressCountry": "AT",
    "postalCode": "6261",
    "addressRegion": "Strass im Zillertal",
    "telephone": "(0043) 676 9582610",
    "email": "apart.steiner@gmail.com"
  },
  "name": "Apart Steiner",
  "description": [
    {
      "@language": "de",
      "@value": "Grüß Gott im modernen Apart Steiner in Strass im wunderschönen Zillertal! Nach einer kompletten Sanierung Anfang 2016 öffnen wir nun wieder die Türen für unsere Gäste und empfangen Sie mit der für Tirol typischen Gastfreundschaft. \n\nUnser Haus besticht durch seine zentrale Lage: Den kostenlosen Skibus in das mehrfach ausgezeichnete Skigebiet Hochzillertal-Hochfügen erreichen Sie in nur 150m Entfernung zu Fuß. Auch die Zillertalbahn, die Sie zu Ausflugszielen wie Kufstein und Innsbruck bringt, liegt in Fußnähe. \nLassen Sie ihr Auto direkt auf dem großen Parkplatz vor dem Haus oder in der hauseigenen Garage stehen und erkunden Sie die Umgebung zu Fuß oder mit dem Mountainbike auf über 1.000km Wanderwegen in verschiedenen Schwierigkeitsgraden. \n\nDamit Sie sich auch im Urlaub wie zu Hause fühlen erwarten Sie zwei großzügige Ferienwohnungen mit separatem Eingang für bis zu 9 Personen. In beiden Wohnungen finden Sie jeweils eine Küche, ein Bad mit Dusche und Badewanne, zwei Schlafzimmer und einen großen Wohnbereich mit zwei Schlafcouchen für je zwei Personen. Auch kostenloses Wlan ist in beiden Appartements natürlich vorhanden. Für einen perfekten Urlaub darf eine voll ausgestattete Küche nicht fehlen: Geschirrspüler, Mikrowelle, Herd mit Backofen, Kühlschrank, Kontaktgriller, Eier- und Wasserkocher stehen Ihnen jederzeit zur Verfügung.\nBesonders viel Wert legen wir auf eine geschmacksvolle Einrichtung, damit Sie aktive Tage an der frischen Luft - ob auf der Piste oder beim Wandern - gemütlich ausklingen lassen können. Von dem Balkon bzw. der Terrasse aus können Sie die lauen Abendstunden mit bestem Blick auf die Bergwelt im Zillertal im Kreise Ihrer Liebsten genießen. Und für etwas actionreichere Abende steht Ihnen der hauseigene Partyraum zur Verfügung.\n\nIm Winter kommen nicht nur passionierte Skifahrer voll auf ihre Kosten. Neben den Skigebieten Hochzillertal-Hochfügen, der Zillertalarena und Mayrhofen gibt es direkt vor dem Haus eine gut gespurte Langlaufloipe, die von Strass talein führt. Eine Fahrt mit dem Pferdeschlitten hat schon so manches Herz höher schlagen lassen. Ihre nassen Schuhe trocken nach einem Tag im Schneeparadies Zillertal über Nacht in dem Schuhtrockner. \n\nIm Sommer bietet das Zillertal neben den zahlreichen Möglichkeiten zum Wandern jede Menge Möglichkeiten den Tag auch entspannt zu genießen. Ob der Badesee Schlitters oder der Achensee – diese nahe gelegenen Oasen der Ruhe sind von unserer Unterkunft aus problemlos zu erreichen. Die Reintalerseen, die nur 10km entfernt liegen, sind vor allem bei Mountainbikern ein beliebtes Ziel.\n\nIch freue mich auf Ihren Besuch bei uns im Apart Steiner in Strass im Zillertal!\nIhre Brigitte Steiner\n\n\n\n\n"
    },
    {
      "@language": "de",
      "@value": "Preis inkl. Strom, Heizung, Bettwäsche, Handtücher und Geschirrtücher\nOrtstaxe: \nSommer: 0,75 € pro Person und Nacht ab 15 Jahren\nWinter: 1,00 € pro Person und Nacht ab 15 Jahren"
    },
    {
      "@language": "de",
      "@value": "Check-in: ab 14.00 Uhr; Check-out: bis 09.00 Uhr\n\nAnreise: Vor dem Brettfalltunnel rechts abfahren und nach links Richtung Strass im Zillertal abbiegen. \nIm Kreisverkehr ( XXXLutz) die erste Ausfahrt nehmen. Nach dem beschrankten Bahnübergang befindet sich das Haus auf der rechten Seite."
    },
    {
      "@language": "en",
      "@value": "Welcome to the modern Apart Steiner guesthouse in Strass in the beautiful Zillertal! After a complete renovation at the beginning of 2016, we have now opened our doors for guests again and welcome you with typical Tyrolean hospitality.\n\nOur guesthouse is characterised by its central location: The free ski bus that takes you to the award-winning Hochzillertal-Hochfügen skiing resort stops in walking distance, just 150m away. The Zillertal railway that provides access to destinations like Kufstein and Innsbruck can be reached on foot as well. Park your car right on the large parking lot in front of the house or in our garage and explore the area on foot or discover over 1,000 km of trails across various levels of difficulty by mountain bike.\n\nTo make you feel at home on your holidays, you will find two large apartments, each with a separate entrance for up to 9 people. Both apartments feature a kitchen, a bathroom with shower and tub, two bedrooms and a large living area with two couches for two people respectively. Free wireless internet is, of course, available in the two apartments as well. We have a fully equipped kitchen on offer to guarantee perfect holidays: Dishwasher, microwave, stove with oven, refrigerator, contact grill, egg boiler and kettle are available at any time.\n\nWe attach particular importance to interior design, so that you are able to comfortably end an active day outdoors – whether on the slopes or hiking. From the balcony or the terrace you can enjoy sociable evenings while taking in the best views of the mountains in the Zillertal together with your loved ones. Our in-house party room is available for little more action-oriented night entertainment.\n\nIn winter, not only passionate skiers get their money’s worth. In addition to the Hochzillertal-Hochfügen skiing area, the Zillertal Arena and Mayrhofen, a cross-country skiing trail that takes you along the valley via Strass is accessible right outside the house. A horse sleigh ride is a great winter activity too. After a day in the Zillertal snow paradise, your wet boots can dry in the boot dryer room overnight.\n\nIn summer, the Zillertal offers numerous opportunities for hiking as well as plenty of opportunities to relax in addition to that. Whether Lake Schlitters or Achensee – these nearby oases of peace are all easily accessible from our guesthouse. The Reintaler Lakes are 10km away and a popular destination especially for mountain bikers.\n\nYour host, Brigitte Steiner, looks forward to welcoming you at the Apart Steiner guesthouse in Strass in the Zillertal!\n\n\n\n"
    },
    {
      "@language": "en",
      "@value": "Prices include electricity fee, bed-linen, towels and dish-towels\nlodging tax: € 1,- per person and night in winter; € 0,75 per person and night in winter\nChildren up to 14 years pay no lodging tax.\n\n"
    },
    {
      "@language": "en",
      "@value": "check-in: from 2.00 am; check-out: until 9.30 am\n\n"
    }
  ],
  "image": [
    {
      "@type": "ImageObject",
      "url": "http://resc.deskline.net/images/ZIL/1/9ad676e9-f24c-488c-90e5-2f96236b573d/99/image.jpg",
      "caption": [
        {
          "@language": "de",
          "@value": "Apart Steiner Außenansicht"
        },
        {
          "@language": "en",
          "@value": "Apart Steiner Außenansicht"
        }
      ]
    },
    {
      "@type": "ImageObject",
      "url": "http://resc.deskline.net/images/ZIL/1/21cf4b0c-f3cc-40e9-b751-02dfb120debb/99/image.jpg",
      "caption": [
        {
          "@language": "de",
          "@value": "ML_Apart_Steiner_23-01-2016-19"
        },
        {
          "@language": "en",
          "@value": "ML_Apart_Steiner_23-01-2016-19"
        }
      ]
    },
    {
      "@type": "ImageObject",
      "url": "http://resc.deskline.net/images/ZIL/1/1f3135f7-7966-4e3c-b99c-3d2cbaa50a52/99/image.jpg",
      "caption": [
        {
          "@language": "de",
          "@value": "ML_Apart_Steiner_23-01-2016-20"
        },
        {
          "@language": "en",
          "@value": "ML_Apart_Steiner_23-01-2016-20"
        }
      ]
    },
    {
      "@type": "ImageObject",
      "url": "http://resc.deskline.net/images/ZIL/1/1221cb83-f0ca-4d23-8387-b6115ab746e5/99/image.jpg",
      "caption": [
        {
          "@language": "de",
          "@value": "Esszimmer"
        },
        {
          "@language": "en",
          "@value": "Esszimmer"
        }
      ]
    },
    {
      "@type": "ImageObject",
      "url": "http://resc.deskline.net/images/ZIL/1/07b528bd-fa27-4d26-9e1f-1c874c0e43d9/99/image.jpg",
      "caption": [
        {
          "@language": "de",
          "@value": "Küche mit gemütlicher Sitzecke"
        },
        {
          "@language": "en",
          "@value": "Küche mit gemütlicher Sitzecke"
        }
      ]
    },
    {
      "@type": "ImageObject",
      "url": "http://resc.deskline.net/images/ZIL/1/3b3adca8-35dc-459c-8cd2-96464cef3556/99/image.jpg",
      "caption": [
        {
          "@language": "de",
          "@value": "Wohnzimmer"
        },
        {
          "@language": "en",
          "@value": "Wohnzimmer"
        }
      ]
    },
    {
      "@type": "ImageObject",
      "url": "http://resc.deskline.net/images/ZIL/1/868997e3-8654-4633-9870-f0be66ed69c6/99/image.jpg",
      "caption": [
        {
          "@language": "de",
          "@value": "Wohnzimmer-2"
        },
        {
          "@language": "en",
          "@value": "Wohnzimmer-2"
        }
      ]
    },
    {
      "@type": "ImageObject",
      "url": "http://resc.deskline.net/images/ZIL/1/dd33cc42-fce9-4dd4-9f71-4307ef130a3c/99/image.jpg",
      "caption": [
        {
          "@language": "de",
          "@value": "Schlafzimmer 1"
        },
        {
          "@language": "en",
          "@value": "Schlafzimmer 1"
        }
      ]
    },
    {
      "@type": "ImageObject",
      "url": "http://resc.deskline.net/images/ZIL/1/6ad863c1-7bfa-4146-8b8c-1b1b8f3224ad/99/image.jpg",
      "caption": [
        {
          "@language": "de",
          "@value": "Schlafzimmer 2"
        },
        {
          "@language": "en",
          "@value": "Schlafzimmer 2"
        }
      ]
    },
    {
      "@type": "ImageObject",
      "url": "http://resc.deskline.net/images/ZIL/1/8ae2dec8-2ef2-4931-ace5-fa83035240de/99/image.jpg",
      "caption": [
        {
          "@language": "de",
          "@value": "Schlafzimmer 3"
        },
        {
          "@language": "en",
          "@value": "Schlafzimmer 3"
        }
      ]
    },
    {
      "@type": "ImageObject",
      "url": "http://resc.deskline.net/images/ZIL/1/2127100d-4dd7-4a45-b567-ca1d8e7ec595/99/image.jpg",
      "caption": [
        {
          "@language": "de",
          "@value": "Badezimmer"
        },
        {
          "@language": "en",
          "@value": "Badezimmer"
        }
      ]
    },
    {
      "@type": "ImageObject",
      "url": "http://resc.deskline.net/images/ZIL/1/a1606b8b-681d-4478-b110-0b9a7c3949e0/99/image.jpg",
      "caption": [
        {
          "@language": "de",
          "@value": "Badezimmer1"
        },
        {
          "@language": "en",
          "@value": "Badezimmer1"
        }
      ]
    },
    {
      "@type": "ImageObject",
      "url": "http://resc.deskline.net/images/ZIL/1/7f0e3a5c-273d-4272-808e-ea430d3c1f45/99/image.jpg",
      "caption": [
        {
          "@language": "de",
          "@value": "ML_Apart_Steiner_23-01-2016-11"
        },
        {
          "@language": "en",
          "@value": "ML_Apart_Steiner_23-01-2016-11"
        }
      ]
    },
    {
      "@type": "ImageObject",
      "url": "http://resc.deskline.net/images/ZIL/1/2434b57a-3aab-445e-9213-1f9634e9b76c/99/image.jpg",
      "caption": [
        {
          "@language": "de",
          "@value": "ML_Apart_Steiner_23-01-2016-17"
        },
        {
          "@language": "en",
          "@value": "ML_Apart_Steiner_23-01-2016-17"
        }
      ]
    },
    {
      "@type": "ImageObject",
      "url": "http://resc.deskline.net/images/ZIL/1/004ea80a-b7e3-4d75-8430-32f7fe39a51b/99/image.jpg",
      "caption": [
        {
          "@language": "de",
          "@value": "ML_Apart_Steiner_23-01-2016-18"
        },
        {
          "@language": "en",
          "@value": "ML_Apart_Steiner_23-01-2016-18"
        }
      ]
    }
  ],
  "geo": {
    "@type": "GeoCoordinates",
    "latitude": "47.3930347",
    "longitude": "11.8202456"
  },
  "currenciesAccepted": "EUR",
  "makesOffer": [
    {
      "@type": "Offer",
      "name": [
        {
          "@language": "de",
          "@value": "Appartement/Fewo, Dusche und Badewanne, 2 Schlafräume"
        },
        {
          "@language": "en",
          "@value": "Apartment, shower and bath tub, 2 bed rooms"
        }
      ],
      "description": [
        {
          "@language": "de",
          "@value": "Küche, Wohnzimmer mit 2 Schlafcouchen (4 Pers.), 2 Schlafzimmer mit Doppelbett, Esszimmer, 1 Bad Dusche und Wanne, 1 WC separat, Balkon und Terasse"
        }
      ],
      "availability": "http://schema.org/InStock",
      "itemOffered": [
        {
          "@type": [
            "Apartment",
            "Product"
          ],
          "name": [
            {
              "@language": "de",
              "@value": "Appartement 1. Stock"
            },
            {
              "@language": "en",
              "@value": "Apartment, shower and bath tub, 2 bed rooms"
            }
          ],
          "numberOfRooms": "4.0",
          "occupancy": {
            "@type": "QuantitativeValue",
            "maxValue": "9",
            "minValue": "2"
          }
        }
      ],
      "priceSpecification": [
        {
          "@type": "PriceSpecification",
          "description": "Pax 2",
          "minPrice": "250.00",
          "maxPrice": "250.00",
          "priceCurrency": "EUR"
        },
        {
          "@type": "PriceSpecification",
          "description": "Pax 3",
          "minPrice": "250.00",
          "maxPrice": "250.00",
          "priceCurrency": "EUR"
        },
        {
          "@type": "PriceSpecification",
          "description": "Pax 4",
          "minPrice": "250.00",
          "maxPrice": "250.00",
          "priceCurrency": "EUR"
        },
        {
          "@type": "PriceSpecification",
          "description": "Pax 5",
          "minPrice": "250.00",
          "maxPrice": "250.00",
          "priceCurrency": "EUR"
        },
        {
          "@type": "PriceSpecification",
          "description": "Pax 6",
          "minPrice": "150.00",
          "maxPrice": "250.00",
          "priceCurrency": "EUR"
        },
        {
          "@type": "PriceSpecification",
          "description": "Pax 7",
          "minPrice": "175.00",
          "maxPrice": "250.00",
          "priceCurrency": "EUR"
        },
        {
          "@type": "PriceSpecification",
          "description": "Pax 8",
          "minPrice": "200.00",
          "maxPrice": "250.00",
          "priceCurrency": "EUR"
        },
        {
          "@type": "PriceSpecification",
          "description": "Pax 9",
          "minPrice": "220.00",
          "maxPrice": "270.00",
          "priceCurrency": "EUR"
        }
      ]
    },
    {
      "@type": "Offer",
      "name": [
        {
          "@language": "de",
          "@value": "Appartement/Fewo, Dusche und Badewanne, 2 Schlafräume"
        },
        {
          "@language": "en",
          "@value": "Apartment, shower and bath tub, 2 bed rooms"
        }
      ],
      "description": [
        {
          "@language": "de",
          "@value": "Küche, Wohnzimmer mit 2 Schlafcouchen (4Pers.), 2 Schlafzimmer mit Doppelbett, 1 Bad Dusche und Wanne, 1 WC separat, Balkon"
        }
      ],
      "availability": "http://schema.org/InStock",
      "itemOffered": [
        {
          "@type": [
            "Apartment",
            "Product"
          ],
          "name": [
            {
              "@language": "de",
              "@value": "Appartement 2. Stock"
            },
            {
              "@language": "en",
              "@value": "Apartment, shower and bath tub, 2 bed rooms"
            }
          ],
          "numberOfRooms": "5.0",
          "occupancy": {
            "@type": "QuantitativeValue",
            "maxValue": "9",
            "minValue": "2"
          }
        }
      ],
      "priceSpecification": [
        {
          "@type": "PriceSpecification",
          "description": "Pax 2",
          "minPrice": "250.00",
          "maxPrice": "250.00",
          "priceCurrency": "EUR"
        },
        {
          "@type": "PriceSpecification",
          "description": "Pax 3",
          "minPrice": "250.00",
          "maxPrice": "250.00",
          "priceCurrency": "EUR"
        },
        {
          "@type": "PriceSpecification",
          "description": "Pax 4",
          "minPrice": "250.00",
          "maxPrice": "250.00",
          "priceCurrency": "EUR"
        },
        {
          "@type": "PriceSpecification",
          "description": "Pax 5",
          "minPrice": "250.00",
          "maxPrice": "250.00",
          "priceCurrency": "EUR"
        },
        {
          "@type": "PriceSpecification",
          "description": "Pax 6",
          "minPrice": "150.00",
          "maxPrice": "250.00",
          "priceCurrency": "EUR"
        },
        {
          "@type": "PriceSpecification",
          "description": "Pax 7",
          "minPrice": "175.00",
          "maxPrice": "250.00",
          "priceCurrency": "EUR"
        },
        {
          "@type": "PriceSpecification",
          "description": "Pax 8",
          "minPrice": "200.00",
          "maxPrice": "250.00",
          "priceCurrency": "EUR"
        },
        {
          "@type": "PriceSpecification",
          "description": "Pax 9",
          "minPrice": "220.00",
          "maxPrice": "270.00",
          "priceCurrency": "EUR"
        }
      ]
    }
  ]
}