{
  "@context": "http://schema.org",
  "@type": "BedAndBreakfast",
  "url": [
    "http://www.best-of-zillertal.at/winter",
    "http://maps.best-of-zillertal.at/proxy/frontend/page/fuegen/de?foreignResource\u003dCFC32FF2-648E-4EDD-8F11-6ADFFD9852F4"
  ],
  "address": {
    "@type": "PostalAddress",
    "streetAddress": "Großriedstraße 36",
    "addressCountry": "AT",
    "postalCode": "6273",
    "addressRegion": "Ried im Zillertal",
    "telephone": "(0043) 676 4226426",
    "faxNumber": "(0043) 5283 2509",
    "email": "erlerhof@gmx.at"
  },
  "name": "Pension Hotter Birgit",
  "description": [
    {
      "@language": "de",
      "@value": "Familienfreundlicher, gepflegter Bauernhof in sonniger und ruhiger Lage, Aufenthaltsraum mit  SAT-TV und Gästekühlschrank, große Liegewiese, Grillmöglichkeit, Parkplatz, Skiraum, erweitertes Frühstück mit Produkten aus der eigenen Landwirtschaft, Nähe Skibushaltestelle "
    },
    {
      "@language": "de",
      "@value": "Gegen Aufpreis auch mit Halbpension im Nachbarhotel buchbar!"
    },
    {
      "@language": "en",
      "@value": "Family-friendly, comfortable farmer house in sunny, quiet location; lounge with guest fridge and satellite TV, large sunbathing lawn, barbecuing facilities, car park. ski storage room, extensive breakfast with home-grown produce. Close to ski bus stop and cross-country skiing track;"
    }
  ],
  "image": [
    {
      "@type": "ImageObject",
      "url": "http://resc.deskline.net/images/ZIL/1/166efeb6-0f5d-4138-9a0c-f25b15df31db/99/image.jpg",
      "caption": [
        {
          "@language": "de",
          "@value": "Haus Winter"
        },
        {
          "@language": "en",
          "@value": "Haus Winter"
        }
      ]
    },
    {
      "@type": "ImageObject",
      "url": "http://resc.deskline.net/images/ZIL/1/c9036aac-895d-4df6-a2bd-da239e2140c2/99/image.jpg",
      "caption": [
        {
          "@language": "de",
          "@value": "Zimmer"
        },
        {
          "@language": "en",
          "@value": "Zimmer"
        }
      ]
    },
    {
      "@type": "ImageObject",
      "url": "http://resc.deskline.net/images/ZIL/1/bd58038e-13c4-4508-9099-b20550ff76cc/99/image.jpg",
      "caption": [
        {
          "@language": "de",
          "@value": "Frühstücksraum"
        },
        {
          "@language": "en",
          "@value": "Frühstücksraum"
        }
      ]
    }
  ],
  "geo": {
    "@type": "GeoCoordinates",
    "latitude": "47.304069086008653",
    "longitude": "11.864461898803711"
  },
  "currenciesAccepted": "EUR",
  "makesOffer": [
    {
      "@type": "Offer",
      "name": [
        {
          "@language": "de",
          "@value": "Familienzimmer, Dusche, WC"
        },
        {
          "@language": "en",
          "@value": "Family room, shower, toilet"
        }
      ],
      "description": [
        {
          "@language": "de",
          "@value": "Ländlich, rustikal eingerichtetes, großräumiges Vierbettzimmer mit DU/WC, allerdings ohne Balkon;"
        },
        {
          "@language": "en",
          "@value": "Country-style furnished, comfortable family-room for 4 persons with shower/WC, without balcony!"
        }
      ],
      "availability": "http://schema.org/InStock",
      "itemOffered": [
        {
          "@type": [
            "HotelRoom",
            "Product"
          ],
          "name": [
            {
              "@language": "de",
              "@value": "Familienzimmer mit Dusche, WC"
            },
            {
              "@language": "en",
              "@value": "family room with shower, WC"
            }
          ],
          "bed": {
            "@type": "BedDetails",
            "numberOfBeds": "1"
          },
          "occupancy": {
            "@type": "QuantitativeValue",
            "maxValue": "4",
            "minValue": "2"
          }
        }
      ],
      "priceSpecification": [
        {
          "@type": "PriceSpecification",
          "description": "Pax 2",
          "minPrice": "22.00",
          "maxPrice": "22.00",
          "priceCurrency": "EUR"
        },
        {
          "@type": "PriceSpecification",
          "description": "Pax 3",
          "minPrice": "22.00",
          "maxPrice": "22.00",
          "priceCurrency": "EUR"
        },
        {
          "@type": "PriceSpecification",
          "description": "Pax 4",
          "minPrice": "22.00",
          "maxPrice": "22.00",
          "priceCurrency": "EUR"
        }
      ]
    },
    {
      "@type": "Offer",
      "name": [
        {
          "@language": "de",
          "@value": "Dreibettzimmer, Dusche, WC"
        },
        {
          "@language": "en",
          "@value": "Triple room, shower, toilet"
        }
      ],
      "description": [
        {
          "@language": "de",
          "@value": "Ländlich, rustikal eingerichtetes, großes Dreibettzimmer mit DU/WC und Balkon;"
        },
        {
          "@language": "en",
          "@value": "Country-style furnished, comfortable three-bed-room with shower/WC and balcony;"
        }
      ],
      "availability": "http://schema.org/InStock",
      "itemOffered": [
        {
          "@type": [
            "HotelRoom",
            "Product"
          ],
          "name": [
            {
              "@language": "de",
              "@value": "Dreibettzimmer mit Dusche, WC"
            },
            {
              "@language": "en",
              "@value": "triple room with shower, WC"
            }
          ],
          "bed": {
            "@type": "BedDetails",
            "numberOfBeds": "1"
          },
          "occupancy": {
            "@type": "QuantitativeValue",
            "maxValue": "3",
            "minValue": "2"
          }
        }
      ],
      "priceSpecification": [
        {
          "@type": "PriceSpecification",
          "description": "Pax 2",
          "minPrice": "22.00",
          "maxPrice": "22.00",
          "priceCurrency": "EUR"
        },
        {
          "@type": "PriceSpecification",
          "description": "Pax 3",
          "minPrice": "22.00",
          "maxPrice": "22.00",
          "priceCurrency": "EUR"
        }
      ]
    },
    {
      "@type": "Offer",
      "name": [
        {
          "@language": "de",
          "@value": "Doppelzimmer, Dusche, WC"
        },
        {
          "@language": "en",
          "@value": "Double room, shower, toilet"
        }
      ],
      "description": [
        {
          "@language": "de",
          "@value": "Ländlich eingerichtete, rustikale Gästezimmer mit DU/WC und Balkon;"
        },
        {
          "@language": "en",
          "@value": "Country-style furnished, comfortable guest room with shower/WC and balcony;"
        }
      ],
      "availability": "http://schema.org/InStock",
      "itemOffered": [
        {
          "@type": [
            "HotelRoom",
            "Product"
          ],
          "name": [
            {
              "@language": "de",
              "@value": "Doppelzimmer mit Dusche, WC"
            },
            {
              "@language": "en",
              "@value": "double room with shower, WC"
            }
          ],
          "bed": {
            "@type": "BedDetails",
            "numberOfBeds": "1"
          },
          "occupancy": {
            "@type": "QuantitativeValue",
            "maxValue": "2",
            "minValue": "1"
          }
        }
      ],
      "priceSpecification": [
        {
          "@type": "PriceSpecification",
          "description": "Pax 2",
          "minPrice": "22.00",
          "maxPrice": "22.00",
          "priceCurrency": "EUR"
        }
      ]
    }
  ]
}