{
  "@context": "http://schema.org",
  "@type": "LodgingBusiness",
  "url": [
    "http://maps.best-of-zillertal.at/proxy/frontend/page/fuegen/de?foreignResource\u003dD1008B9C-CB00-42C2-87E4-D82B8A05EF74"
  ],
  "address": {
    "@type": "PostalAddress",
    "name": "Chalet Auhäusl",
    "streetAddress": "Panoramastraße 26",
    "addressCountry": "AT",
    "postalCode": "6264",
    "addressRegion": "Fügenberg",
    "email": "stietlhof@a1.net"
  },
  "name": "Chalet Auhäusl",
  "description": [
    {
      "@language": "de",
      "@value": "Unser Chalet \"Auhäusl\" mit ca. 75 m² ist auf 2 Stockwerken, rustikal und gemütlich eingerichtet: \nEingang: Wohnküche mit Schwedenofen, Essecke, Sat-TV, Radio, Ausgang zum Garten, Küche mit 4 Kochplatten, Backofen, Geschirrspüler, Mikrowelle, Grill, usw., Esstisch, Dusche, sep. WC:\nObergeschoss: 1 Doppelzimmer, 1 Zimmer mit 2 Betten, 1 Zimmer mit 1 x 2 Etagenbetten;\nTerasse: Liegestühle, herrliche Panoramasicht auf die Berge und das Tal;\nSontiges: Waschmaschine zur Verfügung, Lebensmittelgeschäft 3 km, Restaurant 600 m, Skibushaltestelle 300 m, Freibad und Hallenbad 4 km,\nKinder können das Leben der Tiere am 300 m entfernten Bauernhof des Besitzers kenenlernen.\nGeheizt  wird mit Kachelofen (ausreichend Holz beim Haus), E-Heizung und Öfradiatoren. Haustiere bitte bei Buchung anmelden!"
    },
    {
      "@language": "de",
      "@value": "Endreinigung: EUR 80 Strom pro kw: 0,20 Cent\nKaution: € 200,--\nab 80€"
    },
    {
      "@language": "de",
      "@value": "Schlüsselhalter 10 min vor Ankunft bitte kontaktieren."
    },
    {
      "@language": "en",
      "@value": "Our Chalet \"Auhäusl\" (75 m²) is in a quiet and sunny position out of the centre and it is very cosy equipped:\nPort: eat-in kitchen with hotplate, dischwasher, dinette, mircowave, TV, radio, etc., bahtroom with shower and seperate WC.\nsecond floor: 1 double room, 1 twin room, 1 room with 2 bunk beds\nterrace: canvas chair, grill, a fantastic view throught the Zillertal valley\nMiscellaneous: washing machine, supermarket 3 km, restaurant 600 m, skibus station 300 m, indoor and outdoor pool 4 km,\nchildren\u0027s can see the life from the animals (cows, porks, chicken, etc.) on the farm nearby.\nFor heating is a tiled stove, filment heating and oil radiators.\nPlease announce at your booking, if you have your domestic animal with you!"
    },
    {
      "@language": "en",
      "@value": "final cleaning: EUR 35,--\nelectricity: 0,15 Cent per kw\ndeposit: EUR 200,--"
    },
    {
      "@language": "en",
      "@value": "Contact the  keyholder 10 minutes before arrival ."
    }
  ],
  "image": [
    {
      "@type": "ImageObject",
      "url": "http://resc.deskline.net/images/ZIL/1/285ae9c7-60ac-4efb-aa3c-70fd7f820957/99/image.jpg",
      "caption": [
        {
          "@language": "de",
          "@value": "Auhäusl"
        },
        {
          "@language": "en",
          "@value": "Auhäusl"
        }
      ]
    },
    {
      "@type": "ImageObject",
      "url": "http://resc.deskline.net/images/ZIL/1/3adb23bb-9e9e-4953-a3ec-5c966a950de4/99/image.jpg",
      "caption": [
        {
          "@language": "de",
          "@value": "Schlafzimmer"
        },
        {
          "@language": "en",
          "@value": "Schlafzimmer"
        }
      ]
    },
    {
      "@type": "ImageObject",
      "url": "http://resc.deskline.net/images/ZIL/1/bc0d85df-b1e5-460b-8d25-1c00491745bc/99/image.jpg",
      "caption": [
        {
          "@language": "de",
          "@value": "Küche"
        },
        {
          "@language": "en",
          "@value": "Küche"
        }
      ]
    },
    {
      "@type": "ImageObject",
      "url": "http://resc.deskline.net/images/ZIL/1/45b29064-ea67-4293-a5b6-9326c0479131/99/image.jpg",
      "caption": [
        {
          "@language": "de",
          "@value": "Badezimmer"
        },
        {
          "@language": "en",
          "@value": "Badezimmer"
        }
      ]
    },
    {
      "@type": "ImageObject",
      "url": "http://resc.deskline.net/images/ZIL/1/5c31ac74-7645-4000-88a9-2f9d24e65b38/99/image.jpg",
      "caption": [
        {
          "@language": "de",
          "@value": "Essbank"
        },
        {
          "@language": "en",
          "@value": "Essbank"
        }
      ]
    },
    {
      "@type": "ImageObject",
      "url": "http://resc.deskline.net/images/ZIL/1/cc1f54c3-1ea1-4d12-931a-5a6f8200bcb7/99/image.jpg",
      "caption": [
        {
          "@language": "de",
          "@value": "Auhäusl Winter"
        },
        {
          "@language": "en",
          "@value": "Auhäusl Winter"
        }
      ]
    },
    {
      "@type": "ImageObject",
      "url": "http://resc.deskline.net/images/ZIL/1/b9a247b3-fccb-4b30-81bd-2a856f47c0f0/99/image.jpg",
      "caption": [
        {
          "@language": "de",
          "@value": "Auh5"
        },
        {
          "@language": "en",
          "@value": "Auh5"
        }
      ]
    },
    {
      "@type": "ImageObject",
      "url": "http://resc.deskline.net/images/ZIL/1/8425e914-28ff-4c90-a0cd-4a62a152e6ae/99/image.jpg",
      "caption": [
        {
          "@language": "de",
          "@value": "Terasse"
        },
        {
          "@language": "en",
          "@value": "Terasse"
        }
      ]
    }
  ],
  "geo": {
    "@type": "GeoCoordinates",
    "latitude": "47.348320774293626",
    "longitude": "11.836212873458862"
  },
  "currenciesAccepted": "EUR",
  "makesOffer": [
    {
      "@type": "Offer",
      "name": [
        {
          "@language": "de",
          "@value": "Appartement/Fewo, Dusche, WC, 3 Schlafräume"
        },
        {
          "@language": "en",
          "@value": "Apartment, shower, toilet, 3 bed rooms"
        }
      ],
      "description": [
        {
          "@language": "de",
          "@value": "Ferienwohnung für 2-6 Personen, 3 Schlafzimmer, DU/WC, Sat-TV, Wohnküche komplett ausgestattet ( Herd, Backrohr, Mikrowelle, Kaffeemaschine,...)"
        },
        {
          "@language": "en",
          "@value": "Appartment for 2 - 6 persons, 3 sleeping rooms, shower and toilet, satelite TV, living kitchen with electric range, oven, micro wave, coffee maker, ...;"
        }
      ],
      "availability": "http://schema.org/InStock",
      "itemOffered": [
        {
          "@type": [
            "Apartment",
            "Product"
          ],
          "name": [
            {
              "@language": "de",
              "@value": "Apartment/3 Schlafräume/Dusche, WC"
            },
            {
              "@language": "en",
              "@value": "apartment/3 bedrooms/shower, WC"
            }
          ],
          "numberOfRooms": "4.0",
          "occupancy": {
            "@type": "QuantitativeValue",
            "maxValue": "6",
            "minValue": "2"
          }
        }
      ]
    }
  ]
}