{
  "@context": "http://schema.org",
  "@type": "LodgingBusiness",
  "url": [
    "http://www.hausedelweiss-stumm.at"
  ],
  "address": {
    "@type": "PostalAddress",
    "name": "Ferienhaus Edelweiss",
    "streetAddress": "Dorf 19",
    "addressCountry": "AT",
    "postalCode": "6275",
    "addressRegion": "Stumm",
    "telephone": "(0043) 05283 29176",
    "email": "info@haus-edelweiss-stumm.at",
    "url": "http://www.hausedelweiss-stumm.at"
  },
  "name": "Ferienhaus Edelweiss",
  "description": [
    {
      "@language": "de",
      "@value": "Ferienhaus mit 5 Apartements mit je einer Größe von 80 bis 100 m². Selbstverständlich ist es auch möglich, mehrere Wohnungen oder unser gesamtes Ferienhaus Edelweiss für 34 Personen zu buchen.Natürlich nicht zu vergessen, - für sonnige Stunden können Sie gerne unsere Liegewiese benützen. Dabei haben wir auch an Ihre Kinder gedacht, für klein und groß ist gesorgt, es steht Ihnen ein Kinderspielplatz mit Trampolin, Rutschbahn, Kinderspielhaus, Schaukel und sonstige Spielgelegenheiten die wir jedes Jahr erneuern werden zur Verfügung. Gerne stellen wir Ihnen auch Kinderbetten, Hochstühle und Buggys für Ihre Kinder kostenlos zur Verfügung. Auch verfügt unser Ferienhaus über einen Raum für Ihre Wander, und Skischuhe sowie nasse Kleidung.\n"
    },
    {
      "@language": "de",
      "@value": "Im Preis inklusive: Heizung, Wasser, Strom, Internet, Skibus\nHaustiere: € 4,-"
    },
    {
      "@language": "en",
      "@value": "Apartment-house with 5 apartments, each with a surface of 80 - 100 m². Of course it is also possible to make reservations  for two or more apartments or to book Edelweiss Apartments completely for a maximum of 34 persons. For the sunny hours, you are of course very welcome to use our lawn. And we didn\u0027t forget the children either, toddler or teenager, we have a playground with a trampoline, chute, wendy house, swing and many more things to play with, which will be renewed each year. Our motto: Satisfied children offer the adults the time to relax in our garden and enjoy the sun. We will be glad to offer you beds for the children, high chairs and buggies for free. Edelweiss Apartments also offers you a room for your hiking shoes, ski boots or your wet clothing.\n"
    },
    {
      "@language": "en",
      "@value": "Included in price: heating, water, electricity, internet, skibus\npets: € 4,-\n"
    }
  ],
  "image": [
    {
      "@type": "ImageObject",
      "url": "http://resc.deskline.net/images/ZIL/1/7129c7a6-b9d2-4798-982d-fe6da3393268/99/image.jpg",
      "caption": [
        {
          "@language": "de",
          "@value": "Haus Sommer 1"
        },
        {
          "@language": "en",
          "@value": "Haus Sommer 1"
        }
      ]
    },
    {
      "@type": "ImageObject",
      "url": "http://resc.deskline.net/images/ZIL/1/e5bea70f-bc32-4ecc-b52b-18ebf40c12bd/99/image.jpg",
      "caption": [
        {
          "@language": "de",
          "@value": "Haus Sommer 3"
        },
        {
          "@language": "en",
          "@value": "Haus Sommer 3"
        }
      ]
    },
    {
      "@type": "ImageObject",
      "url": "http://resc.deskline.net/images/ZIL/1/4b3e283f-d24f-4cd6-9a11-babf50d9f319/99/image.jpg",
      "caption": [
        {
          "@language": "de",
          "@value": "Haus Sommer 2"
        },
        {
          "@language": "en",
          "@value": "Haus Sommer 2"
        }
      ]
    },
    {
      "@type": "ImageObject",
      "url": "http://resc.deskline.net/images/ZIL/1/4333d0ac-80a0-4f32-b906-965e9d716241/99/image.jpg",
      "caption": [
        {
          "@language": "de",
          "@value": "Haus Sommer 4"
        },
        {
          "@language": "en",
          "@value": "Haus Sommer 4"
        }
      ]
    },
    {
      "@type": "ImageObject",
      "url": "http://resc.deskline.net/images/ZIL/1/778fcfbd-9cd5-43b8-9a65-c79281b7439b/99/image.jpg",
      "caption": [
        {
          "@language": "de",
          "@value": "Garten 1"
        },
        {
          "@language": "en",
          "@value": "Garten 1"
        }
      ]
    },
    {
      "@type": "ImageObject",
      "url": "http://resc.deskline.net/images/ZIL/1/7e305ec2-64f4-4b03-a99e-5ca7b5669d61/99/image.jpg",
      "caption": [
        {
          "@language": "de",
          "@value": "Garten 2"
        },
        {
          "@language": "en",
          "@value": "Garten 2"
        }
      ]
    },
    {
      "@type": "ImageObject",
      "url": "http://resc.deskline.net/images/ZIL/1/234e7ced-bb0e-4249-aeab-99df8c7f6c6f/99/image.jpg",
      "caption": [
        {
          "@language": "de",
          "@value": "Garten 3"
        },
        {
          "@language": "en",
          "@value": "Garten 3"
        }
      ]
    },
    {
      "@type": "ImageObject",
      "url": "http://resc.deskline.net/images/ZIL/1/046a184a-deb8-4297-8ca4-311b826c590a/99/image.jpg",
      "caption": [
        {
          "@language": "de",
          "@value": "Garten 4"
        },
        {
          "@language": "en",
          "@value": "Garten 4"
        }
      ]
    },
    {
      "@type": "ImageObject",
      "url": "http://resc.deskline.net/images/ZIL/1/6535c919-6acb-4663-91e0-0c03143a76f4/99/image.jpg",
      "caption": [
        {
          "@language": "de",
          "@value": "Terrasse"
        },
        {
          "@language": "en",
          "@value": "Terrasse"
        }
      ]
    },
    {
      "@type": "ImageObject",
      "url": "http://resc.deskline.net/images/ZIL/1/d13a947b-478d-44ae-91ee-160546c98a7a/99/image.jpg",
      "caption": [
        {
          "@language": "de",
          "@value": "Haus Sommer 5"
        },
        {
          "@language": "en",
          "@value": "Haus Sommer 5"
        }
      ]
    }
  ],
  "geo": {
    "@type": "GeoCoordinates",
    "latitude": "47.2906813",
    "longitude": "11.8855209"
  },
  "currenciesAccepted": "EUR",
  "makesOffer": [
    {
      "@type": "Offer",
      "name": [
        {
          "@language": "de",
          "@value": "Appartement/Fewo, Dusche, WC, 2 Schlafräume"
        },
        {
          "@language": "en",
          "@value": "Apartment, shower, toilet, 2 bed rooms"
        }
      ],
      "availability": "http://schema.org/InStock",
      "itemOffered": [
        {
          "@type": [
            "Apartment",
            "Product"
          ],
          "name": [
            {
              "@language": "de",
              "@value": "Appartement 1"
            },
            {
              "@language": "en",
              "@value": "Apartment, shower, toilet, 2 bed rooms"
            }
          ],
          "numberOfRooms": "4.0",
          "occupancy": {
            "@type": "QuantitativeValue",
            "maxValue": "6",
            "minValue": "2"
          }
        }
      ]
    },
    {
      "@type": "Offer",
      "name": [
        {
          "@language": "de",
          "@value": "Appartement/Fewo, Dusche, WC, 3 Schlafräume"
        },
        {
          "@language": "en",
          "@value": "Apartment, shower, toilet, 3 bed rooms"
        }
      ],
      "description": [
        {
          "@language": "de",
          "@value": "In dieser gemütlichen Wohnung befinden sich 3 rustikale Schlafzimmer mit je einem Doppelbett für 2 Personen, sowie ein Wohnzimmer in dem sich ebenfalls eine ausziehbare Couch für 2 Personen befindet, in allen der 3 Zimmer haben Sie eine extra Dusche mit WC. Unsere Wohnküche mit einer eingebauten Holzsitzecke gibt eine besondere Atmosphäre mit österreichischem Stil, die Küche ist vollausgestattet mit Wasserkocher, Ofen, 4-Platten Herd, Geschirr, Kochtöpfen, Spülmaschine und v.m. Mikro auf Anfrage.Für einen wunderschönen Ausblick auf die Bergwelt des Zillertales steht Ihnen ein Balkon mit Stühlen und einem Tisch zur  Verfügung. In der Wohnung befindet sich auch ein Sat-TV, ebenfalls haben wir für Sie einen kostenlosen WLAN Anschluß vor Ort. Es gibt auch genügend Abstellraum und einen Gardarobenraum in der Wohnung. Für gemütliche Stunden steht Ihnen unser Kinderspielplatz mit Liegewiese zur Verfügung. Unser Ferienhaus verfügt auch über einen Ski sowie einen Ski und Wanderschuhtrockenraum."
        },
        {
          "@language": "en",
          "@value": "This cosy apartment has 3 bedrooms in rustic style each with a double bed and a living room which is also equipped with a sofa bed for 2 persons. All bedrooms have their own bathroom with toilet. Our kitchen with a built-in wooden seating area has a special atmosphere in Austrian style. The kitchen is fully equipped with a dishwasher, oven, 4-plate ceramic hob, waterboiler, crockery, pots and pans and many more. Microwave on request.To enjoy the stunning view on the Zillertal mountain world, a balcony with chairs and a table is available. The apartment is equipped with Sat-TV and also an internet connection (WLAN) is available for free. There is also plenty of storage room and a cloakroom in the apartment. For some cosy hours you are free to use our garden and the playground for the children. Edelweiss Apartments also offers you a room for your hiking shoes, ski boots or your wet clothing."
        }
      ],
      "availability": "http://schema.org/InStock",
      "itemOffered": [
        {
          "@type": [
            "Apartment",
            "Product"
          ],
          "name": [
            {
              "@language": "de",
              "@value": "Appartement 2"
            },
            {
              "@language": "en",
              "@value": "Apartment, shower, toilet, 3 bed rooms"
            }
          ],
          "numberOfRooms": "5.0",
          "occupancy": {
            "@type": "QuantitativeValue",
            "maxValue": "8",
            "minValue": "2"
          }
        }
      ]
    },
    {
      "@type": "Offer",
      "name": [
        {
          "@language": "de",
          "@value": "Appartement/Fewo, Dusche, WC, 3 Schlafräume"
        },
        {
          "@language": "en",
          "@value": "Apartment, shower, toilet, 3 bed rooms"
        }
      ],
      "description": [
        {
          "@language": "de",
          "@value": "In dieser gemütlichen Wohnung befinden sich 3 rustikale Schlafzimmer mit je einem Doppelbett für 2 Personen, in allen Zimmer haben Sie eine extra Dusche mit WC. Unsere Wohnküche mit einer eingebauten Holzsitzecke gibt eine besondere Atmosphäre mit österreichischem Stil, die Küche ist vollausgestattet mit Wasserkocher, Ofen, 4-Platten Herd, Geschirr, Kochtöpfen, Spülmaschine und v.m. Mikro auf Anfrage. In der Wohnung befindet sich auch ein Sat-TV, ebenfalls haben wir für Sie einen kostenlosen WLAN Anschluß vor Ort. Für gemütliche Stunden steht Ihnen unser Kinderspielplatz mit Liegewiese zur Verfügung. Unser Ferienhaus verfügt auch über einen Ski sowie einen Ski und Wanderschuhtrockenraum."
        },
        {
          "@language": "en",
          "@value": "This cosy apartment has 3 bedrooms in rustic style each with a double bed. All rooms have their own bathroom with toilet. Our kitchen with a built-in wooden seating area has a special atmosphere in Austrian style. The kitchen is fully equipped with a dishwasher, oven, 4-plate ceramic hob, waterboiler, crockery, pots and pans and many more. Microwave on request. To enjoy the stunning view on the Zillertal mountain world, a balcony with chairs and a table is available. The apartment is equipped with Sat-TV and also an internet connection (WLAN) is available for free. There is also plenty of storage room and a cloakroom in the apartment. For some cosy hours you are free to use our garden and the playground for the children. \nEdelweiss Apartments also offers you a room for your hiking shoes, ski boots or your wet clothing."
        }
      ],
      "availability": "http://schema.org/InStock",
      "itemOffered": [
        {
          "@type": [
            "Apartment",
            "Product"
          ],
          "name": [
            {
              "@language": "de",
              "@value": "Appartement 3"
            },
            {
              "@language": "en",
              "@value": "Apartment, shower, toilet, 3 bed rooms"
            }
          ],
          "numberOfRooms": "4.0",
          "occupancy": {
            "@type": "QuantitativeValue",
            "maxValue": "6",
            "minValue": "2"
          }
        }
      ]
    },
    {
      "@type": "Offer",
      "name": [
        {
          "@language": "de",
          "@value": "Appartement/Fewo, Dusche, WC, 3 Schlafräume"
        },
        {
          "@language": "en",
          "@value": "Apartment, shower, toilet, 3 bed rooms"
        }
      ],
      "description": [
        {
          "@language": "de",
          "@value": "In dieser gemütlichen Wohnung befinden sich 2 rustikale Schlafzimmer mit je einem Doppelbett für 2 Personen und 1 Einzelbett für je 1 Person, sowie ein weiteres Doppelzimmer für 2 Personen, in zwei der Zimmern befinden sich Dusche und WC. Unsere Wohnküche mit einer eingebauten Holzsitzecke gibt eine besondere Atmosphäre mit österreichischem Stil, die Küche ist vollausgestattet mit Wasserkocher, Ofen, 4-Platten Herd, Geschirr, Kochtöpfen, Spülmaschine und v.m.  Mikro auf Anfrage. Für einen wunderschönen Ausblick auf die Bergwelt des Zillertales steht Ihnen ein Balkon mit Stühlen und einem Tisch zur Verfügung. In der Wohnung befindet sich auch ein Sat-TV, ebenfalls haben wir für Sie einen kostenlosen WLAN Anschluß vor Ort. Es gibt auch genügend Abstellraum und einen Gardarobenraum in der Wohnung. Für gemütliche Stunden steht Ihnen unser Kinderspielplatz mit Liegewiese zur Verfügung. Unser Ferienhaus verfügt auch über einen Ski sowie einen Ski und Wanderschuhtrockenraum."
        },
        {
          "@language": "en",
          "@value": "This cosy apartment has 2 bedrooms in rustic style each with a double bed and a single bed. Also another bedroom is available for 2 persons. Two of the bedrooms have their own bathroom with toilet. Our kitchen with a built-in wooden seating area has a special atmosphere in Austrian style. The kitchen is fully equipped with a dishwasher, oven, 4-plate ceramic hob, waterboiler, crockery, pots and pans and many more. Microwave on request. To enjoy the stunning view on the Zillertal mountain world, a balcony with chairs and a table is available. The apartment is equipped with Sat-TV and also an internet connection (WLAN) is available for free. There is also plenty of storage room and a cloakroom in the apartment. For some cosy hours you are free to use our garden and the playground for the children. Edelweiss Apartments also offers you a room for your hiking shoes, ski boots or your wet clothing."
        }
      ],
      "availability": "http://schema.org/InStock",
      "itemOffered": [
        {
          "@type": [
            "Apartment",
            "Product"
          ],
          "name": [
            {
              "@language": "de",
              "@value": "Appartement 4"
            },
            {
              "@language": "en",
              "@value": "Apartment, shower, toilet, 3 bed rooms"
            }
          ],
          "numberOfRooms": "4.0",
          "occupancy": {
            "@type": "QuantitativeValue",
            "maxValue": "6",
            "minValue": "2"
          }
        }
      ]
    },
    {
      "@type": "Offer",
      "name": [
        {
          "@language": "de",
          "@value": "Appartement/Fewo, Dusche, WC, 3 Schlafräume"
        },
        {
          "@language": "en",
          "@value": "Apartment, shower, toilet, 3 bed rooms"
        }
      ],
      "description": [
        {
          "@language": "de",
          "@value": "In dieser gemütlichen Wohnung befinden sich 2 rustikale Schlafzimmer mit je einem Doppelbett für 2 Personen und 1 Einzelbett für je 1 Person, sowie ein weiteres Doppelzimmer für 2 Personen, in zwei der Zimmern befinden sich Dusche und WC. Unsere Wohnküche mit einer eingebauten Holzsitzecke gibt eine besondere Atmosphäre mit österreichischem Stil, die Küche ist vollausgestattet mit Wasserkocher, Ofen, 4-Platten Herd, Geschirr, Kochtöpfen, Spülmaschine und v.m.  Mikro auf Anfrage. Für einen wunderschönen Ausblick auf die Bergwelt des Zillertales steht Ihnen ein Balkon mit Stühlen und einem Tisch zur Verfügung. In der Wohnung befindet sich auch ein Sat-TV, ebenfalls haben wir für Sie einen kostenlosen WLAN Anschluß vor Ort. Es gibt auch genügend Abstellraum und einen Gardarobenraum in der Wohnung. Für gemütliche Stunden steht Ihnen unser Kinderspielplatz mit Liegewiese zur Verfügung. Unser Ferienhaus verfügt auch über einen Ski sowie einen Ski und Wanderschuhtrockenraum."
        },
        {
          "@language": "en",
          "@value": "This cosy apartment has 2 bedrooms in rustic style each with a double bed and a single bed. Also another bedroom is available for 2 persons. Two of the bedrooms have their own bathroom with toilet. Our kitchen with a built-in wooden seating area has a special atmosphere in Austrian style. The kitchen is fully equipped with a dishwasher, oven, 4-plate ceramic hob, waterboiler, crockery, pots and pans and many more. Microwave on request. To enjoy the stunning view on the Zillertal mountain world, a balcony with chairs and a table is available. The apartment is equipped with Sat-TV and also an internet connection (WLAN) is available for free. There is also plenty of storage room and a cloakroom in the apartment. For some cosy hours you are free to use our garden and the playground for the children. Edelweiss Apartments also offers you a room for your hiking shoes, ski boots or your wet clothing."
        }
      ],
      "availability": "http://schema.org/InStock",
      "itemOffered": [
        {
          "@type": [
            "Apartment",
            "Product"
          ],
          "name": [
            {
              "@language": "de",
              "@value": "Appartement 5"
            },
            {
              "@language": "en",
              "@value": "Apartment, shower, toilet, 3 bed rooms"
            }
          ],
          "numberOfRooms": "4.0",
          "occupancy": {
            "@type": "QuantitativeValue",
            "maxValue": "8",
            "minValue": "2"
          }
        }
      ]
    }
  ]
}