{
  "@context": "http://schema.org",
  "@type": "LodgingBusiness",
  "url": [
    "http://maps.best-of-zillertal.at/proxy/frontend/page/fuegen/de?foreignResource\u003dD2A837E1-089E-4690-95CE-F99EB2BFBA3D"
  ],
  "address": {
    "@type": "PostalAddress",
    "streetAddress": "Gattererberg 35",
    "addressCountry": "AT",
    "postalCode": "6276",
    "addressRegion": "Stummerberg",
    "telephone": "(0043) 5283 2795",
    "email": "g.danzl@web.de"
  },
  "name": "Persalhof",
  "description": [
    {
      "@language": "de",
      "@value": "Gemütlicher Bauernhof, ruhige Lage in 1040 m Seehöhe, Bauernstube mit TV,\nSonnenterrasse, Liegewiese, erweitertes Frühstück, 50 m neben Gasthaus Bergrast.\n"
    },
    {
      "@language": "de",
      "@value": "Haustiere sind erlaubt, Gebühr auf Anfrage!"
    },
    {
      "@language": "en",
      "@value": "cosy farm house, quiet location, 1040m altitude, \nfarm house lounge with TV, sun bathing terrace, sun bathing lawn, \ncontinental breakfast, 50 m next to restaurant Bergrast."
    },
    {
      "@language": "en",
      "@value": "pets/dogs allowed, costs on request!"
    }
  ],
  "image": [
    {
      "@type": "ImageObject",
      "url": "http://resc.deskline.net/images/ZIL/1/85526b24-33e2-4527-8526-457d4e174210/99/image.jpg",
      "caption": [
        {
          "@language": "de",
          "@value": "Haus Sommer"
        },
        {
          "@language": "en",
          "@value": "Haus Sommer"
        }
      ]
    }
  ],
  "geo": {
    "@type": "GeoCoordinates",
    "latitude": "47.305280093191",
    "longitude": "11.900352356556"
  },
  "currenciesAccepted": "EUR",
  "makesOffer": [
    {
      "@type": "Offer",
      "name": [
        {
          "@language": "de",
          "@value": "Doppelzimmer, Dusche"
        },
        {
          "@language": "en",
          "@value": "Double room, shower"
        }
      ],
      "description": [
        {
          "@language": "de",
          "@value": "Rustikal möblierte Zimmer mit Doppelbett, Sitzecke, Dusche, Balkon. WC am Gang."
        },
        {
          "@language": "en",
          "@value": "Rustic furnished room with double bed, seating arangement, shower, balcony. Toilet on the same floor."
        }
      ],
      "availability": "http://schema.org/InStock",
      "itemOffered": [
        {
          "@type": [
            "HotelRoom",
            "Product"
          ],
          "name": [
            {
              "@language": "de",
              "@value": "Doppelzimmer mit Dusche"
            },
            {
              "@language": "en",
              "@value": "double room with shower"
            }
          ],
          "bed": {
            "@type": "BedDetails",
            "numberOfBeds": "1"
          },
          "occupancy": {
            "@type": "QuantitativeValue",
            "maxValue": "2",
            "minValue": "2"
          }
        }
      ]
    },
    {
      "@type": "Offer",
      "name": [
        {
          "@language": "de",
          "@value": "Doppelzimmer, Dusche"
        },
        {
          "@language": "en",
          "@value": "Double room, shower"
        }
      ],
      "description": [
        {
          "@language": "de",
          "@value": "Rustikal möblietes Zimmer mit Doppelbett u. Zusatzbett, Dusche, Balkon, Sitzecke; WC am Gang, \n"
        },
        {
          "@language": "en",
          "@value": "rustic furnished room with double bed and extra bed, shower, seating arangement, balcony; toilet on the same floor"
        }
      ],
      "availability": "http://schema.org/InStock",
      "itemOffered": [
        {
          "@type": [
            "HotelRoom",
            "Product"
          ],
          "name": [
            {
              "@language": "de",
              "@value": "Doppelzimmer mit Dusche"
            },
            {
              "@language": "en",
              "@value": "double room with shower"
            }
          ],
          "bed": {
            "@type": "BedDetails",
            "numberOfBeds": "1"
          },
          "occupancy": {
            "@type": "QuantitativeValue",
            "maxValue": "3",
            "minValue": "2"
          }
        }
      ]
    }
  ]
}