{
  "@context": "http://schema.org",
  "@type": "LodgingBusiness",
  "address": {
    "@type": "PostalAddress",
    "name": "Zirbenheim",
    "streetAddress": "Haidachweg 42",
    "addressCountry": "AT",
    "postalCode": "6263",
    "addressRegion": "Fügen",
    "telephone": "(0043) 676 7388773",
    "email": "info@kohleralmhof.at"
  },
  "name": "ZirbenHeim",
  "description": [
    {
      "@language": "de",
      "@value": "Unsere Apartments liegen direkt am Ende der Talabfahrt der Spieljochbahn.\nTalstation ca. 150m entfernt.\nDie Apartments sind mit Zirbenholz eingerichtet \n\nAusstattung: Größe pro Apartment 75m, Wohnküche mit Sat TV, 1 Ausziehschlafcouch (Doppelbett) , 1Schlafzimmer ( Doppelbett), 1 Schlafzimmer (1 Einzelbett, +ein Doppelbett), 1* Bad ( Dusche), 1 WC getrennt, Kaffeemaschine, Mikrowelle, Wasserkocher, Spühlmaschine, Schiraum- Trockenraum, W- Lan kostenlos, keine Haustiere, Nichtraucher, Gitterbett kostenlos, \n"
    },
    {
      "@language": "de",
      "@value": "Endreinigung Euro 60 \nKostenloses W-Lan , Gitterbett\n"
    },
    {
      "@language": "de",
      "@value": "Direkt bei der Talstation der Spieljochbahn\n\nB 169 - Ausfahrt Fügen - Spieljochbahn"
    }
  ],
  "geo": {
    "@type": "GeoCoordinates",
    "latitude": "47.3409637408949",
    "longitude": "11.841096791935"
  },
  "currenciesAccepted": "EUR",
  "makesOffer": [
    {
      "@type": "Offer",
      "name": [
        {
          "@language": "de",
          "@value": "Appartement/Fewo, Dusche oder Bad, WC, 2 Schlafräume"
        },
        {
          "@language": "en",
          "@value": "Apartment, shower or bath, toilet, 2 bed rooms"
        }
      ],
      "availability": "http://schema.org/InStock",
      "itemOffered": [
        {
          "@type": [
            "Apartment",
            "Product"
          ],
          "name": [
            {
              "@language": "de",
              "@value": "ZirbenHeim Top 1"
            },
            {
              "@language": "en",
              "@value": "Apartment, shower or bath, toilet, 2 bed rooms"
            }
          ],
          "numberOfRooms": "3.0",
          "occupancy": {
            "@type": "QuantitativeValue",
            "maxValue": "7",
            "minValue": "1"
          }
        }
      ],
      "priceSpecification": [
        {
          "@type": "PriceSpecification",
          "description": "Pax 1",
          "minPrice": "75.00",
          "maxPrice": "155.00",
          "priceCurrency": "EUR"
        },
        {
          "@type": "PriceSpecification",
          "description": "Pax 2",
          "minPrice": "75.00",
          "maxPrice": "155.00",
          "priceCurrency": "EUR"
        },
        {
          "@type": "PriceSpecification",
          "description": "Pax 3",
          "minPrice": "75.00",
          "maxPrice": "155.00",
          "priceCurrency": "EUR"
        },
        {
          "@type": "PriceSpecification",
          "description": "Pax 4",
          "minPrice": "75.00",
          "maxPrice": "155.00",
          "priceCurrency": "EUR"
        },
        {
          "@type": "PriceSpecification",
          "description": "Pax 5",
          "minPrice": "75.00",
          "maxPrice": "155.00",
          "priceCurrency": "EUR"
        },
        {
          "@type": "PriceSpecification",
          "description": "Pax 6",
          "minPrice": "75.00",
          "maxPrice": "155.00",
          "priceCurrency": "EUR"
        },
        {
          "@type": "PriceSpecification",
          "description": "Pax 7",
          "minPrice": "75.00",
          "maxPrice": "155.00",
          "priceCurrency": "EUR"
        }
      ]
    },
    {
      "@type": "Offer",
      "name": [
        {
          "@language": "de",
          "@value": "Appartement/Fewo, Dusche oder Bad, WC, 2 Schlafräume"
        },
        {
          "@language": "en",
          "@value": "Apartment, shower or bath, toilet, 2 bed rooms"
        }
      ],
      "availability": "http://schema.org/InStock",
      "itemOffered": [
        {
          "@type": [
            "Apartment",
            "Product"
          ],
          "name": [
            {
              "@language": "de",
              "@value": "ZirbenHeim Top 2"
            },
            {
              "@language": "en",
              "@value": "Apartment, shower or bath, toilet, 2 bed rooms"
            }
          ],
          "numberOfRooms": "3.0",
          "occupancy": {
            "@type": "QuantitativeValue",
            "maxValue": "7",
            "minValue": "1"
          }
        }
      ],
      "priceSpecification": [
        {
          "@type": "PriceSpecification",
          "description": "Pax 1",
          "minPrice": "75.00",
          "maxPrice": "155.00",
          "priceCurrency": "EUR"
        },
        {
          "@type": "PriceSpecification",
          "description": "Pax 2",
          "minPrice": "75.00",
          "maxPrice": "155.00",
          "priceCurrency": "EUR"
        },
        {
          "@type": "PriceSpecification",
          "description": "Pax 3",
          "minPrice": "75.00",
          "maxPrice": "155.00",
          "priceCurrency": "EUR"
        },
        {
          "@type": "PriceSpecification",
          "description": "Pax 4",
          "minPrice": "75.00",
          "maxPrice": "155.00",
          "priceCurrency": "EUR"
        },
        {
          "@type": "PriceSpecification",
          "description": "Pax 5",
          "minPrice": "75.00",
          "maxPrice": "155.00",
          "priceCurrency": "EUR"
        },
        {
          "@type": "PriceSpecification",
          "description": "Pax 6",
          "minPrice": "75.00",
          "maxPrice": "155.00",
          "priceCurrency": "EUR"
        },
        {
          "@type": "PriceSpecification",
          "description": "Pax 7",
          "minPrice": "75.00",
          "maxPrice": "155.00",
          "priceCurrency": "EUR"
        }
      ]
    }
  ]
}