{
  "@context": "http://schema.org",
  "@type": "Hotel",
  "url": [
    "http://www.sportresidenz.at",
    "http://"
  ],
  "address": {
    "@type": "PostalAddress",
    "name": "SPORT RESIDENZ ZILLERTAL",
    "streetAddress": "Golfstraße 1",
    "addressCountry": "AT",
    "postalCode": "6271",
    "addressRegion": "Uderns",
    "telephone": "(0043) 5288 63000",
    "faxNumber": "(0043) 5288 63000 96",
    "email": "info@sportresidenz.at",
    "url": "http://www.sportresidenz.at"
  },
  "name": "SPORT RESIDENZ ZILLERTAL",
  "description": [
    {
      "@language": "de",
      "@value": "Willkommen im kleinen, feinen Boutiquehotel des Zillertales.\nBERGE - SCHNEE - URLAUB - GOLF\nEgal ob es um die kleine Auszeit zwischendurch geht oder um den lang geplanten Urlaub - in der Sportresidenz Zillertal treffen Luxus, Lifestyle und Wintervergnügen aufeinander.\nGenießen Sie Zeit für sich.\nDas kleine feine Boutiquehotel des Zillertales besticht durch eine besondere Lage. Direkt an der Langlaufloipe und mit freiem Blick in die Zillertaler Bergwelt bzw. in die Skiregion Hochzillertal, erleben Sie Winterfreuden aus einer neuen Perspektive . \n„Cloud7“ - genießen Sie Wellness der Extraklasse. Saunen und Dampfbad sorgen für Entspannung und bei wohltuenden Kosmetik-\noder Massageanwendungen schenken Sie sich selbst ein wenig Luxus für die Sinne. Ihren eigenen privaten Spa genießen Sie in den Suiten. \nWas wäre ein Urlaub ohne Gaumenfreuden. Entdecken Sie die Raffinessen der Tiroler Küche. Im Restaurant „Genusswerkstatt“ verwöhnen wir Sie vom Frühstück bis zum Dinner mit Köstlichkeiten aus Küche und Keller.\nVom Skischwung zum Abschlag. Alles ist hier möglich. Ein perfekter sportlicher Austausch zwischen Winter- und Sommersport. Trainieren Sie entspannt in unserer Indoor Golfanlage mit Putting Area. \n\nFACTS:\n- 22 großzügige Suiten \u0026 Zimmer im luxuriösem Lifestyle Stil\n- Wellnesslandschaft mit Infinity Pool am Dach mit Blick ins Zillertal\n- alkoholfreie Getränke aus der Minibar sind inklusive\n- Relax-Wintergarten, Saunen \u0026 Dampfbad\n- gehobene Gourmetküche in der “Genusswerkstatt“\n- Vinothek und Bar\n- Indoor Putting Green\n- Indoor Golf\n"
    },
    {
      "@language": "de",
      "@value": "Zimmerstornierungen sind nur schriftlich gültig. Bis zu 28 Tage vor Urlaubsantritt fallen keine Stornokosten an. 28 bis 3 Tage vor Urlaubsantritt stellen wir 50% des Arrangementpreises in Rechnung. Ab 3 Tage bzw. No-show verrechnen wir 80%."
    },
    {
      "@language": "de",
      "@value": "Garantierter Check-In ab 14:30 Uhr\n\nPer Auto: \nÜber die Inntalautobahn (A12) von Südtirol und Deutschland\nSie benötigen kein Navi – fahren Sie die Ausfahrt Zillertal hinaus und folgen Sie der B169 Zillertalstraße bis zur Ausfahrt „Golf Zillertal“"
    },
    {
      "@language": "en",
      "@value": "The smart boutique hotel in Zillertal is located in one of the most famous valley in Tyrol.\n\nOur hotel is situated next to the cross country ski trail, with a gorgeous views on the mountains and the valley run of the ski area Hochzillertal.\n\nThe 22 luxuriously furnished rooms and suites with noble interior guarantee a home-away-from home atmosphere.\n\nOn the culinary side, you will be pampered by our Gourmet \"Genusswerkstatt\" Restaurant."
    },
    {
      "@language": "en",
      "@value": "Up to 28 days prior arrival, cancellations are free. Between 28 and 3 days prior arrival, we will charge a cancellation fee of 50% of the booked amount. Cancellations 3 days before arrival or no-shows are charged with 80% of the booked amount."
    },
    {
      "@language": "en",
      "@value": "Guaranteed Check-In from 2:30 p.m.\n\nThe Sportresidenz Zillertal is located in Uderns in the Zillertal, Tyrol, Austria.\n You can reach us\nBy car: via the Inntal highway from South-Tyrol and Germany"
    }
  ],
  "image": [
    {
      "@type": "ImageObject",
      "url": "http://resc.deskline.net/images/ZIL/1/9aef6f4d-63a9-4e9b-bfc9-5d2065605652/99/image.jpg",
      "caption": [
        {
          "@language": "de",
          "@value": "Sportresidenz Zillertal Winter"
        },
        {
          "@language": "en",
          "@value": "Sportresidenz Zillertal Winter"
        }
      ]
    },
    {
      "@type": "ImageObject",
      "url": "http://resc.deskline.net/images/ZIL/1/74ab1e1d-c29b-4acf-ae83-d61cded82c78/99/image.png",
      "caption": [
        {
          "@language": "de",
          "@value": "Logo SRZ"
        },
        {
          "@language": "en",
          "@value": "Logo SRZ"
        }
      ]
    },
    {
      "@type": "ImageObject",
      "url": "http://resc.deskline.net/images/ZIL/1/ef925a95-5299-4933-b42f-3354dccd8572/99/image.jpg",
      "caption": [
        {
          "@language": "de",
          "@value": "Infinity Pool Winter"
        },
        {
          "@language": "en",
          "@value": "Infinity Pool Winter"
        }
      ]
    },
    {
      "@type": "ImageObject",
      "url": "http://resc.deskline.net/images/ZIL/1/1f90f24e-e028-4b98-9577-c3c17ec7798f/99/image.jpg",
      "caption": [
        {
          "@language": "de",
          "@value": "Restaurant Winter"
        },
        {
          "@language": "en",
          "@value": "Restaurant Winter"
        }
      ]
    },
    {
      "@type": "ImageObject",
      "url": "http://resc.deskline.net/images/ZIL/1/a9660ecd-096b-4f8e-b898-43cd6b81316b/99/image.jpg",
      "caption": [
        {
          "@language": "de",
          "@value": "Raum der Stille Winter"
        },
        {
          "@language": "en",
          "@value": "Raum der Stille Winter"
        }
      ]
    },
    {
      "@type": "ImageObject",
      "url": "http://resc.deskline.net/images/ZIL/1/24e45c27-ab3d-4c78-afc5-64eee858333c/99/image.jpg",
      "caption": [
        {
          "@language": "de",
          "@value": "Doppelzimmer De Luxe"
        },
        {
          "@language": "en",
          "@value": "Doppelzimmer De Luxe"
        }
      ]
    },
    {
      "@type": "ImageObject",
      "url": "http://resc.deskline.net/images/ZIL/1/d5426771-d24b-4363-8920-673a2644aa2c/99/image.jpg",
      "caption": [
        {
          "@language": "de",
          "@value": "Bad Doppelzimmer De Luxe"
        },
        {
          "@language": "en",
          "@value": "Bad Doppelzimmer De Luxe"
        }
      ]
    },
    {
      "@type": "ImageObject",
      "url": "http://resc.deskline.net/images/ZIL/1/405b6136-6d36-4e27-8e8b-79ddd1f75676/99/image.jpg",
      "caption": [
        {
          "@language": "de",
          "@value": "Sportresidenz Zillertal"
        },
        {
          "@language": "en",
          "@value": "Sportresidenz Zillertal"
        }
      ]
    },
    {
      "@type": "ImageObject",
      "url": "http://resc.deskline.net/images/ZIL/1/c7d3cedd-bc1b-4e0b-b8e1-42cd31a783ea/99/image.jpg",
      "caption": [
        {
          "@language": "de",
          "@value": "SO Infinity Pool"
        },
        {
          "@language": "en",
          "@value": "SO Infinity Pool"
        }
      ]
    },
    {
      "@type": "ImageObject",
      "url": "http://resc.deskline.net/images/ZIL/1/5f255454-d9dd-4566-a8ce-fa8541e16441/99/image.jpg",
      "caption": [
        {
          "@language": "de",
          "@value": "Penthouse Suite"
        },
        {
          "@language": "en",
          "@value": "Penthouse Suite"
        }
      ]
    },
    {
      "@type": "ImageObject",
      "url": "http://resc.deskline.net/images/ZIL/1/508995f9-5b54-4899-9932-4ab6f01539c8/99/image.jpg",
      "caption": [
        {
          "@language": "de",
          "@value": "Terrasse Penthouse Suite"
        },
        {
          "@language": "en",
          "@value": "Terrasse Penthouse Suite"
        }
      ]
    },
    {
      "@type": "ImageObject",
      "url": "http://resc.deskline.net/images/ZIL/1/d5996441-b201-4a53-b30d-87c0057e9d61/99/image.jpg",
      "caption": [
        {
          "@language": "de",
          "@value": "Infinity Pool am Dach"
        },
        {
          "@language": "en",
          "@value": "Infinity Pool am Dach"
        }
      ]
    },
    {
      "@type": "ImageObject",
      "url": "http://resc.deskline.net/images/ZIL/1/5768cd61-f5d0-4df7-9732-4a551a54726f/99/image.jpg",
      "caption": [
        {
          "@language": "de",
          "@value": "Hotel Lobby"
        },
        {
          "@language": "en",
          "@value": "Hotel Lobby"
        }
      ]
    },
    {
      "@type": "ImageObject",
      "url": "http://resc.deskline.net/images/ZIL/1/136da14b-ea5d-40bc-9bf3-bfc242512a60/99/image.jpg",
      "caption": [
        {
          "@language": "de",
          "@value": "Hotel Bar"
        },
        {
          "@language": "en",
          "@value": "Hotel Bar"
        }
      ]
    },
    {
      "@type": "ImageObject",
      "url": "http://resc.deskline.net/images/ZIL/1/3b653d07-23dd-4f5d-92a7-393391d7015f/99/image.jpg",
      "caption": [
        {
          "@language": "de",
          "@value": "Indoor Golf Simulator"
        },
        {
          "@language": "en",
          "@value": "Indoor Golf Simulator"
        }
      ]
    },
    {
      "@type": "ImageObject",
      "url": "http://resc.deskline.net/images/ZIL/1/75ce6211-0a38-4661-9f0d-12d6f2ef0de0/99/image.jpg",
      "caption": [
        {
          "@language": "de",
          "@value": "Fitness"
        },
        {
          "@language": "en",
          "@value": "Fitness"
        }
      ]
    },
    {
      "@type": "ImageObject",
      "url": "http://resc.deskline.net/images/ZIL/1/15151d24-8487-4561-981b-ee701a0c6290/99/image.jpg",
      "caption": [
        {
          "@language": "de",
          "@value": "Ligne St Barth"
        },
        {
          "@language": "en",
          "@value": "Ligne St Barth"
        }
      ]
    },
    {
      "@type": "ImageObject",
      "url": "http://resc.deskline.net/images/ZIL/1/03fc4a63-886f-467b-8882-0ebc337ccd23/99/image.jpg",
      "caption": [
        {
          "@language": "de",
          "@value": "Wellness Ruheraum"
        },
        {
          "@language": "en",
          "@value": "Wellness Ruheraum"
        }
      ]
    },
    {
      "@type": "ImageObject",
      "url": "http://resc.deskline.net/images/ZIL/1/00e1d40d-afc5-4ac0-afd7-a302dec5c184/99/image.jpg",
      "caption": [
        {
          "@language": "de",
          "@value": "Wein Lounge"
        },
        {
          "@language": "en",
          "@value": "Wein Lounge"
        }
      ]
    },
    {
      "@type": "ImageObject",
      "url": "http://resc.deskline.net/images/ZIL/1/904e5888-7322-4eb2-8e34-b2b1eeb20f0d/99/image.jpg",
      "caption": [
        {
          "@language": "de",
          "@value": "Sonnenterrasse"
        },
        {
          "@language": "en",
          "@value": "Sonnenterrasse"
        }
      ]
    },
    {
      "@type": "ImageObject",
      "url": "http://resc.deskline.net/images/ZIL/1/fa1765fc-00db-402f-9eb5-d07dacabae9f/99/image.jpg",
      "caption": [
        {
          "@language": "de",
          "@value": "Private Spa"
        },
        {
          "@language": "en",
          "@value": "Private Spa"
        }
      ]
    }
  ],
  "geo": {
    "@type": "GeoCoordinates",
    "latitude": "47.3182870829682",
    "longitude": "11.8607686328827"
  },
  "paymentAccepted": [
    "VISA",
    "American Express",
    "Diners",
    "MasterCard"
  ],
  "currenciesAccepted": "EUR",
  "makesOffer": [
    {
      "@type": "Offer",
      "name": [
        {
          "@language": "de",
          "@value": "Doppelzimmer, Toilette und Bad/Dusche getrennt"
        },
        {
          "@language": "en",
          "@value": "Double room, separate toilet and shower/bathtub"
        }
      ],
      "description": [
        {
          "@language": "de",
          "@value": "34 m2 für 2 Personen mit Infrarotkabine, Safe, Sat-TV, W-LAN, Radio und Telefon, Dusche, WC getrennt, Tiefgaragenparkplatz, Bademäntel und Filzpatschen leihweise im Zimmer, Minibar gefüllt mit kostenlosen alkoholfreien Getränken.\n"
        }
      ],
      "availability": "http://schema.org/InStock",
      "itemOffered": [
        {
          "@type": [
            "HotelRoom",
            "Product"
          ],
          "name": [
            {
              "@language": "de",
              "@value": "Doppelzimmer Klassik"
            },
            {
              "@language": "en",
              "@value": "Double room, separate toilet and shower/bathtub"
            }
          ],
          "description": [
            {
              "@language": "de",
              "@value": "* ca. 31 m2 für 2 Personen mit Infrarotkabine\n* Dusche, WC getrennt\n* Safe, Sat-TV, W-LAN, Radio und Telefon\n* Tiefgaragenparkplatz\n* Bademäntel und Filzpatschen leihweise im Zimmer\n* Minibar gefüllt mit kostenlosen alkoholfreien Getränken.\n"
            }
          ],
          "image": [
            {
              "@type": "ImageObject",
              "url": "http://resc.deskline.net/images/ZIL/1/d2a4ef3c-a7a9-40dd-a983-590701e24fd6/99/image.jpg",
              "caption": [
                {
                  "@language": "de",
                  "@value": "Doppelzimmer \"klassik\""
                },
                {
                  "@language": "en",
                  "@value": "Doppelzimmer \"klassik\""
                }
              ]
            }
          ],
          "bed": {
            "@type": "BedDetails",
            "numberOfBeds": "0"
          },
          "occupancy": {
            "@type": "QuantitativeValue",
            "maxValue": "2",
            "minValue": "1"
          }
        },
        {
          "@type": [
            "HotelRoom",
            "Product"
          ],
          "name": [
            {
              "@language": "de",
              "@value": "Opening Angebot 3 Nächte"
            },
            {
              "@language": "en",
              "@value": "Double room, separate toilet and shower/bathtub"
            }
          ],
          "description": [
            {
              "@language": "de",
              "@value": "* ca. 31 m2 für 2 Personen mit Infrarotkabine\n* Dusche, WC getrennt\n* Safe, Sat-TV, W-LAN, Radio und Telefon\n* Tiefgaragenparkplatz\n* Bademäntel und Filzpatschen leihweise im Zimmer\n* Minibar gefüllt mit kostenlosen alkoholfreien Getränken.\n"
            }
          ],
          "bed": {
            "@type": "BedDetails",
            "numberOfBeds": "0"
          },
          "occupancy": {
            "@type": "QuantitativeValue",
            "maxValue": "2",
            "minValue": "2"
          }
        }
      ],
      "priceSpecification": [
        {
          "@type": "PriceSpecification",
          "description": "Pax 1",
          "minPrice": "165.00",
          "maxPrice": "9999.00",
          "priceCurrency": "EUR"
        },
        {
          "@type": "PriceSpecification",
          "description": "Pax 2",
          "minPrice": "120.00",
          "maxPrice": "334.00",
          "priceCurrency": "EUR"
        }
      ]
    },
    {
      "@type": "Offer",
      "name": [
        {
          "@language": "de",
          "@value": "Doppelzimmer, Toilette und Bad/Dusche getrennt"
        },
        {
          "@language": "en",
          "@value": "Double room, separate toilet and shower/bathtub"
        }
      ],
      "description": [
        {
          "@language": "de",
          "@value": "60m2 für 2-4 Personen mit Infrarotkabine, Balkon bzw. Terrasse, Safe, Sat-TV, W-Lan, Radio und Telefon, Dusche, WC\ngetrennt, Tiefgaragenparkplatz, Bademäntel und Filzpatschen leihweise im Zimmer, Minibar gefüllt mit kostenlosen alkoholfreien\nGetränken.\n"
        }
      ],
      "availability": "http://schema.org/InStock",
      "itemOffered": [
        {
          "@type": [
            "HotelRoom",
            "Product"
          ],
          "name": [
            {
              "@language": "de",
              "@value": "Doppelzimmer De Luxe"
            },
            {
              "@language": "en",
              "@value": "Double room, separate toilet and shower/bathtub"
            }
          ],
          "description": [
            {
              "@language": "de",
              "@value": "* ca. 51 m2 für 2-4 Personen mit Infrarotkabine\n* Dusche, WC getrennt\n* Balkon bzw. Terrasse\n* Safe, Sat-TV, W-Lan, Radio und Telefon\n* Tiefgaragenparkplatz\n* Bademäntel und Filzpatschen leihweise im Zimmer\n* Minibar gefüllt mit kostenlosen alkoholfreien Getränken\n"
            }
          ],
          "image": [
            {
              "@type": "ImageObject",
              "url": "http://resc.deskline.net/images/ZIL/1/432dca3d-a861-4c26-a48d-5e53d0fa3fd5/99/image.jpg",
              "caption": [
                {
                  "@language": "de",
                  "@value": "Doppelzimmer \"de luxe\""
                },
                {
                  "@language": "en",
                  "@value": "Doppelzimmer \"de luxe\""
                }
              ]
            }
          ],
          "bed": {
            "@type": "BedDetails",
            "numberOfBeds": "1"
          },
          "occupancy": {
            "@type": "QuantitativeValue",
            "maxValue": "4",
            "minValue": "2"
          }
        }
      ],
      "priceSpecification": [
        {
          "@type": "PriceSpecification",
          "description": "Pax 1",
          "minPrice": "9999.00",
          "maxPrice": "9999.00",
          "priceCurrency": "EUR"
        },
        {
          "@type": "PriceSpecification",
          "description": "Pax 2",
          "minPrice": "144.00",
          "maxPrice": "394.00",
          "priceCurrency": "EUR"
        },
        {
          "@type": "PriceSpecification",
          "description": "Pax 3",
          "minPrice": "139.20",
          "maxPrice": "383.87",
          "priceCurrency": "EUR"
        },
        {
          "@type": "PriceSpecification",
          "description": "Pax 4",
          "minPrice": "136.80",
          "maxPrice": "378.80",
          "priceCurrency": "EUR"
        }
      ]
    },
    {
      "@type": "Offer",
      "name": [
        {
          "@language": "de",
          "@value": "Suite, Toilette und Bad/Dusche getrennt"
        },
        {
          "@language": "en",
          "@value": "Suite, separate toilet and shower/bathtub"
        }
      ],
      "description": [
        {
          "@language": "de",
          "@value": "70 m2 für 2-4 Personen mit Badelandschaft, WC getrennt, Panoramasauna und Terrasse, Safe, Sat-TV, W-Lan, Radio und Telefon,\nRelaxzone mit Berg- oder Talblick, Tiefgaragenparkplatz, Bademäntel und Filzpatschen leihweise im Zimmer, Minibar gefüllt mit kostenlosen alkoholfreien Getränken.\n"
        }
      ],
      "availability": "http://schema.org/InStock",
      "itemOffered": [
        {
          "@type": [
            "HotelRoom",
            "Product"
          ],
          "name": [
            {
              "@language": "de",
              "@value": "Penthouse Suite"
            },
            {
              "@language": "en",
              "@value": "Suite, separate toilet and shower/bathtub"
            }
          ],
          "description": [
            {
              "@language": "de",
              "@value": "* ca. 73 m2 für 2-4 Personen mit Badelandschaft, WC getrennt\n* Panoramasauna und Terrasse\n* Safe, Sat-TV, W-Lan, Radio und Telefon\n* Relaxzone mit Berg- oder Talblick\n* Tiefgaragenparkplatz\n* Bademäntel und Filzpatschen leihweise im Zimmer\n* Minibar gefüllt mit kostenlosen alkoholfreien Getränken\n"
            }
          ],
          "image": [
            {
              "@type": "ImageObject",
              "url": "http://resc.deskline.net/images/ZIL/1/2d309d24-e581-48d5-9be6-64c8506cc820/99/image.jpg",
              "caption": [
                {
                  "@language": "de",
                  "@value": "Penthouse Suite"
                },
                {
                  "@language": "en",
                  "@value": "Penthouse Suite"
                }
              ]
            }
          ],
          "bed": {
            "@type": "BedDetails",
            "numberOfBeds": "0"
          },
          "occupancy": {
            "@type": "QuantitativeValue",
            "maxValue": "4",
            "minValue": "2"
          }
        }
      ]
    },
    {
      "@type": "Offer",
      "name": [
        {
          "@language": "de",
          "@value": "Suite, Dusche, WC, 2 Schlafräume"
        },
        {
          "@language": "en",
          "@value": "Suite, shower, toilet, 2 bed rooms"
        }
      ],
      "description": [
        {
          "@language": "de",
          "@value": "90 m2 für mind. 4 Personen mit Innensauna, zwei Schlafzimmer jeweils mit Dusche und WC, exklusivem Zugang zum Teich / Sonneninsel, Safe, Sat-TV, W-Lan, Radio und Telefon, Tiefgaragenparkplatz, Bademäntel und Filzpatschen leihweise am Zimmer, Minibar gefüllt mit kostenlosen alkoholfreien Getränken\n"
        }
      ],
      "availability": "http://schema.org/InStock",
      "itemOffered": [
        {
          "@type": [
            "HotelRoom",
            "Product"
          ],
          "name": [
            {
              "@language": "de",
              "@value": "Albatros Suite"
            },
            {
              "@language": "en",
              "@value": "Suite, shower, toilet, 2 bed rooms"
            }
          ],
          "description": [
            {
              "@language": "de",
              "@value": "* ca. 90 m2 für mind. 4 Personen mit Innensauna\n* zwei Schlafzimmer jeweils mit Dusche und WC\n* exklusivem Zugang zum Teich, Sonneninsel\n* Safe, Sat-TV, W-Lan, Radio und Telefon\n* Tiefgaragenparkplatz\n* Bademäntel und Filzpatschen leihweise am Zimmer\n* Minibar gefüllt mit kostenlosen alkoholfreien Getränken\n"
            }
          ],
          "image": [
            {
              "@type": "ImageObject",
              "url": "http://resc.deskline.net/images/ZIL/1/52d8b2e1-75cb-458f-a870-85e1ecc66240/99/image.jpg",
              "caption": [
                {
                  "@language": "de",
                  "@value": "Albatros Suite"
                },
                {
                  "@language": "en",
                  "@value": "Albatros Suite"
                }
              ]
            }
          ],
          "bed": {
            "@type": "BedDetails",
            "numberOfBeds": "0"
          },
          "occupancy": {
            "@type": "QuantitativeValue",
            "maxValue": "6",
            "minValue": "4"
          }
        }
      ],
      "priceSpecification": [
        {
          "@type": "PriceSpecification",
          "description": "Pax 4",
          "minPrice": "120.00",
          "maxPrice": "334.00",
          "priceCurrency": "EUR"
        },
        {
          "@type": "PriceSpecification",
          "description": "Pax 5",
          "minPrice": "117.60",
          "maxPrice": "329.12",
          "priceCurrency": "EUR"
        },
        {
          "@type": "PriceSpecification",
          "description": "Pax 6",
          "minPrice": "116.00",
          "maxPrice": "325.87",
          "priceCurrency": "EUR"
        }
      ]
    }
  ]
}