{
  "@context": "http://schema.org",
  "@type": "LodgingBusiness",
  "url": [
    "http://",
    "http://maps.best-of-zillertal.at/proxy/frontend/page/fuegen/de?foreignResource\u003dda1fd8f2-223a-451d-926d-73a3fabed157"
  ],
  "address": {
    "@type": "PostalAddress",
    "streetAddress": "Dorfplatz 10",
    "addressCountry": "AT",
    "postalCode": "6274",
    "addressRegion": "Aschau im Zillertal",
    "email": "info@krumerhaus.at",
    "url": "http://www.krumerhaus.at"
  },
  "name": "Krumerhaus",
  "description": [
    {
      "@language": "de",
      "@value": "Gemütliches, traditionelles Haus im Tiroler Stil mit zwei neu renovierten Ferienwohnungen, zentral im Ort (567m ü. M.). Bäckerei, Supermarkt, Restaurants, Cafes direkt nebenan. Das Skigebiet Hochzillertal ist ca. 2km und die Zillertal Arena ca. 4 km entfernt. Skibushaltestelle direkt beim Haus. \nDas bietet Ihre Unterkunft: 2 Wohneinheiten, Skiabstellraum\nSport \u0026 Freizeit: Langlaufloipe 100m, Skilift und Skipiste 4km. 10 Schneesichere Skigebiete mit modernsten Liftanlagen auf fast 600 Pistenkilometern warten hier auf die Winterurlauber. NEU ab Winter 2009/2010 Pistenabfahrt direkt nach Aschau möglich. \n"
    },
    {
      "@language": "de",
      "@value": "Hunde erlaubt!\nDa sich beide Wohnungen in einem Geschoss befinden, können beide Wohnungen als eine große Wohnung für bis zu 14 Personen gebucht werden.\nEndreinigung € 15,00 pro Person einmalig"
    },
    {
      "@language": "en",
      "@value": "Cosy, traditional house in tyrolean style with two new renovated apartements, Central in the village (567m). Bakery, supermarket, restaurants, cafes are nearby. The skiarea Hochzillertal is about 2km and the Zillertal Arena about 4km away. Skibusstop directly at the house.\nThe accomodation offers: 2 accomodation units, ski storage room.\nSport \u0026 spare time: crosscountry skirun 100m, skilift and skipiste 4km. 10 areas where snow is asured with modern skifacilities on about 600km of pistes. NEW winter 2009/2010 skirun to Aschau possible."
    },
    {
      "@language": "en",
      "@value": "dogs are allowed!\nBoth apartements are on the 1st floor, so both apartements can be booked also for one big apartement for max. 14 persons.\nFinal cleaning € 15,00 per person"
    }
  ],
  "image": [
    {
      "@type": "ImageObject",
      "url": "http://resc.deskline.net/images/ZIL/1/7a1b14e6-661c-431f-b8b1-ee36b7d961a4/99/image.jpg",
      "caption": [
        {
          "@language": "de",
          "@value": "Haus 1"
        },
        {
          "@language": "en",
          "@value": "Haus 1"
        }
      ]
    },
    {
      "@type": "ImageObject",
      "url": "http://resc.deskline.net/images/ZIL/1/8e818a52-64b9-460d-b09f-7266c71e2014/99/image.jpg",
      "caption": [
        {
          "@language": "de",
          "@value": "Haus 2"
        },
        {
          "@language": "en",
          "@value": "Haus 2"
        }
      ]
    }
  ],
  "geo": {
    "@type": "GeoCoordinates",
    "latitude": "47.263073",
    "longitude": "11.895808"
  },
  "currenciesAccepted": "EUR",
  "makesOffer": [
    {
      "@type": "Offer",
      "name": [
        {
          "@language": "de",
          "@value": "Appartement/Fewo, Dusche, WC, 2 Schlafräume"
        },
        {
          "@language": "en",
          "@value": "Apartment, shower, toilet, 2 bed rooms"
        }
      ],
      "description": [
        {
          "@language": "de",
          "@value": "85m², 2 sep. Schlafräume, max. 6 Personen; 3-Raum-Appartement im 1. Obergeschoss. Wohn-/Schlafzimmer (1 Doppelschlafcouch). 2 Schlafzimmer mit je 1 Doppelbett. Bad mit Doppelwaschtisch, Dusche und WC, 1 separates WC. Küche mit exklusiver Ausstattung und Geschirrspülmaschine. Skiraum. Balkon."
        },
        {
          "@language": "en",
          "@value": "85m², 2 separate bedrooms, max. 6 persons; 3-room-apartement in the 1st floor. Living-/bedroom (1 doublebedcouch). 2 bedrooms both with 1 doublebed. Bath with double-washbasin, shower and toilet, 1 toilet separate. Kitchen with exclusive equipment and dishwasher. Skistorageroom. Balcony."
        }
      ],
      "availability": "http://schema.org/InStock",
      "itemOffered": [
        {
          "@type": [
            "Apartment",
            "Product"
          ],
          "name": [
            {
              "@language": "de",
              "@value": "Ferienwohnung \"Gerlosstein\""
            },
            {
              "@language": "en",
              "@value": "apartment/2 bedrooms/shower, WC"
            }
          ],
          "numberOfRooms": "3.0",
          "occupancy": {
            "@type": "QuantitativeValue",
            "maxValue": "6",
            "minValue": "4"
          }
        }
      ]
    },
    {
      "@type": "Offer",
      "name": [
        {
          "@language": "de",
          "@value": "Appartement/Fewo, Dusche, WC, 3 Schlafräume"
        },
        {
          "@language": "en",
          "@value": "Apartment, shower, toilet, 3 bed rooms"
        }
      ],
      "description": [
        {
          "@language": "de",
          "@value": "120m², 3 sep. Schlafräume, max. 8 Personen; 4-Raum-Appartement im 1. Obergeschoss. 2 Schlafzimmer mit je 1 Doppelbett und 1 Doppelschlafcouch. Schlafzimmer mit 1 Doppelbett. Wonküche mit exklusiver Ausstattung und Geschirrspülmaschine. Bad mit Doppelwaschtisch, Dusche und Wc, 1 separates WC. Diele. Skiraum. Balkon."
        },
        {
          "@language": "en",
          "@value": "120m², 3 sep. bedrooms, max. 8 persons; 4-room-appartement on the 1st floor. 2 bedrooms both with 1 doublebed and 1 doublebedcouch. Bedroom with 1 doublebed. Combined living-kitchen with exclusive equipment and dishwasher. Bath with doublewashbasin, shower and toilet, 1 toilet separate. Hall. Skistorageroom. Balcony."
        }
      ],
      "availability": "http://schema.org/InStock",
      "itemOffered": [
        {
          "@type": [
            "Apartment",
            "Product"
          ],
          "name": [
            {
              "@language": "de",
              "@value": "Ferienwohnung \"Hamberg\""
            },
            {
              "@language": "en",
              "@value": "apartment/3 bedrooms/shower, WC"
            }
          ],
          "numberOfRooms": "4.0",
          "occupancy": {
            "@type": "QuantitativeValue",
            "maxValue": "8",
            "minValue": "6"
          }
        }
      ]
    }
  ]
}