{
  "@context": "http://schema.org",
  "@type": "BedAndBreakfast",
  "url": [
    "http://maps.best-of-zillertal.at/proxy/frontend/page/fuegen/de?foreignResource\u003dDAA329A1-DE45-4CE6-934D-A15E72095E67"
  ],
  "address": {
    "@type": "PostalAddress",
    "streetAddress": "Innere Embergstraße 26",
    "addressCountry": "AT",
    "postalCode": "6272",
    "addressRegion": "Kaltenbach",
    "telephone": "(0043) 5283 3563",
    "email": "richard.hainz@gmx.at"
  },
  "name": "Hainz, Berta",
  "description": [
    {
      "@language": "de",
      "@value": "Ruhige Lage im Ortsteil Emberg mit herrlichem Ausblick auf das gesamte Zillertal, ca. 5 Fahrminuten vom Zentrum bzw. von der Talstation des Skizentrums Hochzilletal."
    },
    {
      "@language": "en",
      "@value": "Calm location with a wonderful view on the mountains. Downtown and the valley station is about 5 minutes by car away."
    }
  ],
  "image": [
    {
      "@type": "ImageObject",
      "url": "http://resc.deskline.net/images/ZIL/1/6b7d46f2-7ae2-44a6-865a-c1357d9366d2/99/image.jpg",
      "caption": [
        {
          "@language": "de",
          "@value": "Hainz Berta Kaltenbach"
        },
        {
          "@language": "en",
          "@value": "Hainz Berta Kaltenbach"
        }
      ]
    }
  ],
  "geo": {
    "@type": "GeoCoordinates",
    "latitude": "47.281892947701088",
    "longitude": "11.874589920043945"
  },
  "currenciesAccepted": "EUR",
  "makesOffer": [
    {
      "@type": "Offer",
      "name": [
        {
          "@language": "de",
          "@value": "Doppelzimmer, fl. k/w Wasser"
        },
        {
          "@language": "en",
          "@value": "Double room, running hot/cold water"
        }
      ],
      "description": [
        {
          "@language": "de",
          "@value": "Zimmer mit warm und kalt Fließwasser, Balkon, Sitzecke"
        }
      ],
      "availability": "http://schema.org/InStock",
      "itemOffered": [
        {
          "@type": [
            "HotelRoom",
            "Product"
          ],
          "name": [
            {
              "@language": "de",
              "@value": "Doppelzimmer mit fl. Wasser"
            },
            {
              "@language": "en",
              "@value": "double room with running hot/cold water"
            }
          ],
          "bed": {
            "@type": "BedDetails",
            "numberOfBeds": "1"
          },
          "occupancy": {
            "@type": "QuantitativeValue",
            "maxValue": "2",
            "minValue": "2"
          }
        }
      ]
    },
    {
      "@type": "Offer",
      "name": [
        {
          "@language": "de",
          "@value": "Doppelzimmer, fl. k/w Wasser"
        },
        {
          "@language": "en",
          "@value": "Double room, running hot/cold water"
        }
      ],
      "description": [
        {
          "@language": "de",
          "@value": "Zimmer mit warm und kalt Fließwasser, Balkon, Sitzecke"
        }
      ],
      "availability": "http://schema.org/InStock",
      "itemOffered": [
        {
          "@type": [
            "HotelRoom",
            "Product"
          ],
          "name": [
            {
              "@language": "de",
              "@value": "Doppelzimmer mit fl. Wasser"
            },
            {
              "@language": "en",
              "@value": "double room with running hot/cold water"
            }
          ],
          "bed": {
            "@type": "BedDetails",
            "numberOfBeds": "1"
          },
          "occupancy": {
            "@type": "QuantitativeValue",
            "maxValue": "3",
            "minValue": "2"
          }
        }
      ]
    },
    {
      "@type": "Offer",
      "name": [
        {
          "@language": "de",
          "@value": "Doppelzimmer, fl. k/w Wasser"
        },
        {
          "@language": "en",
          "@value": "Double room, running hot/cold water"
        }
      ],
      "description": [
        {
          "@language": "de",
          "@value": "Kleineres Doppelzimmer (ideal für 2 Kinder), warm und kalt Fließwasser"
        }
      ],
      "availability": "http://schema.org/InStock",
      "itemOffered": [
        {
          "@type": [
            "HotelRoom",
            "Product"
          ],
          "name": [
            {
              "@language": "de",
              "@value": "Doppelzimmer mit fl. Wasser"
            },
            {
              "@language": "en",
              "@value": "double room with running hot/cold water"
            }
          ],
          "bed": {
            "@type": "BedDetails",
            "numberOfBeds": "1"
          },
          "occupancy": {
            "@type": "QuantitativeValue",
            "maxValue": "2",
            "minValue": "1"
          }
        }
      ]
    }
  ]
}