{
  "@context": "http://schema.org",
  "@type": "LodgingBusiness",
  "url": [
    "http://"
  ],
  "address": {
    "@type": "PostalAddress",
    "streetAddress": "Eichenweg 4",
    "addressCountry": "AT",
    "postalCode": "6265",
    "addressRegion": "Hart im Zillertal",
    "telephone": "(0043) 6645226150",
    "email": "max.eberharter@gmx.at"
  },
  "name": "Haus Max",
  "geo": {
    "@type": "GeoCoordinates",
    "latitude": "47.3520494",
    "longitude": "11.8719852"
  },
  "currenciesAccepted": "EUR"
}