{
  "@context": "http://schema.org",
  "@type": "LodgingBusiness",
  "url": [
    "http://maps.best-of-zillertal.at/proxy/frontend/page/fuegen/de?foreignResource\u003dDE885CF6-C6C6-4681-A0F3-E2A0553038DB",
    "http://www.zellbergbuam.at/Ferienhaus.html"
  ],
  "address": {
    "@type": "PostalAddress",
    "name": "Ferienhaus Spitaler",
    "streetAddress": "Eichenweg 16",
    "addressCountry": "AT",
    "postalCode": "6263",
    "addressRegion": "Fügen",
    "telephone": "(0043) 5288 63316",
    "email": "josef-lydia-spitaler@aon.at",
    "url": "http://www.zellbergbuam.at/Ferienhaus.html"
  },
  "name": "Ferienhaus Spitaler",
  "description": [
    {
      "@language": "de",
      "@value": "Unser Ferienhaus befindet sich in sonniger und ruhiger Lage mit genügend Parkplätzen und großem Garten im Ortsteil Kleinboden.\nIm Haus befinden sich 3 Appartements. \nIn der Nähe (ca. 5 Autominuten) befindet sich die Spieljochbahn, das Schigebiet Hochzillertal - Hochfügen, die Erlebnistherme, der Eislaufplatz, das Freibad, der Tennisplatz, der Minigolfplatz, für Pferdefreunde die Reitanlage Edhof und der neue 18-Loch-Golfplatz in Uderns. Die nächste Einkaufsmöglichkeit ist in ca. 10 Minuten zu Fuß erreichbar. Die Ortszentren Fügen und Uderns sind in ca. 15 Minuten zu Fuß erreichbar.\nDie Schibushaltestelle ist nur 100 Meter vom Haus entfernt.\nEin Schischuhtrockner und ein absperrbarer Schiraum ist für unsere Gäste vorhanden."
    },
    {
      "@language": "de",
      "@value": "Die Anreise ist ab 14 Uhr möglich."
    },
    {
      "@language": "en",
      "@value": "Guesthouse in typical tyrolean style in sunny and quiet position at the district Kleinboden,\nnext to skibus stop and piste, only a few minutes far from the centre."
    },
    {
      "@language": "en",
      "@value": "Arrival is possible from 14 o`clock."
    }
  ],
  "image": [
    {
      "@type": "ImageObject",
      "url": "http://resc.deskline.net/images/ZIL/1/e1061df2-e2d5-4b3f-acd7-178ab785c476/99/image.jpg",
      "caption": [
        {
          "@language": "de",
          "@value": "Haus Sommer"
        },
        {
          "@language": "en",
          "@value": "Haus Sommer"
        }
      ]
    },
    {
      "@type": "ImageObject",
      "url": "http://resc.deskline.net/images/ZIL/1/685dee1b-a41f-46f3-ac71-3f77e1237f47/99/image.jpg",
      "caption": [
        {
          "@language": "de",
          "@value": "Sommer"
        },
        {
          "@language": "en",
          "@value": "Sommer"
        }
      ]
    },
    {
      "@type": "ImageObject",
      "url": "http://resc.deskline.net/images/ZIL/1/d3504a1e-35c5-474d-b314-9e66646fc2fe/99/image.jpg",
      "caption": [
        {
          "@language": "de",
          "@value": "Ausblick vom Balkon"
        },
        {
          "@language": "en",
          "@value": "Ausblick vom Balkon"
        }
      ]
    },
    {
      "@type": "ImageObject",
      "url": "http://resc.deskline.net/images/ZIL/1/e7289f46-c46a-4eb6-8d76-d255e12a4e9c/99/image.jpg",
      "caption": [
        {
          "@language": "de",
          "@value": "Blick zur St Pankrazkirche"
        },
        {
          "@language": "en",
          "@value": "Blick zur St Pankrazkirche"
        }
      ]
    },
    {
      "@type": "ImageObject",
      "url": "http://resc.deskline.net/images/ZIL/1/d5b78db5-5866-4916-b7ae-78288b4771f6/99/image.jpg",
      "caption": [
        {
          "@language": "de",
          "@value": "Hausansicht"
        },
        {
          "@language": "en",
          "@value": "Hausansicht"
        }
      ]
    },
    {
      "@type": "ImageObject",
      "url": "http://resc.deskline.net/images/ZIL/1/aaa03639-c6b0-42a3-8925-0a7bb45b4b13/99/image.jpg",
      "caption": [
        {
          "@language": "de",
          "@value": "Hauseinfahrt"
        },
        {
          "@language": "en",
          "@value": "Hauseinfahrt"
        }
      ]
    },
    {
      "@type": "ImageObject",
      "url": "http://resc.deskline.net/images/ZIL/1/0f19e554-d049-40a5-bff4-c0b5eaa31a56/99/image.jpg",
      "caption": [
        {
          "@language": "de",
          "@value": "Blick zum Haus"
        },
        {
          "@language": "en",
          "@value": "Blick zum Haus"
        }
      ]
    },
    {
      "@type": "ImageObject",
      "url": "http://resc.deskline.net/images/ZIL/1/9e217858-277e-4d83-8a6a-ad24ce32e0e2/99/image.jpg",
      "caption": [
        {
          "@language": "de",
          "@value": "Blick von Wiese zum Haus"
        },
        {
          "@language": "en",
          "@value": "Blick von Wiese zum Haus"
        }
      ]
    },
    {
      "@type": "ImageObject",
      "url": "http://resc.deskline.net/images/ZIL/1/d8d71b8c-f19f-41e5-8d70-b4569672a4f9/99/image.jpg",
      "caption": [
        {
          "@language": "de",
          "@value": "Winteransicht"
        },
        {
          "@language": "en",
          "@value": "Winteransicht"
        }
      ]
    },
    {
      "@type": "ImageObject",
      "url": "http://resc.deskline.net/images/ZIL/1/e7e46a6e-4949-46c3-9ed7-f5aafa2f082a/99/image.jpg",
      "caption": [
        {
          "@language": "de",
          "@value": "Winter"
        },
        {
          "@language": "en",
          "@value": "Winter"
        }
      ]
    },
    {
      "@type": "ImageObject",
      "url": "http://resc.deskline.net/images/ZIL/1/3acdd571-a30d-4304-8e14-eea4944990ab/99/image.jpg",
      "caption": [
        {
          "@language": "de",
          "@value": "Aussicht vom Balkon"
        },
        {
          "@language": "en",
          "@value": "Aussicht vom Balkon"
        }
      ]
    },
    {
      "@type": "ImageObject",
      "url": "http://resc.deskline.net/images/ZIL/1/0b57b419-aa9d-4660-b07a-26ab23e210fb/99/image.jpg",
      "caption": [
        {
          "@language": "de",
          "@value": "Aussicht vom Balkon im Winter"
        },
        {
          "@language": "en",
          "@value": "Aussicht vom Balkon im Winter"
        }
      ]
    },
    {
      "@type": "ImageObject",
      "url": "http://resc.deskline.net/images/ZIL/1/42ddbba6-b984-4dfd-964a-be96f946f6f1/99/image.jpg",
      "caption": [
        {
          "@language": "de",
          "@value": "Haus Winter"
        },
        {
          "@language": "en",
          "@value": "Haus Winter"
        }
      ]
    },
    {
      "@type": "ImageObject",
      "url": "http://resc.deskline.net/images/ZIL/1/e5982d18-9812-4df3-b8f4-cf984a83f33a/99/image.jpg",
      "caption": [
        {
          "@language": "de",
          "@value": "Haus im Winter"
        },
        {
          "@language": "en",
          "@value": "Haus im Winter"
        }
      ]
    },
    {
      "@type": "ImageObject",
      "url": "http://resc.deskline.net/images/ZIL/1/bae2d3a5-f96f-4c8e-8e9d-53cb2801e28d/99/image.jpg",
      "caption": [
        {
          "@language": "de",
          "@value": "Schischuhtrockner"
        },
        {
          "@language": "en",
          "@value": "Schischuhtrockner"
        }
      ]
    },
    {
      "@type": "ImageObject",
      "url": "http://resc.deskline.net/images/ZIL/1/6256e165-a921-495f-b15e-597264ad3e67/99/image.jpg",
      "caption": [
        {
          "@language": "de",
          "@value": "Herzlich Willkommen!"
        },
        {
          "@language": "en",
          "@value": "Herzlich Willkommen!"
        }
      ]
    }
  ],
  "geo": {
    "@type": "GeoCoordinates",
    "latitude": "47.328345393241",
    "longitude": "11.851095678589"
  },
  "currenciesAccepted": "EUR",
  "makesOffer": [
    {
      "@type": "Offer",
      "name": [
        {
          "@language": "de",
          "@value": "Appartement/Fewo, Dusche, WC, 3 Schlafräume"
        },
        {
          "@language": "en",
          "@value": "Apartment, shower, toilet, 3 bed rooms"
        }
      ],
      "description": [
        {
          "@language": "de",
          "@value": "Appartement für 2-8 Personen im Obergeschoß:\n\n2 Doppelzimmer teilen sich ein Bad (Dusche und WC), 1 Doppelzimmer mit eigener Dusche und WC, in Zimmer 2 können 2 Zusatzbetten dazugestellt werden, alle Zimmer mit Balkon, Küche mit Elektroherd, Backrohr, Kühlschrank, Geschirr, Kaffeemaschine, Eierkocher, Toaster und  Sat-TV."
        },
        {
          "@language": "en",
          "@value": "Apartment upstairs for 2-8 persons:\n\n3 bedrooms, shower/WC, balcony, kitchen with electric stove, fridge, coffee machine, electric kettle, toaster; radio, TV; crockery available."
        }
      ],
      "availability": "http://schema.org/InStock",
      "itemOffered": [
        {
          "@type": [
            "Apartment",
            "Product"
          ],
          "name": [
            {
              "@language": "de",
              "@value": "Appartement OG"
            },
            {
              "@language": "en",
              "@value": "Apartment, shower, toilet, 3 bed rooms"
            }
          ],
          "numberOfRooms": "4.0",
          "occupancy": {
            "@type": "QuantitativeValue",
            "maxValue": "8",
            "minValue": "2"
          }
        }
      ],
      "priceSpecification": [
        {
          "@type": "PriceSpecification",
          "description": "Pax 2",
          "minPrice": "130.00",
          "maxPrice": "200.00",
          "priceCurrency": "EUR"
        },
        {
          "@type": "PriceSpecification",
          "description": "Pax 3",
          "minPrice": "130.00",
          "maxPrice": "200.00",
          "priceCurrency": "EUR"
        },
        {
          "@type": "PriceSpecification",
          "description": "Pax 4",
          "minPrice": "130.00",
          "maxPrice": "200.00",
          "priceCurrency": "EUR"
        },
        {
          "@type": "PriceSpecification",
          "description": "Pax 5",
          "minPrice": "130.00",
          "maxPrice": "200.00",
          "priceCurrency": "EUR"
        },
        {
          "@type": "PriceSpecification",
          "description": "Pax 6",
          "minPrice": "130.00",
          "maxPrice": "200.00",
          "priceCurrency": "EUR"
        },
        {
          "@type": "PriceSpecification",
          "description": "Pax 7",
          "minPrice": "130.00",
          "maxPrice": "200.00",
          "priceCurrency": "EUR"
        },
        {
          "@type": "PriceSpecification",
          "description": "Pax 8",
          "minPrice": "130.00",
          "maxPrice": "200.00",
          "priceCurrency": "EUR"
        }
      ]
    },
    {
      "@type": "Offer",
      "name": [
        {
          "@language": "de",
          "@value": "Appartement/Fewo, Dusche und Bad, WC, 2 Schlafräume"
        },
        {
          "@language": "en",
          "@value": "Apartment, shower and bath, toilet, 2 bed rooms"
        }
      ],
      "description": [
        {
          "@language": "de",
          "@value": "Appartement für 2-7 Personen im Erdgeschoß:\n\n2 Schlafzimmer mit jeweils 1 Doppelbett, in Zimmer 1 kann ein Zusatzbett dazugestellt werden, in Zimmer 2 befindet sich zusätzlich 1 Stockbett, 1 Bad, 1 WC und große Küche mit Holzherd, Elektroherd mit Ceranfeld, Mikrowelle, Dunstabzug, Backrohr, Kühlschrank mit Gefrierfach, Geschirr, Kaffeemaschine, Wasserkocher, Toaster, Eierkocher und  SAT-TV."
        },
        {
          "@language": "en",
          "@value": "Apartment in the ground-floor for 2-7 persons:\n\n2 bedrooms, bathroom, toilet, kitchen with electric stove, fridge with freezer, microwave, coffee machine, electric kettle, toaster, Radio, TV; crockery available"
        }
      ],
      "availability": "http://schema.org/InStock",
      "itemOffered": [
        {
          "@type": [
            "Apartment",
            "Product"
          ],
          "name": [
            {
              "@language": "de",
              "@value": "Appartement EG"
            },
            {
              "@language": "en",
              "@value": "Apartment, shower and bath, toilet, 2 bed rooms"
            }
          ],
          "numberOfRooms": "3.0",
          "occupancy": {
            "@type": "QuantitativeValue",
            "maxValue": "7",
            "minValue": "2"
          }
        }
      ],
      "priceSpecification": [
        {
          "@type": "PriceSpecification",
          "description": "Pax 2",
          "minPrice": "105.00",
          "maxPrice": "175.00",
          "priceCurrency": "EUR"
        },
        {
          "@type": "PriceSpecification",
          "description": "Pax 3",
          "minPrice": "105.00",
          "maxPrice": "175.00",
          "priceCurrency": "EUR"
        },
        {
          "@type": "PriceSpecification",
          "description": "Pax 4",
          "minPrice": "105.00",
          "maxPrice": "175.00",
          "priceCurrency": "EUR"
        },
        {
          "@type": "PriceSpecification",
          "description": "Pax 5",
          "minPrice": "105.00",
          "maxPrice": "175.00",
          "priceCurrency": "EUR"
        },
        {
          "@type": "PriceSpecification",
          "description": "Pax 6",
          "minPrice": "105.00",
          "maxPrice": "175.00",
          "priceCurrency": "EUR"
        },
        {
          "@type": "PriceSpecification",
          "description": "Pax 7",
          "minPrice": "105.00",
          "maxPrice": "175.00",
          "priceCurrency": "EUR"
        }
      ]
    },
    {
      "@type": "Offer",
      "name": [
        {
          "@language": "de",
          "@value": "Appartement/Fewo, Dusche, WC, 1 Schlafraum"
        },
        {
          "@language": "en",
          "@value": "Apartment, shower, toilet, 1 bed room"
        }
      ],
      "description": [
        {
          "@language": "de",
          "@value": "Appartement für 2 - 4 Personen im Untergeschoß:\n\n1 Schlafzimmer(mit 1 Doppelbett und 1 Stockbett), Bad mit Dusche/Badewanne und WC und Küche mit großem Tisch und langer Eckbank, Elektroherd, Backrohr, Kühlschrank, Geschirr, Kaffeemaschine, Wasserkocher, Eierkocher und SAT-TV.\n\n\n\n"
        },
        {
          "@language": "en",
          "@value": "Apartment downstairs for 2-4 persons:\n\n1 bedroom with double bed and bunk bed, a bathroom, kitchen with electric stove, fridge, electric kettle, coffee machine, toaster, Radio, TV; crockery available"
        }
      ],
      "availability": "http://schema.org/InStock",
      "itemOffered": [
        {
          "@type": [
            "Apartment",
            "Product"
          ],
          "name": [
            {
              "@language": "de",
              "@value": "Appartement UG"
            },
            {
              "@language": "en",
              "@value": "Apartment, shower, toilet, 1 bed room"
            }
          ],
          "numberOfRooms": "2.0",
          "occupancy": {
            "@type": "QuantitativeValue",
            "maxValue": "4",
            "minValue": "2"
          }
        }
      ],
      "priceSpecification": [
        {
          "@type": "PriceSpecification",
          "description": "Pax 2",
          "minPrice": "70.00",
          "maxPrice": "140.00",
          "priceCurrency": "EUR"
        },
        {
          "@type": "PriceSpecification",
          "description": "Pax 3",
          "minPrice": "70.00",
          "maxPrice": "140.00",
          "priceCurrency": "EUR"
        },
        {
          "@type": "PriceSpecification",
          "description": "Pax 4",
          "minPrice": "70.00",
          "maxPrice": "140.00",
          "priceCurrency": "EUR"
        }
      ]
    },
    {
      "@type": "Offer",
      "name": [
        {
          "@language": "de",
          "@value": "Ferienhaus, Dusche, WC, 4 oder mehr Schlafräume"
        },
        {
          "@language": "en",
          "@value": "Holiday home, shower, toilet, 4 or more bed rooms"
        }
      ],
      "description": [
        {
          "@language": "de",
          "@value": "Das Ferienhaus besteht aus 3 Appartements für insgesamt 19 Personen.\n\nDas Appartement im Obergeschoss besteht aus 3 Schlafzimmern, Küche u. 2 Bädern mit WC.\nDas Appartement im Erdgeschoss besteht aus 2 Schlafzimmern, Küche, 1 Bad und 1 WC.\nDas Appartement im Untergeschoss besteht aus 1 Schlafzimmer, Küche und 1 Bad mit WC."
        },
        {
          "@language": "en",
          "@value": "In the house there are 3 Apartments for about 19 persons.\n\nIn the Apartment upstairs there are 3 bedrooms, 1 kitchen and 3 bathrooms with toilet.\nIn the Apartment in the ground-floor there are 2 bedrooms, 1 kitchen, 1 bathroom and 1 toilet.\nIn the Apartment downstairs there is 1 bedroom, 1 kitchen and 1 bathroom with toilet."
        }
      ],
      "availability": "http://schema.org/InStock",
      "itemOffered": [
        {
          "@type": [
            "Apartment",
            "Product"
          ],
          "name": [
            {
              "@language": "de",
              "@value": "Ferienhaus"
            },
            {
              "@language": "en",
              "@value": "Holiday home, shower, toilet, 4 or more bed rooms"
            }
          ],
          "numberOfRooms": "10.0",
          "occupancy": {
            "@type": "QuantitativeValue",
            "maxValue": "19",
            "minValue": "12"
          }
        }
      ],
      "priceSpecification": [
        {
          "@type": "PriceSpecification",
          "description": "Pax 12",
          "minPrice": "300.00",
          "maxPrice": "475.00",
          "priceCurrency": "EUR"
        },
        {
          "@type": "PriceSpecification",
          "description": "Pax 13",
          "minPrice": "300.00",
          "maxPrice": "475.00",
          "priceCurrency": "EUR"
        },
        {
          "@type": "PriceSpecification",
          "description": "Pax 14",
          "minPrice": "300.00",
          "maxPrice": "475.00",
          "priceCurrency": "EUR"
        },
        {
          "@type": "PriceSpecification",
          "description": "Pax 15",
          "minPrice": "300.00",
          "maxPrice": "475.00",
          "priceCurrency": "EUR"
        },
        {
          "@type": "PriceSpecification",
          "description": "Pax 16",
          "minPrice": "300.00",
          "maxPrice": "475.00",
          "priceCurrency": "EUR"
        },
        {
          "@type": "PriceSpecification",
          "description": "Pax 17",
          "minPrice": "300.00",
          "maxPrice": "475.00",
          "priceCurrency": "EUR"
        },
        {
          "@type": "PriceSpecification",
          "description": "Pax 18",
          "minPrice": "300.00",
          "maxPrice": "475.00",
          "priceCurrency": "EUR"
        },
        {
          "@type": "PriceSpecification",
          "description": "Pax 19",
          "minPrice": "300.00",
          "maxPrice": "475.00",
          "priceCurrency": "EUR"
        }
      ]
    }
  ]
}