{
  "@context": "http://schema.org",
  "@type": "LodgingBusiness",
  "url": [
    "http://www.haus-freund.at",
    "http://maps.best-of-zillertal.at/proxy/frontend/page/fuegen/de?foreignResource\u003dE1165D14-FD25-4B61-9FB0-13DCBDCA0A09"
  ],
  "address": {
    "@type": "PostalAddress",
    "streetAddress": "Pinzgerhausweg 9",
    "addressCountry": "AT",
    "postalCode": "6275",
    "addressRegion": "Stumm",
    "telephone": "(0043) 5283 3477",
    "faxNumber": "(0043) 5283 3477",
    "email": "haus-freund@a1.net",
    "url": "http://www.haus-freund.at"
  },
  "name": "Haus Freund",
  "description": [
    {
      "@language": "de",
      "@value": "Wohnkomfort und herrlicher Panoramablick auf die Zillertaler Alpen warten auf Sie! Unser Haus Freund befindet sich in sonniger und ruhiger Lage etwas außerhalb des Ortkerns Stumm, in der Ersten Ferienregion Zillertal. \n\nSie wohnen nur 10 Gehminuten vom Zentrum Stumm wo Sie Einkaufsmöglichkeiten, Bahnhof und Bushaltestelle vorfinden. Der Ort Fügen, mit dem Skigebiet Spieljoch, liegt nur 10 Fahrminuten entfernt und Kaltenbach, mit dem bekannten Skigebiet Hochzillertal - Hochfügen erreichen Sie in nur 5 Fahrminuten. \n\nOb Zimmer oder Ferienwohnung, bei uns fühlen Sie sich wie zu Hause!\nUnsere gemütlichen Zimmer bieten viel Platz und einen herrlichen Balkon. Sie können von hier aus die wunderbare Bergwelt der Ersten Ferienregion Zillertal genießen. Ausgestattet sind diese mit DU/WC, TV und kostenlosem WLan. Das Frühstück ist hierbei inbegriffen. \n\nUnsere schöne Ferienwohnung ist ca. 65m2 groß und bietet Platz für bis zu 6 Personen. Ausgestattet ist diese mit Küche inklusive Geschirrspüle, Wohnschlafzimmer mit Ausziehcouch, Dreibettzimmer mit DU/WC, Doppelzimmer mit getrennten Betten, Balkon, SAT-TV und WLan. Gerne organisieren wir für Sie täglich frischen Brötchenservice oder gegen Aufpreis ein reichhaltiges Frühstück. Handtücher und Bettwäsche sind selbstverständlich vorhanden. \n\nAktiv und entspannt durch den Sommer - die Erste Ferienregion Zillertal und unser Haus Freund machen’s möglich! Neben zahlreichen Rad- und Wanderwegen die unmittelbar an unserem Haus vorbeiführen, erreichen Sie die Badewelt Stumm in nur 10 Gehminuten. Ebenso können Sie unseren Garten mit Liegewiese und Sonnenterrasse zum Erholen nutzen. \n\nDer Winter im Zillertal verspricht herrliche Pisten für groß und klein! Das Winterparadies Hochzillertal - Hochfügen liegt nur 5 Fahrminuten vom Haus Freund entfernt und der kostenlose Skibus hält nur 3 Gehminuten von unserem Haus. Im Skigebiet Hochzillertal - Hochfügen finden Sie sowohl Skischule und Skiverleih als auch Programm für unsere Nachtaktiven. Apres Ski bzw. Nachtskilauf sind bei unseren Gästen sehr beliebt. Natürlich steht ein Raum für Ihre Skiausrüstung und ein Skischutrockner im Haus Freund zur Verfügung. \n\nWir freuen uns über Ihren Besuch in der Ersten Ferienregion Zillertal! \nIhre Familie Freund"
    },
    {
      "@language": "de",
      "@value": "Kinderermäßigung auf Anfrage !"
    },
    {
      "@language": "de",
      "@value": "Anreise ab 14:00 Uhr "
    },
    {
      "@language": "en",
      "@value": "Comfort accommodation and a wonderful panorama view of the Zillertaler Alps await you! Our guesthouse Freund is located in a sunny and quiet area on the outskirts of Stumm, in Erste Ferienregion Zillertal.\n\nYou are accommodated only 10 minutes away from the centre of Stumm where you can find shopping facilities, the station and bus stops after a short walk. Fügen with the Spieljoch skiing area, is only 10 minutes away by car and Kaltenbach, with the well-known skiing resort of Hochzillertal - Hochfügen can be reached within 5 minutes only. \n\nWhether rooms or holiday apartment, with us you will feel like home!\nOur cosy rooms offer much space and a wonderful balcony from where you can enjoy the marvellous view of the mountains of Erste Ferienregion Zillertal. The rooms all come with shower/WC, TV and free Wifi and breakfast is included. \n\nOur beautiful holiday apartment measures about 65m2 and offers room for up to 6 people. It comes with kitchen including a dishwasher, living/bed room with extendable couch, three-bed room with shower/WC, double room with separate beds, balcony, satellite TV and Wifi. We are happy to provide a daily fresh roll service or a rich breakfast against a small fee. Towels and bed linen are, of course, available. \n\nEnjoy both active and relaxed summer holidays -  Erste Ferienregion Zillertal and our house make it possible! In addition to numerous bicycle trails and hiking paths near our house, you reach the leisure pools Stumm within 10 minutes on foot. Of course, you can also use our garden with sun bathing lawn and terrace for relaxation. \n\nThe winter in the Zillertal promises wonderful runs for little and grown-up guests The winter paradise of Hochzillertal - Hochfügen is only 5 minutes away from our house by car and the free ski bus stop only 3 minutes on foot. In the Hochzillertal - Hochfügen skiing area you find both ski schools and ski rentals and many events on offer at night; après-ski and/or night ski run are highly popular among our guests. Of course a room for your ski equipment is available in the Haus Freund. \n\nWe look forward to your visit in the Erste Ferienregion Zillertal.\nYour hosts, the Freund family\n"
    },
    {
      "@language": "en",
      "@value": "Children\u0027s reduction on request !"
    },
    {
      "@language": "en",
      "@value": "Checkin  02:00 pm"
    }
  ],
  "image": [
    {
      "@type": "ImageObject",
      "url": "http://resc.deskline.net/images/ZIL/1/093d29b7-7b2d-431f-a4b7-a5d58a995b0d/99/image.jpg",
      "caption": [
        {
          "@language": "de",
          "@value": "Haus Winter"
        },
        {
          "@language": "en",
          "@value": "Haus Winter"
        }
      ]
    },
    {
      "@type": "ImageObject",
      "url": "http://resc.deskline.net/images/ZIL/1/31d562b7-4be6-42f6-8d3e-5ecd983d0cde/99/image.jpg",
      "caption": [
        {
          "@language": "de",
          "@value": "Haus Sommer"
        },
        {
          "@language": "en",
          "@value": "Haus Sommer"
        }
      ]
    },
    {
      "@type": "ImageObject",
      "url": "http://resc.deskline.net/images/ZIL/1/d7213cdb-56ae-47ba-bcf9-f5f234340d69/99/image.jpg",
      "caption": [
        {
          "@language": "de",
          "@value": "Aussicht Winter"
        },
        {
          "@language": "en",
          "@value": "Aussicht Winter"
        }
      ]
    },
    {
      "@type": "ImageObject",
      "url": "http://resc.deskline.net/images/ZIL/1/f23d415c-c105-4422-9771-cacde25b47bf/99/image.jpg",
      "caption": [
        {
          "@language": "de",
          "@value": "Zimmer"
        },
        {
          "@language": "en",
          "@value": "Zimmer"
        }
      ]
    },
    {
      "@type": "ImageObject",
      "url": "http://resc.deskline.net/images/ZIL/1/07c97326-dcfb-4c8a-8285-5629da509e19/99/image.jpg",
      "caption": [
        {
          "@language": "de",
          "@value": "Wohnküche"
        },
        {
          "@language": "en",
          "@value": "Wohnküche"
        }
      ]
    },
    {
      "@type": "ImageObject",
      "url": "http://resc.deskline.net/images/ZIL/1/39f07301-8032-465c-a6e1-27d4a63ff5ad/99/image.jpg",
      "caption": [
        {
          "@language": "de",
          "@value": "Badezimmer"
        },
        {
          "@language": "en",
          "@value": "Badezimmer"
        }
      ]
    },
    {
      "@type": "ImageObject",
      "url": "http://resc.deskline.net/images/ZIL/1/46d84105-b756-4941-a334-3ed0fa91cb5a/99/image.jpg",
      "caption": [
        {
          "@language": "de",
          "@value": "Ferienwohnung Küche"
        },
        {
          "@language": "en",
          "@value": "Ferienwohnung Küche"
        }
      ]
    },
    {
      "@type": "ImageObject",
      "url": "http://resc.deskline.net/images/ZIL/1/1693cf7e-138f-428f-a573-e35580b15519/99/image.jpg",
      "caption": [
        {
          "@language": "de",
          "@value": "Ferienwohnung Wohnzimmer"
        },
        {
          "@language": "en",
          "@value": "Ferienwohnung Wohnzimmer"
        }
      ]
    },
    {
      "@type": "ImageObject",
      "url": "http://resc.deskline.net/images/ZIL/1/2dcef0f4-ddc9-494d-9715-54248bffea81/99/image.jpg",
      "caption": [
        {
          "@language": "de",
          "@value": "Frühstücksraum"
        },
        {
          "@language": "en",
          "@value": "Frühstücksraum"
        }
      ]
    },
    {
      "@type": "ImageObject",
      "url": "http://resc.deskline.net/images/ZIL/1/371826db-5d5d-4c5e-bdfc-5531b30f8141/99/image.jpg",
      "caption": [
        {
          "@language": "de",
          "@value": "Zimmer 4"
        },
        {
          "@language": "en",
          "@value": "Zimmer 4"
        }
      ]
    },
    {
      "@type": "ImageObject",
      "url": "http://resc.deskline.net/images/ZIL/1/716b2eab-9ea9-43ca-bd15-18d6bfa53922/99/image.jpg",
      "caption": [
        {
          "@language": "de",
          "@value": "Zimmer 5"
        },
        {
          "@language": "en",
          "@value": "Zimmer 5"
        }
      ]
    },
    {
      "@type": "ImageObject",
      "url": "http://resc.deskline.net/images/ZIL/1/ccdbb679-a269-47f4-a696-ee7c27810340/99/image.jpg",
      "caption": [
        {
          "@language": "de",
          "@value": "Zimmer 5 extra Zimmer"
        },
        {
          "@language": "en",
          "@value": "Zimmer 5 extra Zimmer"
        }
      ]
    },
    {
      "@type": "ImageObject",
      "url": "http://resc.deskline.net/images/ZIL/1/146fba76-a93c-4380-8128-1f1b456f9427/99/image.jpg",
      "caption": [
        {
          "@language": "de",
          "@value": "Zimmer 6"
        },
        {
          "@language": "en",
          "@value": "Zimmer 6"
        }
      ]
    },
    {
      "@type": "ImageObject",
      "url": "http://resc.deskline.net/images/ZIL/1/2feda822-6786-41a9-bd87-27cd25288ace/99/image.jpg",
      "caption": [
        {
          "@language": "de",
          "@value": "Haus Winter neu"
        },
        {
          "@language": "en",
          "@value": "Haus Winter neu"
        }
      ]
    }
  ],
  "geo": {
    "@type": "GeoCoordinates",
    "latitude": "47.283252772124",
    "longitude": "11.894139785701"
  },
  "currenciesAccepted": "EUR",
  "makesOffer": [
    {
      "@type": "Offer",
      "name": [
        {
          "@language": "de",
          "@value": "Doppelzimmer, Dusche, WC"
        },
        {
          "@language": "en",
          "@value": "Double room, shower, toilet"
        }
      ],
      "description": [
        {
          "@language": "de",
          "@value": "Schöne Zimmer mit DU/WC, Sitzecke, Balkon, Radio, Sat-TV."
        },
        {
          "@language": "en",
          "@value": "Beautiful rooms with shower/WC, seating corner, balcony, radio"
        }
      ],
      "availability": "http://schema.org/InStock",
      "itemOffered": [
        {
          "@type": [
            "HotelRoom",
            "Product"
          ],
          "name": [
            {
              "@language": "de",
              "@value": "Doppelzimmer mit Dusche, WC"
            },
            {
              "@language": "en",
              "@value": "double room with shower, WC"
            }
          ],
          "bed": {
            "@type": "BedDetails",
            "numberOfBeds": "1"
          },
          "occupancy": {
            "@type": "QuantitativeValue",
            "maxValue": "2",
            "minValue": "1"
          }
        }
      ],
      "priceSpecification": [
        {
          "@type": "PriceSpecification",
          "description": "Pax 1",
          "minPrice": "28.00",
          "maxPrice": "35.00",
          "priceCurrency": "EUR"
        },
        {
          "@type": "PriceSpecification",
          "description": "Pax 2",
          "minPrice": "25.00",
          "maxPrice": "27.00",
          "priceCurrency": "EUR"
        }
      ]
    },
    {
      "@type": "Offer",
      "name": [
        {
          "@language": "de",
          "@value": "Doppelzimmer, Dusche, WC"
        },
        {
          "@language": "en",
          "@value": "Double room, shower, toilet"
        }
      ],
      "description": [
        {
          "@language": "de",
          "@value": "Doppelzimmer mit DU/WC, Balkon, Radio und Sitzecke (3. Bett im extra Raum mit Verbindungstür), Sat-TV."
        },
        {
          "@language": "en",
          "@value": "Double room with shower/WC, balcony, radio and seating corner (3rd bed in extra room)"
        }
      ],
      "availability": "http://schema.org/InStock",
      "itemOffered": [
        {
          "@type": [
            "HotelRoom",
            "Product"
          ],
          "name": [
            {
              "@language": "de",
              "@value": "Doppelzimmer (3)  mit Dusche, WC"
            },
            {
              "@language": "en",
              "@value": "double room with shower, WC"
            }
          ],
          "bed": {
            "@type": "BedDetails",
            "numberOfBeds": "1"
          },
          "occupancy": {
            "@type": "QuantitativeValue",
            "maxValue": "3",
            "minValue": "2"
          }
        }
      ],
      "priceSpecification": [
        {
          "@type": "PriceSpecification",
          "description": "Pax 2",
          "minPrice": "25.00",
          "maxPrice": "30.00",
          "priceCurrency": "EUR"
        },
        {
          "@type": "PriceSpecification",
          "description": "Pax 3",
          "minPrice": "25.00",
          "maxPrice": "30.00",
          "priceCurrency": "EUR"
        }
      ]
    },
    {
      "@type": "Offer",
      "name": [
        {
          "@language": "de",
          "@value": "Appartement/Fewo, Bad, WC, 2 Schlafräume"
        },
        {
          "@language": "en",
          "@value": "Apartment, bath, toilet, 2 bed rooms"
        }
      ],
      "description": [
        {
          "@language": "de",
          "@value": "Schöne Ferienwohnung mit 1 Wohnschlafzimmer mit Ausziehcouch, 1 Dreibettzimmer mit Bad/WC, 1 Doppelzimmer mit getrennten Betten (außerhalb), DU/WC, Balkon, SAT-TV. Küche mit Kaffeemaschine, Backofen, Herd, Kühlschrank,Geschirrspüler, Radio, Mikrowelle. Brötchenservice und Frühstück möglich. Handtücher und Bettwäsche vorhanden."
        },
        {
          "@language": "en",
          "@value": "Beautiful holiday apartment with 1 bed-sitting room with sofa bed, 1 triple room with bath/WC,\n1 double room with separate beds (outside), shower/WC, balcony, satellite TV. Kitchen with coffee maker, oven, cooker, fridge, radio, microwave. Fresh bakery service and breakfast possible. Hand towels and bed linen provided.\n\n"
        }
      ],
      "availability": "http://schema.org/InStock",
      "itemOffered": [
        {
          "@type": [
            "Apartment",
            "Product"
          ],
          "name": [
            {
              "@language": "de",
              "@value": "Apartment/2 Schlafräume/Bad, WC"
            },
            {
              "@language": "en",
              "@value": "apartment/2 bedrooms/bath tube, WC"
            }
          ],
          "numberOfRooms": "3.0",
          "occupancy": {
            "@type": "QuantitativeValue",
            "maxValue": "7",
            "minValue": "2"
          }
        }
      ],
      "priceSpecification": [
        {
          "@type": "PriceSpecification",
          "description": "Pax 2",
          "minPrice": "42.00",
          "maxPrice": "46.00",
          "priceCurrency": "EUR"
        },
        {
          "@type": "PriceSpecification",
          "description": "Pax 3",
          "minPrice": "56.00",
          "maxPrice": "60.00",
          "priceCurrency": "EUR"
        },
        {
          "@type": "PriceSpecification",
          "description": "Pax 4",
          "minPrice": "70.00",
          "maxPrice": "74.00",
          "priceCurrency": "EUR"
        },
        {
          "@type": "PriceSpecification",
          "description": "Pax 5",
          "minPrice": "84.00",
          "maxPrice": "88.00",
          "priceCurrency": "EUR"
        },
        {
          "@type": "PriceSpecification",
          "description": "Pax 6",
          "minPrice": "98.00",
          "maxPrice": "102.00",
          "priceCurrency": "EUR"
        },
        {
          "@type": "PriceSpecification",
          "description": "Pax 7",
          "minPrice": "112.00",
          "maxPrice": "116.00",
          "priceCurrency": "EUR"
        }
      ]
    }
  ]
}