{
  "@context": "http://schema.org",
  "@type": "LodgingBusiness",
  "url": [
    "http://maps.best-of-zillertal.at/proxy/frontend/page/fuegen/de?foreignResource\u003dE74100FD-03CA-4218-A1E4-BE6EC1818EA2"
  ],
  "address": {
    "@type": "PostalAddress",
    "streetAddress": "Loachweg 4",
    "addressCountry": "AT",
    "postalCode": "6275",
    "addressRegion": "Stumm",
    "telephone": "(0043) 676 3746282"
  },
  "name": "Stiegler Barbara",
  "description": [
    {
      "@language": "de",
      "@value": "Ruhige Lage im Ortsteil Ahrnbach, 3 Gehminuten zur Skibushaltestelle und 5 bzw. 8 Gehminuten zu 2 Restaurants in der Nähe. Frühstücksbuffet."
    },
    {
      "@language": "de",
      "@value": "Die Endreinigung beträgt € 70,- pro Aufenthalt ab der ersten Nacht\nNach Vereinbarung werden Bettwäsche sowie Handtücher für € 10 pro Person während des Aufenthalts gewechselt."
    },
    {
      "@language": "en",
      "@value": "Quiet and sunny location on the village outskirts (district Ahrnbach); ski bus stop and restaurant nearby."
    },
    {
      "@language": "en",
      "@value": "final cleaning - € 70,-\nif needed the sheet ans towel can be changed during the stay - € 10,- per Person."
    }
  ],
  "image": [
    {
      "@type": "ImageObject",
      "url": "http://resc.deskline.net/images/ZIL/1/e5da7762-97b7-48a8-a76a-dda5defd852b/99/image.jpg",
      "caption": [
        {
          "@language": "de",
          "@value": "Haus Winter"
        },
        {
          "@language": "en",
          "@value": "Haus Winter"
        }
      ]
    }
  ],
  "geo": {
    "@type": "GeoCoordinates",
    "latitude": "47.2813157",
    "longitude": "11.893763999999999"
  },
  "currenciesAccepted": "EUR",
  "makesOffer": [
    {
      "@type": "Offer",
      "name": [
        {
          "@language": "de",
          "@value": "Appartement/Fewo, Bad, WC, Balkon"
        },
        {
          "@language": "en",
          "@value": "Apartment, bath, toilet, balcony"
        }
      ],
      "description": [
        {
          "@language": "de",
          "@value": "schöne, komplett ausgestattete Ferienwohnung für 3 Personen"
        }
      ],
      "availability": "http://schema.org/InStock",
      "itemOffered": [
        {
          "@type": [
            "Apartment",
            "Product"
          ],
          "name": [
            {
              "@language": "de",
              "@value": "Appartement/Fewo, Bad, WC, Balkon"
            },
            {
              "@language": "en",
              "@value": "Apartment, bath, toilet, balcony"
            }
          ],
          "numberOfRooms": "2.0",
          "occupancy": {
            "@type": "QuantitativeValue",
            "maxValue": "3",
            "minValue": "2"
          }
        }
      ],
      "priceSpecification": [
        {
          "@type": "PriceSpecification",
          "description": "Pax 3",
          "minPrice": "75.00",
          "maxPrice": "96.00",
          "priceCurrency": "EUR"
        }
      ]
    }
  ]
}