{
  "@context": "http://schema.org",
  "@type": "LodgingBusiness",
  "url": [
    "http://maps.best-of-zillertal.at/proxy/frontend/page/fuegen/de?foreignResource\u003dEBFAE424-791B-43C0-AE08-2A8E05E4636D"
  ],
  "address": {
    "@type": "PostalAddress",
    "streetAddress": "Brandstattweg 23",
    "addressCountry": "AT",
    "postalCode": "6273",
    "addressRegion": "Ried im Zillertal",
    "telephone": "(0043) 664 60502241",
    "faxNumber": "(0043) 5283 2596",
    "email": "fewo.rauch.ried@aon.at"
  },
  "name": "Ferienwohnung Rauch",
  "description": [
    {
      "@language": "de",
      "@value": "Kinderfreundliches, gepflegtes Gästehaus in sonniger und ruhiger Lage abseits vom Verkehr am Waldrand. Liegewiese mit Grillmöglichkeit, Parkplatz, Nähe Langlaufloipe, Skiraum, Skibushaltestelle in der Nähe"
    },
    {
      "@language": "de",
      "@value": "Endreinigung Euro 40,-- bis 60,--\n"
    },
    {
      "@language": "de",
      "@value": "Check-in: ab 15.00 Uhr\nCheck-out: bis 10.00 Uhr"
    },
    {
      "@language": "en",
      "@value": "Child-friendly, recently built, refined guest house in sunny and quiet location away from the traffic. Sunbathing lawn with barbecuing facilities, car park,\nclose to cross-country skiing track, ski storage room.\n"
    },
    {
      "@language": "en",
      "@value": "Final cleaning Euro 40,-- bis 60,--"
    },
    {
      "@language": "en",
      "@value": "check-in: from 3.00 pm\ncheck-out: until 10.00 am"
    }
  ],
  "image": [
    {
      "@type": "ImageObject",
      "url": "http://resc.deskline.net/images/ZIL/1/e6f84215-1e2d-4cec-b3a6-d3a22a8a871a/99/image.jpg",
      "caption": [
        {
          "@language": "de",
          "@value": "Haus Winter"
        },
        {
          "@language": "en",
          "@value": "Haus Winter"
        }
      ]
    },
    {
      "@type": "ImageObject",
      "url": "http://resc.deskline.net/images/ZIL/1/230832d6-02dd-4764-bd6c-0ca6893ced96/99/image.jpg",
      "caption": [
        {
          "@language": "de",
          "@value": "Sommer"
        },
        {
          "@language": "en",
          "@value": "Sommer"
        }
      ]
    },
    {
      "@type": "ImageObject",
      "url": "http://resc.deskline.net/images/ZIL/1/45894ea3-e13c-45db-961b-84e4eabce551/99/image.jpg",
      "caption": [
        {
          "@language": "de",
          "@value": "Hausansicht _Winter"
        },
        {
          "@language": "en",
          "@value": "Hausansicht _Winter"
        }
      ]
    },
    {
      "@type": "ImageObject",
      "url": "http://resc.deskline.net/images/ZIL/1/fc83b74d-e93a-4484-a2b6-6b1154db40d0/99/image.jpg",
      "caption": [
        {
          "@language": "de",
          "@value": "Hausansicht_Winter_Wald"
        },
        {
          "@language": "en",
          "@value": "Hausansicht_Winter_Wald"
        }
      ]
    },
    {
      "@type": "ImageObject",
      "url": "http://resc.deskline.net/images/ZIL/1/3f98a58b-be43-4adb-8e28-60658e014057/99/image.jpg",
      "caption": [
        {
          "@language": "de",
          "@value": "Blick_talausärts_2"
        },
        {
          "@language": "en",
          "@value": "Blick_talausärts_2"
        }
      ]
    },
    {
      "@type": "ImageObject",
      "url": "http://resc.deskline.net/images/ZIL/1/d3820f4e-a826-43a0-9d64-5ec2e613aacc/99/image.jpg",
      "caption": [
        {
          "@language": "de",
          "@value": "Balkonblick_2"
        },
        {
          "@language": "en",
          "@value": "Balkonblick_2"
        }
      ]
    },
    {
      "@type": "ImageObject",
      "url": "http://resc.deskline.net/images/ZIL/1/f39bc434-0de2-4967-b1aa-4836f282aac8/99/image.jpg",
      "caption": [
        {
          "@language": "de",
          "@value": "Wetterkreuzblick"
        },
        {
          "@language": "en",
          "@value": "Wetterkreuzblick"
        }
      ]
    },
    {
      "@type": "ImageObject",
      "url": "http://resc.deskline.net/images/ZIL/1/fe71f4ca-fc63-4f89-b8d4-2261c4dc3d77/99/image.jpg",
      "caption": [
        {
          "@language": "de",
          "@value": "Karweendelblick"
        },
        {
          "@language": "en",
          "@value": "Karweendelblick"
        }
      ]
    },
    {
      "@type": "ImageObject",
      "url": "http://resc.deskline.net/images/ZIL/1/d7d50f52-6d2d-4d04-9806-bcc61db96bcd/99/image.jpg",
      "caption": [
        {
          "@language": "de",
          "@value": "Südblick"
        },
        {
          "@language": "en",
          "@value": "Südblick"
        }
      ]
    },
    {
      "@type": "ImageObject",
      "url": "http://resc.deskline.net/images/ZIL/1/7afd34a9-25ac-4f5e-8afc-6c48404454c8/99/image.jpg",
      "caption": [
        {
          "@language": "de",
          "@value": "Balkonblick_1"
        },
        {
          "@language": "en",
          "@value": "Balkonblick_1"
        }
      ]
    },
    {
      "@type": "ImageObject",
      "url": "http://resc.deskline.net/images/ZIL/1/8d001b82-9e01-4287-9625-fb6bbd9dad8c/99/image.jpg",
      "caption": [
        {
          "@language": "de",
          "@value": "Balkonblick_4"
        },
        {
          "@language": "en",
          "@value": "Balkonblick_4"
        }
      ]
    },
    {
      "@type": "ImageObject",
      "url": "http://resc.deskline.net/images/ZIL/1/54992d05-53e6-42ed-9224-676c8247f57f/99/image.jpg",
      "caption": [
        {
          "@language": "de",
          "@value": "Blick_Ski_Zell"
        },
        {
          "@language": "en",
          "@value": "Blick_Ski_Zell"
        }
      ]
    },
    {
      "@type": "ImageObject",
      "url": "http://resc.deskline.net/images/ZIL/1/36166fe7-a51d-4009-bacd-e1a8abc75e6b/99/image.jpg",
      "caption": [
        {
          "@language": "de",
          "@value": "Balkonblick"
        },
        {
          "@language": "en",
          "@value": "Balkonblick"
        }
      ]
    },
    {
      "@type": "ImageObject",
      "url": "http://resc.deskline.net/images/ZIL/1/407919a7-ce89-46ab-8be4-587f0c594b3f/99/image.jpg",
      "caption": [
        {
          "@language": "de",
          "@value": "Hambergblick_Zimmer"
        },
        {
          "@language": "en",
          "@value": "Hambergblick_Zimmer"
        }
      ]
    },
    {
      "@type": "ImageObject",
      "url": "http://resc.deskline.net/images/ZIL/1/88eee0e0-35cd-4b2c-99d1-20ee0f8eeaec/99/image.jpg",
      "caption": [
        {
          "@language": "de",
          "@value": "Ski_Zell_Balkon"
        },
        {
          "@language": "en",
          "@value": "Ski_Zell_Balkon"
        }
      ]
    },
    {
      "@type": "ImageObject",
      "url": "http://resc.deskline.net/images/ZIL/1/4962d1e8-2256-40ba-b516-389dcd6a1a5b/99/image.jpg",
      "caption": [
        {
          "@language": "de",
          "@value": "Balkonblick_5"
        },
        {
          "@language": "en",
          "@value": "Balkonblick_5"
        }
      ]
    },
    {
      "@type": "ImageObject",
      "url": "http://resc.deskline.net/images/ZIL/1/ee9bbe53-69f4-44bc-82fa-d10e895dbd78/99/image.jpg",
      "caption": [
        {
          "@language": "de",
          "@value": "Balkonblick_3"
        },
        {
          "@language": "en",
          "@value": "Balkonblick_3"
        }
      ]
    },
    {
      "@type": "ImageObject",
      "url": "http://resc.deskline.net/images/ZIL/1/f129ae3e-0736-42c0-b686-229b70e40aea/99/image.jpg",
      "caption": [
        {
          "@language": "de",
          "@value": "Hambergblick"
        },
        {
          "@language": "en",
          "@value": "Hambergblick"
        }
      ]
    },
    {
      "@type": "ImageObject",
      "url": "http://resc.deskline.net/images/ZIL/1/72631efa-f47c-4b94-a009-7b5c7496235e/99/image.jpg",
      "caption": [
        {
          "@language": "de",
          "@value": "Stummer- und Gattererbergblick"
        },
        {
          "@language": "en",
          "@value": "Stummer- und Gattererbergblick"
        }
      ]
    },
    {
      "@type": "ImageObject",
      "url": "http://resc.deskline.net/images/ZIL/1/26c70098-a51d-4458-8e9c-84984abde669/99/image.jpg",
      "caption": [
        {
          "@language": "de",
          "@value": "Garten_Winter"
        },
        {
          "@language": "en",
          "@value": "Garten_Winter"
        }
      ]
    },
    {
      "@type": "ImageObject",
      "url": "http://resc.deskline.net/images/ZIL/1/e33fd2de-2fa1-4e11-8274-527a0c1e938c/99/image.jpg",
      "caption": [
        {
          "@language": "de",
          "@value": "Blick_talauswärts"
        },
        {
          "@language": "en",
          "@value": "Blick_talauswärts"
        }
      ]
    },
    {
      "@type": "ImageObject",
      "url": "http://resc.deskline.net/images/ZIL/1/871361a9-572e-4dc8-bab3-bc86564aef29/99/image.jpg",
      "caption": [
        {
          "@language": "de",
          "@value": "Wald_Winter"
        },
        {
          "@language": "en",
          "@value": "Wald_Winter"
        }
      ]
    },
    {
      "@type": "ImageObject",
      "url": "http://resc.deskline.net/images/ZIL/1/2f73e95c-a9b2-4b79-905b-ca6c9e490a2b/99/image.jpg",
      "caption": [
        {
          "@language": "de",
          "@value": "Wanderweg_Winter"
        },
        {
          "@language": "en",
          "@value": "Wanderweg_Winter"
        }
      ]
    },
    {
      "@type": "ImageObject",
      "url": "http://resc.deskline.net/images/ZIL/1/d05f7943-f0c9-4c92-8da4-6862548247d0/99/image.jpg",
      "caption": [
        {
          "@language": "de",
          "@value": "Wanderweg_Riedbach"
        },
        {
          "@language": "en",
          "@value": "Wanderweg_Riedbach"
        }
      ]
    },
    {
      "@type": "ImageObject",
      "url": "http://resc.deskline.net/images/ZIL/1/0c0e5c2c-b6cf-49bf-94a7-df66d9d76a7f/99/image.jpg",
      "caption": [
        {
          "@language": "de",
          "@value": "Riedbach"
        },
        {
          "@language": "en",
          "@value": "Riedbach"
        }
      ]
    }
  ],
  "geo": {
    "@type": "GeoCoordinates",
    "latitude": "47.298273988818622",
    "longitude": "11.86249852180481"
  },
  "currenciesAccepted": "EUR",
  "makesOffer": [
    {
      "@type": "Offer",
      "name": [
        {
          "@language": "de",
          "@value": "Appartement/Fewo, Dusche, WC, 2 Schlafräume"
        },
        {
          "@language": "en",
          "@value": "Apartment, shower, toilet, 2 bed rooms"
        }
      ],
      "description": [
        {
          "@language": "de",
          "@value": "Liebevoll, im ländlichen Stil eingerichtete Ferienwohnung ca. 60m2 mit komplett eingerichteter Wohnküche (Kaffeemaschine, Herd mit Backrohr, Kühlschrank mit Gefrierfach, Geschirrspülmaschine etc.), gemütliches Wohnzimmer mit Kachelofen und Schlafgelegenheit für eine Person, SAT-TV, 2 Doppelzimmer, DU, WC extra, Ost- und Südbalkon,  Handtücher und Bettwäsche vorhanden,  WLAN kostenlos, Brötchenservice;"
        },
        {
          "@language": "en",
          "@value": "Tyrolean style appartment, living-kitchen fully equipped (coffe-machine, oven, fridge, dishwasher etc.), living-romm with tiled stove and sleep facility for 1 person, sat-tv, 2 double-rooms, shower, toilett extra,  east and south balkony, towels and bed-linen included,  wlan, roll service;"
        }
      ],
      "availability": "http://schema.org/InStock",
      "itemOffered": [
        {
          "@type": [
            "Apartment",
            "Product"
          ],
          "name": [
            {
              "@language": "de",
              "@value": "Apartment/2 Schlafräume/Dusche, WC"
            },
            {
              "@language": "en",
              "@value": "apartment/2 bedrooms/shower, WC"
            }
          ],
          "numberOfRooms": "4.0",
          "occupancy": {
            "@type": "QuantitativeValue",
            "maxValue": "6",
            "minValue": "2"
          }
        }
      ],
      "priceSpecification": [
        {
          "@type": "PriceSpecification",
          "description": "Pax 2",
          "minPrice": "30.00",
          "maxPrice": "75.00",
          "priceCurrency": "EUR"
        },
        {
          "@type": "PriceSpecification",
          "description": "Pax 3",
          "minPrice": "45.00",
          "maxPrice": "75.00",
          "priceCurrency": "EUR"
        },
        {
          "@type": "PriceSpecification",
          "description": "Pax 4",
          "minPrice": "60.00",
          "maxPrice": "100.00",
          "priceCurrency": "EUR"
        },
        {
          "@type": "PriceSpecification",
          "description": "Pax 5",
          "minPrice": "70.00",
          "maxPrice": "120.00",
          "priceCurrency": "EUR"
        },
        {
          "@type": "PriceSpecification",
          "description": "Pax 6",
          "minPrice": "80.00",
          "maxPrice": "140.00",
          "priceCurrency": "EUR"
        }
      ]
    }
  ]
}