{
  "@context": "http://schema.org",
  "@type": "LodgingBusiness",
  "url": [
    "http://maps.best-of-zillertal.at/proxy/frontend/page/fuegen/de?foreignResource\u003dEC538916-E25E-4164-A958-95BD84107F6A"
  ],
  "address": {
    "@type": "PostalAddress",
    "name": "Landhaus Hussl",
    "streetAddress": "Fasserweg 21",
    "addressCountry": "AT",
    "postalCode": "6264",
    "addressRegion": "Fügenberg",
    "telephone": "(0043) 650 9666866",
    "email": "untererhof.heim@gmx.at"
  },
  "name": "Landhaus Hussl",
  "description": [
    {
      "@language": "de",
      "@value": "Unser Haus liegt 2 Autominuten vom Ortskern entfernt. Sehr sonnige Lage. Großer Parkplatz beim Haus. Terrasse und Liegewiese mit Schaukel und Spielmöglichkeit für Kinder.\nIm Winter - Wiese zum Rodeln und Rutschen direkt am Haus. Rodeln und Rutschbretter stehen zur Verfügung."
    },
    {
      "@language": "de",
      "@value": "Endreinigung EUR 100,- - 140,-"
    },
    {
      "@language": "en",
      "@value": "Final cleaning EUR 100,- - 140,-"
    }
  ],
  "image": [
    {
      "@type": "ImageObject",
      "url": "http://resc.deskline.net/images/ZIL/1/06c0652a-e5fe-44ea-b3fc-539b193820b1/99/image.jpg",
      "caption": [
        {
          "@language": "de",
          "@value": "Hussl"
        },
        {
          "@language": "en",
          "@value": "Hussl"
        }
      ]
    }
  ],
  "geo": {
    "@type": "GeoCoordinates",
    "latitude": "47.360687888748117",
    "longitude": "11.842746734619141"
  },
  "currenciesAccepted": "EUR",
  "makesOffer": [
    {
      "@type": "Offer",
      "name": [
        {
          "@language": "de",
          "@value": "Ferienhaus, Bad, WC, 4 oder mehr Schlafräume"
        },
        {
          "@language": "en",
          "@value": "Holiday home, bath, toilet, 4 or more bed rooms"
        }
      ],
      "description": [
        {
          "@language": "de",
          "@value": "Im Erdgeschoss befinden sich 2 Schlafzimmer, davon eines mit Sat-TV, ein Bad mit Wanne und WC und eine Küche mit Essecke.\nIm 1. Stock sind 3 Schlafzimmer, ein Bad mit Dusche/WC und 1 Bad mit Wanne und WC, die Hauptküche mit Essecke, Mikrowelle, Spülmaschine, etc. sowie ein Aufenthaltsraum für 14-16 Personen mit Sat-TV.\nIm Dachgeschoss mit Schräge sind 1 Schlafzimmer, 1 Wohnzimmer mit Schlafcouch und Sat-TV und 1 Einzelbett (in der Niesche), sowie ein Bad mit Wanne und 1 seperates WC."
        }
      ],
      "availability": "http://schema.org/InStock",
      "itemOffered": [
        {
          "@type": [
            "Apartment",
            "Product"
          ],
          "name": [
            {
              "@language": "de",
              "@value": "Ferienhaus/4 od. mehr Schlafr./Bad, WC"
            },
            {
              "@language": "en",
              "@value": "hol. house - 4 + more bedrooms/bath tube"
            }
          ],
          "numberOfRooms": "10.0",
          "occupancy": {
            "@type": "QuantitativeValue",
            "maxValue": "16",
            "minValue": "10"
          }
        }
      ]
    }
  ]
}