{
  "@context": "http://schema.org",
  "@type": "LodgingBusiness",
  "url": [
    "http://www.chalet-zillertal.com",
    "http://maps.best-of-zillertal.at/proxy/frontend/page/fuegen/de?foreignResource\u003dee314271-b93b-4f73-bac2-b28cbf3ab388"
  ],
  "address": {
    "@type": "PostalAddress",
    "streetAddress": "Bungalowweg 2",
    "addressCountry": "AT",
    "postalCode": "6274",
    "addressRegion": "Aschau im Zillertal",
    "telephone": "(0043) 664 2627608",
    "email": "office@chalet-zillertal.com",
    "url": "http://www.chalet-zillertal.com"
  },
  "name": "Ferienhaus Chalet Zillertal",
  "description": [
    {
      "@language": "de",
      "@value": "Skiabfahrt zum Haus möglich, Infrarot-Sauna, 2 Schlafzimmer, Bad, WC, 2-6 Personen, offer Kamin\n\nDas Chalet besteht aussen aus Lärchenholz. Innen ist die Wohnküche mit wohlriechendem, gesundem Zirbenholz ausgestatten. Das Haus liegt direkt an zwei der besten Skigebiete des Zillertales und direkt an der Skibushaltestelle nach Hochzillertal und Zillertalarena. Bei guter Schneelage ist die Abfahrt vom Skigebiet Hochzillertal zuerst über die Talabfahrt und dann über die Felder direkt zum Haus möglich. Mit dem Zug ist das Feriendomizil ebenfalls leicht erreichbar (€ 39,- Angebot von Deutschland). Ein offener Kamin bietet die Möglichkeit eines gemütlichen, romantischen Feuers im Wohnzimmer. Wellness kann mit der Infrarotsauna nach einer Ausflug genossen werden. Das komplett neu renoviertes, Haus steht zur Alleinbenützung zur Verfügung. Eine begehbahre, barrierefreie Dusche, Waschmaschine, Parkplatz für 2 Austos und Terrasse mit Gartenmöbel runden das Angebot ab.\n\nSpeziell im Herbst und Vorwinter ist das Skifahren am Zillertaler Gletscher ein tolles Erlebnis, Entfernung ca. 30km!\n\nDas Wohnzimmer ist großteils mit einzigartigem, wohlriechendem ZIRBENHOLZ verkleidet und hat dadurch einen besonderen gesundheitsfördernde Wirkung auf unsere Gäste (siehe www.zirbe.info).\n\nIm Ferienort ist alles voranden, was man braucht. Lebensmittelgeschäft, Restaurants, Pizzeria, Bäcker (Brötchenservice ist dort buchbar), Arzt, eine Apotheke ist im Nachbarort Stumm, Bank.\n\nIm Zillertal kann man unendlich viele Attraktionen im Sommer sowie die beskten Skigebiete im Winter genießen.\n\nFolgende Attraktionen sind in der Nähe:\n\nSOMMER\n\n- Erlebnispark Aufenfeld Camping mit Erlebnisteich, Western-Erlebnisdorf, Tennis, Indoor-Klettern, Hallenbad, usw.\n\n- Minigolf Aschau\n\n- Fussballplatz\n\n- Hochseilgarten Kaltenbach\n\n- Erlebnistherme Fügen\n\n- Sommerbahn Spieljoch mit Schaubergwerk, Klettergarten, usw.\n\n- Sommerbahn Zell/Gerlosstein mit Freizeitpark Zell, Bike Arena, Arena Coaster, Arena Skyliner, Klettersteig, Hochseilgarten Gerlos, Goldschaubergwerk\n\n- Mayrhofen mit Genießerberg Ahorn (Greifvogelschau, usw.) und Aktionberg Penken (Funnballz, Singletrails, usw.)\n\n- Zillertaler Gletscher mit Eisschauhöhle und Spannagelhöhle\n\nWINTER Skigebiete und Rodelbahnen, Langlaufloipen\n\nSkigebiete und Skiverbünde:\n\n- Fügen-Spieljoch: Seehöhe (m) 650-2100, 8 Aufstiegshilfen, 21 km Pisten\n\n- Hochzillertal-Hochfügen: Seehöhe (m) 600-2500, 38 Aufstiegshilfenn, 181 km Pisten\n\n- Zillertalarena: Seehöhe (m) 580-2500, 61 Aufstiegshilfen, 169 km Pisten\n\n- Zillertal Gletscherwelt mit Mayrhofen: Seehöhe (m) 630-3250, 60 Aufstiegshilfen, 245 km Pisten\n\nRodelbahnen: sehr viele in nahezu jedem Ort\n\nDie mit der Gerlosstein Gondelbahn nutzbare, beleuchtete und beschneite 7km lange Rodebahn ist in 5-10 min mit dem Auto erreichbar. Ein professioneller Rodelverleih (jede Kategorie) ist direkt an der Talstation.\n\nBei Schneelage ist die nächste Langlaufloipe in der Nähe des Hauses entlang vom Ziller. Weitere Langlaufloipen sind in den Skigebieten und Hochtäler wie Tuxertal."
    },
    {
      "@language": "de",
      "@value": ""
    },
    {
      "@language": "de",
      "@value": "Ferienhaus, Chalet, Ferienwohnung, Zillertal, Aschau, Urlaub, Ferien, Berge,Skifahren, Wellness"
    },
    {
      "@language": "en",
      "@value": "price exclusive:\nCharge for final cleaning     € 60,00\nbed linen                              € 15,00\ndomestic animals                  €  5,00 per night\nvisitor\u0027s tax\n\n\n"
    },
    {
      "@language": "en",
      "@value": "holyday, appartement, chalet holyday home, mountain, skiimg, skiarea"
    }
  ],
  "image": [
    {
      "@type": "ImageObject",
      "url": "http://resc.deskline.net/images/ZIL/1/e03fbfac-08fb-4291-bf01-e2c8a4a4ad22/99/image.jpg",
      "caption": [
        {
          "@language": "de",
          "@value": "Chalet Zillertal Ansicht West ohne Hecke"
        },
        {
          "@language": "en",
          "@value": "Chalet Zillertal Ansicht West ohne Hecke"
        }
      ]
    },
    {
      "@type": "ImageObject",
      "url": "http://resc.deskline.net/images/ZIL/1/a790a30a-b70a-49d9-8c25-9ce590603320/99/image.jpg",
      "caption": [
        {
          "@language": "de",
          "@value": "Auszeichnung mit 4 Edelweiß"
        },
        {
          "@language": "en",
          "@value": "Auszeichnung mit 4 Edelweiß"
        }
      ]
    },
    {
      "@type": "ImageObject",
      "url": "http://resc.deskline.net/images/ZIL/1/a1ee0383-6282-4c4b-97f7-2e8ec72f8557/99/image.jpg",
      "caption": [
        {
          "@language": "de",
          "@value": "Ansicht West mit Hecke und Sichtschutz"
        },
        {
          "@language": "en",
          "@value": "Ansicht West mit Hecke und Sichtschutz"
        }
      ]
    },
    {
      "@type": "ImageObject",
      "url": "http://resc.deskline.net/images/ZIL/1/cb11fb4b-3eec-4438-b5e2-1d28d300f2d7/99/image.jpg",
      "caption": [
        {
          "@language": "de",
          "@value": "Garten mit Möbel und Aussengrill"
        },
        {
          "@language": "en",
          "@value": "Garten mit Möbel und Aussengrill"
        }
      ]
    },
    {
      "@type": "ImageObject",
      "url": "http://resc.deskline.net/images/ZIL/1/975f2a59-5432-4cda-8fc8-788c0498c60a/99/image.jpg",
      "caption": [
        {
          "@language": "de",
          "@value": "Schlafzimmer süd"
        },
        {
          "@language": "en",
          "@value": "Schlafzimmer süd"
        }
      ]
    },
    {
      "@type": "ImageObject",
      "url": "http://resc.deskline.net/images/ZIL/1/aa6926c8-946f-4a87-bfa7-fe5131f3bf08/99/image.jpg",
      "caption": [
        {
          "@language": "de",
          "@value": "Schlafzimmer süd"
        },
        {
          "@language": "en",
          "@value": "Schlafzimmer süd"
        }
      ]
    },
    {
      "@type": "ImageObject",
      "url": "http://resc.deskline.net/images/ZIL/1/4a221063-552d-477a-8fd0-d2360dfdea5c/99/image.jpg",
      "caption": [
        {
          "@language": "de",
          "@value": "Schlafzimmer süd"
        },
        {
          "@language": "en",
          "@value": "Schlafzimmer süd"
        }
      ]
    },
    {
      "@type": "ImageObject",
      "url": "http://resc.deskline.net/images/ZIL/1/134a8123-742a-4dc4-85cd-46dee4019f50/99/image.jpg",
      "caption": [
        {
          "@language": "de",
          "@value": "Schlafzimmer süd"
        },
        {
          "@language": "en",
          "@value": "Schlafzimmer süd"
        }
      ]
    },
    {
      "@type": "ImageObject",
      "url": "http://resc.deskline.net/images/ZIL/1/a0e1d95b-c1cc-4025-aaf3-8ac692545091/99/image.jpg",
      "caption": [
        {
          "@language": "de",
          "@value": "Schlafzimmer nord"
        },
        {
          "@language": "en",
          "@value": "Schlafzimmer nord"
        }
      ]
    },
    {
      "@type": "ImageObject",
      "url": "http://resc.deskline.net/images/ZIL/1/0e4f0c06-8bc5-41ed-b0a9-0a0ec342fb4b/99/image.jpg",
      "caption": [
        {
          "@language": "de",
          "@value": "Schlafzimmer nord"
        },
        {
          "@language": "en",
          "@value": "Schlafzimmer nord"
        }
      ]
    },
    {
      "@type": "ImageObject",
      "url": "http://resc.deskline.net/images/ZIL/1/e03b291a-452c-47cc-9a31-1a172ea2ea57/99/image.jpg",
      "caption": [
        {
          "@language": "de",
          "@value": "Blick von Galerie zu WC und Schlafzimmer"
        },
        {
          "@language": "en",
          "@value": "Blick von Galerie zu WC und Schlafzimmer"
        }
      ]
    },
    {
      "@type": "ImageObject",
      "url": "http://resc.deskline.net/images/ZIL/1/1f04a0b7-98a8-4bf9-bf50-5fd4d0f0bc8d/99/image.jpg",
      "caption": [
        {
          "@language": "de",
          "@value": "Bad mit begehbarer Dusche"
        },
        {
          "@language": "en",
          "@value": "Bad mit begehbarer Dusche"
        }
      ]
    },
    {
      "@type": "ImageObject",
      "url": "http://resc.deskline.net/images/ZIL/1/ed0bbae4-90fe-43ed-878a-7c77d28797d0/99/image.jpg",
      "caption": [
        {
          "@language": "de",
          "@value": "Bad mit Infrarotsauna"
        },
        {
          "@language": "en",
          "@value": "Bad mit Infrarotsauna"
        }
      ]
    },
    {
      "@type": "ImageObject",
      "url": "http://resc.deskline.net/images/ZIL/1/a527445f-4f38-4a6f-9710-0abb673a4e3f/99/image.jpg",
      "caption": [
        {
          "@language": "de",
          "@value": "Blick vom Bad zur Wohnküche"
        },
        {
          "@language": "en",
          "@value": "Blick vom Bad zur Wohnküche"
        }
      ]
    },
    {
      "@type": "ImageObject",
      "url": "http://resc.deskline.net/images/ZIL/1/9d002d55-3f25-482f-9b2c-a40dc5c0c395/99/image.jpg",
      "caption": [
        {
          "@language": "de",
          "@value": "Wohnküche"
        },
        {
          "@language": "en",
          "@value": "Wohnküche"
        }
      ]
    },
    {
      "@type": "ImageObject",
      "url": "http://resc.deskline.net/images/ZIL/1/489670ac-2ace-429f-90de-2521481f81de/99/image.jpg",
      "caption": [
        {
          "@language": "de",
          "@value": "Wohnküche mit SAT-TV"
        },
        {
          "@language": "en",
          "@value": "Wohnküche mit SAT-TV"
        }
      ]
    },
    {
      "@type": "ImageObject",
      "url": "http://resc.deskline.net/images/ZIL/1/6ffdab62-9b58-4a96-9fc9-7e7562679cf3/99/image.jpg",
      "caption": [
        {
          "@language": "de",
          "@value": "Wohnküche"
        },
        {
          "@language": "en",
          "@value": "Wohnküche"
        }
      ]
    },
    {
      "@type": "ImageObject",
      "url": "http://resc.deskline.net/images/ZIL/1/eee1a47d-4f51-4c0c-9010-2b8c61387713/99/image.jpg",
      "caption": [
        {
          "@language": "de",
          "@value": "Bergüßungsdrink"
        },
        {
          "@language": "en",
          "@value": "Bergüßungsdrink"
        }
      ]
    },
    {
      "@type": "ImageObject",
      "url": "http://resc.deskline.net/images/ZIL/1/2d412306-62b3-475a-a5a5-2207511c4cfc/99/image.jpg",
      "caption": [
        {
          "@language": "de",
          "@value": "Wohnküche mit Galerie"
        },
        {
          "@language": "en",
          "@value": "Wohnküche mit Galerie"
        }
      ]
    },
    {
      "@type": "ImageObject",
      "url": "http://resc.deskline.net/images/ZIL/1/a3dcfa3f-189c-4b00-b1b3-ca6312ffcdf7/99/image.jpg",
      "caption": [
        {
          "@language": "de",
          "@value": "Wohnküche mit offenen Kamin"
        },
        {
          "@language": "en",
          "@value": "Wohnküche mit offenen Kamin"
        }
      ]
    },
    {
      "@type": "ImageObject",
      "url": "http://resc.deskline.net/images/ZIL/1/5cd51df5-3feb-43a9-9179-3b9da437cbb1/99/image.jpg",
      "caption": [
        {
          "@language": "de",
          "@value": "Chouch an Feuerstelle"
        },
        {
          "@language": "en",
          "@value": "Chouch an Feuerstelle"
        }
      ]
    },
    {
      "@type": "ImageObject",
      "url": "http://resc.deskline.net/images/ZIL/1/0be4bd09-2c26-400b-adcc-aa2ea36e34e6/99/image.jpg",
      "caption": [
        {
          "@language": "de",
          "@value": "Gemütliches Ofenfeuer"
        },
        {
          "@language": "en",
          "@value": "Gemütliches Ofenfeuer"
        }
      ]
    },
    {
      "@type": "ImageObject",
      "url": "http://resc.deskline.net/images/ZIL/1/31caf80b-750c-4a61-8095-52541a3fa308/99/image.jpg",
      "caption": [
        {
          "@language": "de",
          "@value": "Vorraum mit Waschmaschine und Schuhtrockner"
        },
        {
          "@language": "en",
          "@value": "Vorraum mit Waschmaschine und Schuhtrockner"
        }
      ]
    },
    {
      "@type": "ImageObject",
      "url": "http://resc.deskline.net/images/ZIL/1/1f73c96b-6899-49a3-8a28-f4704e4046de/99/image.jpg",
      "caption": [
        {
          "@language": "de",
          "@value": "Grudnriss Chalet Zillertal"
        },
        {
          "@language": "en",
          "@value": "Grudnriss Chalet Zillertal"
        }
      ]
    },
    {
      "@type": "ImageObject",
      "url": "http://resc.deskline.net/images/ZIL/1/7c5116df-0232-4e45-8b09-6234a64ec82c/99/image.jpg",
      "caption": [
        {
          "@language": "de",
          "@value": "Skibus 90m vor Haustür zu 2 Topskigebieten"
        },
        {
          "@language": "en",
          "@value": "Skibus 90m vor Haustür zu 2 Topskigebieten"
        }
      ]
    },
    {
      "@type": "ImageObject",
      "url": "http://resc.deskline.net/images/ZIL/1/f6655537-fadd-4006-a699-8caaecd876a4/99/image.jpg",
      "caption": [
        {
          "@language": "de",
          "@value": "Talabfahrt Hochzillertal-Aschau zum Haus mit Ski"
        },
        {
          "@language": "en",
          "@value": "Talabfahrt Hochzillertal-Aschau zum Haus mit Ski"
        }
      ]
    },
    {
      "@type": "ImageObject",
      "url": "http://resc.deskline.net/images/ZIL/1/610db117-2230-4ebf-aec2-1f2685dadc53/99/image.jpg",
      "caption": [
        {
          "@language": "de",
          "@value": "Skigebiet Hochzillertal-Hochfügen-Spieljoch"
        },
        {
          "@language": "en",
          "@value": "Skigebiet Hochzillertal-Hochfügen-Spieljoch"
        }
      ]
    },
    {
      "@type": "ImageObject",
      "url": "http://resc.deskline.net/images/ZIL/1/2c08c8ab-c996-4206-8369-b8de3cf72c60/99/image.jpg",
      "caption": [
        {
          "@language": "de",
          "@value": "Skigebiet Zillertalarena"
        },
        {
          "@language": "en",
          "@value": "Skigebiet Zillertalarena"
        }
      ]
    },
    {
      "@type": "ImageObject",
      "url": "http://resc.deskline.net/images/ZIL/1/4b0fa7c2-610d-4103-b8d1-c9ec5e4681da/99/image.jpg",
      "caption": [
        {
          "@language": "de",
          "@value": "Skifahren in Hochzillertal und Zillertalarena"
        },
        {
          "@language": "en",
          "@value": "Skifahren in Hochzillertal und Zillertalarena"
        }
      ]
    },
    {
      "@type": "ImageObject",
      "url": "http://resc.deskline.net/images/ZIL/1/ccac61b5-e996-4989-ba03-c4e819c99593/99/image.jpg",
      "caption": [
        {
          "@language": "de",
          "@value": "Skifahren im Tiefschnee"
        },
        {
          "@language": "en",
          "@value": "Skifahren im Tiefschnee"
        }
      ]
    },
    {
      "@type": "ImageObject",
      "url": "http://resc.deskline.net/images/ZIL/1/8cbdb990-b75d-45c8-8cde-cb90737d8350/99/image.jpg",
      "caption": [
        {
          "@language": "de",
          "@value": "Radfahren im Zillertal"
        },
        {
          "@language": "en",
          "@value": "Radfahren im Zillertal"
        }
      ]
    },
    {
      "@type": "ImageObject",
      "url": "http://resc.deskline.net/images/ZIL/1/b2cfbb8c-164d-4a02-a448-e19993c3e8f8/99/image.jpg",
      "caption": [
        {
          "@language": "de",
          "@value": "Bergwandern im Zillertal"
        },
        {
          "@language": "en",
          "@value": "Bergwandern im Zillertal"
        }
      ]
    },
    {
      "@type": "ImageObject",
      "url": "http://resc.deskline.net/images/ZIL/1/b09d926b-57a2-4cbf-aff2-c886896c8514/99/image.jpg",
      "caption": [
        {
          "@language": "de",
          "@value": "Therme Zillertal/Fügen bei Nacht"
        },
        {
          "@language": "en",
          "@value": "Therme Zillertal/Fügen bei Nacht"
        }
      ]
    },
    {
      "@type": "ImageObject",
      "url": "http://resc.deskline.net/images/ZIL/1/649858fd-0e3c-4150-87a1-c211481712a8/99/image.jpg",
      "caption": [
        {
          "@language": "de",
          "@value": "Freibäder im Zillertal"
        },
        {
          "@language": "en",
          "@value": "Freibäder im Zillertal"
        }
      ]
    }
  ],
  "geo": {
    "@type": "GeoCoordinates",
    "latitude": "47.2594214",
    "longitude": "11.8933016"
  },
  "currenciesAccepted": "EUR",
  "makesOffer": [
    {
      "@type": "Offer",
      "name": [
        {
          "@language": "de",
          "@value": "Ferienhaus, Dusche, WC, 2 Schlafräume"
        },
        {
          "@language": "en",
          "@value": "Holiday home, shower, toilet, 2 bed rooms"
        }
      ],
      "description": [
        {
          "@language": "de",
          "@value": "Es sind 2 Schlafzimmer mit Doppelbett vorhanden. Eine zusätzliche Schlafcouch für 1-2 Personen befindet sich im Wohnzimmer. Das Bad ist mit Doppelwaschbecken, Regendusche und Infrarotsauna ausgestattet. Ein extra WC steht ebenfalls zur Verfügung. Die komplett eingerichtete Wohn-Küche ist nagelneu. Im Wohnzimmer ist ein Esstisch , ein großer Flat-TV, Stereo-Anlage und offener Kamin vorhanden. Eine Waschmaschine sowie Zentralheizung mit Gas und kostenloser WLAN-Internet runden das Angebot ab.\n    "
        }
      ],
      "availability": "http://schema.org/InStock",
      "itemOffered": [
        {
          "@type": [
            "Apartment",
            "Product"
          ],
          "name": [
            {
              "@language": "de",
              "@value": "Ferienhaus, Dusche,WC, 2 Schlafräume,Infrarotsauna"
            },
            {
              "@language": "en",
              "@value": "Holiday home, shower, toilet, 2 bed rooms"
            }
          ],
          "numberOfRooms": "4.0",
          "occupancy": {
            "@type": "QuantitativeValue",
            "maxValue": "4",
            "minValue": "2"
          }
        }
      ],
      "priceSpecification": [
        {
          "@type": "PriceSpecification",
          "description": "Pax 2",
          "minPrice": "90.00",
          "maxPrice": "220.00",
          "priceCurrency": "EUR"
        },
        {
          "@type": "PriceSpecification",
          "description": "Pax 3",
          "minPrice": "110.00",
          "maxPrice": "220.00",
          "priceCurrency": "EUR"
        },
        {
          "@type": "PriceSpecification",
          "description": "Pax 4",
          "minPrice": "120.00",
          "maxPrice": "220.00",
          "priceCurrency": "EUR"
        }
      ]
    }
  ]
}