{
  "@context": "http://schema.org",
  "@type": "Campground",
  "url": [
    "http://www.camping-zillertal.at",
    "http://maps.best-of-zillertal.at/proxy/frontend/page/fuegen/de?foreignResource\u003dEF1EF2E0-E642-4801-81C1-355A2B328A42"
  ],
  "address": {
    "@type": "PostalAddress",
    "name": "Camping Aufenfeld GmbH",
    "streetAddress": "Aufenfeldweg 10",
    "addressCountry": "AT",
    "postalCode": "6274",
    "addressRegion": "Aschau im Zillertal",
    "telephone": "(0043) 5282 2916",
    "faxNumber": "(0043) 5282 2916 11",
    "email": "info@camping-zillertal.at",
    "url": "http://www.camping-zillertal.at"
  },
  "name": "Camping Aufenfeld",
  "image": [
    {
      "@type": "ImageObject",
      "url": "http://resc.deskline.net/images/ZIL/1/26334098-7481-46b8-8679-dca360dcc43b/99/image.jpg",
      "caption": [
        {
          "@language": "de",
          "@value": "Sauna"
        },
        {
          "@language": "en",
          "@value": "Sauna"
        }
      ]
    },
    {
      "@type": "ImageObject",
      "url": "http://resc.deskline.net/images/ZIL/1/96f3584b-8de6-4fd2-a76c-513bc4bec7e5/99/image.jpg",
      "caption": [
        {
          "@language": "de",
          "@value": "Dampfbad 1"
        },
        {
          "@language": "en",
          "@value": "Dampfbad 1"
        }
      ]
    },
    {
      "@type": "ImageObject",
      "url": "http://resc.deskline.net/images/ZIL/1/96225a17-bba4-4216-aa58-13cc0194854f/99/image.jpg",
      "caption": [
        {
          "@language": "de",
          "@value": "Dampfbad 2"
        },
        {
          "@language": "en",
          "@value": "Dampfbad 2"
        }
      ]
    },
    {
      "@type": "ImageObject",
      "url": "http://resc.deskline.net/images/ZIL/1/84e9c39d-12b5-48b5-a648-2e9d0a8a1617/99/image.jpg",
      "caption": [
        {
          "@language": "de",
          "@value": "Eingang Dampfbäder"
        },
        {
          "@language": "en",
          "@value": "Eingang Dampfbäder"
        }
      ]
    },
    {
      "@type": "ImageObject",
      "url": "http://resc.deskline.net/images/ZIL/1/977ecb25-2dc0-4071-874f-646aa7e5806b/99/image.jpg",
      "caption": [
        {
          "@language": "de",
          "@value": "Hallenbad"
        },
        {
          "@language": "en",
          "@value": "Hallenbad"
        }
      ]
    },
    {
      "@type": "ImageObject",
      "url": "http://resc.deskline.net/images/ZIL/1/e95e7a2c-dce9-485c-9d1c-c479e08d82ec/99/image.jpg",
      "caption": [
        {
          "@language": "de",
          "@value": "Kinderbecken Hallenbad"
        },
        {
          "@language": "en",
          "@value": "Kinderbecken Hallenbad"
        }
      ]
    },
    {
      "@type": "ImageObject",
      "url": "http://resc.deskline.net/images/ZIL/1/cd97e560-63c4-4a72-84f9-5e1045f22bd2/99/image.jpg",
      "caption": [
        {
          "@language": "de",
          "@value": "Erlebnisteich"
        },
        {
          "@language": "en",
          "@value": "Erlebnisteich"
        }
      ]
    },
    {
      "@type": "ImageObject",
      "url": "http://resc.deskline.net/images/ZIL/1/b53e99a0-9e0b-44d7-bfa8-0f965cab8c6f/99/image.jpg",
      "caption": [
        {
          "@language": "de",
          "@value": "Übungs Skilift"
        },
        {
          "@language": "en",
          "@value": "Übungs Skilift"
        }
      ]
    },
    {
      "@type": "ImageObject",
      "url": "http://resc.deskline.net/images/ZIL/1/03213965-5d47-4295-a159-77a5c73e6965/99/image.jpg",
      "caption": [
        {
          "@language": "de",
          "@value": "Infrarotkabine"
        },
        {
          "@language": "en",
          "@value": "Infrarotkabine"
        }
      ]
    },
    {
      "@type": "ImageObject",
      "url": "http://resc.deskline.net/images/ZIL/1/25309a1b-8a01-4331-83a4-0e1b8ab6a84c/99/image.jpg",
      "caption": [
        {
          "@language": "de",
          "@value": "Appartement 8"
        },
        {
          "@language": "en",
          "@value": "Appartement 8"
        }
      ]
    },
    {
      "@type": "ImageObject",
      "url": "http://resc.deskline.net/images/ZIL/1/a2092588-29a2-4a29-bd4d-fafc10f302a1/99/image.jpg",
      "caption": [
        {
          "@language": "de",
          "@value": "Appartement 8 Badezimmer"
        },
        {
          "@language": "en",
          "@value": "Appartement 8 Badezimmer"
        }
      ]
    },
    {
      "@type": "ImageObject",
      "url": "http://resc.deskline.net/images/ZIL/1/eae24c48-e7ba-4a54-b41f-4f7d1323d5db/99/image.jpg",
      "caption": [
        {
          "@language": "de",
          "@value": "Appartement 8 Balkon Aussicht"
        },
        {
          "@language": "en",
          "@value": "Appartement 8 Balkon Aussicht"
        }
      ]
    },
    {
      "@type": "ImageObject",
      "url": "http://resc.deskline.net/images/ZIL/1/25804e04-3294-4bac-9113-40f746af0559/99/image.jpg",
      "caption": [
        {
          "@language": "de",
          "@value": "Appartement 8 Einbettzimmer"
        },
        {
          "@language": "en",
          "@value": "Appartement 8 Einbettzimmer"
        }
      ]
    },
    {
      "@type": "ImageObject",
      "url": "http://resc.deskline.net/images/ZIL/1/54b3b60e-848a-40f0-9acc-00a6dbde499f/99/image.jpg",
      "caption": [
        {
          "@language": "de",
          "@value": "Appartement 8 Kueche"
        },
        {
          "@language": "en",
          "@value": "Appartement 8 Kueche"
        }
      ]
    },
    {
      "@type": "ImageObject",
      "url": "http://resc.deskline.net/images/ZIL/1/29011935-067f-4c16-9e49-8dd72d2a1806/99/image.jpg",
      "caption": [
        {
          "@language": "de",
          "@value": "Appartement 8 Schlafzimmer"
        },
        {
          "@language": "en",
          "@value": "Appartement 8 Schlafzimmer"
        }
      ]
    },
    {
      "@type": "ImageObject",
      "url": "http://resc.deskline.net/images/ZIL/1/27017279-f907-4015-a722-af1770d60f01/99/image.jpg",
      "caption": [
        {
          "@language": "de",
          "@value": "Appartement 8 Wohnzimmer"
        },
        {
          "@language": "en",
          "@value": "Appartement 8 Wohnzimmer"
        }
      ]
    },
    {
      "@type": "ImageObject",
      "url": "http://resc.deskline.net/images/ZIL/1/689319d4-8601-416a-9102-0c0d34417800/99/image.jpg",
      "caption": [
        {
          "@language": "de",
          "@value": "Appartement 13"
        },
        {
          "@language": "en",
          "@value": "Appartement 13"
        }
      ]
    },
    {
      "@type": "ImageObject",
      "url": "http://resc.deskline.net/images/ZIL/1/2b69eaab-b48d-4679-89cc-2799e0cc4a6f/99/image.jpg",
      "caption": [
        {
          "@language": "de",
          "@value": "Appartement 13 Badezimmer"
        },
        {
          "@language": "en",
          "@value": "Appartement 13 Badezimmer"
        }
      ]
    },
    {
      "@type": "ImageObject",
      "url": "http://resc.deskline.net/images/ZIL/1/238b91b0-9b84-42ad-8dc7-057d2b1b44a8/99/image.jpg",
      "caption": [
        {
          "@language": "de",
          "@value": "Appartement 13 Badezimmer1"
        },
        {
          "@language": "en",
          "@value": "Appartement 13 Badezimmer1"
        }
      ]
    },
    {
      "@type": "ImageObject",
      "url": "http://resc.deskline.net/images/ZIL/1/cb866781-cfaa-4bd7-96ac-da8cf2ad0507/99/image.jpg",
      "caption": [
        {
          "@language": "de",
          "@value": "Appartement 13 Balkon Aussicht"
        },
        {
          "@language": "en",
          "@value": "Appartement 13 Balkon Aussicht"
        }
      ]
    },
    {
      "@type": "ImageObject",
      "url": "http://resc.deskline.net/images/ZIL/1/ea5d020b-0b57-4808-9a91-a5f037299ca2/99/image.jpg",
      "caption": [
        {
          "@language": "de",
          "@value": "Appartement 13 Schlafzimmer"
        },
        {
          "@language": "en",
          "@value": "Appartement 13 Schlafzimmer"
        }
      ]
    },
    {
      "@type": "ImageObject",
      "url": "http://resc.deskline.net/images/ZIL/1/884f9b96-3c94-43e5-b821-6394cbbe6756/99/image.jpg",
      "caption": [
        {
          "@language": "de",
          "@value": "Appartement 13 Schlafzimmer1"
        },
        {
          "@language": "en",
          "@value": "Appartement 13 Schlafzimmer1"
        }
      ]
    },
    {
      "@type": "ImageObject",
      "url": "http://resc.deskline.net/images/ZIL/1/93e5df1c-39eb-4e1f-9918-71af62a7fc2b/99/image.jpg",
      "caption": [
        {
          "@language": "de",
          "@value": "Appartement 14"
        },
        {
          "@language": "en",
          "@value": "Appartement 14"
        }
      ]
    },
    {
      "@type": "ImageObject",
      "url": "http://resc.deskline.net/images/ZIL/1/9912f128-bbdb-4fe7-9b5d-b5f0db779451/99/image.jpg",
      "caption": [
        {
          "@language": "de",
          "@value": "Appartement 14 Badezimmer"
        },
        {
          "@language": "en",
          "@value": "Appartement 14 Badezimmer"
        }
      ]
    },
    {
      "@type": "ImageObject",
      "url": "http://resc.deskline.net/images/ZIL/1/dcddbe43-cdd6-4c33-949a-87d5cdec4a73/99/image.jpg",
      "caption": [
        {
          "@language": "de",
          "@value": "Appartement 14 Küche"
        },
        {
          "@language": "en",
          "@value": "Appartement 14 Küche"
        }
      ]
    },
    {
      "@type": "ImageObject",
      "url": "http://resc.deskline.net/images/ZIL/1/ac896631-a573-4441-b764-1e89e8572121/99/image.jpg",
      "caption": [
        {
          "@language": "de",
          "@value": "Schwimmbad 1"
        },
        {
          "@language": "en",
          "@value": "Schwimmbad 1"
        }
      ]
    },
    {
      "@type": "ImageObject",
      "url": "http://resc.deskline.net/images/ZIL/1/76de4627-748d-44e5-ab7e-266b751d49ed/99/image.jpg",
      "caption": [
        {
          "@language": "de",
          "@value": "Schwimmbad 2"
        },
        {
          "@language": "en",
          "@value": "Schwimmbad 2"
        }
      ]
    },
    {
      "@type": "ImageObject",
      "url": "http://resc.deskline.net/images/ZIL/1/078d7fce-35ef-4cf6-b807-315501cd7fb0/99/image.jpg",
      "caption": [
        {
          "@language": "de",
          "@value": "Schwimmbad 3"
        },
        {
          "@language": "en",
          "@value": "Schwimmbad 3"
        }
      ]
    },
    {
      "@type": "ImageObject",
      "url": "http://resc.deskline.net/images/ZIL/1/4e7ea432-3fdd-477a-9c2b-024dd7709baf/99/image.jpg",
      "caption": [
        {
          "@language": "de",
          "@value": "Schwimmbad 4"
        },
        {
          "@language": "en",
          "@value": "Schwimmbad 4"
        }
      ]
    },
    {
      "@type": "ImageObject",
      "url": "http://resc.deskline.net/images/ZIL/1/aeac3e9d-1cf0-4bde-a528-3e7a671e6169/99/image.jpg",
      "caption": [
        {
          "@language": "de",
          "@value": "Schwimmbad "
        },
        {
          "@language": "en",
          "@value": "Schwimmbad "
        }
      ]
    },
    {
      "@type": "ImageObject",
      "url": "http://resc.deskline.net/images/ZIL/1/15e142da-6457-4b9e-9599-42487f76f6d1/99/image.jpg",
      "caption": [
        {
          "@language": "de",
          "@value": "Wellness 1"
        },
        {
          "@language": "en",
          "@value": "Wellness 1"
        }
      ]
    },
    {
      "@type": "ImageObject",
      "url": "http://resc.deskline.net/images/ZIL/1/d856ca8b-f02d-4b2a-a93f-f8b6047a7094/99/image.jpg",
      "caption": [
        {
          "@language": "de",
          "@value": "Wellness 2"
        },
        {
          "@language": "en",
          "@value": "Wellness 2"
        }
      ]
    },
    {
      "@type": "ImageObject",
      "url": "http://resc.deskline.net/images/ZIL/1/063c6583-2d44-463d-acfe-cffc5cf26a0c/99/image.jpg",
      "caption": [
        {
          "@language": "de",
          "@value": "Wellness 3"
        },
        {
          "@language": "en",
          "@value": "Wellness 3"
        }
      ]
    },
    {
      "@type": "ImageObject",
      "url": "http://resc.deskline.net/images/ZIL/1/3d5752ba-0a4b-43fe-bb69-98a6461f0dc7/99/image.jpg",
      "caption": [
        {
          "@language": "de",
          "@value": "Wellness 4"
        },
        {
          "@language": "en",
          "@value": "Wellness 4"
        }
      ]
    },
    {
      "@type": "ImageObject",
      "url": "http://resc.deskline.net/images/ZIL/1/9e58dd24-c597-4d41-a493-aa8bb4e23e7b/99/image.jpg",
      "caption": [
        {
          "@language": "de",
          "@value": "Wellness 5"
        },
        {
          "@language": "en",
          "@value": "Wellness 5"
        }
      ]
    },
    {
      "@type": "ImageObject",
      "url": "http://resc.deskline.net/images/ZIL/1/56d01832-da52-42c7-8e4e-1da92984b2d1/99/image.jpg",
      "caption": [
        {
          "@language": "de",
          "@value": "Wellness 6"
        },
        {
          "@language": "en",
          "@value": "Wellness 6"
        }
      ]
    },
    {
      "@type": "ImageObject",
      "url": "http://resc.deskline.net/images/ZIL/1/2e586b73-3dab-4585-aae6-cd07ab9890ec/99/image.jpg",
      "caption": [
        {
          "@language": "de",
          "@value": "Wellness "
        },
        {
          "@language": "en",
          "@value": "Wellness "
        }
      ]
    },
    {
      "@type": "ImageObject",
      "url": "http://resc.deskline.net/images/ZIL/1/6d674a00-96be-4e28-873f-1a5363ba4552/99/image.jpg",
      "caption": [
        {
          "@language": "de",
          "@value": "Wellness Detail"
        },
        {
          "@language": "en",
          "@value": "Wellness Detail"
        }
      ]
    },
    {
      "@type": "ImageObject",
      "url": "http://resc.deskline.net/images/ZIL/1/77773029-5eaa-4e10-8430-9e7285bded6e/99/image.jpg",
      "caption": [
        {
          "@language": "de",
          "@value": "Wellness Feuerstelle"
        },
        {
          "@language": "en",
          "@value": "Wellness Feuerstelle"
        }
      ]
    },
    {
      "@type": "ImageObject",
      "url": "http://resc.deskline.net/images/ZIL/1/fe4c03ac-74f6-4cf8-b5b5-fafdd41316ce/99/image.jpg",
      "caption": [
        {
          "@language": "de",
          "@value": "Wellness Terrasse"
        },
        {
          "@language": "en",
          "@value": "Wellness Terrasse"
        }
      ]
    }
  ],
  "geo": {
    "@type": "GeoCoordinates",
    "latitude": "47.262438",
    "longitude": "11.902568"
  },
  "currenciesAccepted": "EUR"
}