{
  "@context": "http://schema.org",
  "@type": "LodgingBusiness",
  "url": [
    "http://www.apart-kopp.at",
    "http://maps.best-of-zillertal.at/proxy/frontend/page/fuegen/de?foreignResource\u003dF1B6454E-1A62-4B3A-A64D-1D8C56B5CC87"
  ],
  "address": {
    "@type": "PostalAddress",
    "name": "Apart Kopp",
    "streetAddress": "Kleinriedstraße 7",
    "addressCountry": "AT",
    "postalCode": "6273",
    "addressRegion": "Ried im Zillertal",
    "telephone": "(0043) 5283 2378",
    "email": "martha@apart-kopp.at",
    "url": "http://www.apart-kopp.at"
  },
  "name": "Apart Kopp",
  "description": [
    {
      "@language": "de",
      "@value": "Familienfreundliches Gästehaus in sonniger u. ruhigen Lage; Zentrumsnähe. SKIGEBIETSNÄHE - HOCHZILLERTAL ! 1 Appartment für 2 - 4 Personen mit  \n2 Schlafzimmern, 1 gemütliche Wohnküche , 1x Bad /Dusche /WC mit Föhn,  Abstellraum für Ski und Skischuhe, Gratis SKIBUS hält direkt beim Haus !!!. Hotel-Alpina mit Hallenbad und Sauna nur 50 m entfernt, Langlaufloipe. Rad- und Wanderwege in der Nähe, Grillplatz, Einstellplatz für Fahrräder, großer Garten mit Liegewiese, Gartenmöbel, Nichtraucherhaus!    Bus u. Bahnhaltestelle gut zu Fuß erreichbar. \nMehr Informationen finden sie auf -    http://www.apart-kopp.at\n\nNEU -  WLAN Internet gratis !\n\nStaatlich geprüfter Berg u. Skiführer sowie Skilehrer:\nhttp:// www.daniel-kopp.at \n"
    },
    {
      "@language": "de",
      "@value": "Verbilligte Angebote in den Nebensaisonen !\nDer Preis richtet sich in der Nebensaison nach der Personenanzahl."
    },
    {
      "@language": "de",
      "@value": "Anreise ab 14:00"
    },
    {
      "@language": "en",
      "@value": "Family-friendly guest house in sunny, central location; children\u0027s playing field, ski bus stop just in front of the establishment, skiroom, cross-country skiing track, cycling and hiking paths close by, barbeque place, room for bikes, big garden with garden chairs etc, non-smoking house. http://www.apart-kopp.at\nNational certificated mountain- and ski-guide and ski-instructor:\nhttp:// www.daniel-kopp.at\n\n"
    },
    {
      "@language": "en",
      "@value": "Checkin from 02:00 pm"
    }
  ],
  "image": [
    {
      "@type": "ImageObject",
      "url": "http://resc.deskline.net/images/ZIL/1/1cb4e72a-86cd-411d-a4d5-066342700f14/99/image.jpg",
      "caption": [
        {
          "@language": "de",
          "@value": "Apart - KOPP"
        },
        {
          "@language": "en",
          "@value": "Apart - KOPP"
        }
      ]
    },
    {
      "@type": "ImageObject",
      "url": "http://resc.deskline.net/images/ZIL/1/06ce4c11-9e1e-49c1-a681-4bf68f80e959/99/image.jpg",
      "caption": [
        {
          "@language": "de",
          "@value": "logo_apart_kopp"
        },
        {
          "@language": "en",
          "@value": "logo_apart_kopp"
        }
      ]
    },
    {
      "@type": "ImageObject",
      "url": "http://resc.deskline.net/images/ZIL/1/a8c57970-6f02-4f7b-87df-4e0b2dca994a/99/image.jpg",
      "caption": [
        {
          "@language": "de",
          "@value": "Wohnküche"
        },
        {
          "@language": "en",
          "@value": "Wohnküche"
        }
      ]
    },
    {
      "@type": "ImageObject",
      "url": "http://resc.deskline.net/images/ZIL/1/ca671f40-0f11-4ce9-8ecd-73a9e00cf0a0/99/image.jpg",
      "caption": [
        {
          "@language": "de",
          "@value": "Schlafzimmer"
        },
        {
          "@language": "en",
          "@value": "Schlafzimmer"
        }
      ]
    },
    {
      "@type": "ImageObject",
      "url": "http://resc.deskline.net/images/ZIL/1/7a4e211e-a933-4afb-936a-ec4930e23bfc/99/image.jpg",
      "caption": [
        {
          "@language": "de",
          "@value": "Bad / Dusche / WC"
        },
        {
          "@language": "en",
          "@value": "Bad / Dusche / WC"
        }
      ]
    },
    {
      "@type": "ImageObject",
      "url": "http://resc.deskline.net/images/ZIL/1/f813f1ba-aebe-44a0-aa7f-6ed4e9ed36b3/99/image.jpg",
      "caption": [
        {
          "@language": "de",
          "@value": "Badezimmer"
        },
        {
          "@language": "en",
          "@value": "Badezimmer"
        }
      ]
    },
    {
      "@type": "ImageObject",
      "url": "http://resc.deskline.net/images/ZIL/1/4b655c3c-784c-4e05-b262-1da0f752a611/99/image.jpg",
      "caption": [
        {
          "@language": "de",
          "@value": "Küche"
        },
        {
          "@language": "en",
          "@value": "Küche"
        }
      ]
    },
    {
      "@type": "ImageObject",
      "url": "http://resc.deskline.net/images/ZIL/1/d97fa873-09e3-4824-9ce7-33f1a07cd10d/99/image.jpg",
      "caption": [
        {
          "@language": "de",
          "@value": "Hausgang mit Kleiderschrank"
        },
        {
          "@language": "en",
          "@value": "Hausgang mit Kleiderschrank"
        }
      ]
    },
    {
      "@type": "ImageObject",
      "url": "http://resc.deskline.net/images/ZIL/1/7d79b381-0362-4ef0-b438-a692b9defd85/99/image.jpg",
      "caption": [
        {
          "@language": "de",
          "@value": "Küche"
        },
        {
          "@language": "en",
          "@value": "Küche"
        }
      ]
    },
    {
      "@type": "ImageObject",
      "url": "http://resc.deskline.net/images/ZIL/1/a9ab53a8-86c5-4653-a202-cb54fccd519d/99/image.jpg",
      "caption": [
        {
          "@language": "de",
          "@value": "Schlafzimmer"
        },
        {
          "@language": "en",
          "@value": "Schlafzimmer"
        }
      ]
    },
    {
      "@type": "ImageObject",
      "url": "http://resc.deskline.net/images/ZIL/1/4c9e6cc5-71eb-4fbd-b29f-e8b262aeba27/99/image.jpg",
      "caption": [
        {
          "@language": "de",
          "@value": "Deko"
        },
        {
          "@language": "en",
          "@value": "Deko"
        }
      ]
    },
    {
      "@type": "ImageObject",
      "url": "http://resc.deskline.net/images/ZIL/1/1efd07d0-4c19-48d9-89ef-385b88e2587b/99/image.jpg",
      "caption": [
        {
          "@language": "de",
          "@value": "Spielturm für die Kleinen"
        },
        {
          "@language": "en",
          "@value": "Spielturm für die Kleinen"
        }
      ]
    },
    {
      "@type": "ImageObject",
      "url": "http://resc.deskline.net/images/ZIL/1/d7899838-0ed0-4f3b-947b-5824678abea4/99/image.jpg",
      "caption": [
        {
          "@language": "de",
          "@value": "Schreibtisch"
        },
        {
          "@language": "en",
          "@value": "Schreibtisch"
        }
      ]
    },
    {
      "@type": "ImageObject",
      "url": "http://resc.deskline.net/images/ZIL/1/9d2c15a0-aa3b-4af3-a8d5-a20dfaa68cb1/99/image.jpg",
      "caption": [
        {
          "@language": "de",
          "@value": "Ausblick -  Richtung -  Hamberg"
        },
        {
          "@language": "en",
          "@value": "Ausblick -  Richtung -  Hamberg"
        }
      ]
    },
    {
      "@type": "ImageObject",
      "url": "http://resc.deskline.net/images/ZIL/1/7cfb343b-3b10-4203-bc11-c10112e26d69/99/image.jpg",
      "caption": [
        {
          "@language": "de",
          "@value": "Deko"
        },
        {
          "@language": "en",
          "@value": "Deko"
        }
      ]
    },
    {
      "@type": "ImageObject",
      "url": "http://resc.deskline.net/images/ZIL/1/4fd07549-839d-4771-9ebe-e695a4132f6c/99/image.jpg",
      "caption": [
        {
          "@language": "de",
          "@value": "Ausblick - Gattererberg"
        },
        {
          "@language": "en",
          "@value": "Ausblick - Gattererberg"
        }
      ]
    },
    {
      "@type": "ImageObject",
      "url": "http://resc.deskline.net/images/ZIL/1/853cab85-2f8f-443b-a6c2-c351bbfe205d/99/image.jpg",
      "caption": [
        {
          "@language": "de",
          "@value": "Eingang - Garten"
        },
        {
          "@language": "en",
          "@value": "Eingang - Garten"
        }
      ]
    },
    {
      "@type": "ImageObject",
      "url": "http://resc.deskline.net/images/ZIL/1/e70ebd12-41de-4cda-9b22-d62a2787e677/99/image.jpg",
      "caption": [
        {
          "@language": "de",
          "@value": "Garten"
        },
        {
          "@language": "en",
          "@value": "Garten"
        }
      ]
    },
    {
      "@type": "ImageObject",
      "url": "http://resc.deskline.net/images/ZIL/1/4dbc65ae-8240-4c81-892a-f806d4fe9a5e/99/image.jpg",
      "caption": [
        {
          "@language": "de",
          "@value": "Klettergebiet - Zimmereben"
        },
        {
          "@language": "en",
          "@value": "Klettergebiet - Zimmereben"
        }
      ]
    },
    {
      "@type": "ImageObject",
      "url": "http://resc.deskline.net/images/ZIL/1/5ee14098-4c8a-40e4-acc5-fdc78603e905/99/image.jpg",
      "caption": [
        {
          "@language": "de",
          "@value": "Bergführer - Daniel Kopp"
        },
        {
          "@language": "en",
          "@value": "Bergführer - Daniel Kopp"
        }
      ]
    },
    {
      "@type": "ImageObject",
      "url": "http://resc.deskline.net/images/ZIL/1/a7e1a985-b7f2-4054-a2fe-479963234d64/99/image.jpg",
      "caption": [
        {
          "@language": "de",
          "@value": "Blumen am Eingang"
        },
        {
          "@language": "en",
          "@value": "Blumen am Eingang"
        }
      ]
    },
    {
      "@type": "ImageObject",
      "url": "http://resc.deskline.net/images/ZIL/1/94b8dd30-4895-432d-aedc-bae58c4f229b/99/image.jpg",
      "caption": [
        {
          "@language": "de",
          "@value": "Schaukel mit Sitzgelegenheit"
        },
        {
          "@language": "en",
          "@value": "Schaukel mit Sitzgelegenheit"
        }
      ]
    },
    {
      "@type": "ImageObject",
      "url": "http://resc.deskline.net/images/ZIL/1/0bf03204-df4d-4403-a384-137b42409369/99/image.jpg",
      "caption": [
        {
          "@language": "de",
          "@value": "Einkehrschwung beim Skifahren"
        },
        {
          "@language": "en",
          "@value": "Einkehrschwung beim Skifahren"
        }
      ]
    },
    {
      "@type": "ImageObject",
      "url": "http://resc.deskline.net/images/ZIL/1/677c22db-4952-49a0-b7ee-94c92019216e/99/image.jpg",
      "caption": [
        {
          "@language": "de",
          "@value": "Skifahren mit unserem Schatzi"
        },
        {
          "@language": "en",
          "@value": "Skifahren mit unserem Schatzi"
        }
      ]
    },
    {
      "@type": "ImageObject",
      "url": "http://resc.deskline.net/images/ZIL/1/0b9e5e7a-758e-41ff-927f-79fe6b680e4e/99/image.jpg",
      "caption": [
        {
          "@language": "de",
          "@value": "Martha und Erwin Kopp"
        },
        {
          "@language": "en",
          "@value": "Martha und Erwin Kopp"
        }
      ]
    },
    {
      "@type": "ImageObject",
      "url": "http://resc.deskline.net/images/ZIL/1/29f04757-bec9-4771-8aa8-d3b586097f87/99/image.jpg",
      "caption": [
        {
          "@language": "de",
          "@value": "Neuschnee in den Bergen"
        },
        {
          "@language": "en",
          "@value": "Neuschnee in den Bergen"
        }
      ]
    },
    {
      "@type": "ImageObject",
      "url": "http://resc.deskline.net/images/ZIL/1/9c828ebc-5156-46ea-b9e0-57099d404e8b/99/image.jpg",
      "caption": [
        {
          "@language": "de",
          "@value": "Skihütte"
        },
        {
          "@language": "en",
          "@value": "Skihütte"
        }
      ]
    },
    {
      "@type": "ImageObject",
      "url": "http://resc.deskline.net/images/ZIL/1/d1464069-9465-4cbd-b7d9-b087c86057a0/99/image.jpg",
      "caption": [
        {
          "@language": "de",
          "@value": "Sonnenskilauf"
        },
        {
          "@language": "en",
          "@value": "Sonnenskilauf"
        }
      ]
    },
    {
      "@type": "ImageObject",
      "url": "http://resc.deskline.net/images/ZIL/1/94a3f131-3079-4aba-9046-0322b34b45f1/99/image.jpg",
      "caption": [
        {
          "@language": "de",
          "@value": "Metallspinne bei der Kristallhütte"
        },
        {
          "@language": "en",
          "@value": "Metallspinne bei der Kristallhütte"
        }
      ]
    },
    {
      "@type": "ImageObject",
      "url": "http://resc.deskline.net/images/ZIL/1/644da00f-e392-4b87-8f8d-e09b35d50e9b/99/image.jpg",
      "caption": [
        {
          "@language": "de",
          "@value": "unser Pistenfloh"
        },
        {
          "@language": "en",
          "@value": "unser Pistenfloh"
        }
      ]
    },
    {
      "@type": "ImageObject",
      "url": "http://resc.deskline.net/images/ZIL/1/f75eb0a2-2ed1-414a-85f9-1c74db0640f2/99/image.jpg",
      "caption": [
        {
          "@language": "de",
          "@value": "Skitour mit Daniel"
        },
        {
          "@language": "en",
          "@value": "Skitour mit Daniel"
        }
      ]
    },
    {
      "@type": "ImageObject",
      "url": "http://resc.deskline.net/images/ZIL/1/bff8b658-7735-44ad-a2a1-4f309e528122/99/image.jpg",
      "caption": [
        {
          "@language": "de",
          "@value": "Tiefschneefahrt bei Neuschnee"
        },
        {
          "@language": "en",
          "@value": "Tiefschneefahrt bei Neuschnee"
        }
      ]
    },
    {
      "@type": "ImageObject",
      "url": "http://resc.deskline.net/images/ZIL/1/e0064468-e306-43df-af07-543654391235/99/image.jpg",
      "caption": [
        {
          "@language": "de",
          "@value": "Mittagessen in den Bergen - Firnhütte - Hochzill.."
        },
        {
          "@language": "en",
          "@value": "Mittagessen in den Bergen - Firnhütte - Hochzill.."
        }
      ]
    },
    {
      "@type": "ImageObject",
      "url": "http://resc.deskline.net/images/ZIL/1/21ef9eac-5e53-4e91-be5d-e99e90ccad1d/99/image.jpg",
      "caption": [
        {
          "@language": "de",
          "@value": "Deko"
        },
        {
          "@language": "en",
          "@value": "Deko"
        }
      ]
    },
    {
      "@type": "ImageObject",
      "url": "http://resc.deskline.net/images/ZIL/1/88b639d8-1414-49cc-82a6-5901bbcf7150/99/image.jpg",
      "caption": [
        {
          "@language": "de",
          "@value": "Gästehaus - Kopp"
        },
        {
          "@language": "en",
          "@value": "Gästehaus - Kopp"
        }
      ]
    },
    {
      "@type": "ImageObject",
      "url": "http://resc.deskline.net/images/ZIL/1/a6ebbbc0-0a93-449f-9a36-3dc406f29fb9/99/image.jpg",
      "caption": [
        {
          "@language": "de",
          "@value": "Eingansbereich"
        },
        {
          "@language": "en",
          "@value": "Eingansbereich"
        }
      ]
    }
  ],
  "geo": {
    "@type": "GeoCoordinates",
    "latitude": "47.301020645769363",
    "longitude": "11.872712373733521"
  },
  "currenciesAccepted": "EUR",
  "makesOffer": [
    {
      "@type": "Offer",
      "name": [
        {
          "@language": "de",
          "@value": "Appartement/Fewo, Dusche und Bad, WC, 2 Schlafräume"
        },
        {
          "@language": "en",
          "@value": "Apartment, shower and bath, toilet, 2 bed rooms"
        }
      ],
      "description": [
        {
          "@language": "de",
          "@value": "Gemütliche Wohnung mit komplett eingerichteter Wohnküche, (Backrohr, Kaffeemaschine, Kühlschrank mit Gefrierfach, Mikrowelle, Toaster,Spülbecken..) 2 Schlafzimmer, BAD/WC/Dusche und Fön, Sat - TV ,1 Balkon, Geschirr, Handtücher und Bettwäsche vorhanden.\n\nNeu - WLAN Internet gratis!"
        },
        {
          "@language": "en",
          "@value": "Cosy apartment with fully equipped, combined kitchen and living room with satellite TV (oven, coffee maker, fridge with freezer compartment, microwave, water cooker), 4 bedrooms, living room, bathroom/WC und shower/WC extra, dish, hand towels and bed linen provided."
        }
      ],
      "availability": "http://schema.org/InStock",
      "itemOffered": [
        {
          "@type": [
            "Apartment",
            "Product"
          ],
          "name": [
            {
              "@language": "de",
              "@value": "Apart Kopp mit 2 Schlafzimmern"
            },
            {
              "@language": "en",
              "@value": "Apartment, shower and bath, toilet, 2 bed rooms"
            }
          ],
          "numberOfRooms": "3.0",
          "occupancy": {
            "@type": "QuantitativeValue",
            "maxValue": "4",
            "minValue": "2"
          }
        }
      ],
      "priceSpecification": [
        {
          "@type": "PriceSpecification",
          "description": "Pax 2",
          "minPrice": "70.00",
          "maxPrice": "80.00",
          "priceCurrency": "EUR"
        },
        {
          "@type": "PriceSpecification",
          "description": "Pax 3",
          "minPrice": "70.00",
          "maxPrice": "80.00",
          "priceCurrency": "EUR"
        },
        {
          "@type": "PriceSpecification",
          "description": "Pax 4",
          "minPrice": "70.00",
          "maxPrice": "80.00",
          "priceCurrency": "EUR"
        }
      ]
    }
  ]
}