{
  "@context": "http://schema.org",
  "@type": "BedAndBreakfast",
  "url": [
    "http://maps.best-of-zillertal.at/proxy/frontend/page/fuegen/de?foreignResource\u003dF47953BB-841F-4446-B133-DCBEF13656E3"
  ],
  "address": {
    "@type": "PostalAddress",
    "streetAddress": "Hauptstraße 37",
    "addressCountry": "AT",
    "postalCode": "6263",
    "addressRegion": "Fügen",
    "telephone": "(0043) 5288 62411",
    "faxNumber": "(0043) 5288 624114",
    "email": "pension.astacher@lbc.at"
  },
  "name": "Pension Astacher",
  "description": [
    {
      "@language": "de",
      "@value": "Gemütliche Privatpension in zentraler Lage, 9 Betten, alle Zimmer mit DU/WC."
    },
    {
      "@language": "de",
      "@value": "Kinderermäßigung nach Vereinbarung!"
    },
    {
      "@language": "en",
      "@value": "Cosy private pension in a cantral position with 9 beth`s, all rooms with shower/WC;"
    },
    {
      "@language": "en",
      "@value": "reduction for children on request!"
    }
  ],
  "image": [
    {
      "@type": "ImageObject",
      "url": "http://resc.deskline.net/images/ZIL/1/c51b1fd2-a556-4e25-b822-eafb05aa595e/99/image.jpg",
      "caption": [
        {
          "@language": "de",
          "@value": "Haus"
        },
        {
          "@language": "en",
          "@value": "Haus"
        }
      ]
    }
  ],
  "geo": {
    "@type": "GeoCoordinates",
    "latitude": "47.3505269339223",
    "longitude": "11.850954294204712"
  },
  "currenciesAccepted": "EUR",
  "makesOffer": [
    {
      "@type": "Offer",
      "name": [
        {
          "@language": "de",
          "@value": "Doppelzimmer, Dusche, WC"
        },
        {
          "@language": "en",
          "@value": "Double room, shower, toilet"
        }
      ],
      "description": [
        {
          "@language": "de",
          "@value": "Doppelzimmer mit Dusche/WC."
        },
        {
          "@language": "en",
          "@value": "Room with double-bed, shower and toilet."
        }
      ],
      "availability": "http://schema.org/InStock",
      "itemOffered": [
        {
          "@type": [
            "HotelRoom",
            "Product"
          ],
          "name": [
            {
              "@language": "de",
              "@value": "Doppelzimmer mit Dusche, WC"
            },
            {
              "@language": "en",
              "@value": "double room with shower, WC"
            }
          ],
          "bed": {
            "@type": "BedDetails",
            "numberOfBeds": "1"
          },
          "occupancy": {
            "@type": "QuantitativeValue",
            "maxValue": "2",
            "minValue": "2"
          }
        }
      ]
    },
    {
      "@type": "Offer",
      "name": [
        {
          "@language": "de",
          "@value": "Einzelzimmer, Dusche, WC"
        },
        {
          "@language": "en",
          "@value": "Single room, shower, toilet"
        }
      ],
      "description": [
        {
          "@language": "de",
          "@value": "Einzelzimmer mit Dusche und WC."
        },
        {
          "@language": "en",
          "@value": "Room with single bed, shower and toilet."
        }
      ],
      "availability": "http://schema.org/InStock",
      "itemOffered": [
        {
          "@type": [
            "HotelRoom",
            "Product"
          ],
          "name": [
            {
              "@language": "de",
              "@value": "Einzelzimmer mit Dusche, WC"
            },
            {
              "@language": "en",
              "@value": "single room with shower, WC"
            }
          ],
          "bed": {
            "@type": "BedDetails",
            "numberOfBeds": "1"
          },
          "occupancy": {
            "@type": "QuantitativeValue",
            "maxValue": "1",
            "minValue": "1"
          }
        }
      ]
    },
    {
      "@type": "Offer",
      "name": [
        {
          "@language": "de",
          "@value": "Dreibettzimmer, Dusche, WC"
        },
        {
          "@language": "en",
          "@value": "Triple room, shower, toilet"
        }
      ],
      "description": [
        {
          "@language": "de",
          "@value": "Dreibettzimmer mit Dusche und WC."
        },
        {
          "@language": "en",
          "@value": "Triple bed room with shower and toilet."
        }
      ],
      "availability": "http://schema.org/InStock",
      "itemOffered": [
        {
          "@type": [
            "HotelRoom",
            "Product"
          ],
          "name": [
            {
              "@language": "de",
              "@value": "Dreibettzimmer mit Dusche, WC"
            },
            {
              "@language": "en",
              "@value": "triple room with shower, WC"
            }
          ],
          "bed": {
            "@type": "BedDetails",
            "numberOfBeds": "1"
          },
          "occupancy": {
            "@type": "QuantitativeValue",
            "maxValue": "3",
            "minValue": "2"
          }
        }
      ]
    }
  ]
}