{
  "@context": "http://schema.org",
  "@type": "LodgingBusiness",
  "url": [
    "http://maps.best-of-zillertal.at/proxy/frontend/page/fuegen/de?foreignResource\u003dF592C8D6-5EE0-4A9B-BFF6-9275E860A7B4"
  ],
  "address": {
    "@type": "PostalAddress",
    "streetAddress": "Fügenberg-Straße 4",
    "addressCountry": "AT",
    "postalCode": "6264",
    "addressRegion": "Fügenberg",
    "telephone": "(0043) 680 1427239",
    "email": "barbara.wetscher@aon.at"
  },
  "name": "Gästehaus Guggerhof",
  "description": [
    {
      "@language": "de",
      "@value": "An einem herrlichen sonnigen Fleckchen in Fügenberg steht der Guggerhof. Vom Balkon aus hat man einen atemberaubenden Blick auf die umliegende Berglandschaft. Sie können in nur 2,2km das Skigebiet Spieljoch oder die Erlebnistherme erreichen.Der Skibus hält nahe beim Haus und fährt Sie in nur wenigen Minuten zum Skigebiet von Fügen, ca. 5 Autominuten vom Ortszentrum Fügen entfernt. \n\nEine gut ausgestattete Ferienwohnung für 5 Personen."
    },
    {
      "@language": "de",
      "@value": "Endreinigung EUR 75,00"
    },
    {
      "@language": "en",
      "@value": "Our guesthouse \"Guggerhof\" is in a quiet and sunny position out of the center from Fügen. From our house you have a fantastic view through the Zillertal valley. Summer as well as winter activities like walking paths, ski areas, etc. are close.\n\nOne Apartment each for 5 people."
    },
    {
      "@language": "en",
      "@value": "final cleaning EUR 75,00"
    }
  ],
  "image": [
    {
      "@type": "ImageObject",
      "url": "http://resc.deskline.net/images/ZIL/1/9f0ad590-5cbb-4cf1-ae32-9632d843337a/99/image.jpg",
      "caption": [
        {
          "@language": "de",
          "@value": "Bauernhaus Guggerhof"
        },
        {
          "@language": "en",
          "@value": "Bauernhaus Guggerhof"
        }
      ]
    },
    {
      "@type": "ImageObject",
      "url": "http://resc.deskline.net/images/ZIL/1/74c579ec-8e8d-4172-8c8b-59412c38f1c5/99/image.jpg",
      "caption": [
        {
          "@language": "de",
          "@value": "Eingang Bauernhaus"
        },
        {
          "@language": "en",
          "@value": "Eingang Bauernhaus"
        }
      ]
    },
    {
      "@type": "ImageObject",
      "url": "http://resc.deskline.net/images/ZIL/1/e93471a7-fb4a-4d58-af4c-85ee12b8d24d/99/image.jpg",
      "caption": [
        {
          "@language": "de",
          "@value": "Aussicht vom Balkon"
        },
        {
          "@language": "en",
          "@value": "Aussicht vom Balkon"
        }
      ]
    },
    {
      "@type": "ImageObject",
      "url": "http://resc.deskline.net/images/ZIL/1/e182fbe4-2d52-4f42-a426-02ff51de1ded/99/image.jpg",
      "caption": [
        {
          "@language": "de",
          "@value": "Guggerhof Hausansicht"
        },
        {
          "@language": "en",
          "@value": "Guggerhof Hausansicht"
        }
      ]
    },
    {
      "@type": "ImageObject",
      "url": "http://resc.deskline.net/images/ZIL/1/debc3ebc-12ce-4a69-aa1c-fe44076c236c/99/image.jpg",
      "caption": [
        {
          "@language": "de",
          "@value": "Guggerhof"
        },
        {
          "@language": "en",
          "@value": "Guggerhof"
        }
      ]
    },
    {
      "@type": "ImageObject",
      "url": "http://resc.deskline.net/images/ZIL/1/12f4e869-1558-4d81-867f-4dec5eb95df3/99/image.jpg",
      "caption": [
        {
          "@language": "de",
          "@value": "Guggerhof Terrasse/Balkon"
        },
        {
          "@language": "en",
          "@value": "Guggerhof Terrasse/Balkon"
        }
      ]
    }
  ],
  "geo": {
    "@type": "GeoCoordinates",
    "latitude": "47.3540667733084",
    "longitude": "11.8417918682098"
  },
  "currenciesAccepted": "EUR",
  "makesOffer": [
    {
      "@type": "Offer",
      "name": [
        {
          "@language": "de",
          "@value": "Appartement/Fewo, Dusche, WC, 3 Schlafräume"
        },
        {
          "@language": "en",
          "@value": "Apartment, shower, toilet, 3 bed rooms"
        }
      ],
      "description": [
        {
          "@language": "de",
          "@value": "2 Doppelzimmer, 1 Dreibettzimmer jeweils mit Dusche/WC, Küche mit Eckbank, Vorraum, große Terrasse."
        }
      ],
      "availability": "http://schema.org/InStock",
      "itemOffered": [
        {
          "@type": [
            "Apartment",
            "Product"
          ],
          "name": [
            {
              "@language": "de",
              "@value": "Appartement Maria"
            },
            {
              "@language": "en",
              "@value": "Apartment, shower, toilet, 3 bed rooms"
            }
          ],
          "numberOfRooms": "4.0",
          "occupancy": {
            "@type": "QuantitativeValue",
            "maxValue": "7",
            "minValue": "2"
          }
        }
      ]
    },
    {
      "@type": "Offer",
      "name": [
        {
          "@language": "de",
          "@value": "Appartement/Fewo, Dusche, WC, 4 oder mehr Schlafräume"
        },
        {
          "@language": "en",
          "@value": "Apartment, shower, toilet, 4 or more bed rooms"
        }
      ],
      "description": [
        {
          "@language": "de",
          "@value": "4 Schlafzimmer, 3 Doppelzimmer, 1 Einzelzimmer, geräumige Küche (Geschirrspüler, Kühlschrank, ...), 2 große Duschen + 2 Waschbecken, separate Toilette, großer Balkon."
        }
      ],
      "availability": "http://schema.org/InStock",
      "itemOffered": [
        {
          "@type": [
            "Apartment",
            "Product"
          ],
          "name": [
            {
              "@language": "de",
              "@value": "Appartement Lisa"
            },
            {
              "@language": "en",
              "@value": "Apartment, shower, toilet, 4 or more bed rooms"
            }
          ],
          "numberOfRooms": "5.0",
          "occupancy": {
            "@type": "QuantitativeValue",
            "maxValue": "7",
            "minValue": "2"
          }
        }
      ]
    }
  ]
}