{
  "@context": "http://schema.org",
  "@type": "LodgingBusiness",
  "url": [
    "http://maps.best-of-zillertal.at/proxy/frontend/page/fuegen/de?foreignResource\u003dF7762163-25C9-46B1-9E7F-F46CE46124DC"
  ],
  "address": {
    "@type": "PostalAddress",
    "name": "Ferienwohnung Wurm",
    "streetAddress": "Dorf 57a",
    "addressCountry": "AT",
    "postalCode": "6260",
    "addressRegion": "Bruck am Ziller",
    "telephone": "(0043) 650 480 3142",
    "email": "info@ferienwohnung-wurm.at",
    "url": "http://www.ferienwohnung-wurm.at"
  },
  "name": "Ferienwohnung Wurm",
  "description": [
    {
      "@language": "de",
      "@value": "Familienfreundliches Haus in sonniger, ruhiger Lage. Herrliche Aussicht in die umliegende Bergwelt. Rad-Wanderwege, Natursee und Freizeitmöglichkeiten. "
    },
    {
      "@language": "de",
      "@value": "Endreinigung EUR 30,00 \nKurtaxe Euro 1,00 pro Pers./Nacht"
    },
    {
      "@language": "de",
      "@value": ""
    },
    {
      "@language": "en",
      "@value": "Family friendly house in sunny and quiet location. Glorious view of sourrounding moutain scenery. Cross country tracks, cycle routes, natural lake and many other leisure facilities."
    },
    {
      "@language": "en",
      "@value": "final cleaning EUR 30,--"
    },
    {
      "@language": "en",
      "@value": "Children 0-4 years 100% reduction"
    }
  ],
  "image": [
    {
      "@type": "ImageObject",
      "url": "http://resc.deskline.net/images/ZIL/1/2f741e02-d815-4b84-a96c-734c7968e4bc/99/image.jpg",
      "caption": [
        {
          "@language": "de",
          "@value": "Ferienhaus Wurm"
        },
        {
          "@language": "en",
          "@value": "Ferienhaus Wurm"
        }
      ]
    },
    {
      "@type": "ImageObject",
      "url": "http://resc.deskline.net/images/ZIL/1/e00aca91-2999-40f0-99a9-872f95ec5f3d/99/image.jpg",
      "caption": [
        {
          "@language": "de",
          "@value": "Ferienwohnung Wurm"
        },
        {
          "@language": "en",
          "@value": "Ferienwohnung Wurm"
        }
      ]
    },
    {
      "@type": "ImageObject",
      "url": "http://resc.deskline.net/images/ZIL/1/6973c868-c6c9-4560-b409-1fd28ba2ed0f/99/image.jpg",
      "caption": [
        {
          "@language": "de",
          "@value": "Ausblick Balkon"
        },
        {
          "@language": "en",
          "@value": "Ausblick Balkon"
        }
      ]
    },
    {
      "@type": "ImageObject",
      "url": "http://resc.deskline.net/images/ZIL/1/05fb0185-255b-46e3-99d3-8592db45a867/99/image.jpg",
      "caption": [
        {
          "@language": "de",
          "@value": "Badezimmer"
        },
        {
          "@language": "en",
          "@value": "Badezimmer"
        }
      ]
    },
    {
      "@type": "ImageObject",
      "url": "http://resc.deskline.net/images/ZIL/1/c8fb4e86-ac79-49d0-a406-991317281815/99/image.jpg",
      "caption": [
        {
          "@language": "de",
          "@value": "Stube"
        },
        {
          "@language": "en",
          "@value": "Stube"
        }
      ]
    },
    {
      "@type": "ImageObject",
      "url": "http://resc.deskline.net/images/ZIL/1/2724b4c1-8b70-4372-9334-2c8b7bacfb6c/99/image.jpg",
      "caption": [
        {
          "@language": "de",
          "@value": "Hausansicht Süd"
        },
        {
          "@language": "en",
          "@value": "Hausansicht Süd"
        }
      ]
    },
    {
      "@type": "ImageObject",
      "url": "http://resc.deskline.net/images/ZIL/1/37568632-a988-4a19-9a73-09e793c078c9/99/image.jpg",
      "caption": [
        {
          "@language": "de",
          "@value": "Garten"
        },
        {
          "@language": "en",
          "@value": "Garten"
        }
      ]
    },
    {
      "@type": "ImageObject",
      "url": "http://resc.deskline.net/images/ZIL/1/6c3ee8d0-7419-4605-be4f-269a5f944786/99/image.jpg",
      "caption": [
        {
          "@language": "de",
          "@value": "Frühling"
        },
        {
          "@language": "en",
          "@value": "Frühling"
        }
      ]
    },
    {
      "@type": "ImageObject",
      "url": "http://resc.deskline.net/images/ZIL/1/79779174-6270-4bfe-b1e8-61ed8dd65094/99/image.jpg",
      "caption": [
        {
          "@language": "de",
          "@value": "DSC02248 (1)_Garten_Schwan"
        },
        {
          "@language": "en",
          "@value": "DSC02248 (1)_Garten_Schwan"
        }
      ]
    },
    {
      "@type": "ImageObject",
      "url": "http://resc.deskline.net/images/ZIL/1/62f0e4d1-c415-48ea-b6b1-60c55b54ba0e/99/image.jpg",
      "caption": [
        {
          "@language": "de",
          "@value": "Carport"
        },
        {
          "@language": "en",
          "@value": "Carport"
        }
      ]
    },
    {
      "@type": "ImageObject",
      "url": "http://resc.deskline.net/images/ZIL/1/fbae63fd-465a-4dc8-a4a8-5619a14d3b18/99/image.jpg",
      "caption": [
        {
          "@language": "de",
          "@value": "DSC00238"
        },
        {
          "@language": "en",
          "@value": "DSC00238"
        }
      ]
    },
    {
      "@type": "ImageObject",
      "url": "http://resc.deskline.net/images/ZIL/1/f2c4fdc5-6bd3-42c2-a722-b5a2ce5cce38/99/image.jpg",
      "caption": [
        {
          "@language": "de",
          "@value": "Ferienwohnung-Wurm-Bruck-57a-Johann-Wurm-Gang_1024"
        },
        {
          "@language": "en",
          "@value": "Ferienwohnung-Wurm-Bruck-57a-Johann-Wurm-Gang_1024"
        }
      ]
    },
    {
      "@type": "ImageObject",
      "url": "http://resc.deskline.net/images/ZIL/1/840f64e5-1074-4006-a96f-0f7aa553593b/99/image.jpg",
      "caption": [
        {
          "@language": "de",
          "@value": "Ferienwohnung-Wurm-Bruck-57a-Johann-Wurm-Balkon_10"
        },
        {
          "@language": "en",
          "@value": "Ferienwohnung-Wurm-Bruck-57a-Johann-Wurm-Balkon_10"
        }
      ]
    },
    {
      "@type": "ImageObject",
      "url": "http://resc.deskline.net/images/ZIL/1/fb4667ac-7c3d-462c-9c71-7a849a04fb78/99/image.jpg",
      "caption": [
        {
          "@language": "de",
          "@value": "Schlafzimmer"
        },
        {
          "@language": "en",
          "@value": "Schlafzimmer"
        }
      ]
    },
    {
      "@type": "ImageObject",
      "url": "http://resc.deskline.net/images/ZIL/1/c1a44c35-08c0-4b92-837d-9aa43c741709/99/image.jpg",
      "caption": [
        {
          "@language": "de",
          "@value": "Küche"
        },
        {
          "@language": "en",
          "@value": "Küche"
        }
      ]
    },
    {
      "@type": "ImageObject",
      "url": "http://resc.deskline.net/images/ZIL/1/6ea1c86b-79b1-4349-b070-7061be255ae7/99/image.jpg",
      "caption": [
        {
          "@language": "de",
          "@value": "Wohnzimmer"
        },
        {
          "@language": "en",
          "@value": "Wohnzimmer"
        }
      ]
    },
    {
      "@type": "ImageObject",
      "url": "http://resc.deskline.net/images/ZIL/1/a5993d1a-5630-4497-b17d-b9c5b2b3c2c9/99/image.jpg",
      "caption": [
        {
          "@language": "de",
          "@value": "Ferienhaus Wurm"
        },
        {
          "@language": "en",
          "@value": "Ferienhaus Wurm"
        }
      ]
    },
    {
      "@type": "ImageObject",
      "url": "http://resc.deskline.net/images/ZIL/1/21188cfe-20a1-493a-a594-512a447cceb1/99/image.jpg",
      "caption": [
        {
          "@language": "de",
          "@value": "Bruck am Ziller - Ferienhaus Wurm"
        },
        {
          "@language": "en",
          "@value": "Bruck am Ziller - Ferienhaus Wurm"
        }
      ]
    },
    {
      "@type": "ImageObject",
      "url": "http://resc.deskline.net/images/ZIL/1/7edef618-701d-48e0-a70b-f20a06d763c0/99/image.jpg",
      "caption": [
        {
          "@language": "de",
          "@value": "Ferienhaus Wurm - Umgebung"
        },
        {
          "@language": "en",
          "@value": "Ferienhaus Wurm - Umgebung"
        }
      ]
    }
  ],
  "geo": {
    "@type": "GeoCoordinates",
    "latitude": "47.388141",
    "longitude": "11.855463"
  },
  "currenciesAccepted": "EUR",
  "makesOffer": [
    {
      "@type": "Offer",
      "name": [
        {
          "@language": "de",
          "@value": "Appartement/Fewo, Dusche und Bad, WC, 1 Schlafraum"
        },
        {
          "@language": "en",
          "@value": "Apartment, shower and bath, toilet, 1 bed room"
        }
      ],
      "description": [
        {
          "@language": "de",
          "@value": "1 Schlafzimmer, Küche, Wohnzimmer, Sat-TV, Badewanne, Dusche und WC, Balkon."
        },
        {
          "@language": "en",
          "@value": "1 bedroom, kitchen, satellite TV, bathtub, shower and WC, balcony."
        }
      ],
      "availability": "http://schema.org/InStock",
      "itemOffered": [
        {
          "@type": [
            "Apartment",
            "Product"
          ],
          "name": [
            {
              "@language": "de",
              "@value": "Apartment/1 Schlafraum/Dusche, Bad, WC"
            },
            {
              "@language": "en",
              "@value": "apartment/1 bedroom/shower, bath tube,WC"
            }
          ],
          "numberOfRooms": "3.0",
          "occupancy": {
            "@type": "QuantitativeValue",
            "maxValue": "3",
            "minValue": "2"
          }
        }
      ],
      "priceSpecification": [
        {
          "@type": "PriceSpecification",
          "description": "Pax 2",
          "minPrice": "55.00",
          "maxPrice": "55.00",
          "priceCurrency": "EUR"
        },
        {
          "@type": "PriceSpecification",
          "description": "Pax 3",
          "minPrice": "65.00",
          "maxPrice": "65.00",
          "priceCurrency": "EUR"
        }
      ]
    }
  ]
}