{
  "@context": "http://schema.org",
  "@type": "LodgingBusiness",
  "url": [
    "http://"
  ],
  "address": {
    "@type": "PostalAddress",
    "streetAddress": "Lagstattweg 3",
    "addressCountry": "AT",
    "postalCode": "6264",
    "addressRegion": "Fügenberg",
    "telephone": "(0043) 676 4476036",
    "email": "aignerhannes@outlook.com",
    "url": "http://www.haus-tirol.eu"
  },
  "name": "Haus Tirol",
  "description": [
    {
      "@language": "de",
      "@value": "Herzlich Willkommen im Haus Tirol in Fügenberg. Erleben Sie unvergessliche Urlaubstage inmitten des wunderschönen Zillertals!\n\nIn unserer Ferienwohnung im Haus Tirol erwartet Sie sowohl Ruhe als auch Action. Zahlreiche Aktivitäten in unmittelbarer Umgebung sorgen für einen abwechslungsreichen Urlaub mit Kindern, mit Partner oder auf Anfrage für einen aktiven Urlaub mit Hund.\n\nIn unserer Ferienwohnung im Zillertal oberhalb von Fügen finden Sie alles, was Sie sich im Urlaub wünschen. Die gemütlich eingerichtete Ferienwohnung für 2-6 Personen lädt zum Verweilen und Entspannen ein und beeindruckt mit einem traumhaften Panorama auf die Zillertaler Bergwelt.\nIn der voll ausgestatteten Küche mit Kaffeevollautomat, Geschirrspülmaschine, Toaster, Wasserkocher und E-Herd mit Backrohr können Sie Ihre kulinarischen Fähigkeiten entfalten und Ihre Lieben verwöhnen. Die Küche bietet außerdem eine weitere Schlafmöglichkeit für eine Person mit offenem Fußende. Ein Doppelschlafzimmer und ein Dreibettzimmer garantieren Ruhe nach aufregenden Urlaubstagen.\nAusgestattet ist die Ferienwohnung mit einem Badezimmer mit Dusche und getrenntem WC und W-Lan im ganzen Haus. Für Familien mit Kindern steht ein Gitterbett und ein Kinderhochstuhl zur Nutzung bereit. Außerdem erwartet Sie eine nach Süd-Osten ausgerichtete große Sonnenterasse, auf welcher Sie den Tag nach ausgiebigen Wandertouren oder Skitagen ausklingen lassen können.\n\nIm Winter als auch im Sommer ist das Haus Tirol in Fügenberg der ideale Ausgangspunkt für zahlreiche Aktivitäten. Ob Schneeschuhwandern, Skitouren oder Rodeln auf der beleuchteten Rodelbahn Hochfügen - rund um Fügenberg gibt es für jeden Geschmack die passende Freizeitaktivität.\nEntdecken Sie das nahgelegene und mehrfach ausgezeichnete Skigebiet Hochfügen-Hochzillertal und erleben Sie höchstes Bergvergnügen. In nur 20 Minuten können Sie die Ortschaft Hochfügen bequem und schnell mit dem kostenlosen Skibus erreichen. Die Ski- und Linienbushaltestelle ist nur 300 m vom Haus Tirol entfernt.\n\nIm Sommer können Sie auf wunderschönen Wanderwegen und diversen Mountainbikestrecken in unmittelbarer Umgebung die Zillertaler Alpen entdecken. Der 7 Fahrminuten (3,7 km) entfernte 18-Loch Golfplatz Zillertal in Uderns bietet Spaß für Anfänger und Profis.\nEntspannung und Erholung pur finden Sie mit Ihrem Partner in der Saunawelt der Erlebnistherme Zillertal in Fügen, die in nur 6 Fahrminuten (2,5 km) erreicht werden kann. Im Urlaub mit Kindern bietet die Erlebnistherme Zillertal jede Menge Spaß und Action.\n\nWir freuen uns, Sie in unserem Haus Tirol in Fügenberg zu begrüßen!\n\nIhre Gastgeber, die Familie Aigner.\n\n\n\n"
    },
    {
      "@language": "de",
      "@value": "1 Hund wird auf Rückfrage gestattet.  Kosten 5€/Tag"
    },
    {
      "@language": "de",
      "@value": "Die Ferienwohnung steht ihnen ab ca 15:00 am Anreisetag zur Verfügung.\nAm Abreisetag ist die Ferienwohnung bis 10:00 zu räumen.\n"
    },
    {
      "@language": "en",
      "@value": "Welcome to Haus Tirol in Fügenberg. Experience unforgettable holidays amidst the beautiful Zillertal!\n\nThe apartment at Haus Tirol offers both tranquillity and activities; many of them in the immediate vicinity guaranteeing fun-filled holidays with children, together with your partner or, on request, an active vacation with your dog.\n\nIn our holiday apartment in the Zillertal above Fügen, you will find everything you expect from a perfect holiday. The comfortably furnished apartment for 2-6 people invites you to stay and relax and offers a wonderful panorama view of the Zillertal Mountains.\nIn the fully equipped kitchen with coffee maker, dishwasher, toaster, kettle and electric stove including oven, you can develop your culinary skills and pamper your loved ones. The kitchen also comes with an additional open bed for one person. A double and a triple bedroom guarantee tranquillity after an exciting vacation day.\nThe apartment also comes with a bathroom including shower and separate toilet, as well as with Wi-Fi throughout the building. A cot and a highchair are available for families with children. Also included is a large south-east facing sun terrace, where you can end the day after a long hiking or skiing tour.\n\nBoth in winter and summer, the Haus Tirol in Fügenberg is the ideal starting point for numerous activities. Whether snowshoeing, ski-touring or tobogaganing on the illuminated Hochfügen toboggan run - around Fügenberg there is the perfect leisure activity on offer for every taste.\nDiscover the award-winning skiing resort Hochfügen-Hochzillertal nearby and enjoy highest mountain pleasures. In just 20 minutes you can reach Hochfügen fast and easily with the free ski bus as the ski and public bus stop is located only 300 metres away from Haus Tirol.\n\nIn summer, you can discover beautiful hiking and several mountain bike trails of the Zillertal Alps in the immediate vicinity. The 18-hole golf course in Zillertal Uderns is only 7 minutes (3.7 km) away and offers great fun for beginners and professionals. \nRecreation and pure relaxation together with your partner can be found in the sauna world of the Erlebnistherme Zillertal spa complex in Fügen that can be reached in just 6 minutes (2.5 km).\nEspecially when spending your holidays with children, the Erlebnistherme Zillertal spa offers plenty of fun and action as well.\n\nWe look forward to welcoming you at our Haus Tirol in Fügenberg!\n\nYour hosts, the Aigner family.\n\n\n\n"
    },
    {
      "@language": "en",
      "@value": "1 dog is allowed with consultation. Price 5€/ day"
    },
    {
      "@language": "en",
      "@value": "Check in from 3:00 p.m.\nCheck out until 10:00 a.m ."
    }
  ],
  "image": [
    {
      "@type": "ImageObject",
      "url": "http://resc.deskline.net/images/ZIL/1/9a2967dc-0eb6-47ec-bf0c-4c8f2e37f1de/99/image.jpg",
      "caption": [
        {
          "@language": "de",
          "@value": "IMG_1239"
        },
        {
          "@language": "en",
          "@value": "IMG_1239"
        }
      ]
    },
    {
      "@type": "ImageObject",
      "url": "http://resc.deskline.net/images/ZIL/1/5fcfa520-4380-4df2-b950-3471099ffe12/99/image.jpg",
      "caption": [
        {
          "@language": "de",
          "@value": "IMG_1232"
        },
        {
          "@language": "en",
          "@value": "IMG_1232"
        }
      ]
    },
    {
      "@type": "ImageObject",
      "url": "http://resc.deskline.net/images/ZIL/1/2d274c99-9802-4564-aed8-239fe3d6a433/99/image.jpg",
      "caption": [
        {
          "@language": "de",
          "@value": "IMG_1238"
        },
        {
          "@language": "en",
          "@value": "IMG_1238"
        }
      ]
    },
    {
      "@type": "ImageObject",
      "url": "http://resc.deskline.net/images/ZIL/1/abcfcb19-31d8-410c-b2f6-5baf17d96251/99/image.jpg",
      "caption": [
        {
          "@language": "de",
          "@value": "IMG_1230"
        },
        {
          "@language": "en",
          "@value": "IMG_1230"
        }
      ]
    },
    {
      "@type": "ImageObject",
      "url": "http://resc.deskline.net/images/ZIL/1/7abc839a-80e8-4a77-9500-a0399ccd787f/99/image.jpg",
      "caption": [
        {
          "@language": "de",
          "@value": "IMG_1241"
        },
        {
          "@language": "en",
          "@value": "IMG_1241"
        }
      ]
    },
    {
      "@type": "ImageObject",
      "url": "http://resc.deskline.net/images/ZIL/1/2182566e-dfdc-4a65-ad75-7d6f9d604a04/99/image.jpg",
      "caption": [
        {
          "@language": "de",
          "@value": "20160526-IMG_8754 für web"
        },
        {
          "@language": "en",
          "@value": "20160526-IMG_8754 für web"
        }
      ]
    },
    {
      "@type": "ImageObject",
      "url": "http://resc.deskline.net/images/ZIL/1/9de98908-db53-46a4-bfee-3df3831406a9/99/image.jpg",
      "caption": [
        {
          "@language": "de",
          "@value": "IMG_1227"
        },
        {
          "@language": "en",
          "@value": "IMG_1227"
        }
      ]
    },
    {
      "@type": "ImageObject",
      "url": "http://resc.deskline.net/images/ZIL/1/a8a23e8a-87f5-42c1-bbff-5378ade10e32/99/image.jpg",
      "caption": [
        {
          "@language": "de",
          "@value": "IMG_1224"
        },
        {
          "@language": "en",
          "@value": "IMG_1224"
        }
      ]
    },
    {
      "@type": "ImageObject",
      "url": "http://resc.deskline.net/images/ZIL/1/8c1bfb4b-df66-4d2a-a6a4-05efeccde337/99/image.jpg",
      "caption": [
        {
          "@language": "de",
          "@value": "20160526-IMG_8762 für web"
        },
        {
          "@language": "en",
          "@value": "20160526-IMG_8762 für web"
        }
      ]
    },
    {
      "@type": "ImageObject",
      "url": "http://resc.deskline.net/images/ZIL/1/eb12658e-e070-4769-83ba-50a523ee7524/99/image.jpg",
      "caption": [
        {
          "@language": "de",
          "@value": "IMG_1229"
        },
        {
          "@language": "en",
          "@value": "IMG_1229"
        }
      ]
    },
    {
      "@type": "ImageObject",
      "url": "http://resc.deskline.net/images/ZIL/1/dccdc8d9-f671-4600-8c76-6e4c1e3324ac/99/image.jpg",
      "caption": [
        {
          "@language": "de",
          "@value": "20160526-IMG_8765 für web"
        },
        {
          "@language": "en",
          "@value": "20160526-IMG_8765 für web"
        }
      ]
    },
    {
      "@type": "ImageObject",
      "url": "http://resc.deskline.net/images/ZIL/1/f78f175f-526f-4f7e-a238-75b7c0b3c01d/99/image.jpg",
      "caption": [
        {
          "@language": "de",
          "@value": "20160526-IMG_8759 für web"
        },
        {
          "@language": "en",
          "@value": "20160526-IMG_8759 für web"
        }
      ]
    },
    {
      "@type": "ImageObject",
      "url": "http://resc.deskline.net/images/ZIL/1/c9c42255-c468-4e53-8ba9-599f712f14ee/99/image.jpg",
      "caption": [
        {
          "@language": "de",
          "@value": "20160526-IMG_8757 für web"
        },
        {
          "@language": "en",
          "@value": "20160526-IMG_8757 für web"
        }
      ]
    },
    {
      "@type": "ImageObject",
      "url": "http://resc.deskline.net/images/ZIL/1/a92863e1-faa8-4186-bc5e-62c670fafd32/99/image.jpg",
      "caption": [
        {
          "@language": "de",
          "@value": "20160526-IMG_8750 für web"
        },
        {
          "@language": "en",
          "@value": "20160526-IMG_8750 für web"
        }
      ]
    },
    {
      "@type": "ImageObject",
      "url": "http://resc.deskline.net/images/ZIL/1/6b2f5fe6-30e5-46fe-92d2-4074ec9039b4/99/image.jpg",
      "caption": [
        {
          "@language": "de",
          "@value": "20160319-IMG_8089_web"
        },
        {
          "@language": "en",
          "@value": "20160319-IMG_8089_web"
        }
      ]
    },
    {
      "@type": "ImageObject",
      "url": "http://resc.deskline.net/images/ZIL/1/e3feaad0-99c6-4d72-a32f-b511110e63aa/99/image.jpg",
      "caption": [
        {
          "@language": "de",
          "@value": "20160319-IMG_8092 web"
        },
        {
          "@language": "en",
          "@value": "20160319-IMG_8092 web"
        }
      ]
    },
    {
      "@type": "ImageObject",
      "url": "http://resc.deskline.net/images/ZIL/1/d6c3394a-dee7-4c43-8ab1-b619d11ad8f1/99/image.jpg",
      "caption": [
        {
          "@language": "de",
          "@value": "20160319-IMG_8143 für web"
        },
        {
          "@language": "en",
          "@value": "20160319-IMG_8143 für web"
        }
      ]
    },
    {
      "@type": "ImageObject",
      "url": "http://resc.deskline.net/images/ZIL/1/e8ba3ee1-529a-40d1-b3fc-070c1659c6fb/99/image.jpg",
      "caption": [
        {
          "@language": "de",
          "@value": "20160526-IMG_8704 für web"
        },
        {
          "@language": "en",
          "@value": "20160526-IMG_8704 für web"
        }
      ]
    },
    {
      "@type": "ImageObject",
      "url": "http://resc.deskline.net/images/ZIL/1/daa7cbf4-8a2e-499a-bd49-699a2fef3794/99/image.jpg",
      "caption": [
        {
          "@language": "de",
          "@value": "20160526-IMG_8700 für web"
        },
        {
          "@language": "en",
          "@value": "20160526-IMG_8700 für web"
        }
      ]
    },
    {
      "@type": "ImageObject",
      "url": "http://resc.deskline.net/images/ZIL/1/188f3124-1824-41a9-8ebb-3d1f25989f7e/99/image.jpg",
      "caption": [
        {
          "@language": "de",
          "@value": "20160526-IMG_8708 für web"
        },
        {
          "@language": "en",
          "@value": "20160526-IMG_8708 für web"
        }
      ]
    },
    {
      "@type": "ImageObject",
      "url": "http://resc.deskline.net/images/ZIL/1/5f05f8d3-2460-4b5a-9b08-37a25a2b4636/99/image.jpg",
      "caption": [
        {
          "@language": "de",
          "@value": "20160526-IMG_8719 für web"
        },
        {
          "@language": "en",
          "@value": "20160526-IMG_8719 für web"
        }
      ]
    },
    {
      "@type": "ImageObject",
      "url": "http://resc.deskline.net/images/ZIL/1/fb3c1429-f3b4-40e9-b990-328f07505d05/99/image.jpg",
      "caption": [
        {
          "@language": "de",
          "@value": "20160319-IMG_8104 web"
        },
        {
          "@language": "en",
          "@value": "20160319-IMG_8104 web"
        }
      ]
    },
    {
      "@type": "ImageObject",
      "url": "http://resc.deskline.net/images/ZIL/1/214a1bc6-c5f9-403e-af07-efa4eda30e77/99/image.jpg",
      "caption": [
        {
          "@language": "de",
          "@value": "20160319-IMG_8102 für web"
        },
        {
          "@language": "en",
          "@value": "20160319-IMG_8102 für web"
        }
      ]
    },
    {
      "@type": "ImageObject",
      "url": "http://resc.deskline.net/images/ZIL/1/32484f33-7276-4b71-bf0c-bf36b2822450/99/image.jpg",
      "caption": [
        {
          "@language": "de",
          "@value": "20160319-IMG_8098"
        },
        {
          "@language": "en",
          "@value": "20160319-IMG_8098"
        }
      ]
    },
    {
      "@type": "ImageObject",
      "url": "http://resc.deskline.net/images/ZIL/1/e32e6821-0505-4bef-9a44-e37eabeed0ea/99/image.jpg",
      "caption": [
        {
          "@language": "de",
          "@value": "20160319-IMG_8115-2"
        },
        {
          "@language": "en",
          "@value": "20160319-IMG_8115-2"
        }
      ]
    },
    {
      "@type": "ImageObject",
      "url": "http://resc.deskline.net/images/ZIL/1/8adcd2a6-749d-4915-beb2-0cf69cf35204/99/image.jpg",
      "caption": [
        {
          "@language": "de",
          "@value": "20160319-IMG_8120"
        },
        {
          "@language": "en",
          "@value": "20160319-IMG_8120"
        }
      ]
    },
    {
      "@type": "ImageObject",
      "url": "http://resc.deskline.net/images/ZIL/1/b1528a41-12db-45f8-9c23-ea34bbe62eae/99/image.jpg",
      "caption": [
        {
          "@language": "de",
          "@value": "20160526-IMG_8801 für web"
        },
        {
          "@language": "en",
          "@value": "20160526-IMG_8801 für web"
        }
      ]
    },
    {
      "@type": "ImageObject",
      "url": "http://resc.deskline.net/images/ZIL/1/95f5ed1c-6e61-4734-ad84-a0f6450ae7b8/99/image.jpg",
      "caption": [
        {
          "@language": "de",
          "@value": "20160526-IMG_8778 für web"
        },
        {
          "@language": "en",
          "@value": "20160526-IMG_8778 für web"
        }
      ]
    },
    {
      "@type": "ImageObject",
      "url": "http://resc.deskline.net/images/ZIL/1/dfbd56fb-2f3b-4af0-ae7e-8c47d0cdd369/99/image.jpg",
      "caption": [
        {
          "@language": "de",
          "@value": "20160526-IMG_8779 für web"
        },
        {
          "@language": "en",
          "@value": "20160526-IMG_8779 für web"
        }
      ]
    },
    {
      "@type": "ImageObject",
      "url": "http://resc.deskline.net/images/ZIL/1/90e4ef4c-9ec0-40dc-9fd6-29b87940d59f/99/image.jpg",
      "caption": [
        {
          "@language": "de",
          "@value": "20160526-IMG_8781 für web"
        },
        {
          "@language": "en",
          "@value": "20160526-IMG_8781 für web"
        }
      ]
    },
    {
      "@type": "ImageObject",
      "url": "http://resc.deskline.net/images/ZIL/1/a23a5024-bdb4-4915-8bea-b9aeb737a1e2/99/image.jpg",
      "caption": [
        {
          "@language": "de",
          "@value": "20160526-IMG_8798 für web"
        },
        {
          "@language": "en",
          "@value": "20160526-IMG_8798 für web"
        }
      ]
    },
    {
      "@type": "ImageObject",
      "url": "http://resc.deskline.net/images/ZIL/1/a9bb719b-8fa0-4b32-9a41-a6d546341642/99/image.jpg",
      "caption": [
        {
          "@language": "de",
          "@value": "20160526-IMG_8783 für web"
        },
        {
          "@language": "en",
          "@value": "20160526-IMG_8783 für web"
        }
      ]
    }
  ],
  "geo": {
    "@type": "GeoCoordinates",
    "latitude": "47.3337257713665",
    "longitude": "11.8317888610993"
  },
  "currenciesAccepted": "EUR",
  "makesOffer": [
    {
      "@type": "Offer",
      "name": [
        {
          "@language": "de",
          "@value": "Appartement/Fewo, Bad, WC, 2 Schlafräume"
        },
        {
          "@language": "en",
          "@value": "Apartment, bath, toilet, 2 bed rooms"
        }
      ],
      "description": [
        {
          "@language": "de",
          "@value": "1 Doppelschlafzimmer, 1Dreibettzimmer mit Doppelbett und Einzelbett (auch für Erwachsene - Fußende offen), 1 Küche mit Schlafmöglichkeit für eine Person (auch für Erwachsene - Fußende offen). Ein Badezimmer mit Dusche, WC getrennt, große Sonnenterrasse nach Süd/Osten ausgerichtet, Gitterbett, Kinderhochstuhl, Kaffeevollautomat, Wasserkocher, Toaster, Geschirrspülmaschine, E-Herd mit Backrohr"
        },
        {
          "@language": "en",
          "@value": "1 bedroom with double bed, 1 bedroom with double bed and a single bed, 1 kitchen with a single bed. A bathroom with a shower, WC separeted, a big sun terasse (south/east).  "
        }
      ],
      "availability": "http://schema.org/InStock",
      "itemOffered": [
        {
          "@type": [
            "Apartment",
            "Product"
          ],
          "name": [
            {
              "@language": "de",
              "@value": "Appartement/Fewo, Bad, WC, 2 Schlafräume"
            },
            {
              "@language": "en",
              "@value": "Apartment, bath, toilet, 1 bed room"
            }
          ],
          "numberOfRooms": "3.0",
          "occupancy": {
            "@type": "QuantitativeValue",
            "maxValue": "6",
            "minValue": "2"
          }
        }
      ],
      "priceSpecification": [
        {
          "@type": "PriceSpecification",
          "description": "Pax 2",
          "minPrice": "75.00",
          "maxPrice": "125.00",
          "priceCurrency": "EUR"
        },
        {
          "@type": "PriceSpecification",
          "description": "Pax 3",
          "minPrice": "75.00",
          "maxPrice": "125.00",
          "priceCurrency": "EUR"
        },
        {
          "@type": "PriceSpecification",
          "description": "Pax 4",
          "minPrice": "75.00",
          "maxPrice": "125.00",
          "priceCurrency": "EUR"
        },
        {
          "@type": "PriceSpecification",
          "description": "Pax 5",
          "minPrice": "89.00",
          "maxPrice": "139.00",
          "priceCurrency": "EUR"
        },
        {
          "@type": "PriceSpecification",
          "description": "Pax 6",
          "minPrice": "103.00",
          "maxPrice": "154.00",
          "priceCurrency": "EUR"
        }
      ]
    }
  ]
}