{
  "@context": "http://schema.org",
  "@type": "LodgingBusiness",
  "url": [
    "http://maps.best-of-zillertal.at/proxy/frontend/page/fuegen/de?foreignResource\u003dFABD72D0-29BF-490E-9053-57D0AC7B4505"
  ],
  "address": {
    "@type": "PostalAddress",
    "streetAddress": "Hnr. 9",
    "addressCountry": "AT",
    "postalCode": "6261",
    "addressRegion": "Strass im Zillertal",
    "telephone": "(0043) 5244 64238",
    "faxNumber": "(0043) 5244 64238",
    "email": "gaestehaus.luxner@interwave.at",
    "url": "http://www.gaestehausluxner.com"
  },
  "name": "Gästehaus Luxner",
  "description": [
    {
      "@language": "de",
      "@value": "Gemütliche Pension in sonniger und ruhiger Lage, Aufenthaltsraum mit TV, alle Zimmer und Ferienwohnungen mit Sat-TV, Liegewiese, großer Kinderspielplatz, Terrasse. Der Bahnhof der Zillertalbahn und die Skibushaltestelle befinden sich in unmittelbarer Nähe. Ca. 7 km bis zur Talstation der Spieljochbahn in Fügen, ca. 18 km bis nach Hochfügen und bis zur Talstation von Kaltenbach/Hochzillertal ca. 15 km. Der Badesee Schlitters ist ca. 3 km von uns entfernt."
    },
    {
      "@language": "de",
      "@value": "Endreinigung: € 40,-"
    },
    {
      "@language": "de",
      "@value": "Anreise ab 11:00 Uhr.."
    },
    {
      "@language": "en",
      "@value": "central location in Strass, 10 minutes to the ski-area, the lake in Schlitters is in a few minutes by car, bus or train reachable."
    },
    {
      "@language": "en",
      "@value": "final cleaning: € 40,-"
    },
    {
      "@language": "en",
      "@value": "Check-In at 11:00pm"
    }
  ],
  "aggregateRating": {
    "@type": "AggregateRating",
    "ratingValue": "4.7",
    "reviewCount": "10"
  },
  "image": [
    {
      "@type": "ImageObject",
      "url": "http://resc.deskline.net/images/ZIL/1/b55336d5-c78e-4473-b24c-65a8625b5e42/99/image.jpg",
      "caption": [
        {
          "@language": "de",
          "@value": "m1"
        },
        {
          "@language": "en",
          "@value": "m1"
        }
      ]
    },
    {
      "@type": "ImageObject",
      "url": "http://resc.deskline.net/images/ZIL/1/98a44127-3d99-4ee3-9ddd-1560bd4e98e8/99/image.jpg",
      "caption": [
        {
          "@language": "de",
          "@value": "m3"
        },
        {
          "@language": "en",
          "@value": "m3"
        }
      ]
    },
    {
      "@type": "ImageObject",
      "url": "http://resc.deskline.net/images/ZIL/1/8b9977f2-3c55-47ea-9968-aede5174dad0/99/image.jpg",
      "caption": [
        {
          "@language": "de",
          "@value": "Gästehaus Luxner Sommer"
        },
        {
          "@language": "en",
          "@value": "Gästehaus Luxner Sommer"
        }
      ]
    },
    {
      "@type": "ImageObject",
      "url": "http://resc.deskline.net/images/ZIL/1/23b8926e-56d4-4723-8df1-b6a8bc189d0c/99/image.jpg",
      "caption": [
        {
          "@language": "de",
          "@value": "Gästehaus Luxner Sommer 1"
        },
        {
          "@language": "en",
          "@value": "Gästehaus Luxner Sommer 1"
        }
      ]
    },
    {
      "@type": "ImageObject",
      "url": "http://resc.deskline.net/images/ZIL/1/b7db153a-01bf-4f84-aeaf-8611e7de79a3/99/image.jpg",
      "caption": [
        {
          "@language": "de",
          "@value": "Gästehaus Luxner - Garten"
        },
        {
          "@language": "en",
          "@value": "Gästehaus Luxner - Garten"
        }
      ]
    },
    {
      "@type": "ImageObject",
      "url": "http://resc.deskline.net/images/ZIL/1/3a9513e4-6ed2-404a-9c8d-d0e18d1cba42/99/image.jpg",
      "caption": [
        {
          "@language": "de",
          "@value": "Gast Fotos 084"
        },
        {
          "@language": "en",
          "@value": "Gast Fotos 084"
        }
      ]
    },
    {
      "@type": "ImageObject",
      "url": "http://resc.deskline.net/images/ZIL/1/6c2aa65e-cb80-4731-8845-16e14b3eaf82/99/image.jpg",
      "caption": [
        {
          "@language": "de",
          "@value": "IMG_2728"
        },
        {
          "@language": "en",
          "@value": "IMG_2728"
        }
      ]
    },
    {
      "@type": "ImageObject",
      "url": "http://resc.deskline.net/images/ZIL/1/366374f3-03b2-4860-b4f5-4d0f019bbc2f/99/image.jpg",
      "caption": [
        {
          "@language": "de",
          "@value": "IMG_0353"
        },
        {
          "@language": "en",
          "@value": "IMG_0353"
        }
      ]
    },
    {
      "@type": "ImageObject",
      "url": "http://resc.deskline.net/images/ZIL/1/d5f329c6-7208-4149-8e9f-8951963fd4a2/99/image.jpg",
      "caption": [
        {
          "@language": "de",
          "@value": "m5"
        },
        {
          "@language": "en",
          "@value": "m5"
        }
      ]
    },
    {
      "@type": "ImageObject",
      "url": "http://resc.deskline.net/images/ZIL/1/0fdf6347-d251-475d-bad8-cb7c355530ee/99/image.jpg",
      "caption": [
        {
          "@language": "de",
          "@value": "m4"
        },
        {
          "@language": "en",
          "@value": "m4"
        }
      ]
    },
    {
      "@type": "ImageObject",
      "url": "http://resc.deskline.net/images/ZIL/1/c17d35c5-e9ca-48bc-9ddb-42b25590de4a/99/image.jpg",
      "caption": [
        {
          "@language": "de",
          "@value": "m9"
        },
        {
          "@language": "en",
          "@value": "m9"
        }
      ]
    },
    {
      "@type": "ImageObject",
      "url": "http://resc.deskline.net/images/ZIL/1/5247f594-6ba3-4db6-a2e3-fc939b422b8c/99/image.jpg",
      "caption": [
        {
          "@language": "de",
          "@value": "diverse 107"
        },
        {
          "@language": "en",
          "@value": "diverse 107"
        }
      ]
    }
  ],
  "geo": {
    "@type": "GeoCoordinates",
    "latitude": "47.396308449243",
    "longitude": "11.8170189857483"
  },
  "currenciesAccepted": "EUR",
  "makesOffer": [
    {
      "@type": "Offer",
      "name": [
        {
          "@language": "de",
          "@value": "Appartement/Fewo, Dusche, WC, 1 Schlafraum"
        },
        {
          "@language": "en",
          "@value": "Apartment, shower, toilet, 1 bed room"
        }
      ],
      "description": [
        {
          "@language": "de",
          "@value": "1 Schlafzimmer, 1 Wohnschlafzimmer, Dusche und WC, TV, \ndie Ferienwohnung wurde neu umgebaut"
        },
        {
          "@language": "en",
          "@value": "1 Badroom, 1  Shower / WC, TV, \n"
        }
      ],
      "availability": "http://schema.org/InStock",
      "itemOffered": [
        {
          "@type": [
            "Apartment",
            "Product"
          ],
          "name": [
            {
              "@language": "de",
              "@value": "Apartment/1 Schlafraum/Dusche, WC"
            },
            {
              "@language": "en",
              "@value": "apartment/1 bedroom/shower, WC"
            }
          ],
          "numberOfRooms": "2.0",
          "occupancy": {
            "@type": "QuantitativeValue",
            "maxValue": "3",
            "minValue": "2"
          }
        }
      ]
    },
    {
      "@type": "Offer",
      "name": [
        {
          "@language": "de",
          "@value": "Appartement/Fewo, Dusche und Bad, WC, 2 Schlafräume"
        },
        {
          "@language": "en",
          "@value": "Apartment, shower and bath, toilet, 2 bed rooms"
        }
      ],
      "description": [
        {
          "@language": "de",
          "@value": "Appartement für 2 - 4 Personen, 2 Schlafräume, Sat-TV, Dusche und WC."
        },
        {
          "@language": "en",
          "@value": "appartmen for 2 - 4 person, 2 Bedrooms, 2 shower 2 Tv´s"
        }
      ],
      "availability": "http://schema.org/InStock",
      "itemOffered": [
        {
          "@type": [
            "Apartment",
            "Product"
          ],
          "name": [
            {
              "@language": "de",
              "@value": "Appartement, Dusche und Bad, WC, 2 Schlafräume"
            },
            {
              "@language": "en",
              "@value": "Apartment, shower and bath, toilet, 2 bed rooms"
            }
          ],
          "numberOfRooms": "3.0",
          "occupancy": {
            "@type": "QuantitativeValue",
            "maxValue": "4",
            "minValue": "2"
          }
        }
      ]
    }
  ]
}