{
  "@context": "http://schema.org",
  "@type": "LodgingBusiness",
  "url": [
    "http://www.fewo-schweiberer.at",
    "http://maps.best-of-zillertal.at/proxy/frontend/page/fuegen/de?foreignResource\u003dFBB006BC-31AE-4375-8D65-069B9B8119D6"
  ],
  "address": {
    "@type": "PostalAddress",
    "streetAddress": "Dorfstraße 25",
    "addressCountry": "AT",
    "postalCode": "6273",
    "addressRegion": "Ried im Zillertal",
    "telephone": "(0043) 5282 4558",
    "faxNumber": "(0043) 5282 4558",
    "email": "info@fewo-schweiberer.at",
    "url": "http://www.fewo-schweiberer.at"
  },
  "name": "Appartements Schweiberer",
  "description": [
    {
      "@language": "de",
      "@value": "Unser Ferienhaus wurde 2011 neu renoviert und liegt inmitten der großen Ski- und Wandergebiete. Die Talstation der Hochzillertalbahn ist nur 800 m entfernt. Wir befinden uns im idyllisch gelegenen Ort Ried, in Waldnähe, abseits der Hauptstraße.\nDie ruhige, sonnige Lage und die unmittelbare Nähe zu Einkaufsmöglichkeiten, Gasthöfen, Cafes und Pizzeria bietet Ihnen Erholung aber auch die Möglichkeit ganz in der Nähe gut essen gehen zu können, wenn Sie mal nicht selbst kochen wollen.\nDas familiär geführte Appartementhaus bietet 4 komfortable und voll ausgestattete Ferienwohnungen. Im Keller des Hauses steht Ihnen ein Skiraum und ein extra Trockenraum für Bekleidung mit Skischuhtrockner zur Verfügung. Ein nettes Spielzimmer mit Ausgang zum Garten mit Tichtennis, Darts und verschiedenen Spielsachen bietet Spiel und Spaß für die ganze Familie! Ein kleiner Waschraum mit Münzwaschmaschine steht für unsere Gäste bereit. Das gesamte Haus verfügt über einen Internet Zugang ( W-Lan.)\nFür Gäste die es im Urlaub ruhig angehen, ist die gemütliche Ferienwohnung, der schöne Holzbalkon und unser liebevoll angelegter Garten der richtige Platz um Entspannung vom Alltag zu finden. In unserer urigen und beliebten Grillhütte, können Sie Sommer wie Winter einen netten Grillabend bei offenem Feuer genießen. \n\nIm Sommer bietet unser Appartementhaus einen schön angelegten und abgeschlossenen Garten, wo Ihre Kinder frei laufen können. Viele Spielmöglichkeiten für Kinder, ein Riesentrampolin, Spielturm mit Kletterwand, Schaukel, Rutsche, Sandkasten sowie verschiedene Spielgeräte wie Traktoren, Roller usw. lassen Kinderherzen höher schlagen. Eine kuschelige Gartengarnitur und unsere gemütliche Pergola mit Liegestühlen laden zum Relaxen ein. Für einen netten Grillabend steht der Gartengrill oder unsere urige Grillhütte bereit!Ebenso haben wir eine Feuerstelle für ein Lagerfeuer am Abend!\nNur wenige Schritte entfernt laden ein schöner Waldspielplatz, der Fahrradweg entlang der Ziller sowie Tennis-und Beachvolleyballplätze zu Freizeitaktivitäten ein. Das Kletterzentrum Zillertal, ein Hochseilgarten, der Erlebnisberg Spieljochbahn mit dem Gipfel-Barfuß-Weg und die Badewelt Stumm mit vielen Attraktionen für Kinder, sowie die Erlebnistherme befinden sich in der Nähe. \n\nIm Winter liegt das beliebte Schigebiet Hochfügen-Hochzillertal und die Apres Ski Bars nur 800 m entfernt! Der Schibus hält direkt neben dem Haus. Die Langlaufloipe ist nur wenige Schritte vom Haus entfernt! Ein Eislaufplatz, Winterwanderwege und die Erlebnistherme mit 2 Wasserrutschen und einer schönen Saunalandschaft sind ganz in der Nähe!"
    },
    {
      "@language": "de",
      "@value": "Endreinigung: EURO 30,-- bis 100,-- (je nach Belegung u. Saisonszeit)\nHund: EURO 5,- ohne Futter"
    },
    {
      "@language": "de",
      "@value": "Anreise ab 15:00 Uhr\nAbreise bis 09:00 Uhr"
    },
    {
      "@language": "en",
      "@value": "Our cottage was renovated in 2011 new, located in the big skiing and hiking areas. The station of the ski-area Hochzillertal  is only 800 meters away. We are located in the center of Ried, near the forest, off the main road.\nThe quiet and sunny location and proximity to shops, guest houses, cafes and pizzerias offers you a break but also the ability to have lunch or dinner very close if you do not want to cook.\nThe family-run apartment house offers 4 comfortable and fully equipped apartments. In the basement a ski storage room and an extra drying room for clothing with a ski boot dryer. A nice game room with exit to the garden with table tennis, darts and  toys offers fun and games for the whole family!  A washing machine is available for our guests. The whole house has internet access (W-Lan.)\nFor guests preferring quiet holidays, cozy apartments and a beautiful wooden balcony are the right place to find relaxation from everyday life. In our cozy barbecue hut, you can arrange a nice barbecue with open fire in summer and winter.\n\nIn summer we offer you a beautifully landscaped enclosed garden where children can run free. Many children\u0027s games, a giant trampoline, climbing frame with climbing wall, swings, slide, sandpit and various playground equipment such as tractors, scooters, etc. can make child\u0027s heart beat faster. A cozy garden furniture and our cozy pergola with lounge chairs invite you to relax. For a nice barbecue evening the barbecue grill or our cozy barbecue hut are ready for you.\nJust steps away you will find a beautiful forest playground, bicycle path along the Ziller river and tennis and volleyball courts for recreational activities. The climbing centre Zillertal, the experience mountain Spieljochbahn with barefoot way, and the silent water Stumm with many attractions for children, as well as the Zillertal spa are located nearby.\n\nIn winter the popular ski-area Hochfügen-Hochzillertal with 181 km of slopes is reachable in just 800 meters! The charge-free ski bus stops right next to the house. The cross-country ski trail is just steps away from the house! An ice skating rink, winter hiking and adventure spa with 2 water slides and a nice sauna area are very close!"
    },
    {
      "@language": "en",
      "@value": "Final cleaning: EURO 30,-- to 100,--\nPets: EURO 5,- without food"
    },
    {
      "@language": "en",
      "@value": "Check-in 3.00 p.m. \nCheck-out until 9.00 a.m. "
    }
  ],
  "image": [
    {
      "@type": "ImageObject",
      "url": "http://resc.deskline.net/images/ZIL/1/e99e4502-4c95-4b82-9620-d1974ab0748c/99/image.jpg",
      "caption": [
        {
          "@language": "de",
          "@value": "Haus Sommer"
        },
        {
          "@language": "en",
          "@value": "Haus Sommer"
        }
      ]
    },
    {
      "@type": "ImageObject",
      "url": "http://resc.deskline.net/images/ZIL/1/4e7d432d-ad39-4d14-84a5-2e934d0cf797/99/image.jpg",
      "caption": [
        {
          "@language": "de",
          "@value": "Haus Winter"
        },
        {
          "@language": "en",
          "@value": "Haus Winter"
        }
      ]
    },
    {
      "@type": "ImageObject",
      "url": "http://resc.deskline.net/images/ZIL/1/5b5a8162-c7d1-4865-a796-941aa18c01a8/99/image.jpg",
      "caption": [
        {
          "@language": "de",
          "@value": "Grillhütte  mit Brunnen"
        },
        {
          "@language": "en",
          "@value": "Grillhütte  mit Brunnen"
        }
      ]
    },
    {
      "@type": "ImageObject",
      "url": "http://resc.deskline.net/images/ZIL/1/a8b1ac2b-692c-4d83-ba3c-9a47c55da9d2/99/image.jpg",
      "caption": [
        {
          "@language": "de",
          "@value": "Garten und Grillhütte von oben"
        },
        {
          "@language": "en",
          "@value": "Garten und Grillhütte von oben"
        }
      ]
    },
    {
      "@type": "ImageObject",
      "url": "http://resc.deskline.net/images/ZIL/1/9fff6f65-3f21-41bc-beca-f3a70d2efcd5/99/image.jpg",
      "caption": [
        {
          "@language": "de",
          "@value": "Garten Bänke und Liegen"
        },
        {
          "@language": "en",
          "@value": "Garten Bänke und Liegen"
        }
      ]
    },
    {
      "@type": "ImageObject",
      "url": "http://resc.deskline.net/images/ZIL/1/29492783-26e4-4c56-b697-b09ae653affe/99/image.jpg",
      "caption": [
        {
          "@language": "de",
          "@value": "Spielwiese und Liegeplatz"
        },
        {
          "@language": "en",
          "@value": "Spielwiese und Liegeplatz"
        }
      ]
    },
    {
      "@type": "ImageObject",
      "url": "http://resc.deskline.net/images/ZIL/1/09b1533d-4ab9-4f25-bc55-390e43634477/99/image.jpg",
      "caption": [
        {
          "@language": "de",
          "@value": "Spielhütte"
        },
        {
          "@language": "en",
          "@value": "Spielhütte"
        }
      ]
    },
    {
      "@type": "ImageObject",
      "url": "http://resc.deskline.net/images/ZIL/1/29ad9d0f-b9d5-4782-9a54-57f68ae1b1a4/99/image.jpg",
      "caption": [
        {
          "@language": "de",
          "@value": "Garten"
        },
        {
          "@language": "en",
          "@value": "Garten"
        }
      ]
    },
    {
      "@type": "ImageObject",
      "url": "http://resc.deskline.net/images/ZIL/1/d66d7633-7a27-4e67-8cca-29b81aa03af3/99/image.jpg",
      "caption": [
        {
          "@language": "de",
          "@value": "Lagerfeuer/Garten"
        },
        {
          "@language": "en",
          "@value": "Lagerfeuer/Garten"
        }
      ]
    },
    {
      "@type": "ImageObject",
      "url": "http://resc.deskline.net/images/ZIL/1/ff2fd59a-bbae-4974-a8f8-2c24163aa8ee/99/image.jpg",
      "caption": [
        {
          "@language": "de",
          "@value": "Griller aussen"
        },
        {
          "@language": "en",
          "@value": "Griller aussen"
        }
      ]
    },
    {
      "@type": "ImageObject",
      "url": "http://resc.deskline.net/images/ZIL/1/aeb416c7-bf09-462e-8ddc-15064c106b83/99/image.jpg",
      "caption": [
        {
          "@language": "de",
          "@value": "Trampolin Garten"
        },
        {
          "@language": "en",
          "@value": "Trampolin Garten"
        }
      ]
    },
    {
      "@type": "ImageObject",
      "url": "http://resc.deskline.net/images/ZIL/1/31d298a2-e145-4052-ba0d-85c2bd55c209/99/image.jpg",
      "caption": [
        {
          "@language": "de",
          "@value": "Garten Sandkiste"
        },
        {
          "@language": "en",
          "@value": "Garten Sandkiste"
        }
      ]
    },
    {
      "@type": "ImageObject",
      "url": "http://resc.deskline.net/images/ZIL/1/8c2dd1b1-d521-4bc5-ade1-cc50cdb06384/99/image.jpg",
      "caption": [
        {
          "@language": "de",
          "@value": "Garten Schaukel"
        },
        {
          "@language": "en",
          "@value": "Garten Schaukel"
        }
      ]
    },
    {
      "@type": "ImageObject",
      "url": "http://resc.deskline.net/images/ZIL/1/9c41752a-9570-400b-934a-ce7059a59f34/99/image.jpg",
      "caption": [
        {
          "@language": "de",
          "@value": "Gartenmöbel"
        },
        {
          "@language": "en",
          "@value": "Gartenmöbel"
        }
      ]
    },
    {
      "@type": "ImageObject",
      "url": "http://resc.deskline.net/images/ZIL/1/ef15afac-f9a5-4a51-8c46-7288f6fbd417/99/image.jpg",
      "caption": [
        {
          "@language": "de",
          "@value": "Garten Gocart"
        },
        {
          "@language": "en",
          "@value": "Garten Gocart"
        }
      ]
    },
    {
      "@type": "ImageObject",
      "url": "http://resc.deskline.net/images/ZIL/1/94880781-3d72-4299-afab-5d227f2a24f1/99/image.jpg",
      "caption": [
        {
          "@language": "de",
          "@value": "Garten Stapler"
        },
        {
          "@language": "en",
          "@value": "Garten Stapler"
        }
      ]
    },
    {
      "@type": "ImageObject",
      "url": "http://resc.deskline.net/images/ZIL/1/e28bc8da-8332-428b-803b-18b51ac3eed1/99/image.jpg",
      "caption": [
        {
          "@language": "de",
          "@value": "Garten Traktor"
        },
        {
          "@language": "en",
          "@value": "Garten Traktor"
        }
      ]
    },
    {
      "@type": "ImageObject",
      "url": "http://resc.deskline.net/images/ZIL/1/aee4f43a-2f2a-48e3-a5b8-750932d9c5f4/99/image.jpg",
      "caption": [
        {
          "@language": "de",
          "@value": "Garten Spielgeräte Garage"
        },
        {
          "@language": "en",
          "@value": "Garten Spielgeräte Garage"
        }
      ]
    },
    {
      "@type": "ImageObject",
      "url": "http://resc.deskline.net/images/ZIL/1/ac970ed4-4100-4146-a4b7-cf126186ceba/99/image.jpg",
      "caption": [
        {
          "@language": "de",
          "@value": "Grillhütte abends"
        },
        {
          "@language": "en",
          "@value": "Grillhütte abends"
        }
      ]
    },
    {
      "@type": "ImageObject",
      "url": "http://resc.deskline.net/images/ZIL/1/df84e407-1b41-4a85-811d-36ae537c3296/99/image.jpg",
      "caption": [
        {
          "@language": "de",
          "@value": "Grillhütte"
        },
        {
          "@language": "en",
          "@value": "Grillhütte"
        }
      ]
    },
    {
      "@type": "ImageObject",
      "url": "http://resc.deskline.net/images/ZIL/1/1b5a268c-afbb-4753-9d08-c9a85af28c80/99/image.jpg",
      "caption": [
        {
          "@language": "de",
          "@value": "Grillhütte innen"
        },
        {
          "@language": "en",
          "@value": "Grillhütte innen"
        }
      ]
    },
    {
      "@type": "ImageObject",
      "url": "http://resc.deskline.net/images/ZIL/1/232f54f9-5efb-416a-bb0c-d3d1f2e8c8fe/99/image.jpg",
      "caption": [
        {
          "@language": "de",
          "@value": "Brunnen mit Getränken"
        },
        {
          "@language": "en",
          "@value": "Brunnen mit Getränken"
        }
      ]
    },
    {
      "@type": "ImageObject",
      "url": "http://resc.deskline.net/images/ZIL/1/4ac8fcb9-5513-4a9e-b1b0-022bd50607f9/99/image.jpg",
      "caption": [
        {
          "@language": "de",
          "@value": "Spielraum Tischtennis"
        },
        {
          "@language": "en",
          "@value": "Spielraum Tischtennis"
        }
      ]
    },
    {
      "@type": "ImageObject",
      "url": "http://resc.deskline.net/images/ZIL/1/5cc17357-af7c-4164-8595-39c04c0e980d/99/image.jpg",
      "caption": [
        {
          "@language": "de",
          "@value": "Spielraum 2"
        },
        {
          "@language": "en",
          "@value": "Spielraum 2"
        }
      ]
    },
    {
      "@type": "ImageObject",
      "url": "http://resc.deskline.net/images/ZIL/1/41a78687-c3d9-46c7-83ee-0332ef8c5ddf/99/image.jpg",
      "caption": [
        {
          "@language": "de",
          "@value": "Spielraum 3"
        },
        {
          "@language": "en",
          "@value": "Spielraum 3"
        }
      ]
    },
    {
      "@type": "ImageObject",
      "url": "http://resc.deskline.net/images/ZIL/1/6ea45d9e-4469-47d1-93c4-d501bf2752ac/99/image.jpg",
      "caption": [
        {
          "@language": "de",
          "@value": "Spielraum Darts"
        },
        {
          "@language": "en",
          "@value": "Spielraum Darts"
        }
      ]
    },
    {
      "@type": "ImageObject",
      "url": "http://resc.deskline.net/images/ZIL/1/943141ec-c42a-4969-8d1e-c020820845ca/99/image.jpg",
      "caption": [
        {
          "@language": "de",
          "@value": "Skikeller"
        },
        {
          "@language": "en",
          "@value": "Skikeller"
        }
      ]
    },
    {
      "@type": "ImageObject",
      "url": "http://resc.deskline.net/images/ZIL/1/8d59b2e5-9c15-4f41-ba06-c2adf5aef854/99/image.jpg",
      "caption": [
        {
          "@language": "de",
          "@value": "Skiraum"
        },
        {
          "@language": "en",
          "@value": "Skiraum"
        }
      ]
    },
    {
      "@type": "ImageObject",
      "url": "http://resc.deskline.net/images/ZIL/1/f56fd0ef-ee29-4e23-aabb-d884ed836fb3/99/image.jpg",
      "caption": [
        {
          "@language": "de",
          "@value": "Skischuhtrockner"
        },
        {
          "@language": "en",
          "@value": "Skischuhtrockner"
        }
      ]
    },
    {
      "@type": "ImageObject",
      "url": "http://resc.deskline.net/images/ZIL/1/98da7790-5cb2-4f8c-b54b-ac22d992e6da/99/image.jpg",
      "caption": [
        {
          "@language": "de",
          "@value": "Trockenraum"
        },
        {
          "@language": "en",
          "@value": "Trockenraum"
        }
      ]
    },
    {
      "@type": "ImageObject",
      "url": "http://resc.deskline.net/images/ZIL/1/bc42d949-867e-4df5-90d1-e1e3f458fb17/99/image.jpg",
      "caption": [
        {
          "@language": "de",
          "@value": "Waschmaschine"
        },
        {
          "@language": "en",
          "@value": "Waschmaschine"
        }
      ]
    }
  ],
  "geo": {
    "@type": "GeoCoordinates",
    "latitude": "47.3009115098048",
    "longitude": "11.869086027145386"
  },
  "currenciesAccepted": "EUR",
  "makesOffer": [
    {
      "@type": "Offer",
      "name": [
        {
          "@language": "de",
          "@value": "Appartement/Fewo, Bad, WC, 3 Schlafräume"
        },
        {
          "@language": "en",
          "@value": "Apartment, bath, toilet, 3 bed rooms"
        }
      ],
      "description": [
        {
          "@language": "de",
          "@value": "85 m2;exclusive Ausstattung,Holzböden.3 Schlafzimmer mit TV (2 Doppel,1 Doppel mit Etagenbett),2xDusche,1xBad/WC,sep WC/Pissuart,Haarfön,Panorama TV als besonderes Service,W-Lan,Safe,Balkon.  \n20m2 Wohn-u Essküche mit Liegesofa,Kachelofen,TV,Radio mit Lautsprecherboxen und AUX Anschluss. Küchenzeile mit Granitplatte und ausgestattet mit Kaffeemaschine,Wasserkocher,Toaster,Küchenwaage,Mixer,Milchschäumer.Herd mit 4 Ceranfelder,Backofen,Dunstabzug,Kühlschrank,Gefrierfach,Geschirrspüler,Microwelle."
        },
        {
          "@language": "en",
          "@value": "85 qm, exclusive equipment, 1 double-room with tv and shower and running water, 1 double-room with tv and shower and running water, 1 four-beded room with tv, 1 bath-room with wc, 1 sep. wc with pissoir, hall with wardrobe, living-kitchen with sofa, dining table and complete equipped, sat-tv, radio, fireplace, dishwasher, microwave, ofen, coffee maker, kettle, toaster, kitchen scales, blender, freezer, wireless internet, safe balcony."
        }
      ],
      "availability": "http://schema.org/InStock",
      "itemOffered": [
        {
          "@type": [
            "Apartment",
            "Product"
          ],
          "name": [
            {
              "@language": "de",
              "@value": "Hambergblick"
            },
            {
              "@language": "en",
              "@value": "apartment/3 bedrooms/bath tube, WC"
            }
          ],
          "numberOfRooms": "4.0",
          "occupancy": {
            "@type": "QuantitativeValue",
            "maxValue": "8",
            "minValue": "4"
          }
        }
      ],
      "priceSpecification": [
        {
          "@type": "PriceSpecification",
          "description": "Pax 4",
          "minPrice": "60.00",
          "maxPrice": "235.00",
          "priceCurrency": "EUR"
        },
        {
          "@type": "PriceSpecification",
          "description": "Pax 5",
          "minPrice": "75.00",
          "maxPrice": "235.00",
          "priceCurrency": "EUR"
        },
        {
          "@type": "PriceSpecification",
          "description": "Pax 6",
          "minPrice": "90.00",
          "maxPrice": "235.00",
          "priceCurrency": "EUR"
        },
        {
          "@type": "PriceSpecification",
          "description": "Pax 7",
          "minPrice": "105.00",
          "maxPrice": "235.00",
          "priceCurrency": "EUR"
        },
        {
          "@type": "PriceSpecification",
          "description": "Pax 8",
          "minPrice": "120.00",
          "maxPrice": "235.00",
          "priceCurrency": "EUR"
        }
      ]
    },
    {
      "@type": "Offer",
      "name": [
        {
          "@language": "de",
          "@value": "Appartement/Fewo, Bad, WC, 3 Schlafräume"
        },
        {
          "@language": "en",
          "@value": "Apartment, bath, toilet, 3 bed rooms"
        }
      ],
      "description": [
        {
          "@language": "de",
          "@value": "85 m²,2 Doppelzimmer mit je einem Einzelbett und Dachfenster,1 Doppelzimmer mit Stockbett(2 m Länge);alle Zimmer mit eigener,schön gefliester Dusche und Waschbecken.1 WC,zusätzlich 1 WC außerhalb der Wohnung (nur für diese Ferienwohnung),Flur mit Garderobe, Wohnküche komplett eingerichtet mit gemütlicher Sitzecke, Kaffeemaschine,E-Herd mit Backofen, Dunstabzug,Geschirrspülmaschine, Wasserkocher,Microwelle,Sat-TV,Radio,südseitiger und möblierter Balkon. Panorama TV als besonderes Service.W-Lan."
        },
        {
          "@language": "en",
          "@value": "85 m²,  2 double rooms with additional single bed each and roof window, 1 double room with bunk bed (2 m long); all rooms have their own shower and wash baisin; 1 toilet, one more toilet is on the floor (only for this apartment), living kitchen completely equipped with cosy seating corner, coffee maker, electric oven, dishwasher, water cooker, microwave, satellite TV, radio, wireless internet, furnished balcony to the south."
        }
      ],
      "availability": "http://schema.org/InStock",
      "itemOffered": [
        {
          "@type": [
            "Apartment",
            "Product"
          ],
          "name": [
            {
              "@language": "de",
              "@value": "Hochzillertal"
            },
            {
              "@language": "en",
              "@value": "apartment/3 bedrooms/bath tube, WC"
            }
          ],
          "numberOfRooms": "4.0",
          "occupancy": {
            "@type": "QuantitativeValue",
            "maxValue": "10",
            "minValue": "6"
          }
        }
      ],
      "priceSpecification": [
        {
          "@type": "PriceSpecification",
          "description": "Pax 6",
          "minPrice": "75.00",
          "maxPrice": "250.00",
          "priceCurrency": "EUR"
        },
        {
          "@type": "PriceSpecification",
          "description": "Pax 7",
          "minPrice": "85.00",
          "maxPrice": "250.00",
          "priceCurrency": "EUR"
        },
        {
          "@type": "PriceSpecification",
          "description": "Pax 8",
          "minPrice": "95.00",
          "maxPrice": "250.00",
          "priceCurrency": "EUR"
        },
        {
          "@type": "PriceSpecification",
          "description": "Pax 9",
          "minPrice": "105.00",
          "maxPrice": "250.00",
          "priceCurrency": "EUR"
        },
        {
          "@type": "PriceSpecification",
          "description": "Pax 10",
          "minPrice": "115.00",
          "maxPrice": "250.00",
          "priceCurrency": "EUR"
        }
      ]
    },
    {
      "@type": "Offer",
      "name": [
        {
          "@language": "de",
          "@value": "Appartement/Fewo, Bad, WC, 2 Schlafräume"
        },
        {
          "@language": "en",
          "@value": "Apartment, bath, toilet, 2 bed rooms"
        }
      ],
      "description": [
        {
          "@language": "de",
          "@value": "57 m², 1 Doppelzimmer mit Zustellbett, 1 Doppelzimmer mit Stockbetten (2 m lang) und Dachfenster;  beide Zimmer sind mit eigener schön gefliester Dusche und Waschbecken; 1 WC, Flur mit Garderobe, Wohnküche komplett eingerichtet (Kaffeemaschine, E-Herd mit Backofen, Dunstabzug, Geschirrspülmaschine, Wasserkocher, Mikrowelle) mit gemütlicher Sitzecke und Sat-TV, Radio, möblierter Balkon. Panorama TV als besonderes Service. W-Lan."
        },
        {
          "@language": "en",
          "@value": "57 m², 1 bedroom with double bed and single bed, 1 bedroom with double bed and bunk bed (2 m long) and roof window; both rooms have their own shower and wash baisin; 1 toilet, living kitchen completely equipped (coffee maker, electric oven, dishwasher, water cooker, microwave) with cosy seating corner and satellite TV, radio, wireless internet, furnished balcony."
        }
      ],
      "availability": "http://schema.org/InStock",
      "itemOffered": [
        {
          "@type": [
            "Apartment",
            "Product"
          ],
          "name": [
            {
              "@language": "de",
              "@value": "Wetterkreuz"
            },
            {
              "@language": "en",
              "@value": "apartment/2 bedrooms/bath tube, WC"
            }
          ],
          "numberOfRooms": "3.0",
          "occupancy": {
            "@type": "QuantitativeValue",
            "maxValue": "7",
            "minValue": "2"
          }
        }
      ],
      "priceSpecification": [
        {
          "@type": "PriceSpecification",
          "description": "Pax 2",
          "minPrice": "45.00",
          "maxPrice": "161.00",
          "priceCurrency": "EUR"
        },
        {
          "@type": "PriceSpecification",
          "description": "Pax 3",
          "minPrice": "55.00",
          "maxPrice": "161.00",
          "priceCurrency": "EUR"
        },
        {
          "@type": "PriceSpecification",
          "description": "Pax 4",
          "minPrice": "60.00",
          "maxPrice": "161.00",
          "priceCurrency": "EUR"
        },
        {
          "@type": "PriceSpecification",
          "description": "Pax 5",
          "minPrice": "66.00",
          "maxPrice": "161.00",
          "priceCurrency": "EUR"
        },
        {
          "@type": "PriceSpecification",
          "description": "Pax 6",
          "minPrice": "75.00",
          "maxPrice": "161.00",
          "priceCurrency": "EUR"
        },
        {
          "@type": "PriceSpecification",
          "description": "Pax 7",
          "minPrice": "85.00",
          "maxPrice": "161.00",
          "priceCurrency": "EUR"
        }
      ]
    },
    {
      "@type": "Offer",
      "name": [
        {
          "@language": "de",
          "@value": "Appartement/Fewo, Bad, WC, 3 Schlafräume"
        },
        {
          "@language": "en",
          "@value": "Apartment, bath, toilet, 3 bed rooms"
        }
      ],
      "description": [
        {
          "@language": "de",
          "@value": "60 qm;exclusive Ausstattung,Holzböden.2 Doppelzimmer mit TV (in einem Zimmer Zustellbett möglich),1xDusche,1xBad/WC,sep WC,Haarfön,Panorama TV als besonderes Service,W-Lan,Safe,Balkon.  \n20m2 Wohn-u Essküche mit Liegesofa,Kachelofen,TV,Radio mit Lautsprecherboxen und AUX Anschluss. Küchenzeile mit Granitplatte und ausgestattet mit Kaffeemaschine,Wasserkocher,Toaster,Küchenwaage,Mixer,Milchschäumer.Herd mit 4 Ceranfelder,Backofen,Dunstabzug,Kühlschrank,Gefrierfach,Geschirrspüler,Microwelle."
        },
        {
          "@language": "en",
          "@value": "60 qm, exclusive equipment,1 double-room with bath-room and wc and tv, 1 double-room with shower and running water and tv,  1 sep. wc, hall with wardrobe, living-kitchen with sofa, dining table and complete equipped, sat-tv, radio, fireplace, dishwasher, microwave, ofen, coffee maker, kettle, toaster, kitchen scales, blender, freezer, wireless internet, safe balcony."
        }
      ],
      "availability": "http://schema.org/InStock",
      "itemOffered": [
        {
          "@type": [
            "Apartment",
            "Product"
          ],
          "name": [
            {
              "@language": "de",
              "@value": "Hochfügen"
            },
            {
              "@language": "en",
              "@value": "Apartment, bath, toilet, 3 bed rooms"
            }
          ],
          "numberOfRooms": "4.0",
          "occupancy": {
            "@type": "QuantitativeValue",
            "maxValue": "5",
            "minValue": "2"
          }
        }
      ],
      "priceSpecification": [
        {
          "@type": "PriceSpecification",
          "description": "Pax 4",
          "minPrice": "0.00",
          "maxPrice": "60.00",
          "priceCurrency": "EUR"
        },
        {
          "@type": "PriceSpecification",
          "description": "Pax 5",
          "minPrice": "0.00",
          "maxPrice": "70.00",
          "priceCurrency": "EUR"
        }
      ]
    }
  ]
}