{
  "@context": "http://schema.org",
  "@type": "LodgingBusiness",
  "url": [
    "http://www.zillertal-appartements.at",
    "http://maps.best-of-zillertal.at/proxy/frontend/page/fuegen/de?foreignResource\u003dFD74290F-9FE2-4021-80D4-6B7F75054A4D"
  ],
  "address": {
    "@type": "PostalAddress",
    "streetAddress": "Angererweg 7",
    "addressCountry": "AT",
    "postalCode": "6271",
    "addressRegion": "Uderns",
    "telephone": "(0043) 5288 64545",
    "faxNumber": "(0043) 5288 64545",
    "email": "office@zillertal-appartements.at",
    "url": "http://www.zillertal-appartements.at"
  },
  "name": "Zillertal Appartements Abendstein Uderns",
  "description": [
    {
      "@language": "de",
      "@value": "Herzlich Willkommen in unseren Appartements Uderns, im wunderschönen Zillertal! Ruhig gelegen und doch mitten drin: unsere Lage sorgt für einen stressfreien Urlaub mit Familie oder Freunden!  \n\nDie Zillertal Appartements Uderns liegen in ruhiger aber auch zentraler Lage ca. 100m von der Ortsmitte entfernt. Die Einkaufsmöglichkeiten in unserem Ort sind bequem zu Fuß zu erreichen. Von Uderns aus verkehrt ein kostenloser Skibus zu den Skigebieten Spieljoch, Hochfügen und Hochzillertal. Die Bushaltestelle liegt nur 100m entfernt von unseren Appartements. Die nächste Rodelbahn befindet sich in etwa 500m Entfernung.\n\nUnsere zwei voll ausgestatteten Appartements in Uderns sind ca. 100m2 groß und für 5-8 Personen geeignet. Sie verfügen über je 3 Schlafzimmer, je 3 Badezimmer, einer voll eingerichteten Wohnküche, Wohnzimmer mit Sofa, Sat-TV, kostenfreiem WLan und einem großzügigen Balkon. Im Keller steht Ihnen selbstverständlich ein Skiraum mit Skischuhtrockner zur Verfügung. Gerne bieten wir Ihnen auf Wunsch täglich frischen Brötchenservice. \n\nIm Sommer bietet Ihnen Uderns zahlreiche Wanderwege und Radtouren. Diese kann man direkt vom Haus aus starten. Für Golfinteressierte steht Ihnen auch ein neu errichteter Golfplatz zur Verfügung welchen Sie in nur 5 Gehminuten erreichen.  \nOb Paragleiten, Klettern oder Reiten - einem Aktivurlaub in Uderns steht nichts im Wege und wir freuen uns Sie bei der Gestaltung zu beraten. \nDie Therme Fügen befindet sich nur 5 Autominuten von uns entfernt und bietet einen herrlichen Wellness Bereich mit Sauna Landschaft. \n\nIm Winter erfreuen sich unsere Gäste der traumhaften Skigebiete Spieljoch, 5 Autominuten entfernt, und Hochfügen - Hochzillertal, 10 Autominuten entfernt. Sie erreichen beide Skigebiete auch mit dem kostenfreien Skibus der mehrmals am Tag verkehrt. \n\nWir freuen uns, Sie bald bei uns in Uderns im Zillertal begrüßen zu dürfen. \nIhre Familie Abendstein\n"
    },
    {
      "@language": "de",
      "@value": "Endreinigung EUR 55,00"
    },
    {
      "@language": "en",
      "@value": "Welcome to our apartments in Uderns, in the beautiful Zillertal! Quietly situated and nevertheless right at the heart of the valley - our location ensures a stress-free vacation with family or friends!  \n\nThe Zillertal apartments Uderns are quietly and centrally situated, approx. 100m from the local centre. The shopping possibilities in our village can be comfortably reached on foot. From Uderns a free ski bus takes you to the skiing areas of Spieljoch, Hochfügen und Hochzillertal. The bus stop is only about 100m away from our apartments. The distance to the next sled run is 500m only.\n\nOur two fully equipped apartments in Uderns measure about 100m2 and are suited for 5-8 persons. They all have a bedroom, a bathroom, a fully furnished eat-in kitchen, a living room with sofa, satellite TV, free Wifi and a generous balcony. Of course there is a ski room with ski boot dryer available in the cellar. On request, we offer a daily, fresh roll service to you. \n\nIn summer, Uderns offers numerous hiking trails and cycling tours and you can start directly from our house. For golf-enthusiasts there is also a newly opened golf course that you reach in less than 5 minutes on foot.  \nWhether paragliding, climbing or riding - nothing is left to be desired when spending an active vacation in Uderns - we are pleased to assist you with its organisation. \nTherme Fügen is only 5 minutes away and offers a wonderful spa area with sauna world. \n\nIn winter, our guests enjoy the fantastic skiing areas of Spieljoch, 5 minutes away, and Hochfügen - Hochzillertal, 10 minutes by car. You can also reach both skiing resorts with the free ski bus that runs several times per day. \n\nWe look forward to welcoming you here with us in Uderns in the Zillertal. \nYour hosts, the Abendstein family \n"
    },
    {
      "@language": "en",
      "@value": "final cleaning EUR 55,00"
    }
  ],
  "image": [
    {
      "@type": "ImageObject",
      "url": "http://resc.deskline.net/images/ZIL/1/6b4988fb-0845-48d5-81f4-39d15aabc5ad/99/image.jpg",
      "caption": [
        {
          "@language": "de",
          "@value": "Hausansicht Winter"
        },
        {
          "@language": "en",
          "@value": "Hausansicht Winter"
        }
      ]
    },
    {
      "@type": "ImageObject",
      "url": "http://resc.deskline.net/images/ZIL/1/028752c6-d398-4263-b8ee-0789a7693c36/99/image.jpg",
      "caption": [
        {
          "@language": "de",
          "@value": "Hausansicht Sommer"
        },
        {
          "@language": "en",
          "@value": "Hausansicht Sommer"
        }
      ]
    },
    {
      "@type": "ImageObject",
      "url": "http://resc.deskline.net/images/ZIL/1/3b342880-2a4b-444a-a26f-938d2aa6b013/99/image.jpg",
      "caption": [
        {
          "@language": "de",
          "@value": "Balkon"
        },
        {
          "@language": "en",
          "@value": "Balkon"
        }
      ]
    },
    {
      "@type": "ImageObject",
      "url": "http://resc.deskline.net/images/ZIL/1/efe7b67d-64b1-4dc9-9100-3ac56564d48f/99/image.jpg",
      "caption": [
        {
          "@language": "de",
          "@value": "Garten"
        },
        {
          "@language": "en",
          "@value": "Garten"
        }
      ]
    },
    {
      "@type": "ImageObject",
      "url": "http://resc.deskline.net/images/ZIL/1/9f96c8b8-cb25-4e76-b7a4-737c7212791e/99/image.jpg",
      "caption": [
        {
          "@language": "de",
          "@value": "Wohnzimmer"
        },
        {
          "@language": "en",
          "@value": "Wohnzimmer"
        }
      ]
    },
    {
      "@type": "ImageObject",
      "url": "http://resc.deskline.net/images/ZIL/1/349ce51a-4557-43cd-956f-344c16a8e4c7/99/image.jpg",
      "caption": [
        {
          "@language": "de",
          "@value": "Schlafzimmer"
        },
        {
          "@language": "en",
          "@value": "Schlafzimmer"
        }
      ]
    }
  ],
  "geo": {
    "@type": "GeoCoordinates",
    "latitude": "47.325743227949765",
    "longitude": "11.862227618694305"
  },
  "currenciesAccepted": "EUR",
  "makesOffer": [
    {
      "@type": "Offer",
      "name": [
        {
          "@language": "de",
          "@value": "Appartement/Fewo, Bad, WC"
        },
        {
          "@language": "en",
          "@value": "Apartment, bath, toilet"
        }
      ],
      "description": [
        {
          "@language": "de",
          "@value": "Die Wohnung im 2. Stock ist ca. 95m² groß. Dieses Appartement ist aufgeteilt in ein Doppelzimmer und ein Zimmer mit 2 Einzelbetten, einem Dreibettzimmer jeweils mit Dusche und WC, einer kleinen Küche und einem separaten Wohnzimmer mit Essecke, Sofa, Radio und SAT-TV. Die Küche ist mit 4 Kochplatten, Backrohr, Kühlschrank mit Gefrierfach, Mikrowelle, Wasserkocher, Sandwich-Toaster, Kaffeemaschine, und Spühlmaschine ausgestattet.\n"
        },
        {
          "@language": "en",
          "@value": "Appartment on the 2nd floor, approx 95 qm, \nThis appartment offers 1 double room and one room with 2 seperate beds and 1 triple room each with shower/toilet, small kitchen and separate livingroom with dining corner, sofa, radio and satelite TV. The kitchen is completly furnished with stove with oven, fridge, micro wave, water boiler, sandwich-toaster, coffee-maker, and dish washer"
        }
      ],
      "availability": "http://schema.org/InStock",
      "itemOffered": [
        {
          "@type": [
            "Apartment",
            "Product"
          ],
          "name": [
            {
              "@language": "de",
              "@value": "Wohnung 2"
            },
            {
              "@language": "en",
              "@value": "ap/comb.liv.-bedroom/3 bedroom/bath,wc"
            }
          ],
          "numberOfRooms": "5.0",
          "occupancy": {
            "@type": "QuantitativeValue",
            "maxValue": "7",
            "minValue": "2"
          }
        }
      ],
      "priceSpecification": [
        {
          "@type": "PriceSpecification",
          "description": "Pax 2",
          "minPrice": "53.00",
          "maxPrice": "170.00",
          "priceCurrency": "EUR"
        },
        {
          "@type": "PriceSpecification",
          "description": "Pax 3",
          "minPrice": "53.00",
          "maxPrice": "170.00",
          "priceCurrency": "EUR"
        },
        {
          "@type": "PriceSpecification",
          "description": "Pax 4",
          "minPrice": "53.00",
          "maxPrice": "170.00",
          "priceCurrency": "EUR"
        },
        {
          "@type": "PriceSpecification",
          "description": "Pax 5",
          "minPrice": "53.00",
          "maxPrice": "170.00",
          "priceCurrency": "EUR"
        },
        {
          "@type": "PriceSpecification",
          "description": "Pax 6",
          "minPrice": "53.00",
          "maxPrice": "170.00",
          "priceCurrency": "EUR"
        },
        {
          "@type": "PriceSpecification",
          "description": "Pax 7",
          "minPrice": "66.50",
          "maxPrice": "170.00",
          "priceCurrency": "EUR"
        }
      ]
    },
    {
      "@type": "Offer",
      "name": [
        {
          "@language": "de",
          "@value": "Appartement/Fewo, Bad, WC"
        },
        {
          "@language": "en",
          "@value": "Apartment, bath, toilet"
        }
      ],
      "description": [
        {
          "@language": "de",
          "@value": "Die Wohnung liegt im 1. Stock und ist 100 m² groß. 2 Dreibettzimmer, 1 Zimmer mit 2 Einzelbetten, 2x Dusche/WC, 1x Bad, 1 WC, Wohnküche, große Diele, umlaufender Balkon, Sitzeckbank, die Wohnküche ist mit 4 Kochplatten, Backrohr, Kühlschrank, Mikrowelle, Kaffeemaschine, Wasserkocher, Sandwich-Toaster, Spülmaschine, Sat-TV, Radio ausgestattet, angrenzendes kleines Wohnzimmer mit Sofa, Sitzecke, Sat-TV.\nIntenet ( Welan) gratis"
        },
        {
          "@language": "en",
          "@value": "Appartement at the first floor (100 m²). 2 triple rooms, 1 room with 2 single beds, 2x shower/toilet, 1x bath room, 1 toilet, living-kitchen (oven, fridge, microwave, coffee maker, electric kettle, sandwich-toaster, dish washer, satellite tv, radio, small living room with sofa, lounge and satellite tv."
        }
      ],
      "availability": "http://schema.org/InStock",
      "itemOffered": [
        {
          "@type": [
            "Apartment",
            "Product"
          ],
          "name": [
            {
              "@language": "de",
              "@value": "Wohnung 1"
            },
            {
              "@language": "en",
              "@value": "ap/comb.liv.-bedroom/3 bedroom/bath,wc"
            }
          ],
          "numberOfRooms": "5.0",
          "occupancy": {
            "@type": "QuantitativeValue",
            "maxValue": "8",
            "minValue": "3"
          }
        }
      ],
      "priceSpecification": [
        {
          "@type": "PriceSpecification",
          "description": "Pax 3",
          "minPrice": "53.00",
          "maxPrice": "170.00",
          "priceCurrency": "EUR"
        },
        {
          "@type": "PriceSpecification",
          "description": "Pax 4",
          "minPrice": "53.00",
          "maxPrice": "170.00",
          "priceCurrency": "EUR"
        },
        {
          "@type": "PriceSpecification",
          "description": "Pax 5",
          "minPrice": "53.00",
          "maxPrice": "170.00",
          "priceCurrency": "EUR"
        },
        {
          "@type": "PriceSpecification",
          "description": "Pax 6",
          "minPrice": "53.00",
          "maxPrice": "170.00",
          "priceCurrency": "EUR"
        },
        {
          "@type": "PriceSpecification",
          "description": "Pax 7",
          "minPrice": "53.00",
          "maxPrice": "170.00",
          "priceCurrency": "EUR"
        },
        {
          "@type": "PriceSpecification",
          "description": "Pax 8",
          "minPrice": "95.00",
          "maxPrice": "170.00",
          "priceCurrency": "EUR"
        }
      ]
    }
  ]
}